ROC:           BPix_BpO_SEC6_LYR4_LDR22F_MOD1_ROC0
Vdd:           6
Vana:          84
Vsh:           30
Vcomp:         12
VwllPr:        150
VwllSh:        150
VHldDel:       250
Vtrim:         106
VcThr:         99
VIbias_bus:    30
PHOffset:      167
Vcomp_ADC:     50
PHScale:       81
VIColOr:       100
Vcal:          200
CalDel:        147
TempRange:     0
WBC:           98
ChipContReg:   0
Readback:      1
ROC:           BPix_BpO_SEC6_LYR4_LDR22F_MOD1_ROC1
Vdd:           6
Vana:          66
Vsh:           30
Vcomp:         12
VwllPr:        150
VwllSh:        150
VHldDel:       250
Vtrim:         89
VcThr:         81
VIbias_bus:    30
PHOffset:      157
Vcomp_ADC:     50
PHScale:       90
VIColOr:       100
Vcal:          200
CalDel:        143
TempRange:     0
WBC:           98
ChipContReg:   0
Readback:      1
ROC:           BPix_BpO_SEC6_LYR4_LDR22F_MOD1_ROC2
Vdd:           6
Vana:          72
Vsh:           30
Vcomp:         12
VwllPr:        150
VwllSh:        150
VHldDel:       250
Vtrim:         109
VcThr:         96
VIbias_bus:    30
PHOffset:      167
Vcomp_ADC:     50
PHScale:       79
VIColOr:       100
Vcal:          200
CalDel:        138
TempRange:     0
WBC:           98
ChipContReg:   0
Readback:      1
ROC:           BPix_BpO_SEC6_LYR4_LDR22F_MOD1_ROC3
Vdd:           6
Vana:          85
Vsh:           30
Vcomp:         12
VwllPr:        150
VwllSh:        150
VHldDel:       250
Vtrim:         100
VcThr:         99
VIbias_bus:    30
PHOffset:      161
Vcomp_ADC:     50
PHScale:       82
VIColOr:       100
Vcal:          200
CalDel:        163
TempRange:     0
WBC:           98
ChipContReg:   0
Readback:      1
ROC:           BPix_BpO_SEC6_LYR4_LDR22F_MOD1_ROC4
Vdd:           6
Vana:          70
Vsh:           30
Vcomp:         12
VwllPr:        150
VwllSh:        150
VHldDel:       250
Vtrim:         92
VcThr:         79
VIbias_bus:    30
PHOffset:      144
Vcomp_ADC:     50
PHScale:       80
VIColOr:       100
Vcal:          200
CalDel:        150
TempRange:     0
WBC:           98
ChipContReg:   0
Readback:      1
ROC:           BPix_BpO_SEC6_LYR4_LDR22F_MOD1_ROC5
Vdd:           6
Vana:          74
Vsh:           30
Vcomp:         12
VwllPr:        150
VwllSh:        150
VHldDel:       250
Vtrim:         104
VcThr:         101
VIbias_bus:    30
PHOffset:      176
Vcomp_ADC:     50
PHScale:       78
VIColOr:       100
Vcal:          200
CalDel:        148
TempRange:     0
WBC:           98
ChipContReg:   0
Readback:      1
ROC:           BPix_BpO_SEC6_LYR4_LDR22F_MOD1_ROC6
Vdd:           6
Vana:          75
Vsh:           30
Vcomp:         12
VwllPr:        150
VwllSh:        150
VHldDel:       250
Vtrim:         103
VcThr:         91
VIbias_bus:    30
PHOffset:      157
Vcomp_ADC:     50
PHScale:       84
VIColOr:       100
Vcal:          200
CalDel:        144
TempRange:     0
WBC:           98
ChipContReg:   0
Readback:      1
ROC:           BPix_BpO_SEC6_LYR4_LDR22F_MOD1_ROC7
Vdd:           6
Vana:          80
Vsh:           30
Vcomp:         12
VwllPr:        150
VwllSh:        150
VHldDel:       250
Vtrim:         108
VcThr:         91
VIbias_bus:    30
PHOffset:      170
Vcomp_ADC:     50
PHScale:       80
VIColOr:       100
Vcal:          200
CalDel:        162
TempRange:     0
WBC:           98
ChipContReg:   0
Readback:      1
ROC:           BPix_BpO_SEC6_LYR4_LDR22F_MOD1_ROC8
Vdd:           6
Vana:          75
Vsh:           30
Vcomp:         12
VwllPr:        150
VwllSh:        150
VHldDel:       250
Vtrim:         106
VcThr:         89
VIbias_bus:    30
PHOffset:      162
Vcomp_ADC:     50
PHScale:       80
VIColOr:       100
Vcal:          200
CalDel:        161
TempRange:     0
WBC:           98
ChipContReg:   0
Readback:      1
ROC:           BPix_BpO_SEC6_LYR4_LDR22F_MOD1_ROC9
Vdd:           6
Vana:          80
Vsh:           30
Vcomp:         12
VwllPr:        150
VwllSh:        150
VHldDel:       250
Vtrim:         108
VcThr:         96
VIbias_bus:    30
PHOffset:      161
Vcomp_ADC:     50
PHScale:       85
VIColOr:       100
Vcal:          200
CalDel:        158
TempRange:     0
WBC:           98
ChipContReg:   0
Readback:      1
ROC:           BPix_BpO_SEC6_LYR4_LDR22F_MOD1_ROC10
Vdd:           6
Vana:          66
Vsh:           30
Vcomp:         12
VwllPr:        150
VwllSh:        150
VHldDel:       250
Vtrim:         127
VcThr:         97
VIbias_bus:    30
PHOffset:      156
Vcomp_ADC:     50
PHScale:       85
VIColOr:       100
Vcal:          200
CalDel:        157
TempRange:     0
WBC:           98
ChipContReg:   0
Readback:      1
ROC:           BPix_BpO_SEC6_LYR4_LDR22F_MOD1_ROC11
Vdd:           6
Vana:          80
Vsh:           30
Vcomp:         12
VwllPr:        150
VwllSh:        150
VHldDel:       250
Vtrim:         116
VcThr:         97
VIbias_bus:    30
PHOffset:      148
Vcomp_ADC:     50
PHScale:       92
VIColOr:       100
Vcal:          200
CalDel:        145
TempRange:     0
WBC:           98
ChipContReg:   0
Readback:      1
ROC:           BPix_BpO_SEC6_LYR4_LDR22F_MOD1_ROC12
Vdd:           6
Vana:          75
Vsh:           30
Vcomp:         12
VwllPr:        150
VwllSh:        150
VHldDel:       250
Vtrim:         114
VcThr:         98
VIbias_bus:    30
PHOffset:      176
Vcomp_ADC:     50
PHScale:       87
VIColOr:       100
Vcal:          200
CalDel:        135
TempRange:     0
WBC:           98
ChipContReg:   0
Readback:      1
ROC:           BPix_BpO_SEC6_LYR4_LDR22F_MOD1_ROC13
Vdd:           6
Vana:          67
Vsh:           30
Vcomp:         12
VwllPr:        150
VwllSh:        150
VHldDel:       250
Vtrim:         117
VcThr:         85
VIbias_bus:    30
PHOffset:      162
Vcomp_ADC:     50
PHScale:       96
VIColOr:       100
Vcal:          200
CalDel:        164
TempRange:     0
WBC:           98
ChipContReg:   0
Readback:      1
ROC:           BPix_BpO_SEC6_LYR4_LDR22F_MOD1_ROC14
Vdd:           6
Vana:          80
Vsh:           30
Vcomp:         12
VwllPr:        150
VwllSh:        150
VHldDel:       250
Vtrim:         102
VcThr:         94
VIbias_bus:    30
PHOffset:      157
Vcomp_ADC:     50
PHScale:       87
VIColOr:       100
Vcal:          200
CalDel:        153
TempRange:     0
WBC:           98
ChipContReg:   0
Readback:      1
ROC:           BPix_BpO_SEC6_LYR4_LDR22F_MOD1_ROC15
Vdd:           6
Vana:          70
Vsh:           30
Vcomp:         12
VwllPr:        150
VwllSh:        150
VHldDel:       250
Vtrim:         95
VcThr:         92
VIbias_bus:    30
PHOffset:      177
Vcomp_ADC:     50
PHScale:       71
VIColOr:       100
Vcal:          200
CalDel:        145
TempRange:     0
WBC:           98
ChipContReg:   0
Readback:      1
