ROC:           BPix_BmI_SEC8_LYR4_LDR30F_MOD2_ROC0
Vdd:           6
Vana:          91
Vsh:           30
Vcomp:         12
VwllPr:        150
VwllSh:        150
VHldDel:       250
Vtrim:         149
VcThr:         105
VIbias_bus:    30
PHOffset:      169
Vcomp_ADC:     50
PHScale:       69
VIColOr:       100
Vcal:          200
CalDel:        124
TempRange:     0
WBC:           98
ChipContReg:   0
Readback:      1
ROC:           BPix_BmI_SEC8_LYR4_LDR30F_MOD2_ROC1
Vdd:           6
Vana:          83
Vsh:           30
Vcomp:         12
VwllPr:        150
VwllSh:        150
VHldDel:       250
Vtrim:         162
VcThr:         99
VIbias_bus:    30
PHOffset:      158
Vcomp_ADC:     50
PHScale:       84
VIColOr:       100
Vcal:          200
CalDel:        143
TempRange:     0
WBC:           98
ChipContReg:   0
Readback:      1
ROC:           BPix_BmI_SEC8_LYR4_LDR30F_MOD2_ROC2
Vdd:           6
Vana:          95
Vsh:           30
Vcomp:         12
VwllPr:        150
VwllSh:        150
VHldDel:       250
Vtrim:         168
VcThr:         109
VIbias_bus:    30
PHOffset:      144
Vcomp_ADC:     50
PHScale:       78
VIColOr:       100
Vcal:          200
CalDel:        132
TempRange:     0
WBC:           98
ChipContReg:   0
Readback:      1
ROC:           BPix_BmI_SEC8_LYR4_LDR30F_MOD2_ROC3
Vdd:           6
Vana:          98
Vsh:           30
Vcomp:         12
VwllPr:        150
VwllSh:        150
VHldDel:       250
Vtrim:         159
VcThr:         103
VIbias_bus:    30
PHOffset:      148
Vcomp_ADC:     50
PHScale:       73
VIColOr:       100
Vcal:          200
CalDel:        121
TempRange:     0
WBC:           98
ChipContReg:   0
Readback:      1
ROC:           BPix_BmI_SEC8_LYR4_LDR30F_MOD2_ROC4
Vdd:           6
Vana:          91
Vsh:           30
Vcomp:         12
VwllPr:        150
VwllSh:        150
VHldDel:       250
Vtrim:         170
VcThr:         108
VIbias_bus:    30
PHOffset:      176
Vcomp_ADC:     50
PHScale:       69
VIColOr:       100
Vcal:          200
CalDel:        129
TempRange:     0
WBC:           98
ChipContReg:   0
Readback:      1
ROC:           BPix_BmI_SEC8_LYR4_LDR30F_MOD2_ROC5
Vdd:           6
Vana:          110
Vsh:           30
Vcomp:         12
VwllPr:        150
VwllSh:        150
VHldDel:       250
Vtrim:         117
VcThr:         107
VIbias_bus:    30
PHOffset:      155
Vcomp_ADC:     50
PHScale:       76
VIColOr:       100
Vcal:          200
CalDel:        147
TempRange:     0
WBC:           98
ChipContReg:   0
Readback:      1
ROC:           BPix_BmI_SEC8_LYR4_LDR30F_MOD2_ROC6
Vdd:           6
Vana:          92
Vsh:           30
Vcomp:         12
VwllPr:        150
VwllSh:        150
VHldDel:       250
Vtrim:         110
VcThr:         104
VIbias_bus:    30
PHOffset:      149
Vcomp_ADC:     50
PHScale:       68
VIColOr:       100
Vcal:          200
CalDel:        158
TempRange:     0
WBC:           98
ChipContReg:   0
Readback:      1
ROC:           BPix_BmI_SEC8_LYR4_LDR30F_MOD2_ROC7
Vdd:           6
Vana:          86
Vsh:           30
Vcomp:         12
VwllPr:        150
VwllSh:        150
VHldDel:       250
Vtrim:         109
VcThr:         112
VIbias_bus:    30
PHOffset:      158
Vcomp_ADC:     50
PHScale:       70
VIColOr:       100
Vcal:          200
CalDel:        136
TempRange:     0
WBC:           98
ChipContReg:   0
Readback:      1
ROC:           BPix_BmI_SEC8_LYR4_LDR30F_MOD2_ROC8
Vdd:           6
Vana:          88
Vsh:           30
Vcomp:         12
VwllPr:        150
VwllSh:        150
VHldDel:       250
Vtrim:         116
VcThr:         104
VIbias_bus:    30
PHOffset:      162
Vcomp_ADC:     50
PHScale:       79
VIColOr:       100
Vcal:          200
CalDel:        143
TempRange:     0
WBC:           98
ChipContReg:   0
Readback:      1
ROC:           BPix_BmI_SEC8_LYR4_LDR30F_MOD2_ROC9
Vdd:           6
Vana:          77
Vsh:           30
Vcomp:         12
VwllPr:        150
VwllSh:        150
VHldDel:       250
Vtrim:         107
VcThr:         107
VIbias_bus:    30
PHOffset:      161
Vcomp_ADC:     50
PHScale:       77
VIColOr:       100
Vcal:          200
CalDel:        165
TempRange:     0
WBC:           98
ChipContReg:   0
Readback:      1
ROC:           BPix_BmI_SEC8_LYR4_LDR30F_MOD2_ROC10
Vdd:           6
Vana:          95
Vsh:           30
Vcomp:         12
VwllPr:        150
VwllSh:        150
VHldDel:       250
Vtrim:         119
VcThr:         97
VIbias_bus:    30
PHOffset:      157
Vcomp_ADC:     50
PHScale:       79
VIColOr:       100
Vcal:          200
CalDel:        170
TempRange:     0
WBC:           98
ChipContReg:   0
Readback:      1
ROC:           BPix_BmI_SEC8_LYR4_LDR30F_MOD2_ROC11
Vdd:           6
Vana:          97
Vsh:           30
Vcomp:         12
VwllPr:        150
VwllSh:        150
VHldDel:       250
Vtrim:         97
VcThr:         94
VIbias_bus:    30
PHOffset:      174
Vcomp_ADC:     50
PHScale:       82
VIColOr:       100
Vcal:          200
CalDel:        170
TempRange:     0
WBC:           98
ChipContReg:   0
Readback:      1
ROC:           BPix_BmI_SEC8_LYR4_LDR30F_MOD2_ROC12
Vdd:           6
Vana:          86
Vsh:           30
Vcomp:         12
VwllPr:        150
VwllSh:        150
VHldDel:       250
Vtrim:         113
VcThr:         102
VIbias_bus:    30
PHOffset:      172
Vcomp_ADC:     50
PHScale:       82
VIColOr:       100
Vcal:          200
CalDel:        173
TempRange:     0
WBC:           98
ChipContReg:   0
Readback:      1
ROC:           BPix_BmI_SEC8_LYR4_LDR30F_MOD2_ROC13
Vdd:           6
Vana:          82
Vsh:           30
Vcomp:         12
VwllPr:        150
VwllSh:        150
VHldDel:       250
Vtrim:         116
VcThr:         105
VIbias_bus:    30
PHOffset:      169
Vcomp_ADC:     50
PHScale:       80
VIColOr:       100
Vcal:          200
CalDel:        173
TempRange:     0
WBC:           98
ChipContReg:   0
Readback:      1
ROC:           BPix_BmI_SEC8_LYR4_LDR30F_MOD2_ROC14
Vdd:           6
Vana:          79
Vsh:           30
Vcomp:         12
VwllPr:        150
VwllSh:        150
VHldDel:       250
Vtrim:         111
VcThr:         94
VIbias_bus:    30
PHOffset:      142
Vcomp_ADC:     50
PHScale:       92
VIColOr:       100
Vcal:          200
CalDel:        158
TempRange:     0
WBC:           98
ChipContReg:   0
Readback:      1
ROC:           BPix_BmI_SEC8_LYR4_LDR30F_MOD2_ROC15
Vdd:           6
Vana:          83
Vsh:           30
Vcomp:         12
VwllPr:        150
VwllSh:        150
VHldDel:       250
Vtrim:         97
VcThr:         101
VIbias_bus:    30
PHOffset:      144
Vcomp_ADC:     50
PHScale:       84
VIColOr:       100
Vcal:          200
CalDel:        159
TempRange:     0
WBC:           98
ChipContReg:   0
Readback:      1
