ROC:           BPix_BpO_SEC6_LYR3_LDR17F_MOD1_ROC0
Vdd:           6
Vana:          79
Vsh:           30
Vcomp:         12
VwllPr:        150
VwllSh:        150
VHldDel:       250
Vtrim:         147
VcThr:         107
VIbias_bus:    30
PHOffset:      179
Vcomp_ADC:     50
PHScale:       79
VIColOr:       100
Vcal:          255
CalDel:        123
TempRange:     0
WBC:           164
ChipContReg:   0
Readback:      1
ROC:           BPix_BpO_SEC6_LYR3_LDR17F_MOD1_ROC1
Vdd:           6
Vana:          79
Vsh:           30
Vcomp:         12
VwllPr:        150
VwllSh:        150
VHldDel:       250
Vtrim:         98
VcThr:         86
VIbias_bus:    30
PHOffset:      143
Vcomp_ADC:     50
PHScale:       91
VIColOr:       100
Vcal:          255
CalDel:        178
TempRange:     0
WBC:           164
ChipContReg:   0
Readback:      1
ROC:           BPix_BpO_SEC6_LYR3_LDR17F_MOD1_ROC2
Vdd:           6
Vana:          83
Vsh:           30
Vcomp:         12
VwllPr:        150
VwllSh:        150
VHldDel:       250
Vtrim:         105
VcThr:         97
VIbias_bus:    30
PHOffset:      161
Vcomp_ADC:     50
PHScale:       75
VIColOr:       100
Vcal:          255
CalDel:        159
TempRange:     0
WBC:           164
ChipContReg:   0
Readback:      1
ROC:           BPix_BpO_SEC6_LYR3_LDR17F_MOD1_ROC3
Vdd:           6
Vana:          78
Vsh:           30
Vcomp:         12
VwllPr:        150
VwllSh:        150
VHldDel:       250
Vtrim:         96
VcThr:         94
VIbias_bus:    30
PHOffset:      164
Vcomp_ADC:     50
PHScale:       78
VIColOr:       100
Vcal:          255
CalDel:        142
TempRange:     0
WBC:           164
ChipContReg:   0
Readback:      1
ROC:           BPix_BpO_SEC6_LYR3_LDR17F_MOD1_ROC4
Vdd:           6
Vana:          78
Vsh:           30
Vcomp:         12
VwllPr:        150
VwllSh:        150
VHldDel:       250
Vtrim:         130
VcThr:         103
VIbias_bus:    30
PHOffset:      169
Vcomp_ADC:     50
PHScale:       76
VIColOr:       100
Vcal:          255
CalDel:        151
TempRange:     0
WBC:           164
ChipContReg:   0
Readback:      1
ROC:           BPix_BpO_SEC6_LYR3_LDR17F_MOD1_ROC5
Vdd:           6
Vana:          80
Vsh:           30
Vcomp:         12
VwllPr:        150
VwllSh:        150
VHldDel:       250
Vtrim:         100
VcThr:         84
VIbias_bus:    30
PHOffset:      155
Vcomp_ADC:     50
PHScale:       82
VIColOr:       100
Vcal:          255
CalDel:        149
TempRange:     0
WBC:           164
ChipContReg:   0
Readback:      1
ROC:           BPix_BpO_SEC6_LYR3_LDR17F_MOD1_ROC6
Vdd:           6
Vana:          78
Vsh:           30
Vcomp:         12
VwllPr:        150
VwllSh:        150
VHldDel:       250
Vtrim:         101
VcThr:         92
VIbias_bus:    30
PHOffset:      153
Vcomp_ADC:     50
PHScale:       95
VIColOr:       100
Vcal:          255
CalDel:        128
TempRange:     0
WBC:           164
ChipContReg:   0
Readback:      1
ROC:           BPix_BpO_SEC6_LYR3_LDR17F_MOD1_ROC7
Vdd:           6
Vana:          78
Vsh:           30
Vcomp:         12
VwllPr:        150
VwllSh:        150
VHldDel:       250
Vtrim:         90
VcThr:         101
VIbias_bus:    30
PHOffset:      164
Vcomp_ADC:     50
PHScale:       82
VIColOr:       100
Vcal:          255
CalDel:        140
TempRange:     0
WBC:           164
ChipContReg:   0
Readback:      1
ROC:           BPix_BpO_SEC6_LYR3_LDR17F_MOD1_ROC8
Vdd:           6
Vana:          78
Vsh:           30
Vcomp:         12
VwllPr:        150
VwllSh:        150
VHldDel:       250
Vtrim:         110
VcThr:         88
VIbias_bus:    30
PHOffset:      150
Vcomp_ADC:     50
PHScale:       92
VIColOr:       100
Vcal:          255
CalDel:        145
TempRange:     0
WBC:           164
ChipContReg:   0
Readback:      1
ROC:           BPix_BpO_SEC6_LYR3_LDR17F_MOD1_ROC9
Vdd:           6
Vana:          83
Vsh:           30
Vcomp:         12
VwllPr:        150
VwllSh:        150
VHldDel:       250
Vtrim:         103
VcThr:         95
VIbias_bus:    30
PHOffset:      174
Vcomp_ADC:     50
PHScale:       79
VIColOr:       100
Vcal:          255
CalDel:        141
TempRange:     0
WBC:           164
ChipContReg:   0
Readback:      1
ROC:           BPix_BpO_SEC6_LYR3_LDR17F_MOD1_ROC10
Vdd:           6
Vana:          78
Vsh:           30
Vcomp:         12
VwllPr:        150
VwllSh:        150
VHldDel:       250
Vtrim:         94
VcThr:         84
VIbias_bus:    30
PHOffset:      149
Vcomp_ADC:     50
PHScale:       81
VIColOr:       100
Vcal:          255
CalDel:        181
TempRange:     0
WBC:           164
ChipContReg:   0
Readback:      1
ROC:           BPix_BpO_SEC6_LYR3_LDR17F_MOD1_ROC11
Vdd:           6
Vana:          79
Vsh:           30
Vcomp:         12
VwllPr:        150
VwllSh:        150
VHldDel:       250
Vtrim:         104
VcThr:         89
VIbias_bus:    30
PHOffset:      164
Vcomp_ADC:     50
PHScale:       84
VIColOr:       100
Vcal:          255
CalDel:        133
TempRange:     0
WBC:           164
ChipContReg:   0
Readback:      1
ROC:           BPix_BpO_SEC6_LYR3_LDR17F_MOD1_ROC12
Vdd:           6
Vana:          89
Vsh:           30
Vcomp:         12
VwllPr:        150
VwllSh:        150
VHldDel:       250
Vtrim:         122
VcThr:         97
VIbias_bus:    30
PHOffset:      173
Vcomp_ADC:     50
PHScale:       80
VIColOr:       100
Vcal:          255
CalDel:        122
TempRange:     0
WBC:           164
ChipContReg:   0
Readback:      1
ROC:           BPix_BpO_SEC6_LYR3_LDR17F_MOD1_ROC13
Vdd:           6
Vana:          78
Vsh:           30
Vcomp:         12
VwllPr:        150
VwllSh:        150
VHldDel:       250
Vtrim:         108
VcThr:         97
VIbias_bus:    30
PHOffset:      164
Vcomp_ADC:     50
PHScale:       83
VIColOr:       100
Vcal:          255
CalDel:        138
TempRange:     0
WBC:           164
ChipContReg:   0
Readback:      1
ROC:           BPix_BpO_SEC6_LYR3_LDR17F_MOD1_ROC14
Vdd:           6
Vana:          75
Vsh:           30
Vcomp:         12
VwllPr:        150
VwllSh:        150
VHldDel:       250
Vtrim:         82
VcThr:         85
VIbias_bus:    30
PHOffset:      155
Vcomp_ADC:     50
PHScale:       85
VIColOr:       100
Vcal:          255
CalDel:        163
TempRange:     0
WBC:           164
ChipContReg:   0
Readback:      1
ROC:           BPix_BpO_SEC6_LYR3_LDR17F_MOD1_ROC15
Vdd:           6
Vana:          78
Vsh:           30
Vcomp:         12
VwllPr:        150
VwllSh:        150
VHldDel:       250
Vtrim:         116
VcThr:         89
VIbias_bus:    30
PHOffset:      174
Vcomp_ADC:     50
PHScale:       77
VIColOr:       100
Vcal:          255
CalDel:        158
TempRange:     0
WBC:           164
ChipContReg:   0
Readback:      1
