ROC:           BPix_BpO_SEC7_LYR1_LDR5F_MOD1_ROC0
Vdd:           6
Vana:          68
Vsh:           8
Vcomp:         12
VwllPr:        150
VwllSh:        150
VHldDel:       250
Vtrim:         99
VcThr:         60
VIbias_bus:    250
PHOffset:      161
Vcomp_ADC:     50
PHScale:       70
VIColOr:       100
Vcal:          200
CalDel:        154
TempRange:     0
WBC:           164
ChipContReg:   16
Readback:      1
ROC:           BPix_BpO_SEC7_LYR1_LDR5F_MOD1_ROC1
Vdd:           6
Vana:          60
Vsh:           8
Vcomp:         12
VwllPr:        150
VwllSh:        150
VHldDel:       250
Vtrim:         112
VcThr:         58
VIbias_bus:    250
PHOffset:      159
Vcomp_ADC:     50
PHScale:       70
VIColOr:       100
Vcal:          200
CalDel:        174
TempRange:     0
WBC:           164
ChipContReg:   16
Readback:      1
ROC:           BPix_BpO_SEC7_LYR1_LDR5F_MOD1_ROC2
Vdd:           6
Vana:          79
Vsh:           8
Vcomp:         12
VwllPr:        150
VwllSh:        150
VHldDel:       250
Vtrim:         88
VcThr:         45
VIbias_bus:    250
PHOffset:      138
Vcomp_ADC:     50
PHScale:       70
VIColOr:       100
Vcal:          200
CalDel:        154
TempRange:     0
WBC:           164
ChipContReg:   16
Readback:      1
ROC:           BPix_BpO_SEC7_LYR1_LDR5F_MOD1_ROC3
Vdd:           6
Vana:          71
Vsh:           8
Vcomp:         12
VwllPr:        150
VwllSh:        150
VHldDel:       250
Vtrim:         102
VcThr:         48
VIbias_bus:    250
PHOffset:      173
Vcomp_ADC:     50
PHScale:       70
VIColOr:       100
Vcal:          200
CalDel:        155
TempRange:     0
WBC:           164
ChipContReg:   16
Readback:      1
ROC:           BPix_BpO_SEC7_LYR1_LDR5F_MOD1_ROC12
Vdd:           6
Vana:          74
Vsh:           8
Vcomp:         12
VwllPr:        150
VwllSh:        150
VHldDel:       250
Vtrim:         98
VcThr:         50
VIbias_bus:    250
PHOffset:      173
Vcomp_ADC:     50
PHScale:       70
VIColOr:       100
Vcal:          200
CalDel:        190
TempRange:     0
WBC:           164
ChipContReg:   16
Readback:      1
ROC:           BPix_BpO_SEC7_LYR1_LDR5F_MOD1_ROC13
Vdd:           6
Vana:          74
Vsh:           8
Vcomp:         12
VwllPr:        150
VwllSh:        150
VHldDel:       250
Vtrim:         87
VcThr:         48
VIbias_bus:    250
PHOffset:      160
Vcomp_ADC:     50
PHScale:       70
VIColOr:       100
Vcal:          200
CalDel:        186
TempRange:     0
WBC:           164
ChipContReg:   16
Readback:      1
ROC:           BPix_BpO_SEC7_LYR1_LDR5F_MOD1_ROC14
Vdd:           6
Vana:          76
Vsh:           8
Vcomp:         12
VwllPr:        150
VwllSh:        150
VHldDel:       250
Vtrim:         79
VcThr:         46
VIbias_bus:    250
PHOffset:      166
Vcomp_ADC:     50
PHScale:       70
VIColOr:       100
Vcal:          200
CalDel:        175
TempRange:     0
WBC:           164
ChipContReg:   16
Readback:      1
ROC:           BPix_BpO_SEC7_LYR1_LDR5F_MOD1_ROC15
Vdd:           6
Vana:          76
Vsh:           8
Vcomp:         12
VwllPr:        150
VwllSh:        150
VHldDel:       250
Vtrim:         88
VcThr:         46
VIbias_bus:    250
PHOffset:      166
Vcomp_ADC:     50
PHScale:       70
VIColOr:       100
Vcal:          200
CalDel:        151
TempRange:     0
WBC:           164
ChipContReg:   16
Readback:      1
