ROC:           BPix_BmI_SEC6_LYR4_LDR23F_MOD1_ROC0
Vdd:           6
Vana:          82
Vsh:           30
Vcomp:         12
VwllPr:        150
VwllSh:        150
VHldDel:       250
Vtrim:         126
VcThr:         102
VIbias_bus:    30
PHOffset:      182
Vcomp_ADC:     50
PHScale:       86
VIColOr:       100
Vcal:          255
CalDel:        148
TempRange:     0
WBC:           164
ChipContReg:   0
Readback:      1
ROC:           BPix_BmI_SEC6_LYR4_LDR23F_MOD1_ROC1
Vdd:           6
Vana:          81
Vsh:           30
Vcomp:         12
VwllPr:        150
VwllSh:        150
VHldDel:       250
Vtrim:         144
VcThr:         108
VIbias_bus:    30
PHOffset:      185
Vcomp_ADC:     50
PHScale:       76
VIColOr:       100
Vcal:          255
CalDel:        139
TempRange:     0
WBC:           164
ChipContReg:   0
Readback:      1
ROC:           BPix_BmI_SEC6_LYR4_LDR23F_MOD1_ROC2
Vdd:           6
Vana:          84
Vsh:           30
Vcomp:         12
VwllPr:        150
VwllSh:        150
VHldDel:       250
Vtrim:         95
VcThr:         86
VIbias_bus:    30
PHOffset:      166
Vcomp_ADC:     50
PHScale:       79
VIColOr:       100
Vcal:          255
CalDel:        143
TempRange:     0
WBC:           164
ChipContReg:   0
Readback:      1
ROC:           BPix_BmI_SEC6_LYR4_LDR23F_MOD1_ROC3
Vdd:           6
Vana:          94
Vsh:           30
Vcomp:         12
VwllPr:        150
VwllSh:        150
VHldDel:       250
Vtrim:         103
VcThr:         102
VIbias_bus:    30
PHOffset:      173
Vcomp_ADC:     50
PHScale:       82
VIColOr:       100
Vcal:          255
CalDel:        142
TempRange:     0
WBC:           164
ChipContReg:   0
Readback:      1
ROC:           BPix_BmI_SEC6_LYR4_LDR23F_MOD1_ROC4
Vdd:           6
Vana:          92
Vsh:           30
Vcomp:         12
VwllPr:        150
VwllSh:        150
VHldDel:       250
Vtrim:         99
VcThr:         95
VIbias_bus:    30
PHOffset:      160
Vcomp_ADC:     50
PHScale:       85
VIColOr:       100
Vcal:          255
CalDel:        154
TempRange:     0
WBC:           164
ChipContReg:   0
Readback:      1
ROC:           BPix_BmI_SEC6_LYR4_LDR23F_MOD1_ROC5
Vdd:           6
Vana:          84
Vsh:           30
Vcomp:         12
VwllPr:        150
VwllSh:        150
VHldDel:       250
Vtrim:         84
VcThr:         100
VIbias_bus:    30
PHOffset:      152
Vcomp_ADC:     50
PHScale:       80
VIColOr:       100
Vcal:          255
CalDel:        157
TempRange:     0
WBC:           164
ChipContReg:   0
Readback:      1
ROC:           BPix_BmI_SEC6_LYR4_LDR23F_MOD1_ROC6
Vdd:           6
Vana:          87
Vsh:           30
Vcomp:         12
VwllPr:        150
VwllSh:        150
VHldDel:       250
Vtrim:         99
VcThr:         99
VIbias_bus:    30
PHOffset:      180
Vcomp_ADC:     50
PHScale:       74
VIColOr:       100
Vcal:          255
CalDel:        143
TempRange:     0
WBC:           164
ChipContReg:   0
Readback:      1
ROC:           BPix_BmI_SEC6_LYR4_LDR23F_MOD1_ROC7
Vdd:           6
Vana:          87
Vsh:           30
Vcomp:         12
VwllPr:        150
VwllSh:        150
VHldDel:       250
Vtrim:         96
VcThr:         88
VIbias_bus:    30
PHOffset:      170
Vcomp_ADC:     50
PHScale:       79
VIColOr:       100
Vcal:          255
CalDel:        153
TempRange:     0
WBC:           164
ChipContReg:   0
Readback:      1
ROC:           BPix_BmI_SEC6_LYR4_LDR23F_MOD1_ROC8
Vdd:           6
Vana:          81
Vsh:           30
Vcomp:         12
VwllPr:        150
VwllSh:        150
VHldDel:       250
Vtrim:         104
VcThr:         94
VIbias_bus:    30
PHOffset:      178
Vcomp_ADC:     50
PHScale:       71
VIColOr:       100
Vcal:          255
CalDel:        167
TempRange:     0
WBC:           164
ChipContReg:   0
Readback:      1
ROC:           BPix_BmI_SEC6_LYR4_LDR23F_MOD1_ROC9
Vdd:           6
Vana:          78
Vsh:           30
Vcomp:         12
VwllPr:        150
VwllSh:        150
VHldDel:       250
Vtrim:         86
VcThr:         84
VIbias_bus:    30
PHOffset:      152
Vcomp_ADC:     50
PHScale:       84
VIColOr:       100
Vcal:          255
CalDel:        155
TempRange:     0
WBC:           164
ChipContReg:   0
Readback:      1
ROC:           BPix_BmI_SEC6_LYR4_LDR23F_MOD1_ROC10
Vdd:           6
Vana:          79
Vsh:           30
Vcomp:         12
VwllPr:        150
VwllSh:        150
VHldDel:       250
Vtrim:         95
VcThr:         88
VIbias_bus:    30
PHOffset:      177
Vcomp_ADC:     50
PHScale:       86
VIColOr:       100
Vcal:          255
CalDel:        157
TempRange:     0
WBC:           164
ChipContReg:   0
Readback:      1
ROC:           BPix_BmI_SEC6_LYR4_LDR23F_MOD1_ROC11
Vdd:           6
Vana:          89
Vsh:           30
Vcomp:         12
VwllPr:        150
VwllSh:        150
VHldDel:       250
Vtrim:         104
VcThr:         97
VIbias_bus:    30
PHOffset:      183
Vcomp_ADC:     50
PHScale:       77
VIColOr:       100
Vcal:          255
CalDel:        144
TempRange:     0
WBC:           164
ChipContReg:   0
Readback:      1
ROC:           BPix_BmI_SEC6_LYR4_LDR23F_MOD1_ROC12
Vdd:           6
Vana:          80
Vsh:           30
Vcomp:         12
VwllPr:        150
VwllSh:        150
VHldDel:       250
Vtrim:         100
VcThr:         106
VIbias_bus:    30
PHOffset:      178
Vcomp_ADC:     50
PHScale:       74
VIColOr:       100
Vcal:          255
CalDel:        135
TempRange:     0
WBC:           164
ChipContReg:   0
Readback:      1
ROC:           BPix_BmI_SEC6_LYR4_LDR23F_MOD1_ROC13
Vdd:           6
Vana:          80
Vsh:           30
Vcomp:         12
VwllPr:        150
VwllSh:        150
VHldDel:       250
Vtrim:         117
VcThr:         104
VIbias_bus:    30
PHOffset:      159
Vcomp_ADC:     50
PHScale:       83
VIColOr:       100
Vcal:          255
CalDel:        148
TempRange:     0
WBC:           164
ChipContReg:   0
Readback:      1
ROC:           BPix_BmI_SEC6_LYR4_LDR23F_MOD1_ROC14
Vdd:           6
Vana:          77
Vsh:           30
Vcomp:         12
VwllPr:        150
VwllSh:        150
VHldDel:       250
Vtrim:         98
VcThr:         96
VIbias_bus:    30
PHOffset:      188
Vcomp_ADC:     50
PHScale:       79
VIColOr:       100
Vcal:          255
CalDel:        151
TempRange:     0
WBC:           164
ChipContReg:   0
Readback:      1
ROC:           BPix_BmI_SEC6_LYR4_LDR23F_MOD1_ROC15
Vdd:           6
Vana:          89
Vsh:           30
Vcomp:         12
VwllPr:        150
VwllSh:        150
VHldDel:       250
Vtrim:         82
VcThr:         84
VIbias_bus:    30
PHOffset:      164
Vcomp_ADC:     50
PHScale:       82
VIColOr:       100
Vcal:          255
CalDel:        177
TempRange:     0
WBC:           164
ChipContReg:   0
Readback:      1
