ROC:           BPix_BpI_SEC2_LYR4_LDR7F_MOD1_ROC0
Vdd:           6
Vana:          86
Vsh:           30
Vcomp:         12
VwllPr:        150
VwllSh:        150
VHldDel:       250
Vtrim:         118
VcThr:         100
VIbias_bus:    30
PHOffset:      190
Vcomp_ADC:     50
PHScale:       70
VIColOr:       100
Vcal:          255
CalDel:        149
TempRange:     0
WBC:           164
ChipContReg:   0
Readback:      1
ROC:           BPix_BpI_SEC2_LYR4_LDR7F_MOD1_ROC1
Vdd:           6
Vana:          77
Vsh:           30
Vcomp:         12
VwllPr:        150
VwllSh:        150
VHldDel:       250
Vtrim:         88
VcThr:         91
VIbias_bus:    30
PHOffset:      158
Vcomp_ADC:     50
PHScale:       87
VIColOr:       100
Vcal:          255
CalDel:        144
TempRange:     0
WBC:           164
ChipContReg:   0
Readback:      1
ROC:           BPix_BpI_SEC2_LYR4_LDR7F_MOD1_ROC2
Vdd:           6
Vana:          80
Vsh:           30
Vcomp:         12
VwllPr:        150
VwllSh:        150
VHldDel:       250
Vtrim:         99
VcThr:         100
VIbias_bus:    30
PHOffset:      182
Vcomp_ADC:     50
PHScale:       77
VIColOr:       100
Vcal:          255
CalDel:        169
TempRange:     0
WBC:           164
ChipContReg:   0
Readback:      1
ROC:           BPix_BpI_SEC2_LYR4_LDR7F_MOD1_ROC3
Vdd:           6
Vana:          83
Vsh:           30
Vcomp:         12
VwllPr:        150
VwllSh:        150
VHldDel:       250
Vtrim:         82
VcThr:         82
VIbias_bus:    30
PHOffset:      155
Vcomp_ADC:     50
PHScale:       80
VIColOr:       100
Vcal:          255
CalDel:        152
TempRange:     0
WBC:           164
ChipContReg:   0
Readback:      1
ROC:           BPix_BpI_SEC2_LYR4_LDR7F_MOD1_ROC4
Vdd:           6
Vana:          92
Vsh:           30
Vcomp:         12
VwllPr:        150
VwllSh:        150
VHldDel:       250
Vtrim:         88
VcThr:         79
VIbias_bus:    30
PHOffset:      150
Vcomp_ADC:     50
PHScale:       82
VIColOr:       100
Vcal:          255
CalDel:        139
TempRange:     0
WBC:           164
ChipContReg:   0
Readback:      1
ROC:           BPix_BpI_SEC2_LYR4_LDR7F_MOD1_ROC5
Vdd:           6
Vana:          77
Vsh:           30
Vcomp:         12
VwllPr:        150
VwllSh:        150
VHldDel:       250
Vtrim:         92
VcThr:         102
VIbias_bus:    30
PHOffset:      178
Vcomp_ADC:     50
PHScale:       78
VIColOr:       100
Vcal:          255
CalDel:        132
TempRange:     0
WBC:           164
ChipContReg:   0
Readback:      1
ROC:           BPix_BpI_SEC2_LYR4_LDR7F_MOD1_ROC6
Vdd:           6
Vana:          80
Vsh:           30
Vcomp:         12
VwllPr:        150
VwllSh:        150
VHldDel:       250
Vtrim:         102
VcThr:         96
VIbias_bus:    30
PHOffset:      182
Vcomp_ADC:     50
PHScale:       76
VIColOr:       100
Vcal:          255
CalDel:        144
TempRange:     0
WBC:           164
ChipContReg:   0
Readback:      1
ROC:           BPix_BpI_SEC2_LYR4_LDR7F_MOD1_ROC7
Vdd:           6
Vana:          82
Vsh:           30
Vcomp:         12
VwllPr:        150
VwllSh:        150
VHldDel:       250
Vtrim:         103
VcThr:         89
VIbias_bus:    30
PHOffset:      178
Vcomp_ADC:     50
PHScale:       76
VIColOr:       100
Vcal:          255
CalDel:        144
TempRange:     0
WBC:           164
ChipContReg:   0
Readback:      1
ROC:           BPix_BpI_SEC2_LYR4_LDR7F_MOD1_ROC8
Vdd:           6
Vana:          80
Vsh:           30
Vcomp:         12
VwllPr:        150
VwllSh:        150
VHldDel:       250
Vtrim:         116
VcThr:         100
VIbias_bus:    30
PHOffset:      169
Vcomp_ADC:     50
PHScale:       83
VIColOr:       100
Vcal:          255
CalDel:        135
TempRange:     0
WBC:           164
ChipContReg:   0
Readback:      1
ROC:           BPix_BpI_SEC2_LYR4_LDR7F_MOD1_ROC9
Vdd:           6
Vana:          80
Vsh:           30
Vcomp:         12
VwllPr:        150
VwllSh:        150
VHldDel:       250
Vtrim:         91
VcThr:         91
VIbias_bus:    30
PHOffset:      159
Vcomp_ADC:     50
PHScale:       86
VIColOr:       100
Vcal:          255
CalDel:        155
TempRange:     0
WBC:           164
ChipContReg:   0
Readback:      1
ROC:           BPix_BpI_SEC2_LYR4_LDR7F_MOD1_ROC10
Vdd:           6
Vana:          84
Vsh:           30
Vcomp:         12
VwllPr:        150
VwllSh:        150
VHldDel:       250
Vtrim:         92
VcThr:         79
VIbias_bus:    30
PHOffset:      169
Vcomp_ADC:     50
PHScale:       78
VIColOr:       100
Vcal:          255
CalDel:        161
TempRange:     0
WBC:           164
ChipContReg:   0
Readback:      1
ROC:           BPix_BpI_SEC2_LYR4_LDR7F_MOD1_ROC11
Vdd:           6
Vana:          81
Vsh:           30
Vcomp:         12
VwllPr:        150
VwllSh:        150
VHldDel:       250
Vtrim:         101
VcThr:         94
VIbias_bus:    30
PHOffset:      163
Vcomp_ADC:     50
PHScale:       73
VIColOr:       100
Vcal:          255
CalDel:        189
TempRange:     0
WBC:           164
ChipContReg:   0
Readback:      1
ROC:           BPix_BpI_SEC2_LYR4_LDR7F_MOD1_ROC12
Vdd:           6
Vana:          81
Vsh:           30
Vcomp:         12
VwllPr:        150
VwllSh:        150
VHldDel:       250
Vtrim:         97
VcThr:         79
VIbias_bus:    30
PHOffset:      157
Vcomp_ADC:     50
PHScale:       80
VIColOr:       100
Vcal:          255
CalDel:        175
TempRange:     0
WBC:           164
ChipContReg:   0
Readback:      1
ROC:           BPix_BpI_SEC2_LYR4_LDR7F_MOD1_ROC13
Vdd:           6
Vana:          69
Vsh:           30
Vcomp:         12
VwllPr:        150
VwllSh:        150
VHldDel:       250
Vtrim:         93
VcThr:         96
VIbias_bus:    30
PHOffset:      172
Vcomp_ADC:     50
PHScale:       78
VIColOr:       100
Vcal:          255
CalDel:        165
TempRange:     0
WBC:           164
ChipContReg:   0
Readback:      1
ROC:           BPix_BpI_SEC2_LYR4_LDR7F_MOD1_ROC14
Vdd:           6
Vana:          82
Vsh:           30
Vcomp:         12
VwllPr:        150
VwllSh:        150
VHldDel:       250
Vtrim:         85
VcThr:         84
VIbias_bus:    30
PHOffset:      151
Vcomp_ADC:     50
PHScale:       85
VIColOr:       100
Vcal:          255
CalDel:        174
TempRange:     0
WBC:           164
ChipContReg:   0
Readback:      1
ROC:           BPix_BpI_SEC2_LYR4_LDR7F_MOD1_ROC15
Vdd:           6
Vana:          77
Vsh:           30
Vcomp:         12
VwllPr:        150
VwllSh:        150
VHldDel:       250
Vtrim:         105
VcThr:         83
VIbias_bus:    30
PHOffset:      172
Vcomp_ADC:     50
PHScale:       82
VIColOr:       100
Vcal:          255
CalDel:        179
TempRange:     0
WBC:           164
ChipContReg:   0
Readback:      1
