ROC:           BPix_BpO_SEC5_LYR1_LDR4H_MOD3_ROC4
Vdd:           6
Vana:          71
Vsh:           8
Vcomp:         12
VwllPr:        150
VwllSh:        150
VHldDel:       250
Vtrim:         82
VcThr:         48
VIbias_bus:    250
PHOffset:      166
Vcomp_ADC:     50
PHScale:       70
VIColOr:       100
Vcal:          200
CalDel:        177
TempRange:     0
WBC:           165
ChipContReg:   16
Readback:      1
ROC:           BPix_BpO_SEC5_LYR1_LDR4H_MOD3_ROC5
Vdd:           6
Vana:          83
Vsh:           8
Vcomp:         12
VwllPr:        150
VwllSh:        150
VHldDel:       250
Vtrim:         106
VcThr:         48
VIbias_bus:    250
PHOffset:      149
Vcomp_ADC:     50
PHScale:       70
VIColOr:       100
Vcal:          200
CalDel:        156
TempRange:     0
WBC:           165
ChipContReg:   16
Readback:      1
ROC:           BPix_BpO_SEC5_LYR1_LDR4H_MOD3_ROC6
Vdd:           6
Vana:          77
Vsh:           8
Vcomp:         12
VwllPr:        150
VwllSh:        150
VHldDel:       250
Vtrim:         116
VcThr:         51
VIbias_bus:    250
PHOffset:      172
Vcomp_ADC:     50
PHScale:       70
VIColOr:       100
Vcal:          200
CalDel:        178
TempRange:     0
WBC:           165
ChipContReg:   16
Readback:      1
ROC:           BPix_BpO_SEC5_LYR1_LDR4H_MOD3_ROC7
Vdd:           6
Vana:          74
Vsh:           8
Vcomp:         12
VwllPr:        150
VwllSh:        150
VHldDel:       250
Vtrim:         100
VcThr:         51
VIbias_bus:    250
PHOffset:      165
Vcomp_ADC:     50
PHScale:       70
VIColOr:       100
Vcal:          200
CalDel:        184
TempRange:     0
WBC:           165
ChipContReg:   16
Readback:      1
ROC:           BPix_BpO_SEC5_LYR1_LDR4H_MOD3_ROC8
Vdd:           6
Vana:          74
Vsh:           8
Vcomp:         12
VwllPr:        150
VwllSh:        150
VHldDel:       250
Vtrim:         92
VcThr:         64
VIbias_bus:    250
PHOffset:      169
Vcomp_ADC:     50
PHScale:       70
VIColOr:       100
Vcal:          200
CalDel:        186
TempRange:     0
WBC:           165
ChipContReg:   16
Readback:      1
ROC:           BPix_BpO_SEC5_LYR1_LDR4H_MOD3_ROC9
Vdd:           6
Vana:          86
Vsh:           8
Vcomp:         12
VwllPr:        150
VwllSh:        150
VHldDel:       250
Vtrim:         95
VcThr:         53
VIbias_bus:    250
PHOffset:      156
Vcomp_ADC:     50
PHScale:       70
VIColOr:       100
Vcal:          200
CalDel:        181
TempRange:     0
WBC:           165
ChipContReg:   16
Readback:      1
ROC:           BPix_BpO_SEC5_LYR1_LDR4H_MOD3_ROC10
Vdd:           6
Vana:          78
Vsh:           8
Vcomp:         12
VwllPr:        150
VwllSh:        150
VHldDel:       250
Vtrim:         93
VcThr:         60
VIbias_bus:    250
PHOffset:      155
Vcomp_ADC:     50
PHScale:       70
VIColOr:       100
Vcal:          200
CalDel:        174
TempRange:     0
WBC:           165
ChipContReg:   16
Readback:      1
ROC:           BPix_BpO_SEC5_LYR1_LDR4H_MOD3_ROC11
Vdd:           6
Vana:          74
Vsh:           8
Vcomp:         12
VwllPr:        150
VwllSh:        150
VHldDel:       250
Vtrim:         97
VcThr:         58
VIbias_bus:    250
PHOffset:      175
Vcomp_ADC:     50
PHScale:       70
VIColOr:       100
Vcal:          200
CalDel:        185
TempRange:     0
WBC:           165
ChipContReg:   16
Readback:      1
