ROC:           BPix_BmO_SEC2_LYR1_LDR2F_MOD4_ROC0
Vdd:           6
Vana:          92
Vsh:           8
Vcomp:         12
VwllPr:        150
VwllSh:        150
VHldDel:       250
Vtrim:         100
VcThr:         43
VIbias_bus:    250
PHOffset:      169
Vcomp_ADC:     50
PHScale:       70
VIColOr:       100
Vcal:          200
CalDel:        181
TempRange:     0
WBC:           164
ChipContReg:   16
Readback:      1
ROC:           BPix_BmO_SEC2_LYR1_LDR2F_MOD4_ROC1
Vdd:           6
Vana:          77
Vsh:           8
Vcomp:         12
VwllPr:        150
VwllSh:        150
VHldDel:       250
Vtrim:         106
VcThr:         62
VIbias_bus:    250
PHOffset:      151
Vcomp_ADC:     50
PHScale:       70
VIColOr:       100
Vcal:          200
CalDel:        164
TempRange:     0
WBC:           164
ChipContReg:   16
Readback:      1
ROC:           BPix_BmO_SEC2_LYR1_LDR2F_MOD4_ROC2
Vdd:           6
Vana:          74
Vsh:           8
Vcomp:         12
VwllPr:        150
VwllSh:        150
VHldDel:       250
Vtrim:         124
VcThr:         49
VIbias_bus:    250
PHOffset:      148
Vcomp_ADC:     50
PHScale:       70
VIColOr:       100
Vcal:          200
CalDel:        162
TempRange:     0
WBC:           164
ChipContReg:   16
Readback:      1
ROC:           BPix_BmO_SEC2_LYR1_LDR2F_MOD4_ROC3
Vdd:           6
Vana:          75
Vsh:           8
Vcomp:         12
VwllPr:        150
VwllSh:        150
VHldDel:       250
Vtrim:         111
VcThr:         53
VIbias_bus:    250
PHOffset:      157
Vcomp_ADC:     50
PHScale:       70
VIColOr:       100
Vcal:          200
CalDel:        156
TempRange:     0
WBC:           164
ChipContReg:   16
Readback:      1
ROC:           BPix_BmO_SEC2_LYR1_LDR2F_MOD4_ROC12
Vdd:           6
Vana:          87
Vsh:           8
Vcomp:         12
VwllPr:        150
VwllSh:        150
VHldDel:       250
Vtrim:         102
VcThr:         40
VIbias_bus:    250
PHOffset:      152
Vcomp_ADC:     50
PHScale:       70
VIColOr:       100
Vcal:          200
CalDel:        180
TempRange:     0
WBC:           164
ChipContReg:   16
Readback:      1
ROC:           BPix_BmO_SEC2_LYR1_LDR2F_MOD4_ROC13
Vdd:           6
Vana:          75
Vsh:           8
Vcomp:         12
VwllPr:        150
VwllSh:        150
VHldDel:       250
Vtrim:         106
VcThr:         47
VIbias_bus:    250
PHOffset:      167
Vcomp_ADC:     50
PHScale:       70
VIColOr:       100
Vcal:          200
CalDel:        174
TempRange:     0
WBC:           164
ChipContReg:   16
Readback:      1
ROC:           BPix_BmO_SEC2_LYR1_LDR2F_MOD4_ROC14
Vdd:           6
Vana:          77
Vsh:           8
Vcomp:         12
VwllPr:        150
VwllSh:        150
VHldDel:       250
Vtrim:         93
VcThr:         54
VIbias_bus:    250
PHOffset:      151
Vcomp_ADC:     50
PHScale:       70
VIColOr:       100
Vcal:          200
CalDel:        184
TempRange:     0
WBC:           164
ChipContReg:   16
Readback:      1
ROC:           BPix_BmO_SEC2_LYR1_LDR2F_MOD4_ROC15
Vdd:           6
Vana:          75
Vsh:           8
Vcomp:         12
VwllPr:        150
VwllSh:        150
VHldDel:       250
Vtrim:         114
VcThr:         48
VIbias_bus:    250
PHOffset:      170
Vcomp_ADC:     50
PHScale:       70
VIColOr:       100
Vcal:          200
CalDel:        161
TempRange:     0
WBC:           164
ChipContReg:   16
Readback:      1
