ROC:           BPix_BpO_SEC8_LYR1_LDR6H_MOD3_ROC4
Vdd:           6
Vana:          77
Vsh:           8
Vcomp:         12
VwllPr:        150
VwllSh:        150
VHldDel:       250
Vtrim:         110
VcThr:         48
VIbias_bus:    250
PHOffset:      154
Vcomp_ADC:     50
PHScale:       70
VIColOr:       100
Vcal:          200
CalDel:        185
TempRange:     0
WBC:           164
ChipContReg:   16
Readback:      1
ROC:           BPix_BpO_SEC8_LYR1_LDR6H_MOD3_ROC5
Vdd:           6
Vana:          81
Vsh:           8
Vcomp:         12
VwllPr:        150
VwllSh:        150
VHldDel:       250
Vtrim:         92
VcThr:         49
VIbias_bus:    250
PHOffset:      148
Vcomp_ADC:     50
PHScale:       70
VIColOr:       100
Vcal:          200
CalDel:        170
TempRange:     0
WBC:           164
ChipContReg:   16
Readback:      1
ROC:           BPix_BpO_SEC8_LYR1_LDR6H_MOD3_ROC6
Vdd:           6
Vana:          83
Vsh:           8
Vcomp:         12
VwllPr:        150
VwllSh:        150
VHldDel:       250
Vtrim:         105
VcThr:         59
VIbias_bus:    250
PHOffset:      158
Vcomp_ADC:     50
PHScale:       70
VIColOr:       100
Vcal:          200
CalDel:        152
TempRange:     0
WBC:           164
ChipContReg:   16
Readback:      1
ROC:           BPix_BpO_SEC8_LYR1_LDR6H_MOD3_ROC7
Vdd:           6
Vana:          76
Vsh:           8
Vcomp:         12
VwllPr:        150
VwllSh:        150
VHldDel:       250
Vtrim:         111
VcThr:         59
VIbias_bus:    250
PHOffset:      160
Vcomp_ADC:     50
PHScale:       70
VIColOr:       100
Vcal:          200
CalDel:        170
TempRange:     0
WBC:           164
ChipContReg:   16
Readback:      1
ROC:           BPix_BpO_SEC8_LYR1_LDR6H_MOD3_ROC8
Vdd:           6
Vana:          80
Vsh:           8
Vcomp:         12
VwllPr:        150
VwllSh:        150
VHldDel:       250
Vtrim:         111
VcThr:         52
VIbias_bus:    250
PHOffset:      154
Vcomp_ADC:     50
PHScale:       70
VIColOr:       100
Vcal:          200
CalDel:        193
TempRange:     0
WBC:           164
ChipContReg:   16
Readback:      1
ROC:           BPix_BpO_SEC8_LYR1_LDR6H_MOD3_ROC9
Vdd:           6
Vana:          80
Vsh:           8
Vcomp:         12
VwllPr:        150
VwllSh:        150
VHldDel:       250
Vtrim:         132
VcThr:         67
VIbias_bus:    250
PHOffset:      158
Vcomp_ADC:     50
PHScale:       70
VIColOr:       100
Vcal:          200
CalDel:        179
TempRange:     0
WBC:           164
ChipContReg:   16
Readback:      1
ROC:           BPix_BpO_SEC8_LYR1_LDR6H_MOD3_ROC10
Vdd:           6
Vana:          79
Vsh:           8
Vcomp:         12
VwllPr:        150
VwllSh:        150
VHldDel:       250
Vtrim:         112
VcThr:         52
VIbias_bus:    250
PHOffset:      172
Vcomp_ADC:     50
PHScale:       70
VIColOr:       100
Vcal:          200
CalDel:        154
TempRange:     0
WBC:           164
ChipContReg:   16
Readback:      1
ROC:           BPix_BpO_SEC8_LYR1_LDR6H_MOD3_ROC11
Vdd:           6
Vana:          83
Vsh:           8
Vcomp:         12
VwllPr:        150
VwllSh:        150
VHldDel:       250
Vtrim:         126
VcThr:         64
VIbias_bus:    250
PHOffset:      167
Vcomp_ADC:     50
PHScale:       70
VIColOr:       100
Vcal:          200
CalDel:        170
TempRange:     0
WBC:           164
ChipContReg:   16
Readback:      1
