ROC:           BPix_BmI_SEC3_LYR3_LDR7F_MOD2_ROC0
Vdd:           6
Vana:          77
Vsh:           30
Vcomp:         12
VwllPr:        150
VwllSh:        150
VHldDel:       250
Vtrim:         93
VcThr:         90
VIbias_bus:    30
PHOffset:      158
Vcomp_ADC:     50
PHScale:       80
VIColOr:       100
Vcal:          200
CalDel:        156
TempRange:     0
WBC:           164
ChipContReg:   0
Readback:      1
ROC:           BPix_BmI_SEC3_LYR3_LDR7F_MOD2_ROC1
Vdd:           6
Vana:          90
Vsh:           30
Vcomp:         12
VwllPr:        150
VwllSh:        150
VHldDel:       250
Vtrim:         108
VcThr:         103
VIbias_bus:    30
PHOffset:      170
Vcomp_ADC:     50
PHScale:       77
VIColOr:       100
Vcal:          200
CalDel:        136
TempRange:     0
WBC:           164
ChipContReg:   0
Readback:      1
ROC:           BPix_BmI_SEC3_LYR3_LDR7F_MOD2_ROC2
Vdd:           6
Vana:          75
Vsh:           30
Vcomp:         12
VwllPr:        150
VwllSh:        150
VHldDel:       250
Vtrim:         102
VcThr:         98
VIbias_bus:    30
PHOffset:      158
Vcomp_ADC:     50
PHScale:       85
VIColOr:       100
Vcal:          200
CalDel:        135
TempRange:     0
WBC:           164
ChipContReg:   0
Readback:      1
ROC:           BPix_BmI_SEC3_LYR3_LDR7F_MOD2_ROC3
Vdd:           6
Vana:          85
Vsh:           30
Vcomp:         12
VwllPr:        150
VwllSh:        150
VHldDel:       250
Vtrim:         126
VcThr:         103
VIbias_bus:    30
PHOffset:      162
Vcomp_ADC:     50
PHScale:       79
VIColOr:       100
Vcal:          200
CalDel:        139
TempRange:     0
WBC:           164
ChipContReg:   0
Readback:      1
ROC:           BPix_BmI_SEC3_LYR3_LDR7F_MOD2_ROC4
Vdd:           6
Vana:          78
Vsh:           30
Vcomp:         12
VwllPr:        150
VwllSh:        150
VHldDel:       250
Vtrim:         109
VcThr:         99
VIbias_bus:    30
PHOffset:      176
Vcomp_ADC:     50
PHScale:       77
VIColOr:       100
Vcal:          200
CalDel:        143
TempRange:     0
WBC:           164
ChipContReg:   0
Readback:      1
ROC:           BPix_BmI_SEC3_LYR3_LDR7F_MOD2_ROC5
Vdd:           6
Vana:          83
Vsh:           30
Vcomp:         12
VwllPr:        150
VwllSh:        150
VHldDel:       250
Vtrim:         126
VcThr:         103
VIbias_bus:    30
PHOffset:      180
Vcomp_ADC:     50
PHScale:       80
VIColOr:       100
Vcal:          200
CalDel:        131
TempRange:     0
WBC:           164
ChipContReg:   0
Readback:      1
ROC:           BPix_BmI_SEC3_LYR3_LDR7F_MOD2_ROC6
Vdd:           6
Vana:          78
Vsh:           30
Vcomp:         12
VwllPr:        150
VwllSh:        150
VHldDel:       250
Vtrim:         112
VcThr:         91
VIbias_bus:    30
PHOffset:      168
Vcomp_ADC:     50
PHScale:       82
VIColOr:       100
Vcal:          200
CalDel:        149
TempRange:     0
WBC:           164
ChipContReg:   0
Readback:      1
ROC:           BPix_BmI_SEC3_LYR3_LDR7F_MOD2_ROC7
Vdd:           6
Vana:          82
Vsh:           30
Vcomp:         12
VwllPr:        150
VwllSh:        150
VHldDel:       250
Vtrim:         133
VcThr:         102
VIbias_bus:    30
PHOffset:      179
Vcomp_ADC:     50
PHScale:       65
VIColOr:       100
Vcal:          200
CalDel:        140
TempRange:     0
WBC:           164
ChipContReg:   0
Readback:      1
ROC:           BPix_BmI_SEC3_LYR3_LDR7F_MOD2_ROC8
Vdd:           6
Vana:          80
Vsh:           30
Vcomp:         12
VwllPr:        150
VwllSh:        150
VHldDel:       250
Vtrim:         114
VcThr:         94
VIbias_bus:    30
PHOffset:      160
Vcomp_ADC:     50
PHScale:       85
VIColOr:       100
Vcal:          200
CalDel:        129
TempRange:     0
WBC:           164
ChipContReg:   0
Readback:      1
ROC:           BPix_BmI_SEC3_LYR3_LDR7F_MOD2_ROC9
Vdd:           6
Vana:          88
Vsh:           30
Vcomp:         12
VwllPr:        150
VwllSh:        150
VHldDel:       250
Vtrim:         129
VcThr:         98
VIbias_bus:    30
PHOffset:      163
Vcomp_ADC:     50
PHScale:       76
VIColOr:       100
Vcal:          200
CalDel:        149
TempRange:     0
WBC:           164
ChipContReg:   0
Readback:      1
ROC:           BPix_BmI_SEC3_LYR3_LDR7F_MOD2_ROC10
Vdd:           6
Vana:          78
Vsh:           30
Vcomp:         12
VwllPr:        150
VwllSh:        150
VHldDel:       250
Vtrim:         122
VcThr:         99
VIbias_bus:    30
PHOffset:      156
Vcomp_ADC:     50
PHScale:       82
VIColOr:       100
Vcal:          200
CalDel:        149
TempRange:     0
WBC:           164
ChipContReg:   0
Readback:      1
ROC:           BPix_BmI_SEC3_LYR3_LDR7F_MOD2_ROC11
Vdd:           6
Vana:          83
Vsh:           30
Vcomp:         12
VwllPr:        150
VwllSh:        150
VHldDel:       250
Vtrim:         117
VcThr:         102
VIbias_bus:    30
PHOffset:      175
Vcomp_ADC:     50
PHScale:       81
VIColOr:       100
Vcal:          200
CalDel:        138
TempRange:     0
WBC:           164
ChipContReg:   0
Readback:      1
ROC:           BPix_BmI_SEC3_LYR3_LDR7F_MOD2_ROC12
Vdd:           6
Vana:          70
Vsh:           30
Vcomp:         12
VwllPr:        150
VwllSh:        150
VHldDel:       250
Vtrim:         120
VcThr:         108
VIbias_bus:    30
PHOffset:      175
Vcomp_ADC:     50
PHScale:       70
VIColOr:       100
Vcal:          200
CalDel:        130
TempRange:     0
WBC:           164
ChipContReg:   0
Readback:      1
ROC:           BPix_BmI_SEC3_LYR3_LDR7F_MOD2_ROC13
Vdd:           6
Vana:          80
Vsh:           30
Vcomp:         12
VwllPr:        150
VwllSh:        150
VHldDel:       250
Vtrim:         92
VcThr:         92
VIbias_bus:    30
PHOffset:      150
Vcomp_ADC:     50
PHScale:       79
VIColOr:       100
Vcal:          200
CalDel:        160
TempRange:     0
WBC:           164
ChipContReg:   0
Readback:      1
ROC:           BPix_BmI_SEC3_LYR3_LDR7F_MOD2_ROC14
Vdd:           6
Vana:          85
Vsh:           30
Vcomp:         12
VwllPr:        150
VwllSh:        150
VHldDel:       250
Vtrim:         101
VcThr:         97
VIbias_bus:    30
PHOffset:      156
Vcomp_ADC:     50
PHScale:       76
VIColOr:       100
Vcal:          200
CalDel:        157
TempRange:     0
WBC:           164
ChipContReg:   0
Readback:      1
ROC:           BPix_BmI_SEC3_LYR3_LDR7F_MOD2_ROC15
Vdd:           6
Vana:          80
Vsh:           30
Vcomp:         12
VwllPr:        150
VwllSh:        150
VHldDel:       250
Vtrim:         103
VcThr:         95
VIbias_bus:    30
PHOffset:      170
Vcomp_ADC:     50
PHScale:       73
VIColOr:       100
Vcal:          200
CalDel:        145
TempRange:     0
WBC:           164
ChipContReg:   0
Readback:      1
