ROC:           BPix_BmI_SEC8_LYR3_LDR21F_MOD2_ROC0
Vdd:           6
Vana:          70
Vsh:           30
Vcomp:         12
VwllPr:        150
VwllSh:        150
VHldDel:       250
Vtrim:         108
VcThr:         103
VIbias_bus:    30
PHOffset:      169
Vcomp_ADC:     50
PHScale:       76
VIColOr:       100
Vcal:          200
CalDel:        142
TempRange:     0
WBC:           164
ChipContReg:   0
Readback:      1
ROC:           BPix_BmI_SEC8_LYR3_LDR21F_MOD2_ROC1
Vdd:           6
Vana:          88
Vsh:           30
Vcomp:         12
VwllPr:        150
VwllSh:        150
VHldDel:       250
Vtrim:         92
VcThr:         93
VIbias_bus:    30
PHOffset:      179
Vcomp_ADC:     50
PHScale:       79
VIColOr:       100
Vcal:          200
CalDel:        140
TempRange:     0
WBC:           164
ChipContReg:   0
Readback:      1
ROC:           BPix_BmI_SEC8_LYR3_LDR21F_MOD2_ROC2
Vdd:           6
Vana:          88
Vsh:           30
Vcomp:         12
VwllPr:        150
VwllSh:        150
VHldDel:       250
Vtrim:         100
VcThr:         92
VIbias_bus:    30
PHOffset:      154
Vcomp_ADC:     50
PHScale:       86
VIColOr:       100
Vcal:          200
CalDel:        172
TempRange:     0
WBC:           164
ChipContReg:   0
Readback:      1
ROC:           BPix_BmI_SEC8_LYR3_LDR21F_MOD2_ROC3
Vdd:           6
Vana:          83
Vsh:           30
Vcomp:         12
VwllPr:        150
VwllSh:        150
VHldDel:       250
Vtrim:         103
VcThr:         87
VIbias_bus:    30
PHOffset:      150
Vcomp_ADC:     50
PHScale:       80
VIColOr:       100
Vcal:          200
CalDel:        137
TempRange:     0
WBC:           164
ChipContReg:   0
Readback:      1
ROC:           BPix_BmI_SEC8_LYR3_LDR21F_MOD2_ROC4
Vdd:           6
Vana:          86
Vsh:           30
Vcomp:         12
VwllPr:        150
VwllSh:        150
VHldDel:       250
Vtrim:         127
VcThr:         104
VIbias_bus:    30
PHOffset:      182
Vcomp_ADC:     50
PHScale:       67
VIColOr:       100
Vcal:          200
CalDel:        120
TempRange:     0
WBC:           164
ChipContReg:   0
Readback:      1
ROC:           BPix_BmI_SEC8_LYR3_LDR21F_MOD2_ROC5
Vdd:           6
Vana:          87
Vsh:           30
Vcomp:         12
VwllPr:        150
VwllSh:        150
VHldDel:       250
Vtrim:         125
VcThr:         108
VIbias_bus:    30
PHOffset:      173
Vcomp_ADC:     50
PHScale:       87
VIColOr:       100
Vcal:          200
CalDel:        117
TempRange:     0
WBC:           164
ChipContReg:   0
Readback:      1
ROC:           BPix_BmI_SEC8_LYR3_LDR21F_MOD2_ROC6
Vdd:           6
Vana:          92
Vsh:           30
Vcomp:         12
VwllPr:        150
VwllSh:        150
VHldDel:       250
Vtrim:         105
VcThr:         92
VIbias_bus:    30
PHOffset:      172
Vcomp_ADC:     50
PHScale:       80
VIColOr:       100
Vcal:          200
CalDel:        121
TempRange:     0
WBC:           164
ChipContReg:   0
Readback:      1
ROC:           BPix_BmI_SEC8_LYR3_LDR21F_MOD2_ROC7
Vdd:           6
Vana:          92
Vsh:           30
Vcomp:         12
VwllPr:        150
VwllSh:        150
VHldDel:       250
Vtrim:         111
VcThr:         95
VIbias_bus:    30
PHOffset:      168
Vcomp_ADC:     50
PHScale:       79
VIColOr:       100
Vcal:          200
CalDel:        140
TempRange:     0
WBC:           164
ChipContReg:   0
Readback:      1
ROC:           BPix_BmI_SEC8_LYR3_LDR21F_MOD2_ROC8
Vdd:           6
Vana:          82
Vsh:           30
Vcomp:         12
VwllPr:        150
VwllSh:        150
VHldDel:       250
Vtrim:         145
VcThr:         111
VIbias_bus:    30
PHOffset:      170
Vcomp_ADC:     50
PHScale:       80
VIColOr:       100
Vcal:          200
CalDel:        144
TempRange:     0
WBC:           164
ChipContReg:   0
Readback:      1
ROC:           BPix_BmI_SEC8_LYR3_LDR21F_MOD2_ROC9
Vdd:           6
Vana:          86
Vsh:           30
Vcomp:         12
VwllPr:        150
VwllSh:        150
VHldDel:       250
Vtrim:         108
VcThr:         103
VIbias_bus:    30
PHOffset:      177
Vcomp_ADC:     50
PHScale:       77
VIColOr:       100
Vcal:          200
CalDel:        165
TempRange:     0
WBC:           164
ChipContReg:   0
Readback:      1
ROC:           BPix_BmI_SEC8_LYR3_LDR21F_MOD2_ROC10
Vdd:           6
Vana:          81
Vsh:           30
Vcomp:         12
VwllPr:        150
VwllSh:        150
VHldDel:       250
Vtrim:         117
VcThr:         105
VIbias_bus:    30
PHOffset:      161
Vcomp_ADC:     50
PHScale:       80
VIColOr:       100
Vcal:          200
CalDel:        150
TempRange:     0
WBC:           164
ChipContReg:   0
Readback:      1
ROC:           BPix_BmI_SEC8_LYR3_LDR21F_MOD2_ROC11
Vdd:           6
Vana:          83
Vsh:           30
Vcomp:         12
VwllPr:        150
VwllSh:        150
VHldDel:       250
Vtrim:         98
VcThr:         91
VIbias_bus:    30
PHOffset:      163
Vcomp_ADC:     50
PHScale:       76
VIColOr:       100
Vcal:          200
CalDel:        175
TempRange:     0
WBC:           164
ChipContReg:   0
Readback:      1
ROC:           BPix_BmI_SEC8_LYR3_LDR21F_MOD2_ROC12
Vdd:           6
Vana:          83
Vsh:           30
Vcomp:         12
VwllPr:        150
VwllSh:        150
VHldDel:       250
Vtrim:         97
VcThr:         99
VIbias_bus:    30
PHOffset:      157
Vcomp_ADC:     50
PHScale:       78
VIColOr:       100
Vcal:          200
CalDel:        149
TempRange:     0
WBC:           164
ChipContReg:   0
Readback:      1
ROC:           BPix_BmI_SEC8_LYR3_LDR21F_MOD2_ROC13
Vdd:           6
Vana:          82
Vsh:           30
Vcomp:         12
VwllPr:        150
VwllSh:        150
VHldDel:       250
Vtrim:         111
VcThr:         101
VIbias_bus:    30
PHOffset:      157
Vcomp_ADC:     50
PHScale:       83
VIColOr:       100
Vcal:          200
CalDel:        151
TempRange:     0
WBC:           164
ChipContReg:   0
Readback:      1
ROC:           BPix_BmI_SEC8_LYR3_LDR21F_MOD2_ROC14
Vdd:           6
Vana:          88
Vsh:           30
Vcomp:         12
VwllPr:        150
VwllSh:        150
VHldDel:       250
Vtrim:         98
VcThr:         94
VIbias_bus:    30
PHOffset:      152
Vcomp_ADC:     50
PHScale:       80
VIColOr:       100
Vcal:          200
CalDel:        122
TempRange:     0
WBC:           164
ChipContReg:   0
Readback:      1
ROC:           BPix_BmI_SEC8_LYR3_LDR21F_MOD2_ROC15
Vdd:           6
Vana:          82
Vsh:           30
Vcomp:         12
VwllPr:        150
VwllSh:        150
VHldDel:       250
Vtrim:         106
VcThr:         95
VIbias_bus:    30
PHOffset:      169
Vcomp_ADC:     50
PHScale:       70
VIColOr:       100
Vcal:          200
CalDel:        145
TempRange:     0
WBC:           164
ChipContReg:   0
Readback:      1
