ROC:	 BPix_BpI_SEC4_LYR2_LDR6F_MOD4_ROC0
col00:   8957498988796b59776745873988999997c27b6877b77d37769688b8714746b98545365453734756
col01:   ab37377ca9b995778968878cdaad8a8ba98976a93799b78b7d87a6998b7457a569a667799468a888
col02:   5576a897c4a754528ba8959cce87689ab69b8c9778abd374a7a5888ba4769697a8b97c6757887674
col03:   59718a86977835d48966996b888989978739b8774999bc6aa78b74969199978396cd87497d667569
col04:   6478ce8878ab586b6746aa8abb7d96697a9bab64bc96569c7b8b7a958a97689a579b8a98a6683589
col05:   79482439894bba979a997a99984497a855d6988aa9c7ba8876aab89c8898746b9956485576a54a61
col06:   281276751a5547799a8aa559889a8b9b6aa5bbba89aa8aa72bbaa5a6b6a69885a9748d59945a9765
col07:   a47566cdd798796ab765b9a956fa3b4c589c88d9a8a9855b9bb7a5889975599a683789c7c5981a95
col08:   9ab6669a997aad957bb977cbb57ca7c9a886b75a94a8bab96586b9b6ca89a48ba52965caa678c635
col09:   57877958f7b498b958aa8895acca78aadaaa899db9b949a5aa9a58879aaaa63adc8979bb8b87c89a
col10:   94778a65bb7a468a88d9bd85c7978b8a8a967ac794967a78887d79d8c8a8ba6988ab8998ba8582a5
col11:   9678785abb6833ab83d88976f887aa7aaa668ba699baa58a3c756ad7589758a897899649b797e7ba
col12:   8a977d4a54a969979958b59678b6bb8bb89a486978c774387a6999b36aae697ac77a9a9a68565a67
col13:   3377677858898989cbc8978a87a898a88499d7ab99bd877ab98b677a859a71ba98d69b8d7b848698
col14:   4685b98ccd89558b777a797d98c88c97bbd99bb72996c88744b7a8a9966996b9886ac8799a7978a7
col15:   223459675577a47758ab978a998bc8c6c58998baac8bd3dba74f77a99b88a9c9e696bc6c486b63a7
col16:   167a888989db675a38787b6ca9888778a338999899ba9876464d597c9c7ab7796884a8b4a9a7b757
col17:   995749b98658a77a8788c766b7a96bb8ab9aa598cb97a99a9b7aa7a5a5b6a98bbab98564764994f4
col18:   687878499f5aa77b978b8878c86ab99885a997c79a9aa49d77b9b8998b5b89868686774c863987b9
col19:   abbd968b97c997b978887ab5bcc2aabc99c9bce899965b8699689bcd9ab8fbdb6a6bbba6a892b696
col20:   49a99b898759b699b7a988cb86a799aa8685a974a968dab968a9897886889a87859ab697684969a5
col21:   5857676597a98269b6675aba9888a8d8ad8ca7969b937a8ac9a87779849bbb8969bdb9c98949ca7a
col22:   8aa4ca9aa88354a6599976b995aba986aa77ccbc997896dcdd97b7dc877479598acab49b66ba56d7
col23:   67b24a5a388858695a848a859a88ab678899dcb34981748b6c9b96a9cb7799a698879879b9877887
col24:   838688cf7b86579a4887b8bacaaa6a4b98998aacb9a895beaa8ba8a587aa7cbb8c7dbaaa84898a79
col25:   b899c958b8a495da99897abb97a89cb769a77dd6ab59e9babd89a8dcaa6bbbbc8869bcb986bcabc9
col26:   68ac5877a9bab8a9a96ada8ac6aa89baacc979aeb9baac9bc9c7a98978887b9b9899e79ca8abd977
col27:   fa898cdac97aa585b7a9bcb7cbc9c5cdc5b95b78987ebdba6bcbfcb7bba9aace9a7cb7b8a988b69c
col28:   7a7ada8994a9da9e65b88999686bad9cdfbe9a77dbc6cc4bdabbc8adb8ffda78dc7aa7f9d866a967
col29:   c979869998aa89da9d9bbcb5ebaaead9b7ccbcabdb9c96a79dc7f8b7bcb9bba9dabc9cac8a98aa79
col30:   956897c78b55cb8cbc89a9c8abdc75b9988acabbc9e9cc8dca76a6bdbea7c689c7aab9797d88c86b
col31:   9bce58dbdb7bd7caacd9f6a8b9abacedea7ddbbcadbbd4a8cf9acfcca6df9ba9e9c9ca99dcfba98a
col32:   887a8799a978bdd49dcbb9ddaaddccdb9aa8da98ad5bdfcf9c9c9a99ac686bb9deb8bdc68a5bd898
col33:   97baa999c7aaa9bb9feb979bcab7edcbccb79ab8c977b9bbbbabdcdcad7b7a7a59b9a5c89ab7aab5
col34:   8bb7eb8dab69878fabbc8aecbaaabafaabc9fc6fc8ac79cba88aabdbbdcecccbc87b9ddccd8fea9a
col35:   5d9de99c9ab8aecdabe977cacf9cebbcaadedea9bcdceaac8ca69e99cad866b7dcafc9777dab9ce8
col36:   58aba9ab7999bbda999bab9dc9ddde9b6b7eacdab7abd9cee999fdacdbfcf9a9dd9abccc7dbb7889
col37:   6aaa3aa7bf7bcc5a9fbd99c9da988fba8bbaffae8bcead6eca9cabf9be9b9ddbe8c8fbacba9cc9bb
col38:   d9a9aab78b76d878ccbcd9cff8a5a7cecfeeba98e99a9a8dce99dccfc9ea9a9eabaecaac9faacb99
col39:   ba879d8d9aeaba9cd8c9caaa9cabcebdeafecba74caabccaace7aceccddbf8dcbdaaeb9dcacea9b8
col40:   ab7aba7b9aae8676a9cbd7ddadb99ddfdc9dcdecedacde68fddbaadca9bbe989cdfbf8baaabcccb8
col41:   6a6ad98abdaccbaadaeefbaceabbefeb9a7ce9adecbddedabdf8befcbecbcbfcacaccabcdddcbfbc
col42:   97abc58eee9755ebbcb9d9bbc9fdcc9d8baa9f8cdda9fdccbebdbc9baacb9bb87dbbef68cdc8cfc9
col43:   a8cbcdccec9be7d8babfbceefcfdd9dbb9bdbafccbbddbdddbeccdcf9dbedaf7eb79bedadecbccd9
col44:   98a4c7cabd8e79a7acaca98fbcccacbcec8cdfdccc9ccdfbadedcbfdddcc7cddcc88bcabdececafc
col45:   ba55d5bc9cb98c8acaa9ccec7dd9e9c799ff9acbfecbb99abbc9dbeeacbdcba6c78f9ec8aaebccdc
col46:   8a76a6ccb9e688cc89acdadeb8aaeaccfbacbbbcc9b9cdbecebafbbcccedcbebbbbc9dfbbfaceccb
col47:   9bad88fb98aafe9bcbacccf9bdadcc7dbcbacdbcfbec7ffdaceecbd9bcddbafd9dbb8ffadbecc9c8
col48:   89b7ddcaa8f8cf99ccc9cbbdd9fbcb8a9be89d9e9cacfeceadbcdccdecfcdbbcec99bf79fbca7f9f
col49:   aa9cb98ab9baaaaabbedfce7bfaeccbbebd9bbbbac9dbdfadbf8dddd9cdcebeeafbbcecdceccfc9a
col50:   99f98ba9edd9ca7cec87bcbecfefcccfe8a8bb9bfddab9ebbdeccdcdffc8eec9efacfadbebbabcc9
col51:   ac77c95cba65cbe7768ddafeadb9daac6ebcf9dabdadbbdac6a7becccf98cb497aed7da56f9bbbf5
ROC:	 BPix_BpI_SEC4_LYR2_LDR6F_MOD4_ROC1
col00:   468775472556128674a6875789d9b6aa8a86998d56b87859bccb868b97b68b8ad28979cbabb78688
col01:   5484c6265645ba439a9988a7689a98c89888a869ba746cddac878b8a8a8bea94a7d9cf99aba68a9c
col02:   71438b55a79ac294c799cbc9c8ac7aa84c6bb8abab9b8d8768587cc4a97988b6ca6cd89b8449e457
col03:   781b583535489ab9b87ac96bca7759abcf9bba74bbc89b8acfaec6db69996b9b8a7a899398d796c8
col04:   643498419a59b7858868aa9d89a96d89cc988aa789ba9d9e57bc875aa5797aa946587ccb8677bc8a
col05:   82485456a97886a6416ccc9bd68ba7da9799b88acb8aa98e6799ea7bb9a99b975885a98c9bb98aba
col06:   8977c5cbed8b884ba986553ba999957979b9b449ddca66caea6b9abd7b93c8ca979669ac889855a2
col07:   a4669883559c7b8c9ec756ca798d894ae9b7ab8b95869ca99c997b579a7ca9a98c977a4c9b978876
col08:   475854416788458968ad7768d7d6d988a9bbaa7bcbbb969e9eb8b8777a9c8c6659876895acbe497a
col09:   4c617499596aa18ca785af9c8aca8bdabcb9d83caac77cac8a889887cbdebab68bada78898688d82
col10:   669369998585c85a868a94598db85aba56ba94bca79a99b8c656b9ac76c857a899d8b97ab679948a
col11:   5557a272898587a76a7a5b7a7ba8b6a37796699c8a69a66946a1966587979589a87a944967845656
col12:   5678946547b787578e8bd8abcc99abcb9b7856b997b6bb55b5a2b7869c9ad6bd89ea7868a4ac66b7
col13:   8869746c979287577585ead57a78888a99899fb7a8e8c9aac985cb9db75bb6ba7a6acdb9ca9c37b4
col14:   89695a94957a9d2499b4c4698877c68ac79ded9886a558a99bbcc984d89fbb86baac7a67ba77abb5
col15:   278864596a15bbd689acd7c68cc6cc8c55a89bf7de54b9b6cafb8ac98d58cce58a876ada7a65c598
col16:   85a65d7586864a767d9557ba897ad89959ba7d9ebe6bd675a98bb49a8769a68a77a949268a66bbad
col17:   5a53657a255a69b8a6bd6bb9b57d9d6897387b58bab887fbacad587b6847cbb78877787bba4b799b
col18:   73335883768a7686459598b5b899877cb78c86e9ab9b6aa9c99a966aaa8c985ab899387594873889
col19:   768674a9867a9767ba89c365c8b9aac8c9cb99bd9bb6abd893a8756dcac9c7a778adbabca4aa98d9
col20:   51883395a6ba475a8ce9c99cb6b9b747a987a9aaa99aa5974ba79c66954c5db7788668877667a586
col21:   279986aa4977ba998e97a8bbbc9988b8599aac6c76b88c7acbc9c8677a95ad93b4777959c9b888a7
col22:   472aa7643b7aa25665eb949c96e7c98d6aaabb95fcba868aa74798baea6dc95ab65a5962a95599a6
col23:   7675968778757969388caa7b6b7acb673591bad37dc8aab89c969c68b5876cd7887aaad598b88858
col24:   674884566aa469961898937999d96a6bb7ae96197db96b3bce59a6997779994a8a63b448daba8876
col25:   2554457aa9a8c9999d66ac6886798cba9898bda9697b69b89eec4a9cf9b587865abc8abb8bb85cab
col26:   58964799959688878a8789d8da785ab88d57bbacbadaccc89cb6cccd95ecaca5e889ac896be96eda
col27:   689d7988d9c7996c8daadb8a5dccbabeaacbefb88cb8cabcb6d98bf3b9bc6acbf58cde5bc9749448
col28:   8967885acaab7bd9799babbc797f9baafc99bb99aa88acafcd99db7ab7a6ea9b699b9a88f9ba788a
col29:   a9bb989cbbb998ce7aafab9dc97d9ba6cba99b5e6aadb88db7d3cdedc9bcadc8b773a99cac8ac96d
col30:   b996a6da99bcec8b9a67bafbbae5cdbfca5aa8a4ac798bc8ecdbaa8fca7b699b48b7aab6a789a886
col31:   99a8a8ac9d9b978b978cdcfccca8f7aa7dde87cde8b8baabbfbb997df9d89ffb58adbdced8cb8b85
col32:   298898ab8abe96aaa8a6d7bbbbabc9bdd5cbfadb9f9ce97de5d9aa8c96dacd6b99eb9b8d9a96b9a9
col33:   858d879baadfac7e6eeb5cebff7ddc99e998dc9cbafcdafb8788e8c7f9fb9d9dbacbc8eb9eac9c69
col34:   55e879a99d99c5baccdbabbadcce9cddca9bcdb89edcfa7ebb7bbde79cbd999a89dea79cf9b7ccba
col35:   dbb89cafaeacbced7baccfbb6cf8998babfddd9dcc7baba7a9cbbb56aa9ca98bdbcc95d667eb6a6a
col36:   96e966db5caea9c59ca88999c9ca7bacbda98e7cfcbeaccab7b9cba8cfa7997ccb9bcc94b587bab5
col37:   b5aba69d8aaac96dbfc6bffdc9dba9bfaaebaed7eccb929b9bd7c9aca8d9fecab7b879bbb57cddaf
col38:   aada6aadadbabebe6aaadc99efcddbaabdb9dbacb6abccbcfdc99aabad7cabc889bb8ebacd649979
col39:   aaba69dcdb9cf99bea98afba9b98bb9dad9fefbfa9cbcabbcdcaa7c7aa89e9edde7e666a9b8c9c9a
col40:   ac77be589b7dcccd6aeaebbe98bacebdcadabbcab9a78aadf9b7dcb6bddeb748c7baecaca9aaa597
col41:   a86aabecbe83989d79daedb9dda9fdacddfbeeb8dc5bcc8aacd9dbab89cad98bada7beaab9daaaab
col42:   a8a9898bdd8adbbadccd985cb6db9c99ac9b96ba4bcafdbdcb88aecaba6d87b8a8c7899d5ad9999c
col43:   4fcbad9a6fcaa6bcb9cfeab89ce9ecceabecdbfe9cddccbebbb9c7fdccddbe5acbd986b69a99dba9
col44:   c57bbd87698a7785abebb9d7dfbced98ceab7b77cccab89bbcbadabefdeacafab6b97aa98dcc95b4
col45:   6cbc6a9c9bccbe8ccffcdfe9ddcb9dcb898cbeac9d9fccc8ee98cda9eadc8fdcba9dace99616d799
col46:   754b69a876e88965bc988ebabbe7cfacacfabaed8fbebbbccaf5fbbc68abb86b8bacdbcabb7a8797
col47:   65868cbcac8ada9fcbce98becaa7bbfcacbdfa9ad9adae99d89dbe97e8fa7aafcab8669b896d7c65
col48:   99aac9bbcbd6bac7cfbaba89e8eccccbbcbdfbca9fbabfe78a99cbfc89af8ab4a99a7d7c849956c6
col49:   96bcb9bb9f8a99b9ba9adadccb7fc9d9f8bf88bbb9b6ed99bdcdbbfc88bc9accb8887cb67be99ac9
col50:   899a96c7e9bbbeabaa96caacbcaffcfeaaafc8989ea79becaa9dcc7aaccb7acedb98c697ac87e699
col51:   9d798aab8a5ac5cbb8b98cc7d8d6a6d85b68fa9baa7989bc4ad59b8975ada7cb45769b45c7a4b965
ROC:	 BPix_BpI_SEC4_LYR2_LDR6F_MOD4_ROC2
col00:   93376677555593837925767aa897876a74987b87c976bbb7ca77b49869a977899d87d64a67487788
col01:   57676957b5547bca6865a78b89978bcd79aabca9aab7b8998a9ac6c8d7ba9d9a77787ba8a9b69648
col02:   a678886d76938a6a7864875a86ddb869dc896bd8ab9ca9b9be7897c8ac6c87bcdbbb7aa5dd935a75
col03:   4823855a878e38a9b98ebb7a6babb98a8ce889ead9b69abb99ac9acdb85b696ab5c96799c784aa78
col04:   57a599669718b6a67869676baadc7a8bb89b8a8ac88b9a99af9a7ddaae7bb97bbbaa7bb2bb878839
col05:   5247668a697a497bb956ad9c7649b79b8599c984c996cd929ca99b9aab69c8977a9a7687b86c7857
col06:   7685546855a4fbaa6937495a7a8999c9cbb78abcbc7a8b6768ba7bb58779da5c5997b89ab575c5a7
col07:   567634c8b877989ca8579b8c8969dd7ca6abca9875aaebdbccaceafa8beabc59897d98c9979aac9a
col08:   625c398b66295298b599999ab4d7a97687a8a97ebdb9a699a54b76adbabb6acd98baca9aba938a57
col09:   877663b9a7749c6a9aa8584a5569d99b8b8d9637b8ad897667cc7c8aabc99a67888a8ec7b8a7a997
col10:   96547b88ca447a79bbc9798899a98c87cba89c77d69cabab5ab9c6b6babcc6aabbbb8a5d799ba92a
col11:   887697396c498a94899a78599b5ad79657bcb9d4acaf8a9ccb779aa7c7598da975d8a5a8898a78b5
col12:   89b687867b46a778475a488769a4d94ca63a8c5cb8b7caa9c7babcacd86b6aba9bba8c7789b78899
col13:   7477597aabc969a4ba8a768799b878bacbd884bebc9899d9a7998cbcb8a89abb6cb676abb8da888b
col14:   588a6769f68989a587795c74aec986799d9399a799c8cbaabc79ba9976d78fac9ab98ca754816a89
col15:   a846983a5438899c9b7989b9b5b4c47e35b9777c9aaa999cc8678eea7ecca9999b897c589997c758
col16:   764578598966777a98798558a95a9a667897d8898a869bd88dadc9ada68868a9bab98d8899ed9a77
col17:   d768749b568869c488aa54568987a84aa49ba7bdeb7caacabeac9c968fcbd89a7aa9d5bb87799539
col18:   875652b789a98297a97c9b7787c86a76abbb9cb78f9aaaaaba76ab87bd88995889a994988b868ab6
col19:   abb769597796acb9a89baa85b68779c6b77a9b998a97899acba9cc48bab795b9e7abc6b8b89ab869
col20:   84a6654b76859a4764988aa9b8a8bb898cc589d845b8f9c87a9d499bccc758baa856a8c875ba97c7
col21:   53b76c85c9bb798667ad987cba958ba7a9b97bc997777b8cb5ad9b8bc8974658d769ac77ea8b8aa9
col22:   894a7698396b9ab7b87898c88789b99a798c6b8b9d6d89db777c9a7b889a99caa68acaa787766876
col23:   5846577858898d84686655997975ad5b69bb7a789b9deb9ed9dca9a6fbb77cc77aa94a876976876b
col24:   77667667455797964c89c779467cb965cb78a87b9997788b79bc6bcb95bd5ca68987da89887c76a9
col25:   c557664c8a797a8b8c6c7bbbaa9a6eb889957dc987ba7ba6c6a5cbaacb9a9cbcaa7b6b7cbe465dc8
col26:   9784a7b99977b9897aba489accaf8789caaaa9bbc97dddda9cba7d9e8a9a789e668bed8ce9b9a8c7
col27:   6cba4a949689c8c669ad9bd9a9bcab8c7b89cabb8c39ac9dbb7cbecaaefbaadbda7a998caca98da8
col28:   6998b799887bea55fdeaa9adacb88e6a8ef9adef88fddcdaadccbdbbdaad7afaca89cb9ce5c7aac9
col29:   b7ada8b9a668b979b8aa8ddbadca9bc6ecdbbebd98bcec97c8def8d9ade6aebdbac86a8caeb97d99
col30:   8459995acaac9c5bba6dc9bbc7aa8d9fa9b9cbb978d6aadeaba99ebaf7aaae8989c9bb8baa6b99aa
col31:   bbd99dccb8e9ca9ddbbbeaead88ab9bcdaca8bb8bfdd9cedceeefd8f8ca8fcbcfbed7aadb779a8ea
col32:   9599a95ba98bc8c76c9dbdbbdc8a9fccedaff9abb9ea9add6fa9dcacddbbeacfdceecdb78c8a9afd
col33:   69c68b8bcb9eeb9ba8addaa7b7bb9daacdaabcbb8aaea6ebbacbbd9aa6bfafaa8daba9b9bac9a96a
col34:   898bba6caaaabb9887cc9baba9bdaa8a9b9ccab8a8caabbef8efedbfc9ebb8cbedddd979bcd9dcc9
col35:   dd88b9bb9deaa9cfabbcbacbccbcadbad8eac9dabbdbad9afeecaabafcfbc9dcbaabddc9ab879ab9
col36:   798b9eb6eadc69c9acb79c7c8b99acababcbcff7ce7bbd96eaacaf99dceda9b7bc9bdbbbadbcabad
col37:   a979abc9ac57899bd99d9dcd9deaadeecb9b9bbbbde8ebdffdbccff8cf9b7ccfa9baacaa6adcebe8
col38:   9bdbca99d868b8babcadbaceb6fca9ce8ee9befcbaffbbecccb8edcdd88fdbcdaeedefc8badfb8bf
col39:   6aababdcc89facae8aabdb9dabca98a9dbcaf7dccabfdddcaccbefbbcbfbd89ccc7d9b9eac8a89dd
col40:   e99968b9eacaff69799baa9bdcdacfabddbcabfa9ccacdfcedb7dd9dfefbbfcfaeb6bfd9b9beacdc
col41:   bda97b7a9ddbccba9c9cdaa9a8cf9fe9dcbccfceeafdbdeeceacdfcdfcdcdcfbbe8eadccdcccbafc
col42:   75badcbcdbbd9cdcccc9acadbb9bcdbccb97b6ebdddacfcfc9cf9cadaacc9bdcbdbd8aaccad88998
col43:   bacfabdbdcacbed8edcddbdf9de9cefbcbccdfcbddececdcfdcc9c9ffefabecbc9bfeabefdebaabc
col44:   8c6bb47cabc98aabce8db96bebbbefceebccccba9fd9fecce9cabd9fbadafdcca9ccedacfdd6f9b9
col45:   dacb4cbcdaaa7fc9ebeecabbcbfcdcd9cec9dabeeabacfcefceceffbfedcecd8edc7aca9acbb9de8
col46:   a9a9a6bcddebb5b9cb9de9b6fbbcba9dfce9bb9bd8cbdfeccfeebaededbe8eedecaba9fbc88cdccc
col47:   c7a9debebe8ceb9ebbfdfdc5debafdac9ecabdcefbecccdccdbfebdcbfffc9cfd89dfe9ee9b6ccaa
col48:   bc7b89b8bcfadcb8ecbbdfa9cfccdeccb99ec8a9a9ecbbdfdd9afadfdcacbccbacb9debce99aebc8
col49:   9dacccafc89d8dedadfa9baecbcaaacbbcdedb9fbcb8d8aefcaddaecfcd8a9dd9d9c9bcc8cfcec99
col50:   dda99daca8cddeddbcbbacddfffdceccccddccb9afcbbfcdeb7fddbcfffccfdcadae6fabee89bcaa
col51:   3d95ca5b88847699bb99fdeba9e96aa7bca9caac6abfccdbdcbacadbbccd9cc7bccdb97f8bca8aaa
ROC:	 BPix_BpI_SEC4_LYR2_LDR6F_MOD4_ROC3
col00:   84596439b686994c668756a58a5d75b75aa6267b797897468ac7785961677786683a57a7778a8216
col01:   a899a56968e95985979d6b898cb9978d888b9999a7cca79c9d77da98da84cdca5b6937e9f69c7691
col02:   953967e77347995aba89787799aa8b7a9a588b99caac89b6a889bb8f82abaab777b4cb983c5a67a7
col03:   b769482c799bc79a6b8d8a78a664a75dbb6988b59aaca78fbab997ab7b6ca9c699c9bbbaba769bb9
col04:   88786a9778b5b96a958877977aba8fa6788abbb9bcd8b7abaa8c89dbaabdc95a67ba8685ada7b883
col05:   6674a78758bac8ab789b799ad89a9acec9caaaad8b686b8a4aaba4c8cc7c8a8ebb8c5d8889abaac9
col06:   6aa5678a96c69a688ab8b6dc89db9ae8cbcaa9e7b8e76c85bbc5c8cb9b9577a7969c8a7d996bcca8
col07:   7e667a878697993bdabada9548ad8b77dd6b89ecb8c9b99a9bbf7bcbaea4b9bc659b5cac8c988dc7
col08:   a876bbaa37669a7c8b787879c4b878c5aaa6bb9be98867b8b89a99a5b8aeb7b799687938cb986578
col09:   b776b79b799b87948aa9e7a9b9deaa7d8bba98c4f9779dbbcd97cdba98ccbef7bb75bca9ad4ba9b9
col10:   d67869a65976a4b75bbe99b2d6ab699898fbe9d6ca4ab9c98ea8c99f9dc8cfe655899aa7ca6cade9
col11:   838bc653673c99889b4d98c6a98c8d6dc8cbfb9cc5db7e7abd9bb68d9ab9bab6bdaac9948775cfa9
col12:   65598196b9bb979678b7d6dd8c9a7b69aa7aab9989c9aaaa9bb998d9dc8cb8a9a798b8894a8a86b8
col13:   75a84ab89bac999cb99a69698abada87bc99c9ab6b9e79a97d9ab7b8cbc7dab7acfadc88cc8a86ba
col14:   89996697892b65876b9bb696cc86d9c49bca896ad5dbc8798797bfdcbb6a97a6c93acb68dac27aab
col15:   3a797abb979966aba8ab9cc69998bb9b99cba7a98697aaeeeecc9c67bcc8dbc5b9b6b9a994b69884
col16:   598857959d596bbca8cb7c9e8999fe56bca6b8bb7a799c88aabbfd9bfa9c8cb7c579c5579a99b97b
col17:   9a588b97aa7ae9b38a7a7a897d8b7b99b9b9d88ab79d9caaa4b9896c798ea658adbb67aca9489567
col18:   6b5c5a7a97b9598388a77c8695b85b8ab6e8eca98a77bbeabceaccbe8bd8c99b99b77a679b776c77
col19:   79695666959556946897a498bba978b6c9aed69d8db8a98979aafecafaaba9e9c8b79c5795899bc9
col20:   879b74685897b47ab8eba6fa8aaa7a9aa87b7a66c98aa7a9896bcb7aeaab88d98d39db7c8c59a7ea
col21:   8ba68a66b9b979774d6e9ba779eaccec9bc9bf8c9cb88a9a8ada7eaf87da886aac89b9aa9a99974b
col22:   974947a668548a557a69a668d678b8fbb898eca99c8aaae9bbd98bb9eba9a878a677daa9b87aa893
col23:   6316ad9cba87977a9cbdadcb95ad88cc779cc9a6a9cb889ccba8979b9a7bdb87d8a9b96c8bb69b98
col24:   78a539a47c996a875987cc86474698bb8d5984a98b57fdbb99c49c99ab9bac8bad7b5a8cbca289c6
col25:   574769b9674b97bc75b9b9b9baa9acdbbafada9bd8b9aaf858eac9b98c8c9cca8bd859a79babcb88
col26:   ab6aa7ac9c2cbabb8cc6abfcc9dcb99ac6aab8fe8c9f8aacf3c8d9bedcaadba9b976bac88fa99a99
col27:   689988a9eacca7acaa8cdebaa9aab67f8e889a9aacabdbf9acba99fc9aac9caf9bee998aeabbaba1
col28:   9a868c6a89a6b6989cceb99dcd79acdffbe8a688aadad8feaf99ecdbbc9ece9dafebd77dac96c7b7
col29:   c49a9669a6c8dc96caaf97c7b9ada9ac7d88ccbf8cbabcdacadbc9ceadecadcb8e98773c58aa8a64
col30:   956776aa6bbbca7eacbfcdf89bc9a6df9db9cd97cadbdddcbbb9bcc9bbe79bcd8ad9b9b8a75b67dc
col31:   ca68bcac7caac9a9987dbcbccabcedc67aa8fcbebbfcdfbb7cfba9fcfea88bb8eb88d7f88ffa85c8
col32:   c8676998b9b688c59ccc9bbdcbfda8fdb88a99f97abf9a9c9aafccdbd8cdab68e98a96b9ca99c957
col33:   8b7a658cac8bbaad9a9ed9d9cd8ba9dba9c9ecbc9cda7bfece7bb6cd79abcfeab6dd9c4d7ab97ad9
col34:   64cb6a6c69bbb9757dcbbdcbe6baea999eeadadbdaadcbbbcddf8fabdc9d88abdcb7ade6ab5df8a7
col35:   75878a65cbbcb8dababb9febccfb9ccacaa8daade7adb89ddcec9dabdfaabccc6bbf9e7daa7ca799
col36:   a568daf9d79ea49aaa9ac98afaced99adaa879dabc9afefbc8fcbcdeadcbfa6abe9abef57cbbabc6
col37:   96c97b8b8bccc87abbdd9cdb8bb9dcbd6d8df8ebc5f9cebca7b8ecd9fdacaabdc9ab99ad9b6ecbb6
col38:   a89ac9eda58baabae8a9cd9b6ba9b9cea7dbdcede7fab8ccecbabcb8cbb7eb9cb9dddab99ac9a985
col39:   a99d5abcb9b898b9baccaad7f9bb9afaacfbdacccbddabc787b8fabddc69bdc9f8de7be9aaaaccb7
col40:   6aeb9b996e8e8a77bd99cb977b9aceecebbcbdcd9c9cadde8beedabc986ada98db6cdb988b8cdc87
col41:   b86a798babba9babb8aabadc879dfeadd9ca8f8ecef99cabf9dfefacb9d9eedddca8bc9e99d8dbd7
col42:   8a89cb79988e7fbabcaadddcceedfccc989cfbacb8d9cccc9cfcb6fdecc9ddea99aaa9b9de98b7ca
col43:   8aba997ba99b9968bd9dd99acacdeccabecadffbc9dcaefbb79fb9faa879cbc89bbb8ca9deea9ab8
col44:   7aaa89ccbeaddaaaa9a4ce9cdbaceeddabca9b8afdc98ded8ccbeda9bb8cfbbd9a8db97b9d97ad79
col45:   a979ccaa8bb8ba67e7aeeddd8ac8bbbe9fe8cfcbadc4bccdbdcfebc8eca8cbfbeabe7cbdd699cea5
col46:   989c8587baec7867b5a9d4bbbdebbbbabba97da9ad9e6d8a8eb9aba79ac9c4bcb8c9cc9fac988aa8
col47:   d9c99c77ed8a89a6cedc8a4acd5d99dccdccbb879b79cbe949e9bafda98bddcacaabbda9bbbcb969
col48:   8688898da87cab9bbab6f8cc9d69df9fadcdabddadebd6d6c6bacbaae9baae98facbabb8b87a9783
col49:   767f888acaa68a899abbe8deb8acca9a8d7a8be9ab96cabc9bcc9d98bbbadbbabedd8cdc78ccdbdd
col50:   7c8c6ac77999bea9bb5e99a8baf9bccbc679bdbbdcbebebbf7cfadacbb8dccd75ac9ad99b88add7a
col51:   8c27797aaa5776999a6979a9ca86589d988bbacc5a556d7a9c668cd9b78999a86c6993a3a686c594
ROC:	 BPix_BpI_SEC4_LYR2_LDR6F_MOD4_ROC4
col00:   a96da99537889867b98eb9d6b96aa99e96caaa379b98f8a949beb9aaab978b16999888c67793b58a
col01:   a7ba79abeb4db9e6adbb988d8b9d9c7cb99a9799eb999acdb7cb9dba8bdcaa8c7dba79a8b76a63a5
col02:   db7bb89bc8cbad7a587abe8bbc6baa97adaab98d7aba58bb9eda894e9a8b968b974579c79b6a76a8
col03:   b7ccdb779bcaeacd7d9f9ac988aa5e82d95cfdb9bb8e7dc729fb6aa98aa9abbbb5ba8a9c89c76998
col04:   a89b97d999b8c9f9da989aec89e68a8898aa78ccbe7cab9d8f8e6fa9c6e6cbcb99a8a8386bb76ab9
col05:   bcaab939797dfba67b6badecbe8ad8a9d7db9dddcdc8ba7ae896c5ca9dcb7b8d8aaadab78c9a7976
col06:   97df77bc89bdaea9cbfd59cc6afbb98eb9c8ba889aadd8e67baaa9c9da7da9ba8a97da8caaba84d7
col07:   9b78b7ce9956cad9d99d7db848b897baa49baad7b9a988bb9addcc89ba68ab6886fb8894a69c9868
col08:   87ba4bbbb96c9f6aaa89c994abcba6aaa6ca987cb8fa78ebdbd58efa7ab6a968c7d7baa79464a6a3
col09:   bbbbbafa7acbffacdbb987a9ebb6cebfd8b8db6beeaaabbd89ded598efd9aa7abbc6cfcaf5ac87a5
col10:   da68bbb66abcc8c7bf7da989cae9a9c9fb799bdbfc9a67cb6da9c6cb7bbd999a89b77a5c8d575ba9
col11:   7fd58c985ccaab8978a9a796b7baccd999da78c5c78abacaa7a6b6dadaabe879876886a8b66678e8
col12:   aa8687a6b989ca7cbccb9b9bf6b88d45ae69baaa9be9d8abba5e9b8cad9b9b841ca5a965b789c69a
col13:   b8cb6dc87fc7cc89a66bacab93d888d8abcafb5797ac7cf8bbd9dc68fc99bb9ac98899b9d7659579
col14:   996ac88aec7d65a8889c79785eb68c99a97cb898cc5adb9b7db798c6a67b6b687919a66b5ab88797
col15:   b94d66ab95e8df66ac758abbabc7d4bcbcca9c37de99cdcff46e986979beacbb8b748e889985799a
col16:   9599c9b4bc7cfcb495d9dbaababbc7ecabcc6f998f9a68989ab89dafa7d9868aaa858c9768633494
col17:   9c686a857c46a89ab7ca7956ab79aaba9a8ad8ca59ab7ca78a699ac869a86d84a575876a8797587a
col18:   a58a8677bd97ec7a4c5a9cb865ca64987969a7b6b98ca9a9dad76a9bba6ca597966a88d5cb595576
col19:   7774eb98d3b7b98d96bdebbc749b8c9ea9d8c9e89a89ac9fc8acb699b79995b7adc788a885798a79
col20:   b5c3929896adb7987baabb777876e8ed7899bbca57ac5bc9c7d6766adb84996adaa87a967d974758
col21:   d56a9baa8358d974aefccdbaa7ceabba99b59fd9dadabbbbcc9cdb89b9a755999178b5599bb67796
col22:   c6995e6cba99289b9ac88c68baa8b85a9a8857eb8c48d78ab987deac69cba777c5976482ac654775
col23:   558b6b76ed677e57849567c62abcaa579f88a98cb6998b6a6d96ab9597aaaab78b8aa57596948a84
col24:   8bab77b784e688aecaca87cf9bac668be97c78aaf976ba698daabd7867ab6b6866587aa9a93b4977
col25:   87687e89a99b888b8a89897a86abc98989ac5bbc658abe9c9b5a889afcca766799b8baa65c66675b
col26:   89c89a5bb8cb79a78aa9eb97aa9cebbcfa9be589cbabe7db7fcabc9c779fa5b8b878a89cbb89aba9
col27:   a8caccdb89bb9a99adb9bcbbdb9b9acfd9987bf6af6fdefbd9fce6ac99d97ba7dbd5ab7caaba7a7b
col28:   a99b7b67cbdc6cafe6ddf7a8ad97a7cad5bd6dbbdfaefdf9bcedcae7beaab9b4a768989b77a79455
col29:   6b886cb667bbd8b8a8dbaccc7dc7cc99ebbce799a9b8796aadc9fda5a8bb9daa9ccb9d8acba887b8
col30:   b88c69aad668d6be99be98ba5acc97fcaacdcb8ceacbccacabbb9b87bcc8cc79669b99bcba8865d9
col31:   6b8baacaa9989dacb9ebbc8998fdd9ba6acbbcbfbcadeaccedbeacaeedcb9db8c97abf7d9c9bcc97
col32:   989c9aacadacd9bdb888edbcbbacf6dcfd8babddb8b9aacec9bb9fc7bb9b7ac9ab979bca9a8bbc97
col33:   5bfb876958d99dbacfebf9cdffcdcc8cafcd9dba7cd7c9aa4ab99fdebcffcab87db8b57aaa958884
col34:   56baac79baeba986dcadd7aee8a7bdcbdbd99edda8ac96b9b89bb6ff8bcbfb9b99c5ba9989b6986a
col35:   b5a94b98c8bbbccbabe8eabfbb8adeac9ac7deb9bbb9ea88cfcbecd9ced999d8957d9887779c4599
col36:   a9ca7aba77cccadcbdf9d9bdd8feb4cbd7ecb3befaf88e99abddc8c9ba9daafcc8bcca6f8a9b796c
col37:   6b5cdb9c8ec5abdb9ffa9ddeb8bafbba9eacdecbe9bbbbfd9eaaabbbd9c6fa8389b96de8c8a9a585
col38:   98d8f8db99ca9bacc9dbbdbcdaaa8af8dddaccc99d8ebedb9efb6fb7edeeffacabbaf9b89cbbaba3
col39:   ac6c8bddfc9aad6bb8cbccb8cbadbbfc697eca9caeee9c9c9bdde6adb8bffffbbcbbba89abadc756
col40:   999d6a8eab8d8e9ba897aac8cedcad8f8af83ff7a4a9b9cde6ac8a9dbaedb789abcbbaf985957949
col41:   7caadddcbfdef8adb95ea97bf6bcbac96ceee79adebfdbc9bc797dcdb8fafadcdf98aae9a6ebe769
col42:   bde79daacbaaca7a7ebaccab89d6cbbcdb688fecdd97ed9ca9cdabbc7cedeceb7dacba66baaf8e79
col43:   8cac3a79baac97a9adbadaaba5be8dacc99a9ddfba9ffeea69ccdccd8abddcb9dc877d69a6486dd6
col44:   ddac8bc9bd9f6f5ac89dbedb7e9dbab9dabecda7bf7fbfb8adc877feeaaffabe8cd9f789da8b7ae8
col45:   6d76474b7c2c8da746aea7bfb9abbaaddbadddae7baadea8daecdb9ffdcfdeaafcd6d698fb89a96c
col46:   a8975db98b899aa8a7ab8aacebcaabc97b9c9bcbabbc8ca6aaee6afdeba4ebcad5dc9a96888aabcd
col47:   a95e73a8688a7c87b59bbb9d89cdbccdcdbb9bedd8d8cbb995bcbb79adfcfcea88adbe9dabbad69b
col48:   a8a887b8868ac7a8a8bacaaca8bdc4daaaca9debccf78fa9add5ad8ebcc9faaaa7a9bbaabb5a8bd8
col49:   67767899c6cab4bca9f86c89caf8bd8d99bcccb9cddafab8d97ec9cdfccbaeb997bca7b6bdcac994
col50:   99a56d65389ade87d7c5feb9e9fdcccbd8acdcbdaacdbfbaefbaaae8affcbcaccabec9bbc9dea257
col51:   5854378669185a865a8865a6a94966986eb978acfbd99a8cf6cabb7a867997c38b77884a7649653a
ROC:	 BPix_BpI_SEC4_LYR2_LDR6F_MOD4_ROC5
col00:   2559627787776496851665a595789888aa4787b88793899a89a996276868668c9739c92a88688673
col01:   6677873a877aa99b896299a9b9c88bc7a8a784ca58997ca878e87b9b849b9b9aa8c69498767c6788
col02:   39736699c796a56788a8841479b68c779b988977c9a679a87d7cac7a96d9bb9a58c98b8897c99755
col03:   91597a848599d886997a68b97ca78bc89b99aa9998a99caa8b49a37cca8787a9db4b85f4ad9577a5
col04:   94a95e869a768549688949a739bab69c975c699d7a87b87d99979b78cdc6b99b99b878a8454aaac8
col05:   676547368587c5a6c889b9aab679bb94b597cda6dc7a8995a977668a776d768a69a788767b9a8857
col06:   727496666d4637996766a9c78c7585a7dc9b659dac87989a9ab9759aa873998ac88a79486859b778
col07:   c8b66646669476caa9ab9897a98abcb8aaa8b9db8c78c8aa9bcab7c68b6cbacc67b58bb988c98a77
col08:   5a194a8567882aab98b65589da89484cbdcb9a8dbb8a59c6676889a97babc5bd5779997c88d6d876
col09:   878a88655a69b4396a8ab4aea96a5ac6e78a98ba886a55aa79cec9daa8b6abcc78897cadb95a88c7
col10:   966669729bc88696cc797b88a8da6aac8ca7888c9bbd8ba5da8a98ac5a7bd8db9c69c5e86686b957
col11:   543ab63b867aaa8b5b7889a97c4aa9a8acacacbcaeaabb766b9b7c9b798ab8868979a8b87aabc7b3
col12:   96764889497b66a9ba8c688c987698bac9889877acc6dcab8aa9798786ccb29db69cbb6b88688577
col13:   778847887e78aaa769bb78a4ba8aa99a8ca68a8caaab7a8a6aac7a689adb4c9bc6a7a78b7a799b45
col14:   853686673455694a36698a89b788bc885caba9a8b9ac78abbc9a99a8c4b8b5c8b38b9bb985871986
col15:   7677565276a87bad67a8837959e978768b7bbcdaba6bb9aaab9b9c7a69869e9ac88d98765b89799a
col16:   68767ab68667998746974ca8d69ab6aa8bcc7987bdafc79dc99aa66787e8aab7d776a89ab779a668
col17:   aa369317817b9b8ad9a7ab787998aaa7ebae87aa67dcab6cbb8769ac9dabba768946995989ca9b67
col18:   4835538396788975459bb67b8ba988b9ca7883aa77977d5acdaa677a899a99b6b9a98899ca7bc78b
col19:   548664695a7aba9689a9769b4afbc9cf8babfc77b5eb9c5bba86d69b8bba9ca9a77db9aa8bb8c874
col20:   658652267659777788cb45a98bc7bbb99cc7aa89879899bb96a8aabb4c7ba9a799a9688cc558e958
col21:   5957776c97d8a8a69aaa97bb7c93ac8b8b8a97ba6899999979baa998a9c99b6899c9787dca767776
col22:   29668977686a6a78a8987b8839ba9b76ccba987dc6bbd96bb898ba789b6cb889cb8b7c997657a8a7
col23:   295666988aa567a67a79a748687999abd9a9acbb39aa79c9bab969d8cab9776a8b9bccba899aad67
col24:   5762a9686483bb8c9899a49a7785b8a89797979fadb9ac77db8a6b7a89978ca695c979a867b8a97b
col25:   876798a59948988abc88c86abaa53c74cada87ea8b867b875cb29a8d9b58da8c8a9b8b96a97a89aa
col26:   3b8a7886b98797b8ca7a969a9bb8858bbbac8c8bab8ad7ccddabb6acccbb8d867dc998668ca7888b
col27:   798947a85b998baa7888b9aa98abaa9b88caaa9ca9afbbbdcd8a9dcdd56cb7b89a58aab89c8ad99a
col28:   a8886a9894babc6aaaca9aa76cabb8bb8aaaccace778bdaccaab978aa7d9cba7c96b6ab98cca9a59
col29:   8757dc95889bc8e9dcbbbbab997b97b599a9aabb9babdccd89ebaae7c7aa99eac8bb8bbbe7da99b6
col30:   a63b6b889cbec8bda9dab9ca88cca5b99da9aacee5bab9d9a9bbeeda8ba9ba98b86a8c99a9c3ba88
col31:   b697aa8b5dbcc94eb9b998cacea9afdc9b9dbbda9c9bedabddacccbd9eabcc8d9c9a9bb8acbcd6e8
col32:   bbaccaadcc9dabbb96c998a88d8accc9de8ac99cc99e99bcac9bbbccb97caadd9b7d98ccba8bdd8a
col33:   9aa598889b82c9caebf9bbdb9bfb98aaacabaddcabaacc9acdcbacba9bbcab8a8ad998bacb6caba6
col34:   89c99a6bc8bbcacccac9b7bcdd6ddae9cccaacbaa9ca8dbd8b9bb9b6bcafacdd7aa98e9abdb7d7a6
col35:   acbab78a5d8ecdaadfed847bbfba8adbaabccbccdbbfccae9c79dbdccbcdbccdafbeaae8c8a9c979
col36:   98a989b67ba9ccacaeabdf69bbac9cdba9c99cccb9cc9bdccbdd9ab8aaa7accd9599baaaada98857
col37:   a9cccb7a9bc6a7bacdcaebbafafcdb79fc9dc9dccbabcecb8bcacccb7c9ddbdcbb8ba7c8accdcc8b
col38:   98a6bbcbbebdc9baecb99aa9bcbad99cfbcbdddbdcf5bdfbbbdfddbcbcb9a6cb7999bbcbca8ccd89
col39:   a8d8adcebb87baab7b9ac9dfb9ccbbdedcbdeecfaaaba8befa8fbaadcbceddec9997c9ddbdb9cc88
col40:   da9a997bb9ccbb7becca8c9eabcb8eeecc9beffbc9cd8dcc99cbbaebfcdcbeddeb8ce8fab795c879
col41:   979aa9ca9ecdd86cdebbbacbcd7d9dabfca9aaefccafeddfc8fbbdeebec89dd9cdb56adbecaabcba
col42:   8bc9ada7acada9b9cdb6bcfccd8affcbaea9acbefbacbabcdbbfd8acae8dda9ca78ec9de98c8d4a9
col43:   9be9fc98becfcbcadbdbfebbcd8d999ccb9adeededafebceceeabfefffbfdac9dab98fbdb8db8dcc
col44:   ababbcc88dc6d9cecfca999da8b9e9ceeaedecdddfcaffa8efbbdfebcadc9aad8cecf6cb9bd9c9aa
col45:   8769b9babb8ea89a9ddea9a9ccbeb8babfdd9abadcdbcbfaecdcdcdcdaadcfccaad8ed9bc9aed8a5
col46:   bb8ca9cac88ad6abb8fcdaebe88dcbcbccbbdccebecfbaedbcecbcbcfeacb789bcdcb9c7c787ac8c
col47:   aa999acaccbbbeaafdb9ddafacecacacf99cfefed9cbcbfaacde9bceccceaebeabbaebacdafaa97b
col48:   cb6abbcbbaeb9bd8fb9ac78ebcabcbab8ecbecefaddfaeaddfdfccbcec9cb8cb7bb8ffbc7b8988a8
col49:   9e898bacca8cc7f9acdd9b9bbefbafdbcfceafdfdecafecb9edfccbbaf9dcecffccccbdda758e8a8
col50:   8ac7bcaaa7ac84bcdaeaaedbceadeebc99ffdfbabdbcefefbcbbeabce99abdd87faba7bdadb6ea79
col51:   7957d97da9988a6ca68acadacd9c9da9cab8adedddcd8cf99aabcddaabb69db97babc957caa9e89c
ROC:	 BPix_BpI_SEC4_LYR2_LDR6F_MOD4_ROC6
col00:   45c9434454ab99998478a9ab97aa787a979d762adb9a8d7b865a897be88398b88975539747638452
col01:   a6865cb756b9c88a8db4999ccde9a9a88b958c75fb99fdcdabbaa7aa89e98597bbb77c83bbaa4597
col02:   5487468e5775caa84999b979a5dbed65aaab7aa757f8d8859b9c5889aa54d7c6ab619bcb8a428685
col03:   668677969ca74b9b6a589bd4ca5aa9d988bbdaf7aeaf5acded5e9778b5ac9c99b8667a87bc7a7636
col04:   999ae95babbaa9748b98a6ab98cc8fa89cac6499cb9ba8ed8cd6cef7a9a68dd8b9cfb86f956ccea6
col05:   68686b7bb6c9858869997789aacb8e7daac599f9aa69ebe7a9aabc8c96c8ab47a76b9889a4c57585
col06:   a925939559675a8da995bf9699d8ac9daaaf89c99a7dc8db89c7d7ac99c898a8a8c74689ba85abc4
col07:   84ea39ba4a4a9b388ab98bc6b9e6cf979ba5bc8986c7f99b7cb9e979896bb78cca7bb98a99655984
col08:   678899a8b9b776bcb64867ab7a7e88e96ae97f65b4b9459d67aaa9abd9beba6c8c8b98b69a769568
col09:   36673625566aa7bda7788a3ac7cdb7989f9ad87d9da8c99be8aabcca9baab5bc87c4ac68885a845b
col10:   9a23a674996b6e64b9ba97b7994789cb8669dcc97fa9a5bd989dac36b94abbbdfca8179aba899a84
col11:   8659c896864a666bc956e9c773677db77677bac86d8abbc87d5b9d4aa9afa576fc8968d85778637c
col12:   955373986aec9a85d86ca984a797ccb6adb75d4dac66ecd698a8f8cd9bbb9aac689da9a637ab5454
col13:   79783937a88369785ddbcb6fda6a83b96a8ea5abc9dacbadcc7a5ccc7aaee9d99fdb697a957a5b96
col14:   b6875948799368169a6a6aeb4bc99a68c9cba9b98975b69babdca77876ba68b69b5a79a98a9918a6
col15:   9abc97c57aec585ac989b67dc84ee5be9a7bdab6cb7c78895988ad6fa667a5787b868a6da5a73868
col16:   4549cd6b5677b87979ad9885b48a7246a697bb9b5e98bd7688b8bca77c8daa9a94974aa67869c799
col17:   34393a176a36aa85ba76687595675795976bac6a868a9589c999c6dc4b89999b19b288657595e4b7
col18:   7865778961a9589cb697b7aaa862cacf9cc4bc788aa866897af478caeaa568eba6869b9179a383a3
col19:   b77989aa665623a7aa8c72a49d5abbaed5edcbdb77d77976d98c7df9f8ca5788b9b79978b7696967
col20:   565376876536727bb7b4baab8b65656949ada9666e87a6687b78d89ba8649b96ab9baa8699a67774
col21:   438a589a8369984c98da7e7adcda8b757978a87a6d7ec6cbba5cba8bd797ad5a96b7c8f4686aa724
col22:   727c583a7aa89cb953776a9ad9aafada6ad9c3b89a9bac8b7a95998967bba666579a8ab69d6d5661
col23:   77595892a2a85778b9b58c8489ba5b729cfb7c38cc8996677f9766b9a9b76746485374793a21b525
col24:   2567b6b6bc5867985c99aa976dc4d579b89e969babaab969ba54a799688ab979b9798877a77568a5
col25:   8585a456949b987aaa988868aa5c358dcbf8a6ab9baadaa9a96c5fb5abd85487ab9d4b8685c6a976
col26:   4845957648aa97a79596aa88b8a9bfdab98679db7ebbcbe8d7babaead8ddacc8a8b69586c79a6698
col27:   675a98c978d7dcabc8c95d9fbd96d596baacbea9ccc967bcdd5b79a9aaa887a8e7bb86ab97d3a796
col28:   cb41954ab9a79f84779fe4999ba58fbbfb8dbd8a7887bfb9cbccccb9d8dcaacecbd768b7eb5c9cb5
col29:   6a9679987a9d88798b7a97acc578ab4abc9b9a3cf5bcf9689b9bc9956ab8a5c9b9598ba676768e72
col30:   722d3979e778bbd88aacdadcba8a7e79ba9b98f9bfb98c9669e87abd6a5bba7e8a3cc8948a97ca18
col31:   4888989bbb778b889cc9ddcaaab79bbd7fabcbb8a9ba8ccceb966c9dbbdc9ad7c9b2e78fb7c786b6
col32:   95889bf5a8d57cc9babd4bdccf6ac8cc76ac6cbecbd2a9dac8dc9adcc9eaab5e88bea9a6b569ab7b
col33:   9a7397ddf7bba97bcf6eb7eab79ef96ec8c997acafdb897ab8b99a8ededc79b9b9aa4ada7e7a78ab
col34:   ae999a8989baba968a9caabbcbc97dce8bf8abbdeecc8a97e69db827ed9c6998ccb4aba86bad797b
col35:   8a7daf78ebaaa9ea5ab779c9ebcdbe8dbfcad9cc5fce5feeaae6aacc8969488d8f7de8b6a8adacab
col36:   bc6c998799a5ccb39ccbcaec98daed9a9dccfbeff85deea999b9b899c6cdaa7caba8d7ca99c58a89
col37:   3ac6ba6a6c9b966b9b9adeb9a9acdbbcb9fdcda9bdeab9cbdcbe8cdabefdbad688b768eda9a59b87
col38:   6bc37a7b89aabb9f9e9e796a6d99dfbcf9bdbaacecbceb8ecbbafd8da8a8adaeabbc91bc555ea8bb
col39:   779996a9cc9b8baacbd89cc967ac9c8f6d689acadf99fa7aae767cefabd7ceeb968d67d696db6f9e
col40:   82aa69ad63cad79c8d89db7bb9bbece8abfbd8b9c9adfada5ffb88bfedd75bcff8ae9aa9c997b5a6
col41:   5aba99ebabdbdcd84dae9bdc8898bacbdeaaabf8b8b96cdfacbaffcfbf6ccb78588ceeab971aa685
col42:   b57968f56c989cba88dc7bccf7c9cab99aad9dfce6ca9a79cabacd5eaab9cbcc7b7bc8a9c8a8bd89
col43:   e7c4c9c787c8ab985cdce688bebdcaa8aeeaeb95cadbcfecffffcd8eac8bfaac6ce8ad89ca9ca6c7
col44:   6d8b7cbb79d9994dad9bbdbad98aafcf7cfcdadfb9ff9ffcbbeef888aeacecc78a9afaacde8b9a98
col45:   c8aa1bce6bd9b9daeddadcdaebebcebcabeefecec997edd7ed8ddb8da85ca8aaaaaca8bf9d69ab56
col46:   7c8bb88b9eed6999b9b8b7fb889bbbdaefbe9bcc9ba48d9aa9876aa8adb8c898aa966ac8a8cc588a
col47:   69a899baac9af45978c7bcad98fb8aada88cca99bb9d9dedcdd7bafeabf9bb93cdb84a9ab8a8c98d
col48:   9ba696a7c788eb9d9db999daadabb89aedd6bf9ddba8acbbdb7689dccc7dcfba4cb7b5e68b7bbaaa
col49:   b7af2b7e89d98e7b675dcbbb8dda9ffacca9eccb7fbefee986c95a8adacd9bfa6a6fb9cbce96c8d8
col50:   7d66d9faab8799cb778a78daee98a56a897a8ed9bb9cee879bfb86d58aca8e9ea99a9adcb88ad9b5
col51:   5697828ab688878b55899697b946ac872bb67a9c98e88ca7b8a88a8778a5dba889b4ca586a874995
ROC:	 BPix_BpI_SEC4_LYR2_LDR6F_MOD4_ROC7
col00:   55598439895688569a299538753469457439755678a74a67825cd977487664499395744a98424781
col01:   21627677a998ba67c598676d64c8b86b96b778ca6aa98bc5ed967999b974899b67aa6686b8856242
col02:   683a59a57a83595699765aa68c5a5b6396a9a889a6d7b89878b85864cb998778a7799b559a977829
col03:   7787858875889468a3b8276b7664a63997a5a8779797ca386a8888fbaab3a98759ba88814748477b
col04:   5797757a5666a7b64384495456559f8b67b7a7bb9c975979787997998c9cb898d8786a8875987a55
col05:   272946879a872574684b587757768579a757bd8c49c6a676968c68a5d9788b598a97999dd9636676
col06:   6458245147669b8d7438469bbbaa8c7b6894c96c98ac8aa797987726884689384a79679686699739
col07:   7b9947596a8b54aa978c8c399ab8978698cad8799c8b9aa86688398442c5767d969a55a688888a47
col08:   5565962772459898662885879a49a9b55c59a8b5c887c779c57a786abaa86ba2a99967756aab5976
col09:   4886575abb5899995663865944acb699a97669a79bad69ab7b6bbabba67a97a768a9a67888859689
col10:   3276445184778578a993248a4a3a86a7a69c3daa979779b8cbaca64a87ad877ab8aaa758565c5795
col11:   aa32562377582ab96b8757a7ac5589639c4a9b6aaaaaaa5a5b8ab7ad999a2f983a6aa8898aa85a87
col12:   57a4a86666b39578a4a868b994935529387a68a7ad9d9a6cc797b9a488baa8bca9b6696d7876bb62
col13:   263574588696689368756b457cbcbd988b86aaabbc5a9868cb8a89d8ca88aa888baba786987af664
col14:   6897a238876b7618796b68895d69aa58ac85eca7d98abb8baa6a7ac7c969a66a9a9a7b275b874583
col15:   3556679547658685699a85b978855a668684aab9aab768a99797a96bbd4a799aa797965485863691
col16:   6546572656559518388677874599cb4c9a8c9d999c8d793b7daba5596d8a988a9ca8a657959fb989
col17:   66277569678b888a8a8a66679a96884a1ccc9b9b6a79a7a885988cb64d7a988b79a8a7878785e777
col18:   85284789a558575888896b639666a6a7b7b4796c3977869c898a68eaacbb8aaa758b29b97b666765
col19:   6737344755889867699798b7b5a87a8fd68b8babb6baaa695a7ab35bcaca494db87bada7d8b46bd9
col20:   59b8552c26476376696aa9689979995a9a7d9b95776c96ab7564b9c76a968b4ca578ba3678b86586
col21:   4b57255a4586859a686aa83776656d589a5a8c7c7da9dd99799d766a59a596babacc6586787894cb
col22:   2a88b395475586b7a756a49776c7556ba787b5b889bd7849b8e89777baa6697a67a7684948258c48
col23:   556684a784346986688bbbba977299ba74a88989766aca7869867b5a8d57b986aadba4589797b8a8
col24:   377945682826766944837474a9b49a7787786c779689ac7bbf8da7a76c86a889a84aa68b77589894
col25:   685b7b9a77b787769579ca7a5a8a85cc8b65bb9ba996b8aa8cb7d8aba879678cabe88b729a678563
col26:   8774bc898ca451c8a8899bb9aab9db6cdc99dbcca8a9fb6c9d7bd99c7f5a79ac9c99cc78d6a98b86
col27:   5746b5884b659aa77c7ea6acaa79a99cfaaab795fa87c8cb5ba7879bdcaf4bf99a999a5ba68c8d75
col28:   76ba78948366bb94a8a557ad6b9a569dc79eac8accb87a9a7d778accd9edbe5bbcf8746a8c9ba69b
col29:   8c98a74b8aa79ab8dd9ba96ac99eb89cb8aabab5d877ccbf99ba58bb9e9da9fdbb7b559e9c689c9a
col30:   b8a9a858a987ca99b977a9da99ba7b8cc9d4fcdaaceaa8b6bbdb9a9c7f9bd9bc9c9998bcdc75a4a6
col31:   5d8d5bb577a7dafb9ddab97abcdeecdeadca9b7bec6cb9cab6ade97bd9ebc9aca6dacbd7a8aa9582
col32:   8c6886b5889d9bba87999b9a9caab9aa59fcedecacdeacbbdbc7b7babb68eab6999cbb8fa99a9d9b
col33:   a266888b7ca7bae6badc8b74d9acacca9fbdd6dbdcbcbc9bf8d9beb9c6baeccdb9879acec99c98a9
col34:   8998ae9bb7997a68c7a9c9cad8db8cabc9ec9cff9cdcb8989997bd8c889bcbab7baaaa8ec7c9aa79
col35:   b7998d9a9c4cb86d9b9baaaacdcaccdeccacfd9c7efaa99ed9dba9bccedfcccd6b7be7a8ba9d65a9
col36:   8884d66a89b98cab6b8685c9caaeaca7ad9eabcdb9cac896c9da8bbceecd889dd6aaa898badad855
col37:   8bad9ab99879bc9bbea7bbbacb8c9a9dabfeffbd6aabeeedbeff9ee9dceeb9fecda97999b7ddeeab
col38:   855dbad6b8a98b9b8cbba7a5b6afaebdbba999d98ddeca7cbcffad9aafbd8add9b9b9ba7cd9a9b97
col39:   8b5a8aba977c8b6bbcbbf8aeddadcacbb99ce7aba8ebabfdbc7a9b68b9ecd9cce8db89899fabbbbb
col40:   ab68eacb89bd6bbbb9adb8fb7bd99ebeadceebabadedeffafdb7cbdbbcecbaa7cdaedebbf8bcc79a
col41:   a98b59bfbc9aadcddddb9d8ecdcbcbbadfcaccac9ddefdfcdbbfbcff9cc9ccfcddca9ba7f9aa8aec
col42:   aa77c79a79bb596bbb98b7acadc9c7de7dabbad8cebbbcbdb9bea5cf9a99b69cbcdcd7aabac7baa9
col43:   cbbba88dadbac96cabcc9eecbafecdafbeaccaacffccae9dcfbecbedebaafeddbdcfdaecfdbcbeaa
col44:   8989bbdda98dbb7df9ffaaeb8bfd9b97df9cfbdadfabdb99bdeaede7ea9ac9bbdfad7fcbc7acbced
col45:   9a9998a7df4e8bc9aaababadd7fe9ddbbb6aeacbfbbcaacbecbcfadcdaedcfdabd8cbbc8b9dbacca
col46:   b9dbdc8b989ac8ac98beedbdb8dbdecddd9caaecbbedd8ccf6edc7dcebb9ecd5aabfcbcdabdcfbb9
col47:   9b99caabbccb7aa88cebc9fdbdcbcabebc9dffaddcbbcedbedc9aacfefbbbcafccecc8bfebcab9aa
col48:   988b6aca9bc7b9ade8b7afa9accabadccefb9befcfc9daddadefaf9c9fcafce9afcbdd7b9dcfd7cb
col49:   a9c69b79e88dbbcfeeaceb8bdbedcdd9fdafbc9becddcbfffceced9ceeecdabd9caafcccac7bd79b
col50:   7dbaeab7a58ddcd9dda9ac8dbcdc9eecdddfffcccfdecbddffd7aaabb9fbaecfaceb9cda6c9cadcb
col51:   6799bccd775bb89f7ca9ccaa8e7c9c9bb8caaee9dc7afbcc89abaaaabebbdd68bb9cbbd88b99b7a7
ROC:	 BPix_BpI_SEC4_LYR2_LDR6F_MOD4_ROC8
col00:   25882238395534be7847a798969798767ac86856785588779849b5776a68775633c8434447478728
col01:   396568c795a68aa769487bca9bb7a8ba6aaa7acc68a6998577a37856a87886a889b346ab9a589786
col02:   5669547674a64a7445889898bc9a7b85ba5673898a92b9aa9b676abba86587999599878689437955
col03:   38b57966845883769968b4dc69aa7989799a8ca99699977675598c698be6a99c7b5576968e7759d6
col04:   6456a97749637384a97b8989796caacbb8c9ab89dbbaa9ac68686889a99678589bb67837c8b798a5
col05:   6a884886834a57a7ab5786cca87fad5daaa99996aba877b9ac77a676cb69a576c6aa8b956864aa66
col06:   77877678787857978696a8a8e9d57ac9a8b8a8a7bb388987d48897aa884965968bd565857aa98787
col07:   978a4b4b78a8a8b85898adfb6657a98abbba7da958c9786bd7b896bca689bcb8a78b79476a6b786b
col08:   9495866794839a8b4d8a89caa96acda8a47977c8bc7983a74dc9abaa97797b76a83a598978947778
col09:   9a45776678aa444656ddabd8d7b9caaac7b79686a98c885a87da6985c77bc84bb58bc9a897b77a91
col10:   864969ba98a736858ac9b9ac5bd89ae886a97a99b99ca7a8c6967698a7673d696ab9982b9478a756
col11:   5789985a56a4aa898d8daaab8b88ca79c98c89cf78978ac8ab9a7847987a9796cba96699c79b9e4a
col12:   457547564588769a764588a84c979ba99ceadadc9bab9acaa896a598c97baca96879bb658994b949
col13:   856a73ac56998a46c78ba7ccb7c999bbdda88bb87aa8bbab989b9ad8b9ab898678999bb9a9789779
col14:   6778b952ab9a77559d9bbaa76a8d8a9a7b8bb77bad6b7999ca8989c9b8995a577e96584958566466
col15:   63674b68a699c54988caa8bcd7dbdaba989ba6d6b99c9ba4978ca767a66ba9b5bb6ad5a95aa876a6
col16:   8893373598685c8396ab99d677f8bac99c88b9ab6aabc99ba87b5bab9ce8c9d796ab8ac798457573
col17:   a5a478a476b77886d77abbdbca89a888ca9998a9a76c95a949675cc7a979c9bac93bc97a79684679
col18:   696576687a79b69a6498687be77b7aaa8788b97ac9c7a9a9a9aa9bff8aa99c8d96988b7aa7379d65
col19:   3689796db989a99b6b89aa8ccabcb9b9b87978c8ba9a7a9b7cd7dba99a57b75d4b875d5799ca99b9
col20:   29b558699c9979a79daa6959baa99b57adbbb9a79fbd8ae68ea6796c5a8a6a79978868747a996585
col21:   65a755855896a684abbcb68d7db869a9b9fdcca78addd83c9bdaeb967a6a798aa85ab956a789b756
col22:   484686c7aba678469766bba99cacdca9ca9abc96bbabaae759dd7ab75aad73c6987897758bb77a76
col23:   656a27b9ad9ab969cab7c7a8cd97bba9ab9c9b7bad8d8b6a437a777a9acbb8b857cb8ac78665b787
col24:   676696296628894ba8c886a8c89d8cbd9c8caa86d6d69d7897b99996caea8666989a89878ca7a898
col25:   367998a7ba9a76a9abcdd87cc8d8dd98dd67b6bcb9bb8ebabe89a9aac87b89a9ac777688979b5588
col26:   7b679a86aa77689ccc98bbc8d9eebbcbfaaddc8d7fbaabacadb9fcbfbaac9aac86db96aa987caa85
col27:   c8868cf79d9b5bcaaa7bcaa76dc8aa9bbfb9b99aaababa9bbcaaafcb9bbf88989aa7b687aa97f667
col28:   9a89cb8ab97bcd8d5abb7bbcbca99dbfffdd87acba9a9d7cbd9db8aaaccfa9d85d9c89a9abadb7c6
col29:   944b9a8b99aa998cacdbb9debcbda7adbbaddcc8ed7a9cacd7eadecbcece9cbecbc986a98c983be5
col30:   659a562ccc8bd6b79aa8b8bbacc9eeadc9bcaacfacddab8aef998e9bc9cada79dc89eaba9cbb69bc
col31:   29988b78aa98ab9dfbed7ab9ccbc9bbbaaafdb9e9b9cd9adaeacdaccee9a6ecb9bac77ca89d9ad98
col32:   796cccda8abbab68c69a8d8cc8cdcdaddbfdebcccbadaeabff9bcdbceacccfd6ca9c9b978eba9baa
col33:   6ab78da79a98d9dbdd8cdfbbb99ddf8cfdabfbd9bdc9dad9aebdebafcbdcfcabbabec9aad699a9a9
col34:   5799cb9bbcad99989ca8eafbcffdbbbeaadbbcddcc9caa9dadddda7f9e9dae9db8aa9adeba9ac985
col35:   c8999a8c8eed9bc9aca9dba9c8dbcadebcadfefc9dcaad8dbabd8eddcabfaadeedabb9bb9d899a6a
col36:   d674cacd9b7b9baa9bedb7ab8b7adffdccd87dba9c9bcccdac9aed8ecccfae8c727bbbab7dd9e5d6
col37:   cc9bdedab9aed8ddbbaacbcabbafbfedadccfbcfa9acdcb9ccbcefb7ccad9ac7c8cfbba9aec8ce9b
col38:   8b8a9b88bbabcaacddcaeb9bdebeecadadcbbdbefafec9bbca9bebd8be9dcc9fab9adc6cdaadabc6
col39:   adba5b6b79998b9b9b8e9e9bddac9fcbee6f9cbcaacdadcbddfaa96f8aafad898acbcbc9799ce678
col40:   66aab98cdaa9ea9c7dedf9ebbecbcafbdeb9dadfabcccfacafefaa9daeabbcdaaacada96a9b8c667
col41:   8788fcabdccbde88cbbffd9dfecdedccec9aecfcebbbcfadcaaadcacddcbdfabbadad9aa88969ad8
col42:   cb97aac9caabbbcfa7dbd88daadebbe9bd9bdf8edcacd9beabbceeedee9bb9dbcd9cbddcb8b9a7c9
col43:   5ad9b9a9accbbdebdebcecdecabeffefbedcdb9fe9adbecd7cddda7ddbbbcbac9d8fbacacd7e9bc7
col44:   7bfdcbaee9aabedcdbfd9dbcabaeedcdcbfabcfbfcfdddebcbbebbdbbbfecbacde9bbdecaede9aa4
col45:   dca7c79ac9aeb9ccbcbccbecdfeeaaacdddbbcacadbacabaff9ece8b9fb9bbbb8a8cdcb9bbaaa87b
col46:   8bd987dabadcdeccafcc8bdbb5cfbebcdceccefdbb8abecaddbbeafdbbafdbdbbac7a9cbdcaa8499
col47:   a47a9ddb8c9ebeadbdcc8f9dffeddef8ccbdaedb9eeedc9d9caafacadbcaabbcf9dbdafabdb9abaa
col48:   dcc69bced7c897ac7bd8dec9bddfdec9ace897ecfccddfdbbbcd9ebeacaadedbaeacadc9b8889846
col49:   9bba89bafbafdcb8daafdcdbfc5ebfbafcccbefbbdbbb9cdceafc9afbcdbecdb9bd9cdadb7aba7e6
col50:   9bceecbbddcbedcde9cbe8dce9eaccbadffdc8becfbbc9bbda8efd8d8aaddfb9dceaca8dec98bada
col51:   c67bc969b6dcb7c97c779a87c8777bbceddcecbd9ccc999abcbc66a8cbda887bb8c5a4879a96a485
ROC:	 BPix_BpI_SEC4_LYR2_LDR6F_MOD4_ROC9
col00:   37399466a5699868b87769bac5958875575598625b98435a7b7549796676598569d9884866497981
col01:   836769a4347a5b6aab87858c67a8bad57799aca645b9fa7aa79ea7aa6a79699c677899c483587774
col02:   6667685965878b44279668c68969967b8b978748799c5b7c97b8db8878ab485989a79a89a8d74583
col03:   45547a86a799a899937a77a8b788a6978898a989896b78b878c965a7b86a96b6a78a98b83bca2a79
col04:   677779553bb7976357967579a58bba8b79798b988ba66aacac9bb9ba9788cd969a975a9b57a78a47
col05:   87758897b97aa99785b57da7749aba97b9deb78a9bbb6c99b69aad8dd678b97a4429a766ab737c98
col06:   36e1a664b9999c5b885a98d97575b8896a9b698b4898a7cbd8aba856a96888ed7a89c598995a8776
col07:   b57687256586778889c67d7ac9aa5794ca9b88e8b5a88cba8c44896458a5cc5797a9aa57555ab588
col08:   8675669579688554748688cc759e4abbc499c999abb96b9ad78aaa6995868caadb86b6477897a844
col09:   7495a73a886575968b889958ca3abcc8babb8ddcca6aaada6698c69b7da586a9d8889889857858aa
col10:   19855a8466b7d83776ac965569b86cbcc886798b98c9c8cca357a967a977a89764a9956b9a689857
col11:   54686868555a6a88a78c987cb57ea2ea898a9b75a78c6d9ada69a778c745c5a9a434878547868a78
col12:   4a58a74458687796598c686aa9aa49c7e8da7d6dbbbbbeb78a7568a99b659697494b98bb99835885
col13:   453c8979897a6a9bc796ada967c7b8ba7db7b999ba75dbb6378b4887669886ab897c8a8a48988586
col14:   a48249757a86c839633989978a593678a6c88a88cb87d457689aa97d8ac8a95a1acd778c7464bba6
col15:   9176a868769368b599979de8819aa85d98a9b88cabadcb79e6b7857ac8c8988b6a886896a5949886
col16:   977ac679854ba7a5895a8b9ca8f8cacbca9ec8ea8cf88867ca968a9b9aab6aac5c9979a386836b47
col17:   9495b43877857868a8989a9579a89757986a6ba78869cb95b8787a89ac776c9a6a786436b4689469
col18:   66796996c86b6a69b9a8b6a8a66ca98a87ab9397c79a678577a85aa999b9a9888a67483794c64546
col19:   734678b666998998a9aabbac9a58997b6398bc9ac9aa6a6aa9bb997bb8b4a78a78568a596b979a98
col20:   5663556386c47d77a47a5aa666b67ac8a77b67ab898b9b776ad98698bb88792879d67c7b97879984
col21:   a88585b79659487b78a95ad8b7a9abbc6976baacca978cba69cca9556888a786c9b5a87ace399939
col22:   79286a869d77685766a7c98ae8a9b78c67aa75976579587ada7bbeb87aa8b67a778a856798665484
col23:   7678579791397ba3b58a9998d9793ba8a9639aa5d5a4cc86797ab5858a78bcb6fdca1855998b7745
col24:   61277566899418858ba8b7788a6abb9ba6dbdc958a978a9c898998888b97a758378a5856c8a57285
col25:   76aaa9a667887a598936894cda9b77b99999aaa8a9974aa77a767988baba99b78a89e45748a7a884
col26:   78776b8974a87ca9bca9b98c99bbbbad96779a9aabc98a7ab999dd7eab85c98956e98667a79ac965
col27:   59a3aa9b89b9d58ac8acba9ac7cb9ab6acc9bdbf9db817bcbaa6afa9ceeca76d9786694da99b987b
col28:   9966877fbb7dbec8bbdb9ceb7f8acbc9a87ddabaadcbdc9bdbc9d9dcceac4f99a7a66996abbb795c
col29:   c68878bb6a979ae9899fa9cab6aa9db7ebcdcbbaeabcaa979acfdabcfeb996cca5a59c85689a779b
col30:   9678aba9999c8ad3b9dabcac967877cbebc9ababab57bccaccac9dcccca7cabbc7a6be9ab95aaaa4
col31:   89b94989ab7aca988798c7bfecac8afacf9cbcca8f9badcbab96e8c798adbbdec8da7d9c9969b872
col32:   689689969a8369aeabdbc9cddbb8ac9b98abebdaceb6da9b9dcddaaedbcdabbaa9ae8fd68a89469a
col33:   77a7beca797bf9adcb9dcb9bc8afddcfddab8bbc8bbc9caca9b7c96fde8bdd87ebaa9ab98cbdabd9
col34:   b696b9697bacb8898abadbc9aad6c9adeaebcbbbcaddedbad899ccbaebacca5ded9fb46a8ddad9b9
col35:   8bcb7acb8a7a9aa8ae8d8db7e9ccada9ac95dafc8bc98cbcbe9dbbdaafabdb9bb8da9ce7c5e97bc7
col36:   bababb88b99996a8dadbcbeefabbc5c7abaac9b9aac9cdbcabdfccbadcab8afbaaa7a7e9d9695d74
col37:   62758b9aba888bac7bb8a9cceddbcc9aeddfec9bfea9bdaccaf89acbdb99f9a79bcdb9addaa9cbaa
col38:   f88aaabaeb9accbf9c8d7beaaea9bc9b79ddbc99bbbdbdefcabd9eb9bacd8ccbdaaf93a8ea99dda6
col39:   c8ac8747898b6a88bcdb7ccf9ad9cccbb98bdab9ae99bbdbcaa977b9cfbdcddbaead9ebf9bf979ab
col40:   b796c5a8845a9adf9cb5dc8bebfddacddedc9be9cd88ecccaaaabac9aaefcc6eafaf7d9aea959bb4
col41:   bbac79a8adbdcc9dbe99bceebaca8fcca9ba8b8bd8caccfdcb8edec8b88d9abb7ab7dacb7d5fa9a9
col42:   ea88e79cc6b895fbdbccbb8afba9b6b99cebecd7a6ccccdbecbdcfb9cfec68cec8a8ebbcd9ab84ac
col43:   7c9a9deb57c9ac8de6ad8aceccabcacdcebfd7fcacbfcebdbfbeabccdcbcfd7fcaadadeedab6dbc6
col44:   43b7ba5bedba8afb7bffbbac99fbc7edcbebabb8feaaa9e8fbf7ddb9df7bfbadfdaedc9bdfd679a6
col45:   a8998adbc74cac7c85cbbc69deba9cbacfccbabfa9dc7dfbbfcba88adefcac6beaaadcedabcac699
col46:   a7d999aa5a9bc79dabccdc8c88db7b8bedddc7cdb7d8dbc6a6afadaab8bdfc3c9f8b78c8dccdc9c6
col47:   8ac9aa7c56adca9cda8efd77dcdbdcdf7bdaa98fbeabaec78bbd9eb7eef9ccc79e8de99aa98fbc55
col48:   564d9b87aacc6b89d8fac88bbbcbe9ad8c9b8dababcd9eccbadbc9c8aeaacd8ecacb89ccdc79bcaa
col49:   7aaaaad89879bea9fabbbce9c88bcabbbddce8dc99dabf9bda9fcdccdcbc4aab7cbe8c7d9cf589cb
col50:   9a4aa9f9da69ba98da7babdfeb8ced8febfacacabfacced9dc9fdfbeba8dd7aaeca9fcdcc7a9b9ab
col51:   58656a66468458baa73ac8aaceb698897aac49798696d498c7b9ac799859e867f3b538a5eaa38c88
ROC:	 BPix_BpI_SEC4_LYR2_LDR6F_MOD4_ROC10
col00:   59978495669768478c78e95f99899859a885ad87f788b899798999cd5c9b8a8796db796448666969
col01:   b8a68b949bc7ab9987689b977cc799bbbb8899bcb897ca8cdaabbac8aabcbc67b56bb88c9339a596
col02:   48799255a5875b969a7b85997ebaab87b78bcd95b7cbc88c97ca6b998c9baaa68c79bd98943896d9
col03:   745988a9caa8c78bbb99bcda99acaca9cc6ab94b79993d86aba5b7aa67bab89988cb68bb97b78a95
col04:   8966669ca368489bc98cb9da969b9acc8a9ab9aa98ba8dbccbdbabc8999976978689b67bcbc8a88a
col05:   4477a6757a7a5cca7a8889b7897baa999998d89a6a6c9cdcba9c9d6947598a798879b48675bcc899
col06:   b64466694a53a78a8aa6c7bbda799aacba89c89a67bc8b76caeb87ca8acc997dba9866687737959b
col07:   9846b8999b6787787ccab88cab96c5998985987a85dd868898c96b7687a8aa8a5756785777bb7997
col08:   4b9556bb78a299588b9797c66599ad864bfda599a9ba77889adaaa9b3663c95a97f68ac98958aba8
col09:   4855d68aca96b9987a8b89aabbbba7b9778e8c98bc9a6babaa68abc8a77b8b66c7ab847caabaca68
col10:   98799987989577b6b9b8b5bcc9c8cc99f97386786798a86789a88a5a8668a85b886584ca979a96a6
col11:   668c5a685c753998f798e67b26ad8b8c9a8aa997a98cb8676b8a89968993886978779977b79a9899
col12:   8575958a1b784a8788a94a979ca65799949bd6ac799667b498b42d8bdaa6ab7b3bb9b9b96a68b5ab
col13:   76559c8757778a7949d9cc5cb69cc7b9c7bba7d78a79c5e7d67971699cb5d9799e8b7a897998baaa
col14:   75b9578a5765618969979a8997b66b69669ca789b888ca7a998955779b9bb9595cb787b6a675c9c2
col15:   7448896685b585ca869b89a9c96872a7d997ab778586986c479c7767994998ab7bb8ab9867ac7ae7
col16:   616476a83464772876c9b6a67ab6a8d66799ca7965c599a6877c667975a79d76ca79889d9a5bb866
col17:   3594869254a698968bd67897b859a876abcb89986447b575769875777aad575e95a86649768836cc
col18:   56a7866468885989a67b979479adc7b789a7ab97c967869675acb249888786648a95c4977a69ca89
col19:   7597994575869887a688a9b976b8b97ab8eaa48896ab885aa88695669aaabbab7ba55699c685a859
col20:   55838565589a7c66789968898969cc7794ed8a79779698aa6a8488977567674c8a8b8ac949877a97
col21:   1a5776697983494b47859d9ae9889a88ab9978a78a86596aa4ab9b789bc6b9d8c686687d89747899
col22:   5c6aa976786589845bab88bac99787b895a9e6789a8c75a7897bb978a7868a966aa8979c895a8967
col23:   5688a7946c98899369b7467cc9798889767cb789676478a99587c7999a7aaab68ab789a9a87da694
col24:   7259957777452786657a8b997b68a7683eb87287969586eb8a6656589a876ba878c64b96a5b788a9
col25:   386655c7859c74789669a4fa86cbcd9979bca8bac588a969c5a9ab58a9b77898b8b6ac9778bcbcb8
col26:   7968a6aab46c49959a9aad9ba89d8a79dac2acd9b7bbec9bbd89ebba9865db896889b9959ccadc78
col27:   9186a64668ca9bf9b5dae8bdd8ab7bfe9b99c9b8ba8789cbafc6baca97caeacd87ca77b98a89c8e7
col28:   98a6bbb6b76974a5988bab9ac9be9baabc8bb98b97d9aa8a6b9ab989bcdb78b8cca9c9b779bb8bba
col29:   9768b7a57996ccb8999a9a99cb8bbb8abdcbc8aa9998c7e9aaaaae58a9a9ccb9cad6ebdcf8df96b9
col30:   4a676d77c9b3a7789988aba5fca8c79cadc7ad7edabbdbbbbcbbaa9b9869bb9b7db8b99b9ca77b68
col31:   79dca6ba7da8e889cc77a9f8d9baeaddfaaae8db7dbac7c8b8fbdac8d9b7ac9bc8deabcb8c9c4988
col32:   98b5899ccb888669a5cfac88ec9bbbab9abdefe9db8d986b787dba49c5ceecbcaa7d9c98d9bec7be
col33:   cbb8aaaa9c89ba69ebbbcfbf9dadafccc9fd9cca8bd9bbcd9daeccbbd9abaeb9becbae99dd9dcb9b
col34:   49a9baac56889bc99bab6bcdaaccebecabbabdcbaea99cbbcabaccba88cf8b78b9ec9a789c6cbbad
col35:   baa8aaede8d8cebb8bcafd8bbe9edcbcb9e9fbdc8caacadcbee8beac888c66cbdd8a897b8b8abeac
col36:   a9998da95beb88db45ab999ecbce9bbbedafc9dcbccabdeb9a8ba98cfdacf79fefcafac8dacac9aa
col37:   95c8c9ba8cdbabae9bcbb7cb8dcfdacfcacdbcedcebbbcaeebdcdb99baffd9de98a8c9cddcacbdc9
col38:   aaaba6e59bcc7af5c8cdcbdb9ae9c8bc98bcbcbeb8bd8789abcbdeb9c9ce8ddb999bbdaba879edb9
col39:   ac6caabbc86bfa9c9a9b99da9dbdcadfcaffbbcbb9d9ccd9ddc7bbe8dfeaccddeedddd86ff8ce7af
col40:   d9ba9a9c9bdcb8bdddfb87a8b9f9beaccadeacbcabcfabbabb8cbeebcda8df4fdb787a9bb85adf97
col41:   d89c8adafdeddc6cfc9cdcbcdcf9aeba7baeb9ecd9edf9cdacbcff9b6a9b9ca9cac9c7ece9bceacd
col42:   9aaefdb49aebc9e8acadcfba9899acefbcdea9cddfe9aeeb97dabc9baf9cbba8b9b9b6acaeaeba98
col43:   b8bccbeacacbcbc989babdfafddeeedc9bf9ccdcbc7befcfcccdeccec9becaccad98eececbccbceb
col44:   6aebcdf9cedaeee99ae9bccdeebd7aaededfbacdeccfcaaadc9f8cbaca9cddceafadb99e9ebd5bba
col45:   8abadbceea7ccca8cd9bdcfddabd9cddfbeaff8eb8ccdbace6cddcecdccdc9dd9ba8fbdbbaa9bdce
col46:   8a9cb8dc9ccfcabaedbdedbcabbcffbacfba9cc6faacecdfdabfbecdef9fbaacdfbefbacb6e9bc7b
col47:   b7fc96cbdaad9acc9bfbfcddecdafacecaeecded9fddebcbbad9bbdfbcfcf9ccdfce758ccbcacef8
col48:   ac9bebbbbd89eedc9bc7b7bad9caeecdfbeceddbdcddeeccdcbeddbccffcd9bcccbcaaeccfdab8d9
col49:   bcaacbbcfbdccdb9c7fcdaddcfddef89eb8cddcafcdef9dfdbbd8daeaddcfebb8dd9aacad6ad9db9
col50:   c96c8bb87bc95bb7fefdcdddeccafabcedffdbecadaa8c8cbcc9cdbd9dfbf9cccbfb9fdbbbfcb9b8
col51:   79bc9bb8abc9cbbb8a8adbebbaacaaecbae9ccaccb9d9cccfacbb9adb98aebbbcbabdcbda9c99b6b
ROC:	 BPix_BpI_SEC4_LYR2_LDR6F_MOD4_ROC11
col00:   38554636657675678985b7769897684258b546784557478854531a68954343317412214386457532
col01:   787a7493677484aac7b9a64697c96b9a895467b8a77b7b57676da96775a697762916231644755665
col02:   796956389548b187885789aa68c9966b9a7897a99b57696b67978a77966969425581342837455276
col03:   84411868467878a9b99a78a8a789979a97658db96a997657769157875a78547964641444a5178743
col04:   26484a7749799677786878999779a4a6794b94376879996684a9ca64886787771327672549595584
col05:   677638865d7869876679686baba34b647af966a695a8c99d8aa7b987947863938551476117837125
col06:   7548b677589837788887ba7b78a9a847688da8499b79cba979784ba883b9883aa775411661237463
col07:   867a778376778a5596a6eacb78ca7bca97db97bb99989abbc79888ac3a987ba47381718616362a33
col08:   986568897796658997968599c88c9a8b8d97b97575df99a5ba7298798aab66b65837467485655125
col09:   36559aa494836757a9aa7d86b7d986567caa7846c75da888768bdba799b8865788a4592535625465
col10:   1263967c9c59b688bc869c99c79a9a7898886ada89c7478bb8879ca96579a67b6677882974295765
col11:   65166989857a85566ac9887db69a7baf6a49ba87ac97789b76866aa8b689782ca866997677653864
col12:   78487797b979656885779aa8c7bcba9a469cd89aa8b995cb997897d88a8d778aa9667a7186375755
col13:   547878576cba68a8757aa6ca999bac8b8a9799699a677bc8799a689a7a7aaa78b655495665387645
col14:   4aaa75769aa19776a6a6bc9a7db8a4897a8838f78599789b8988da8bb8998c85779597a666645219
col15:   86625558a89a76766688a9989b798dbae7989accab6aaa9b9c47b8aaa5a89468557bb8b967617686
col16:   6664367865a8777877a888678bbe8bb999bd99bab865979a8aaaa9bbda8b6856bab6988b58678633
col17:   447a98563888556a4d6b9974cbcb66aaaa898ac8dbc59da9c5aac98ccaba8899b6c9dbac97764785
col18:   85781437a57a8696b67688aaa8b9589aa95ca668696958a6bb96988a6a898c98c6aa74aa59955973
col19:   748693b663377659a77a89a889b7baca6ada98a3aaca6a49fc89bacac8a9ba4c38cb7ac944853975
col20:   a389885766937785669776a89aa9aa77aa89c6575a6b887aca9888b8c7ea8a9caa879d586d7a3465
col21:   685a8785488563657a677a9469987caad9c9889adb8aaba7b4699697a9ccaba77ce468a958b73681
col22:   64564577686567a47a877c8c9788aab98aa579a7bbc985a9bc65a7577b899ca856986a7a997b9a64
col23:   3a993b779965c888a6a889699976aa8bbba8856a85acb8bbb4a83aa6ca8c9d8be75aa89178bd7939
col24:   8764649878889a6687bbba6b8a6a989a98a799997c9dcaba699acaba97a8a99ba6b47886687a7667
col25:   4c998677b38b6a97687ac38ba778aa97799d94bad9cc9a8aabb99b68cdabc79ab6cc98a85827a973
col26:   6896a7958cb87a8abdc758cbd7979c6caa8ad9fa97ccaa8cd79899bdaae8aabcbb9dccaa9b8a8a75
col27:   9657b666a399695c8a9b9dcb7cbbf9b69afabcc9c9969caadccda8bde9bbbaddaacb696ae99277c6
col28:   75668b6599965aac578a9d76bc9887cabc89fcacfeb96d9c9acbbc8bbcaca9cdc8c9b9adada9ac7a
col29:   8588857e9778ba667aacb9b97ca9bac76aacbbeabcb9aaccbcb7dbad97cbacaeacaa9bbcbac6daab
col30:   951876b7478aa8a5a9ba8e969ae5abb96d87d8cdbacacec9c8afb7b9bce78cc8bc9bfc7f69a84d99
col31:   8a977688cbcab978c7f6c9bf9ca89b7cecaa9bbdacb9c7c7ec78e9bed9cabaddaacac9cb9abb9ab8
col32:   6b79777987a9c958b9cc8bbbe8cabb7ac7babcacea8bca8beaecbfeaebaeffbfbdddb7ebe7abb898
col33:   aaa99b9aba78999b8cc79acbbacad7c9cbb6ecaab8ccbe8aeac7abbaaca9ceafcccbd9aa9ebc8889
col34:   6a8b9778a7b88a8cc67a9bdeadbdba7bbac7bbecacdefedcbbcecdad8feaddaddcbba88baa8b8cb8
col35:   47799a8977a68cb87ca89facc7b8bb4afc6babcabb9cc8dd9ebbee8d9cfbeebabac8cc98abbdcbdb
col36:   ac8a89398badca86c7d7cb5bd8baa5a69faba99cafbbebadcccaeacbbccfebb999bccbbaa9c9c98b
col37:   9798968f9ab68bc8a8db9b9b7becdaefaa999a8ddcfabadbefecedeccadebfceddecc8ac8e9ab799
col38:   d887797a7ba9abc5e88c7b9cb9adeadbadbbdaedcfcdddafeaecdbbc9ecfdff9dcddeccabcba8cd8
col39:   8576589bc9cdc8789b9abc9a9ce9ddbebd88dcbfceabccfffcaeacbc9dcbcdceebecbcebcbb9a9bb
col40:   b8996c96639f9bbacfdebccaab9fcaaaebfbbb9ca9cfcdc9ebdbfdebdbfcffacbaccdbbcdd99a89d
col41:   aab878879bb7db8899a9baebeeabcfebdcbb9bca8dbcbaeeddcdcfaaacadaccdbacdbcbdcbcbc979
col42:   a87d879aaab8a9d7a9edad9ac9da6ab6dd8abb9cbcbbfbececf8bdefbec9cca8adfecc889cdc8bbe
col43:   cacba99d9aa9aacbbbacc9c9cafebbc5edbadeb89db8bc9aaacdbcdbacdfdadbddd9aebea9cebc79
col44:   8956a4778ebcbdb99b9facbb9bddddafaded8bfceffbbfeff8dcececbedff7bbcaddebd9abfa987b
col45:   7489c88c9cbbaaa8d99bd7b7bbacc9eebdae7cdddddd9abc9ccdabcefbde88cf9faaadcef9cbb7c5
col46:   9899aa89689b6d87daabcb8acda9a7d9dc9ad9f9abeddcddf8dcfabdbba9cacc8eedaed6e6acaaca
col47:   87ab8d97a89d98aba8a8bfdfdebaecedaa9dacdab9daedba9ec8cfeebbcfadcdddc8fecf8beaaccb
col48:   73a998b914a786977e89cdbc8db9dcccefdeabb67abfd7dbaacebcbdbcc9abf9e9cdabcfdb998b99
col49:   f69a9b98c7b8abb9ccfbabebeddd8bbdbdeaaadcf6cfbecfd8defbdbcb9dcdbcaea9bcfeddcaac48
col50:   caa8cb7babafdc9cc8faab9c8cbbebbc9abcee8ddfffdc8fcfd8dacd7dbbecb8d8bc9bcdd78bd9ab
col51:   a6668765758688a989a9f78d7a6b8c69b977c7bcebbcbbaccbcca78bb97aa8d87cc778988596666a
ROC:	 BPix_BpI_SEC4_LYR2_LDR6F_MOD4_ROC12
col00:   63169577cd845496c3847da3778475a9795745a855b667544476168986235d57399a855766884a67
col01:   655b2c96cac779b789788aa9899c9bdc586a948a85ae89c949d24a66a58b97b9aa45865cb66a9835
col02:   9197c8969834797a677ba65a866aab5e745e9b94b4b75ba869bd3578491d8cb6a877745756dcb396
col03:   46568adaca986597657a7a9785dbba7779bc9cc7e87969aab877e89baa7978aae869c77a23277795
col04:   344b68a76a73877cebb68586898a8acc9bb77cd5b9a68aca69557b49daba4c62a655766acaa877a5
col05:   286c658dcc88c99b5898ab9a8997697b793b9acbaa9f58adcab96665fc79c7748d87a45776879967
col06:   ab99b57aa5b497996999a879bb57a88888a797b945a5fa66486d978a45cc9bb3a8d6bc88b266645a
col07:   3a5b7817a4aa845677cc766a9d8bba6cb9decb9d99da7a899a7a869b89c758cb778c8b6aa6dac637
col08:   a991a6b79aa58c4467eb669db687dbbd8cda9dc8a8cfa97d97b85b3a929aa3c88838657b86585a91
col09:   8758979988996cbab5fd9f719dc99cbbbab8e7cfc989bdbbb9ca936699a5ba86b8749a8e688877a8
col10:   8686895cbb7479a6568d9757899287699bea97bb67a65b9d68d88d79768676a98677a968b78b4aa5
col11:   6597b86878356833357579d4879f8c67c8ccab898a74bdb98cbbe88fa98a6a7899776bb998997978
col12:   5743aaeaa747869a469c766b5ab9949abc88568588b8e847a7a76b8cbaba98d74a69a988846a9527
col13:   e589a9acabc6987bc9a9dcadabaa8aea8aa87cd8aa97768b4d988b55c527badb389a767986987971
col14:   139a868399788678b69c41dad996867b68f4698593b6a84a49749b8abb88b8858bb968a69664a675
col15:   4847c7a738999776c8aaab7999a6aa8aad657db6eb49acb8aabba8da6c9adbaaa5b7bb9a99a89976
col16:   648bb9a57699b698e79caa88abea868a69ad9975a968967e8ad7baa6c6ab96876b9c9836986a7465
col17:   45c98ceb5bd7b57b79998fca598db5a986488a75798a6b67cc857468aca686a79aae39668a7976a6
col18:   7a7baba57a764c9bab6da7bbac89bbb9b685a7b685e6989fa7956e18b88e899c6a78ab974847a589
col19:   7587958b86cabba9b9ac7588bcd9d6aa97ad89a8a9a948a9c896c88a996c8b679b5c6a96a79ce744
col20:   6caaba749a89bdc8859a7fc7bec986ad893ab68acd64d8b66a949385a99a6ac86bb5a8785a656799
col21:   d5aaa85ba9a829d898a76bd87ad7a8a9edc57bb9bca79bdab788e57b739a8a8978a84a6576a7da53
col22:   4a6a6a68b5b7bcca76b69a8c8ab8b3b946eda771b8c74bbc77b7a4679ba7987894568998768885a7
col23:   655b8c8b89f5a7b794d685cbaaa9ac7b8e89a88876b8a6a5bdaa7b5aa6fba86c957885ab97966631
col24:   5596898a657a659979a97a9ac6a9899a978d8a8986583737b767b976669a994b94445864b5677731
col25:   58af58839578adf96449a7986a7d5a97db9d989d85a8b98ad9ab87a3967cbbc8669857896986b76a
col26:   5b3abcbaadaaabeaaddcee9f8cb9de955ddbd87abaf9c968ba9c96e9bbb8ad89899d8b889897ca99
col27:   ac9b9bbdaa9bdb9cae9dabc88eb8bce6ad75f899e8ae6cbb9cba6bbb98cbf9a8ac3e959c8b8acaa9
col28:   2b6675aaadbca989bcebaccaca6d8be8df7ca9869b88cb8997b9f79a68c8ecb9cca9c779ab9bc7a6
col29:   766ba599ae7b5dad99cdcf99c8aaa669deadbfaecbb7cbab67b678cb977d44c9a774c9a888e98b77
col30:   7b8dbc7badaaabb98b8fb8c7bcabdcd8accab9969caccd6df99a8c9767babbe884db77aa9a8687a8
col31:   8bf99c9dbbebfb7cebddecbb8a99abbca6ab9ceaaeb8ccb5dcd9ab7c95d987c56ada9dc95ca99a68
col32:   baa79e9898efd8a8ad7be9ab8d4cdde8b8c6eecaa999c69dd9cb8fa6a96b9d8a9b4e47aeb469ccad
col33:   caf9a6abedba999abfaabbfd99c8b9bcecccadcbeea89e8a89cacdcbaacb9bcadf9ba7c7cbb8b775
col34:   6becaa9d89fddf9acac8fe9cabba99ddfbfdb9c9aab8aadbb5696d9cdc9d3ea99cb65a88caabd9fd
col35:   768ca9abbdcb8e89abccaaeabcbbda9dbebba9cbc9abdaa84ca8cffd7d9fa796a8b8789b99b948d9
col36:   cac8ecc7dcdb988bdbafcc6ad9e7b9dbbd89d99c5abe79ae4dd9c9cddd99cad798ecb8a988c969d6
col37:   ae8c379d9acf88878b9dc98bcbfedfdcc6d7bbaa9ec9a7eadbcafaa6bee6cdbf6bfdb7bea85c58ba
col38:   cfa9ab998cccdbcdd7f796eddfec9bb78acdfaa7becdbd9babdbe5bbbcbaa4bdd8c96fca869bc8a5
col39:   a57a6ab978acf8b9bbaaf8ea9bddcbf98bf7afdc97be9cbbeecbdbc9abc8cdb9bda8af7c8c9aca97
col40:   6ad89b7869df8b698a5ecbfccdabcac97babceb9abbbcaabcafa7da9ebdc7ddcb9abd9d8d6c78ab6
col41:   9c5666fcead6a9acfdcdf8bc98bd8acfa5a9bbd8bc6b9ebafb8a9adfeca9b8de9adcc5b79798abb2
col42:   6767e9bdd5a9edccacf9b8b79bbae9cc79959cdfbc6e8decbbc9a99babbb6abc989febdccbabaaa9
col43:   b6befbf97cce9ccabcb9baafcdeadccf9e9cd9bafb8bdcccdb779acc89cfdbbaccebd9facbb9beaa
col44:   44dab9f9e8da8cfd8ddb8ad69cdeadd6d9d8b9b987b7dbd8b9d8acdadfaa8cb9d9bbbacfabcd8cca
col45:   bb63abd77ebbc8c98ce5dae7dcdcb7fbfa9cfabc7dfde9dcbcbca88afa8fcdfa58cbcebdd9bc7aa7
col46:   9b8c989ba9bcaafc7ddc9df7d4897eb9ab98c8eefa8689a7bd8ac88ed89b97edd9bcaeaba88c99c7
col47:   a89699a9cbfba9e8eafcbac7daddc9abadebbccd6edd99a7eccdcc7a9bcabb5ba9aceea99aaddc98
col48:   ba9cac4de8b8a9ebcfbaccd7da9bc9ebbaed77aaa9ad9cc6bfd89a2dc8d7bbd7cbbbfadac4cccb88
col49:   8a9c9eaeaccfbdfb9ebcbabdab7c9a9bec9dcfc8aaccdabfbabafbc7fc7adb7f8d9bd9ada8876a9b
col50:   7b9aca79e9c98b8c5ccd98f9eebbba9abcdac9ccea9eb96bdff9a7ba6ccacba39caccbccbbb67786
col51:   644ba9ca6ad1663968cdbf87678da9a67d89ab2bc5926886aa69a7668888755c6c656baba9579378
ROC:	 BPix_BpI_SEC4_LYR2_LDR6F_MOD4_ROC13
col00:   99bbbaabab9abaa999ba9aba8bccbbb89bbaad8cacb9a99bbbbbb89aabcc99ab8a7b9ccaa9c999bc
col01:   aa98cb98ab98bb9c9ab8cacdcacaaead9bbcccdcabaadbbcb9abdcbaabba9cbc9a8aaaabababaada
col02:   899b8aacbac89caabaab8cdbdaaaaddccacbbdbccdcadcbcbbccdbdacbcbaaa8abcda7b99baaac9a
col03:   a8c9bcca9bbbcacb9bbabaacab99cac9ac8bdbcb9babcaa9b9abbeceb9cb9dcbaabbcacacdbbd998
col04:   b89bcbbaacaaddda9a8bcccabbbebabcbbbabbcccc9cad9cbca9babadbbb8aacabbadbc99baa8b7b
col05:   caaac899798aaaccdb9baba9acaaadbccbcc8bbccceacbcadbd9acbbd9bcc8bbc9b9bbcbabbbcbb8
col06:   babcc9b9bbac8acabbcbcccbb9b8bcacc9ccbacb9eaada9b9ac9badca9acaba99a8ab9a988cc8c9c
col07:   bbdd88aadcbbbbcbcc9be9cca7bbb9ddaccbbbbbcbbcbbdcacebcdacbccabddab8bb9aedcb9ab9aa
col08:   79cdacbab9acacbcbcbcbabebaccb89aecdabeaaacbaacb9a9cccbebdad9acaa8adae9ccccb9dba9
col09:   99999b9ac88d8b9dcbbc9dbbcccdcbedcadccdbcdbbccbbbbab9db9bb9cbacaaccbceadcaad87cba
col10:   7aaa9cbabdcd9cbcd9ceca9becdbccdebdcacbb8a8deb9aabadccbcbc9accbcb99babcbbab9ca9b9
col11:   b99ac999b9a9a89bdb8daaacaa8cbbcadcbcbdccbcac99abbebbabbcbaaabbcbaada9889ebca99ac
col12:   bccb98a9b7bbadcabbda9bcccc9ccbbdcbdcbba9cccaebcbcbbcbb9bb9dbc8adaccaabbddcbcca8b
col13:   9b9bcdddb9bcdbdb99bbb9cd9aeacbdcebc9e9bcbdcbacbdbbbebbbbbabcbcbbaa89dbbb9a9bdbdb
col14:   b9a99cb99ba98eaac8bbbabccdaccbbbfcfbbcbccbbc9bbcc9daa9b9cc9bacdd9bbbaadacbdbabab
col15:   997fd9daac99cbdac9b9daabbcdb9cbabccedbbdccccbbabcacaacdcdcaa9bacbcbb7bbcaddaabab
col16:   aabaacbcaaaabaccb9abacbcbaccdddeca8ccaabdccaabebcddbcca9e9dbabb6caa9accbba8a9aba
col17:   99ac9baabbcaecdcbbaaaacddabbabcbdbacbdcaddbafabcbcabc9ccadbbabb8bcbccb9caabccac9
col18:   a89bb9cbbcaacbbbaadacbab7bbcbcccccbbc8abcccdccdbbcccccdadbab89c98cbdccabdbc9badc
col19:   9bbabbabbcadb9c9aaccdbdbdacacbccbbaadcdabadcebac9cdbdbbbeacbcabbbacabc99bccbc9ab
col20:   99cacbaacdcdd9adbdba9bb9dbcc9dabccabdbb9dcbcabcbdccacbabacadecccacdabbcbacbbbbba
col21:   aabaabcbacaccbccaccaddb9bbcbaedddcbcbbba9baaeacb9bcdedddbcdbababdbadaaaabadbcaac
col22:   abbaa9cbacccbccdaddcadbccbbacc9bcfccebcdbbaaccdbbbbccbaadbaaadbadcb9dbcbcbaaabba
col23:   c8ccbabcc9acccbabbaddcdcecbcccbaa99acbbdcab9aabcbccbdbcaebbbdebb8adbabdbcebdacda
col24:   cae8bcbabbaacaeca9bdbaeaccacbbcabcccdcbcbe9cd9cccadfaaecdcd9acebcadabbaaacaaacb9
col25:   abaecbaccdabdccddcaacbbddcdcdcc9bdddccdddcdcbbccabebbbccc8cdcaecaaddcbdd7bbbcbca
col26:   acbaabdbabbddbcc9ccedbddcddbcbbcccdcaececbdcdcdceddbdddddcccbdadddeecdacbbdadeec
col27:   e9c7bbaccbdcdbdbbcababadacceadadebcdcdebcbbdbbbecdadbcdcdddaabdfbccdeddccdcadabb
col28:   a8cdeabbcccccdedecbbadccccbceccecdcddb9cccdccedbddcbbcdbbeebbcccbccdacdabbedccec
col29:   daabcbbccbcdabebbcdbddcdefddcdddbdeccbcfbadfbdeedcdcccdbebeccedcbdbcddddaaacdcbb
col30:   7cbcbcbde9ecdcdadbbedcdeddedcccddecdbdeedaddedcedbceccddfbcdccefabccbaeddccccbbd
col31:   cbcaddcbccebeecedcddcfdeeaedeefeeccaebcdcdccdfdeaeeddededddbbecdcbbddbdbdbedddcd
col32:   bcdccbbebcdddbfceadddcffdfcdedcedcbcdcdeccccadaceeeeebcbcbcfcccdccadcdbbbcdebfcb
col33:   cbbbdadcdbccccddbafeeddd9ecdcbcdbbdccefdaebcccdcdfbceedcdbbeaddeed8cdeccdadebccc
col34:   bbccaafeac99ccaadfbebdedbeecededeeccdecebdd9ecbdecbdddcccad9fddacefebcccebfeddec
col35:   abcbcbececcecbecdddceec9bfddfedddcddfadeccfddbdbfeadadcadbcbedededcceecbacccbcdb
col36:   abdab9bdafddfbcbddcfccedefccdddecdfddedbebdfdbdbfdeadececdcecdfbacbcbdfdcdeedccb
col37:   edccbddcbdddeebdddbaceddbecbdceedddcfeefddcfccdbdedfdfefccedddcfcdbbfcdfabb9bcdb
col38:   bdebedddedcdceddbadecbebcedefcfedddfdeeddfcececcfecdbabfcdcdebebcbcdfebeeeecdfca
col39:   ccbacbdcdbcddeccfadbcdceecfdbbdbccccdafbfdddcdcdfdbfbbbbcccbcbeaccecceebcdbbcedd
col40:   afbdcbccbdececfecbccfcddecdeceeebeedbedcdccdeedfdeededcdaffdbddcdececeecddcbceab
col41:   adbcbdeadbcdedcecbededbddedddfddebdcfcfdecdcfdeecaceecdddeecbfcecdfcefdedefcddcc
col42:   ccceddacadcedfcfdebdccdbdcddedcdddcedccbccedddbecaddbdfcd9ffacfdcecedddbdddbeece
col43:   bdedfdccdeddeddddcfeddeeadfcededefeedccfdfddedddfdeedefeceddffdeeeedddbebefedceb
col44:   abadbbcceedddefddfceeddccededcddcdddecbfbdeddfdcfbfdefdeedccfdccbbdbeeffddbeecec
col45:   caaaccdbbccdbccdcfcdcdcdcfdddddcdcdddebcdfdbeebcedbcceadcefceefccbceeeddddcaedbb
col46:   ccbbbcccbfaddcbebdcddebebcdceeeddcdcdcdcefcccbeffedeceddfcecdeebdddddeeccfddbded
col47:   ceccfcbbfddcdddccecdeffcddefffcccdeedcceceeeffcbdeddeefecddefbdcbdddcedabedefeca
col48:   bcbeccdebdaedcbcdeedeeecececddeeddccecfddccddbddfecdccdfeddeeecfdbceeddcfccceead
col49:   decedccddfeddeedbecdfeefefdedcfebddeddecfeeddceeeffdceeeebdfeefeeecdcefdccdccddd
col50:   cbbebceddbdabceeddcdcfdedffeeddfceddbddeeedfeddccfddcecededeeddfeedbeeebdebdfefc
col51:   bbdbfdbaccbbbcbddbdecdcdebdeedadebdccccfbbccdcddceddbeefbbccdccaeaddcfabebccddcb
ROC:	 BPix_BpI_SEC4_LYR2_LDR6F_MOD4_ROC14
col00:   76c6776893ab97a5669879a99cd677b8bd9a96c7c59b8a7aa77a99b989aaaba8aa7c568c99ca9a1c
col01:   88aaa5c5ba69897559cbc78acb9c9a877ccd8abaa978f9bbb97bdd9a6ceabbbbbabc797db9aa7959
col02:   73975d6586a67a3bbdf6a799ac9cbb8bd6d69bcad3dfdaadcbc8bdaf8b839d99bc8ebaca79ecba87
col03:   7a568b79ab9da9ab8ada7b9a9bc9cd8dec89ffdabcabde7dc96dbccadeb8a8bacaa78bf9a9dbcbc8
col04:   89879895968d9698e8aa5dcaadcdcbceddb89c9e6bcaa6b8d9d8968fbd7c8bf99a89acdac8ccc8bc
col05:   87a7996bc98759b65a87b6c86f86aca9eddbc9a7ccba6bda9dc97d999aa6bdcdabb8c6d8eb8ba976
col06:   46a7c8886a888a748967bbac989aad8a996ad9a8c98cd9b95bcb9cac7889baa998bba777bb47abfc
col07:   69548a966ab9aacbca6df7aaa96bc87aea9baca8c9caedaaadbca9ba5cfabb6c7c8b99b75bcc9b9e
col08:   4437959ab8789acc7755a96bac887b8b5c9789cb869cb8cacb8b696d7c979b6a598bedc7b9da89eb
col09:   6ac9cbab9c8a79787d9bac7bba8ba9979bc68a768d9d887a9ee55adbdfdccdccb988edf79e8c8c69
col10:   983c679846ba959b859b6abc9c967ba9daec979a8b87e9d894c88ac99b9baad9c768c9d897a95ded
col11:   148ccb987b45769c8b9b9cc98cbcbbbadcac998ac9a9ca9aaf8cca9caab9989ba9c8f8fac4a784c9
col12:   ca8a9a857a88a789d68ba85958559bdab57c8887f879d5899a8b9bdc796ceaaab5ada59fc9da89a7
col13:   7774793ba6898cb759cc87a9acad9a788989b9fc99cabccbd7bdcba99abfc899bce7cbe9aa9cbb99
col14:   a34859b96888b9865ccb677a9b9c9ba89ba7baa7a75cb9ab887a8b789ca8a7caaca9adab8b6da8c6
col15:   546aaa7a7a888a557869c6bc5cb8ad7a9a97ea9b878cb7aea9d9bcb78a8b9dcbd86badaafa97babe
col16:   a6b7cb8868aac7998979799989aa9d886ba9ddf7abbf9ababc98cba9bc87ba8987ec8e99babc286c
col17:   68b9a873da5a56779c9a98a67d65a9a5b86cc98deb9bf7b8a67adda7bb87cad678dceb7a5c8cdb78
col18:   a56577a75596b69b9b796a658ba6babaa989a6a8aaaeb9989c8b79aaf9bac9bacaa8988bbdd4edba
col19:   a76378aa6ad66bd8d8855d886b9b79b4cb779d9b8abea9cbeeb9d9ecabcaac9ceafb86c9f8c8b887
col20:   362765975b946828917b777aa987ba8b964a99d6aa8699a98a8ca6cccda689c5a88cbc7ac888b9c7
col21:   8736886698bb86b87bafbbc69ba89ddcceabfb9a8a8ab8acdc99b888bcbcf7b9d95a8bccfeeb7ab9
col22:   4687a3b6a879a6a954b927cdbdc9aa897b958a888e97b9ca96a86987baba96b57ab6849aa69f7a68
col23:   5967c5649dba66866789eb9b899788a9a7bcacb7ca98b8fc68bc9988cdd78b688a9b9a5ee6d77cc7
col24:   8856a6b847c66946b3ab968ac6ac79a88f98b9caac9efa989aab89979c9cac79c697bcd779b89dac
col25:   88588738ab9b7a8b9aa8a799c888f86d9ba9ad7dd697cbd7daf89badd8facb9ca9b78a6889693856
col26:   667ba988fa8597d716c67a6599abeabb8abce7a775d8becdcfaa9d36badbbeabafdcc9ef7aaa8daa
col27:   c79849baea67baa5ba8d5b6afaacd86bdefbecddf9a788e3e8b8cccbd8db8c8e9d793fd9ad8cb67a
col28:   6b9997a88d588ba94597979cf8bbec8bcbafe869afc9aabd9cadaaa6babcdac98cdad7f9db68dc99
col29:   7ba8b488cc76b998a9b9b989c7acdbe6bacb997e78eca8eedba88bbbda8d299adbdacacbcada7fa9
col30:   9898b887aa98e7ba898d9abccab98c88ce869a9db8acffbbddba8adfd8c9facdd9abaad9d9f6a6c7
col31:   4688bc96e9a3aa9bbbcb8dab89adaa8a8d9cd9e777bcadbf8fb7bb7a9bff7d989bdbeb7dacfb89bb
col32:   7698b969b6d9baa9acd89acc5c9d9e7b7d5a8dd8989acdc9adb98bebccc9e9cbdb9adbdcf9dabe1d
col33:   76bb9bb6ba99d9969baa6d8bdccbca6bebfbdaeccba7aebd9bdabbccfa9b7acf99db8dcd99cbca96
col34:   98fa7aacce886b9788bdb5ad898beabdcaca9cb899efccead9c8a989bacdbab7afdbad7acbadaacf
col35:   add5a5ad7aaa9cd68897eabedaaddd9abd95b9b9a82fcb9cddabf9fa99bceeba8e6baad7dada9a93
col36:   c675a88cadc69adc9ae8a77bc8db9aad89ac8dbaed6aa79bb9dae75cbbcaadbfa8c9ae9c8dde8cfa
col37:   b986cabafe9c7d8adababcde7adbca9dadcecccd7d49eaccdfdaacabcc7eba6bddebacedeebdadf9
col38:   645b6cda5bc795bac99dca7cadbd9987c9fb9c6ab9ceecdba8b9ad89afdfad9c9dcdcfebe7dccb9e
col39:   b9997959b7a9dbbbc7aa759bbeebcc6cdac8f9dab9adbcecfcbcc9d8aaadcac9c9d8ceaba9b9b8ba
col40:   6b859b98beabb997e6bcacbaba79adb98bedbccac888b779dbabcaeb7f988bdc7bf96a7bb999e859
col41:   866545897698cbb78a59d7bbbce7eacc85ca9889c8ba7bdbaabee9a9dbbf9bc8dd9accaacfbd7bcd
col42:   a38298a7899587497cb8b98a88dca86ec9e8fa7ebbcbbfd9b987a87eaa98acedcaae8eeab7a6aaa8
col43:   697498b977887d2b769ac985b99ba88cbdba7ccbece5cad97b8febeaac97baebdfddcf7dbbd6a9b4
col44:   49a75976b772c668888468757a83a8997b7c94f86bb8a7cbabbcdbafbc9dcadadbd7cf7cc9dbdde9
col45:   165a33665c3855765a97988a99cba6bdaa5caa79739babbed88cca58b989d8d889cfebbaf87d88da
col46:   2863749879899566a97729a7a5b9ebe7a9fa8a988a897b7b5d7a9bead8476bcb77cdacabacc89aca
col47:   78869a7a78a469c41586ba6979ac6b8a86a7b76db97ebba9ba9bb87dc8ea8c8b986f9778cd988cda
col48:   284d8858756597485587b79758c87aaaa58aba989b96bcd9ddf96a9cb8958a9d8bb39ba7aa7bbcb9
col49:   731ca855a69bc877989a9d8a9b89667b767a858bc977ca7fac99bc5b86ac98baa6acfcfa99db7984
col50:   5856b95b9634b6778aab56aeabb6a7f88a87b86b9b66baaad85669687fada8b789c8dadbd59e9cdb
col51:   74167b7747a7a716389573c5ba658455758163653695465b76b75a28b84ab588aaa6b6e878c699d7
ROC:	 BPix_BpI_SEC4_LYR2_LDR6F_MOD4_ROC15
col00:   677a347858696a86399965759875a38667777556a56575167859a6958a69a8656855556863543426
col01:   9676445376874494758c87bb9b66ab858b7759c6889b498378988455c966a4899ba8a66975888466
col02:   57756766b3857b646a8886569a55ab9995953d59c95a837dac69678a877b679798c688b946796a57
col03:   7661848979968678976887775b69a8a8c8d68b9888548a988358b8a37f788d7557939b5667968854
col04:   978865a6a688665b96bc7b64b8889889b9b5aa6798aa547879454777a836a8c8b5987ba837a99a96
col05:   37845788766646a558877bb376a8a9ac8a5775aa586a469753b99a7b88a1b787897567687a7b4872
col06:   868566a58991a876977295567937b37895aa7a84689a797784a978757954db59987468c786378864
col07:   2979956aa697aaa5467558886c8987799798b76a9a998da797b886969a558757788986795357aa8b
col08:   97a3ca769a8a957577bb8b78caca85b876e88bbc768986846a886a55a57548745a75a76a94854579
col09:   77696b8769876968b74466aa868776a7bb8a894895697da6999775c973677a777a395c755798757a
col10:   588676987976289389aa7c5749baa678b896b9c99799a957c98898668779979b565889aa98a7c979
col11:   5435569677968679a877881a3637a898b8b7b4aaa6678869598477498ca4949a6c67b59686585b95
col12:   781a64a5a79697a7349a7995939876a8977889683b865b67895a669da9976588b98a7a8e7a68587a
col13:   4665857593856c579898b97889b569d59ab968aa9a6696999a7cb56998e89398a87bb888776b4886
col14:   745b957b56a9a8a2589688779689977b797ab7a68a79679a8a9a8a529c69a568c6879a977a6a9995
col15:   782574974698975545a678bba7a88c6caba978c9978988689987bd68ab7985977b6988597489994b
col16:   4776a7a678976893a89674a68a9aa8a767e888b69aa88ac88baab68b4679bccc658997b845957a85
col17:   7645668961655688869caba69d478d7a777d693867bb2a898b799ab697aa966b68988882887786a9
col18:   75695a66a764985a4753b875779bca8b8ca894a9c7a5bc9783b5b667ca67746aa7a84a8596b57678
col19:   37759ab89a847a7698b586cb6ba58749989ac78b9998abb95799aaba89787d7dbc6ab6a978a599b8
col20:   562654b9548965946b4c958d7586b697b8d8ca9a59886bba9b587a97997aa4778ab9aba437ac9396
col21:   8645972ab6678538869777787b577899a67b9756a4869a794899a4a89775548889c876baa6168273
col22:   886676696696686a74b9ba8877ab6ba966b969988898886745b7597756967a978649866457879668
col23:   655687755b756556878c89b97c55a9a75589ca8776988688d9a48979a997996769c9a94979996994
col24:   5a3856357c6588a7b65b6ba6c66b6a79988c78a67678b6ba8996899a65b8677c9ab9699857c69878
col25:   82787588a5699b9a9a7a78778a89a96a9a897cab68a4d87a69db8bc776b79b6aaaa75986a7a96c58
col26:   868967976ba97bca9768aa86778ac9c7bc7a973bb96689daa9b8b79c86b7a499aba9986979ba996a
col27:   1976aa797ae99ab9aba988cec79d8aac89bb67996bd8dba98a8aaa9c9b7da96bb898d7dcaaa6b69b
col28:   76a988988ba98873a687c7adcb99ba9ad9979b9c8a896abc9b89a9aa6d99f6a87987c79bec889bb8
col29:   67687b48698b5ad7ab89cea7aac6c98db7d8b9bbc98aa8cda9bab5a8bbacb79b999779a47989e9b7
col30:   95749a86b96a9987a5aaae99a89bdad9baaac8e8dbde78b54bba9c9aa6b88adabb9797b9c89887b8
col31:   687ab7b8abab8b4c6aebababea9a7bad8adcd9e8be95a8bba8bbbc99b8cbc7ccebbb98998accadba
col32:   98998688bbb7bacab8bec8c7c8ab94bc8dc7af9b8a999dabb89ad9cad98c998bb9ba79c8d9a997a7
col33:   697658b9a9bdbc97badb8baac9abbebcecbda9aca7a7aa8b8aab69ca768cb9cb8ca89bbaab8acac9
col34:   6988d8ba99c8a7a89a99b7aac9bbb999ebabcb89ebb9985bb9cca9ad6c8dacbcabc9ab6b8b9d9568
col35:   8bab7c758b8db9a889abcdc8a9bacdbbefb999aa6998cbed8be689b999c779c9ecaaabacd8ab9bb7
col36:   89998c7bbaabc8ca9c567baaa8bd6ac8cbc99ba88c6a69cba6acbca77cc9bba7ad99796b8ab47697
col37:   98a9ab97bb9b9ac96bca8dbcd6979c9eb9c7e97fabaadbcdbaeab8c8d9ac5b8f9c8ecbb7cccabbb9
col38:   5c79adceb98b6998ab99ada4a397ba99cabdbc9ba899aab7fb7db8baba88c9b9ac9cbdb9ba698898
col39:   958a89dd88b6a7d9aaa8cd8eae87ecbcab99c9b78a9a98bbaec98b987ca8bbcda7ba8daada8bc868
col40:   89a98aca8b886cc999bbeaa98a8ebcb8c7ccfccbb58eb8b8b8acb9dcca9af99ccdc9b99dba9aa9a6
col41:   9ca75b98dd9b7cdab88cbbf9abb9ccaddccdbabaccb9cbebde8cfcbd8c9abe9babcb8b9dbb9ed79b
col42:   9868a699a7b757ac79bc9bc89cb9dabbc8baddb8b798789dccc8a9badda7e8bc9cabbbc9edccbba9
col43:   9888ac6aacadea7cc97cdecaacd8ecfdcdda8cedbd9b9e8de8deada9c9de9abfeccc6ebeee9cb9cb
col44:   5679aab8a87c9dabb7edb9d9bdbcdaa699cdabccdfcc9de6898a5cbababfaccacf9b7af5bfbc88a5
col45:   9bc9c9688c9c8bb7caa8998cc9bab89ac6dcba6c89a9dc88c7a9babb76dccdcfb5dd8aabaac9abe8
col46:   958b9adab9a99c7a8a8a7e79fac6abcbabe5cbc9a7cdbba98bbbaadababccac9da8bac9c9d8cfe88
col47:   cab96aaabb59dd79c9ca9cec89bcbd9bbbadb8ddb7ece6daccacffacdd8da8cbcdc77dbfdbcaca6b
col48:   7bbba99cabaac8cdba8acbad9afcdaacb79cb9afbcaac9c99b7de9de8badaedaa8e9dbdd9ba8caab
col49:   79bb9bd77edaa9a9a9aa9d9ae9c7ecc9acc7dabdabccdcfdbbcae9bfbbabdd9daa9ffbccee7bba9b
col50:   bbaaa7b8a7c6a9bd8a48bbcace9acb58efabebceaacadcfbbabefeec9cabecfcbadb9db9eacfcfde
col51:   6ab7889787a98ca8d8b7a9a669b699cc699a97edbabba98a7b7cc8bca8aab59bb59ab8aaaa9b8dc8
