ROC:	 BPix_BpO_SEC3_LYR4_LDR12F_MOD3_ROC0
col00:   7a9869987c9da2b799397c6487855768b89c5787e4fbea68c8aa857aa78c74877378856b3c873648
col01:   835b86a6a879799c57aea537a9d5bdc7ab7b9786967bb9c6b99dab44c788ad9bad9e93685e79841a
col02:   8c56a5aa7fa8db96b87b6845aaa984d9c4ae7cc8aab57ccd9999daaabb9c899ab768459a9a643943
col03:   9b977c968ab8c986acac9d7bd8bbbb6ce8b7cacdb9959c98adacb766b69c8b6598caa884d7488b9a
col04:   978b9a98b849978448c675a75a8d8a9b99e998a9ba9d5a89a8b9ccc47b96b8da91c997c7b586ab9b
col05:   b7a67e5b6a766ba77a485e97898bae39966aa59b9dda98adc649dc9977bc7c788678897b6656b3a7
col06:   9b8a97c9e9c9a64a5d6966baa8b85b7e8c78ac99daadaa9edcaee9c8b55bc9c99c7f5c969898796c
col07:   d9d78c77995aa857b67b58ca4459ad66a3c77bdcb7b778abcd7b86bc9abddca87b467a78a7475191
col08:   6645874b9a489bbb77b98b8b7ba9877c8b5a7765aa6c7db9a78a99ad899ab78eca46988c9255e941
col09:   8589788aba9c76a6aa98a8b88dc77966bb9dfcb8dda887cb9f888dc97daa8f6c9c9aa68b59d94997
col10:   9788ca9bb35747be9786bab898b69b9ebb7b9aa88baeba899dba9869598bc8adbddb7a74a776ba97
col11:   6494aba5688ca93586875ac8cb7d9bc68d89b92caab59ada978afa6a889a86897b9b99bd89a66281
col12:   698965bac85597989948abba9a9a9abd5b9d89ddeb9db9ba9dd8b9b8d6b57ad49961acb67a896764
col13:   a43c68a8c8a5957be96b65c9d889b5bbc889a9b6b8bec7a79aeac755f7c67aa8ba395b3584aa2988
col14:   779ac8a14965788b9d88b5c75987b8dbea8cb98aa8bb9cba768a8fe597ddbd978949da868658a7aa
col15:   5c597c9994965577c9da999bcb7996fabd7a4ab8d57daa59783ab78a8cd76886ebb8a699baa836b4
col16:   386a64878835d9e277979697bdb7c589acd8bb8c9d9ac8b8cadbbae97d94ba6a7b74a88c58788cb8
col17:   11595e7c499749dcca699ace996b89aa5c6798ab76a9b98eaa785b8a9baa8bb93383551772665756
col18:   b63ba69a35a4d64baa6d7d9ba96ab7cac8abac859586678a8db9a9b6779779b6566788b769349766
col19:   65444e8799a96a46c778758a7a87c9879a588567aa959ba6b7957b899a99b84cb9979897595d6592
col20:   6147c9b5549c697b89b23ab47da69a8a8ac97c5ae894c8b74ce925aadd67c87859b5447b5a454354
col21:   682968b369a8b4a9687657a6a8ae2c9988a792a9b87ac88b8697ba97bd67929b9ba699a793648c81
col22:   45886f78579767487aa667b9aa97aaacb7a7b9c6bea969aaaa6a98878ca9db63832757797888656e
col23:   778956688a3fa59a96c889ccb67686cba79bb9774ca7ca4b9b86a99a6abd89cb97a67a889665427a
col24:   978978a7b98599a3796aba8957a67bb7898c8d8b8884c5b88ba598a89a699a76bb675687759a95c7
col25:   58675a556669749bb839a6dafe8aa557c8c85cbab8c9b7dd8979a77d98898647d478996756755997
col26:   7864b7649a7b96cbadebbb8a8ad8db8a95ffa796bf8d6cc8dba5f69fdc8cadabd9999b9abba87a94
col27:   576598b78a7b7987a7279b9cca8c9adcdca88788ab77baca9ac8c4bec99c5bcf9d86c9a8b6785998
col28:   5878697568cb94a989e897799bd7cafaf9ddd9aabf6bf99a88bef9ac7e9bc8c99768d7cb8965ea67
col29:   6a66d78a6ab76678aaaa4b7a83b7b88e9c9ca7b998b998c5accf857c69c5aa8e96d786947564ac86
col30:   6b29c7cb6977c99c8a99daa9cba78aa6a9bca99d9ecacbea9ea85baabbe9b89fa7654bf5aa868893
col31:   88a797ac9b53789aeba987f9a8baa8dae9cd69b8ac8dcbfc9e5b99ad98aaed7d9b396b8bd8878576
col32:   8763ba89a9b9b87acdb6a89cc5ab887beab9c9acaaba9a7ce6b9ecbd896aaa8887de5796c8978784
col33:   6b731859544974bb8ca96d8c6a37dcbdbafba8ebcbcae69f75b8e99bb88b67ab85b8c87b7b6d5859
col34:   998c9131376b9788b7d9bc99ab78da7dafbb3b97aaae9bd8ac9a8ebacbcab7aabc5bd89fcba9c9c6
col35:   8a2767e9a77cae69a8ca95d6b48b89cbcabccafdbbda76a9e7fcbaadcadc68c4bc7577a6d799878a
col36:   4677a79668986adb7bb69e7b8dd887b8bbebb8cac99c9aea89bda98c8c7cd9a68868c8ca4988a66b
col37:   bc985a896c7698b5aae66968b9a9688bbb7aa7d9ecac9f4bbc868a87f5a7bfc9bd8ac96a968a728b
col38:   87b98cc898cd5de9be7fddbcb8fa998a68dada898cee8da8c9a866b677b96b7bcad9baacbeb7ca7a
col39:   bac7a79999678b8b9c96cdf68886a9abfe8aa9fab79cced9b7c689ae8bbcde9cadb7ed9997c9bb36
col40:   8999ab4baa99a598aba9a9bdabfa88c9efba7bfdcb7c99c6bbd5ccc99ca97b6ba9ccbbf398187a85
col41:   9978e8798b78a784b778dc77da69aba7baabcf9dc99db9ceb8bdbccba965a659fcc4999782749c91
col42:   e6686d76a7b8888a97ab6a9c8778cbfadece9ba699d797ac89b76afa689aa98eb559b7b9a9ec85aa
col43:   3eac3a8ac5b687d7b5aa99ed969e9988d9799989b67abae7dacbbebb7aac99a81f797da5799bb757
col44:   a878bb6a887c979969b57db87dd9bcb98dd97ce9fbeb9b55755daaccc8e7c7aa6d7ba9c4f76b6784
col45:   9637c69ba98b52ee9c8c8aec776aac8ddabd7acd86cabc998cc9ebb9b5aeb5bc9ca777aa78577ab6
col46:   6695b7a7b8ca6987cb8bd55dc9d8d8aa79ea8f99bd5cca8c55aa4d8e8d77adb3a8e9bc97a9696a59
col47:   99a89759ba4e74799ca8ec91b99cbddcbfdba8bade8e967de8859c77afb78de4ccaac68a7cb84957
col48:   db5a88b37d5c877887c68b79bc7a9c9ddaaeb97bcc8eb95afc789a98abd77c656977b6796e97a875
col49:   aa268899bbdb36e6cf898c9b997ab7c8889b69c6b5a567c9bad8a78b9bba998767569e7d797b3c7a
col50:   8a65e675a9b6eba998cdbaaa99abd8e9ae5d9ac7bac97eadcabc9c776a8a56ac769a9b6bb6bb7498
col51:   9a5457b64a78917c46746a9aa9a7da98a89c99bf72779c9795627874dd9864b44797a3d915256a91
ROC:	 BPix_BpO_SEC3_LYR4_LDR12F_MOD3_ROC1
col00:   45516525416654249569447411756693a8a9a94568786a998a78a59c9533497638b344446681692a
col01:   68549947967678997977796a77b4a6889b97b6699a386c6ad9a959a45763a9aa36db79c69618b748
col02:   7a256695656587766c7864b97774a8b8a7b599779a8851b97dba798c5a5a5849a989846a27a68849
col03:   bb9384775c8a75753939b687e572ca8496598696ac9a9b59a88b87c5b5a69da857683769a4ba6246
col04:   6855a59545796747a748457a4672197bb9264aa8f98486893b5ab974c39d3ac7a567c79942658698
col05:   9879a3646a6593784675a7a879765a9c678b6b8598c8ab998787b6aa986e788956d6769384415586
col06:   894866987ab9497a9796b9bb658687b866c6577aa9a68b9984a9999a5b8527b39b3a9a8667739719
col07:   667a799696b759b6746aab6bd66b5bb9b758e79b8acabd67a9754a6ab97bbabaa7c594569bb478aa
col08:   45976732679a99661a2557a997b8be88bb9a785ba75bc76dbc88448abb5abccba3775178185668b4
col09:   56394859a18a7267755569a9b8ca988668577a797aa947999675a77968a9ba4a6b65777574abb983
col10:   5237483556a58b4476c85878a9aa7898655b8b775a98ab5387bc56857aa68c69cb8ab88958a59a75
col11:   37c858963a276bccb857b24d838a5d366b57a869ca387d5788c84367d76aa958296967597885a434
col12:   2467565868538956a4a78799548e9597298f5666976c8a9b78a8a89c84ad868c758783655c6a8664
col13:   aa19c6687a38bb8c4697cac8668b5a5bb28988deaaab4b7aa6b8a8599aa8664a898796379866c695
col14:   55594787682679b48a858ac7ba66e927bdb9ac6bda868c89bbb89cbd7898a48946676568a9b186ab
col15:   7968a78a969b76679a8a97888bb87bb9a586c4a65858b8da74a95a99696a85b679d84d696833b7b3
col16:   815a99784639946ab4788886a59b69dd7892889b9a838a28bcbc9baf77c126bdacaa5b8bbe3a6a55
col17:   635b8a75754a6d575986bda7a65963c6b882a6a95da85779b8b6c3693aaa9975439b857889c64394
col18:   a2571a695166129b55db6c8765587a8a878779a5a9a7a8f6a4656a749e67187258488b6576195678
col19:   3556b288795784a48828ea777777a6988b9b98a8a9ca4aaa9676a7c6c8aaad624967874a897a4418
col20:   1558a5bd84759788c4ab829abb486b8fa94a8b68abaa679687c758cc96b9a75984c487a7967a78a5
col21:   76315d6797a5859959c689899987aaa8886bcb798ca98b7ca4a987a85b87ca484ad878cb46717866
col22:   3b279d366797aa878a338b6e5c9c8997c98abda8d877a767cb9a6a8b77894764bbbb538989c57881
col23:   95b65583767a788976645768689787aba9a7a86dd8a5db1866a79ab8b86bac6a388964598917a879
col24:   326597a866141b42baa875f7c8998775a998795b99994d6adb57888926ba58488cb7596471a4aa44
col25:   aa4a847a37b3b8857bd95997b8cb89fae86b86bbc4a9a9b79ab67bba8977ab8ba2765877a3955966
col26:   6597bca7bb9a69ca7ccaa84cdaca9afda99b8c58e9c88b8bdb68a68d76747bab95bc9789968b958c
col27:   ca9a8377dc946b9aa6bad996a9a8b9c7a969949a8a8a98aa997be9fcbc98b66787c94c9466a5d384
col28:   46c697c9a798ab899bb672a8caabab979e785bb6b7cda9bcda7bbcba659ba79c84b8d9798b696696
col29:   965b899bb8578a6c5a8a96c5e66a3cacf8a9bbebe7c7b86cdcbbec59ad4cbcb9ab27eb9a5a76a476
col30:   885a76ab387a61899b9ddd7b94c87cca7f8c89ab999bb48accd9a968cd9a58588787b5adc98a9757
col31:   7b845659a8889ada7dec89b9ddebbc8dc8e7e7ebaebdcdbaabbebff9f8aaf577b88c999896baabda
col32:   55d9795bb95969987ebba579b69ac78dea8b9fba7c9ab99e9daabcbbfcae69b9ed5a987b6b79daa9
col33:   9bc637aaa94a71a6bcebb67a9cbaeea99cb6c7dc969a9dfbd7acbd9ec8cb97eccdbaecb778acd786
col34:   599596d75b99d8d3ebcdbbb76adacab97decbefbcb9ac8bc8f8c9bad9b8a99ad7867e599c9a7cb64
col35:   baa93b877badebab45bdcbcbad97ee8baa9cbaa98c9eccc9ebb28abb6bbb9c479b9798cb8b7bb7c7
col36:   5abcda9896769b79a6eb9b9bba698ca9dbd8eaa98ca6c9bd5d9a899a5abcf7bc8bba9d88eb999c99
col37:   67f8cb8d979badbedb788bb77fba99bbabebbeb8c8bea59bfedb9b6ccc8b9fce7c6cb99b98c9b8bf
col38:   bb89a5d7eda9d7a76967dcdcc8cadc99f9a67baacffebfbd8b8f7bba9b9dcb99bfeb68c7e5657bbb
col39:   b998cae75dd6bbc8dbccabce7999d9efb99cfaaeea997cdcaebecb78c6c7e887c9777d7cb92a8c84
col40:   eb9b7bca7aacba77986ce6d9ccafbacbc8aac4adbbb7bcbd7dcafe5decabab99edca8cca65678ca8
col41:   5aaaa889add369daadedcfdcdebabbcdcfaeddd88a8cf999dbbdafcccbccaccbab6ce689b9f48975
col42:   5958c84a9bed8ccce9d7fafa977bba8ae8cbef9ffbdeeaacfaedcca48dabbc69de79ab9e7946a996
col43:   cab7fdcc7b5eed4c9a9ccdd8cdbcfdfbfdfabdcbaacbaa9dbafabc8cfeadcca7ecdbcb74baaaca79
col44:   a89aa9d8ece9b9866b999e7fec7bdfddaae9acbacd8bfcf9b9c9bdfbc8bc893bafdbcbf8ab5bcc56
col45:   bba9b589e89b7579bba87d9feac9bf8c9c9bc8ac4ddafd7ccca9c999decfbdd99d998aab28a9ab99
col46:   39a9ee9baea87ccabbcb86b5bb6bcbe4b9bdeafdbc78d6fac8ca8a98988998dbe9b9c8878db7ba67
col47:   b6b977d8bc6b6cb79fec7cafabbdbabcdeeeccaed9dedb8cfcffefadbdab5c99bebeb8885977a96b
col48:   a48a6699bb59ad8c59cd6b67edac8a68cbaa799c9abcbce9f7badea8b9bb8aba8bca9cad9985a797
col49:   a957b85b78b9aadbcaaa8a7c39cbeaab9eafaebb7ebe9aadbb8c9ecffef5afbfd8b89adb9a8bb968
col50:   b9879a8ccc7e98bbb86b5a9d9abbcb8ed8cecc7de5be6ebfdbeebd8aacbcaab5daca9b976caacea7
col51:   8da778887999aab9b8b4b486769867b8794aeba9da7bf9b79d9cbc62788759a6a77b9d5926b3ab6a
ROC:	 BPix_BpO_SEC3_LYR4_LDR12F_MOD3_ROC2
col00:   87bbb5777376696743a9b6785976995a56365957b7996dbaaba7678a778a5692854565953c6486a3
col01:   969a46636558b9b9cba9aa4a6666b8a8eb8b67799aac8adb9ca88c83cc5b8cc98d7b8896e8aa9489
col02:   18b9358a877568a778a8766636787c88ad9acab7bc9aacb7aababba69798aaa38a76845688474665
col03:   a69797e697b76ab7894aa688d7a7ca98fc39787bbba3585ab7c6b996a9c69c8957b4679dedea6963
col04:   88c4796797996bc9ad57a6c88b7a8857fc95a8da8dcba9c9bacbdd98e7a99b6a89a9a7695d597881
col05:   954196b4799a86b8aa8688989b7b8aaaa6fb6b6d7abbeba7bb2778c895849a797a866a6386d8bab5
col06:   246b7c629d97db9a86e95b99869baba988b99e9b8b7c97bc93a9b8aba67b7c8b588985669926a878
col07:   686a6a6656759af9cbb6af7a99db9da8c8b78ce999cabd89acacdce98ac9884db8c5c8d8a9a83ca5
col08:   8359667497c8759b9b6a6858db99cce6bab6888abd9c965ca79ce8aba7a57ba9ac69a589aa645894
col09:   99aa959a8d9ba5bc9cb8aaabd9af8a9c5d8b5a884d95aad6b9cbb9c8999697ac8a775db687d875b3
col10:   97a88a87898a8585ab98b79b5bb88ab9a8cce97aa89bc96b9bf66db8885a9a69b997b6699b794895
col11:   8796ab6c97a8d8798b78a8b9999896e7a7bc9c9a989b86ab4c9cb999c889887bbb98a85a75a7999a
col12:   26b78638f9587cd88b9b887898996cba986bcde99bcb968db9ab557a4c6aaba9b57897827979b565
col13:   75789d58d8889caaa97789faacccd6ad879a998aad97b895898b96bbdc7aad9b8b8856b55886bac6
col14:   b496898784aa2b86b858bb5cac6b699999dda388bad98999c8a7c7ab98a8a59c9788d5a77ac79466
col15:   87d988856785a895a8bb85a6ab999a7bcb9a8777b398adba6e99cc9beb6aaaa47b87b6c6b7aa4769
col16:   67494a8a85a7986cc7b7b97ddd8b8d99d9dc98ab99cdaada8ca8abb85ab98d5999899aa389a995b2
col17:   856677ba99889768998a7a7a897b49cabdcb59ab7b9bc675a79ababe7b8469da99cbb9969c871b67
col18:   85886c8a66866a879896799d885a8a5887c68ba98db9b8ba7a7b9a7a9aecc87b989a64b68487c445
col19:   a6ca8b7b5a97c79ed9a978dabaad8978bbb8cc6bd8c7cb6a9a868b7a9c7d86bbec8b51d4a9787b57
col20:   aaa87daa3aa3593d6a795697b983caccbd9c7b976c688f8a9bb88caabacabb568ba8b55d7a655b77
col21:   678b7555976769998aacbab7586989ca8babcba7acd789cedf9c577cd86aa9b889998798a7788967
col22:   36898b8a6a789b7c88a7bc39a99c8adbacbbac8fb7c77b5caababb599cc9bc9e7c8969a968477bb6
col23:   87888b98889b77bb8a899daabb8db57ac8a9989d8eaa9b9aaa8d95bbcb9b7a8a9687b8a377b6b756
col24:   5a499a593a6abc96ca9bc8a8b87b9d7b68ae7bd989c7bcbbb868cc7b98cab76b96bbb79a48976876
col25:   75496b9b978acb8b88ba8aa8d9b98797b9ec7ca8bba9b8c7a879a7aa7b8dac8c986898aabdb899b8
col26:   87eb7c98799f9b9ccdb8daebd9adcacb98dcababbcbf5dfaacab97b9ca68bcdaebaca8cc8a588989
col27:   ab6cb958cccb75c98c69aaafb9e9ccbc799cbb63ab8edad78a3cafbcdcaf8a9bbaa7bbdfca778b89
col28:   5a57aabac6bacbc9bdcc9c9aaabaac9d9ddccbd9f78bc9e9ddc7bddb7ada7cfcb9b99aed9ae68bac
col29:   a96cb7ca6bb8adbe9bc9fde5ac9bbd9eda99cabbadcc9ded7bfcb6d76ac897bccc8695c87c489b55
col30:   a99bcd7acb77ec9cfac888a996bbda89b6a8dc9cdacd9ca9a9edba9bbddeb987899aaaa7788599a7
col31:   eaf8cfcae9cbb9dec7edabd8c7badcd9bcfbdaabcbedc8bccbdaca8acedbcbdcb9bb7d768ddbbf37
col32:   bb89a7db67aa8ecb985fcdcdabdbbfdbdca8fcbddb8acaefafcffc9c7c9efcbccd9bc7cb889bba8a
col33:   5a8ccad989b8a8aed8acad9aca9dccf8fdbb9bb6a5aa7cc9cbcaeeaa3dacbeed99eaab79b9a6bd84
col34:   ca9aabe8a99baf9ad8cb98deecdc9bcab9cadcfa9deaa94cd9feeafd8bdecd8cbedd9d499b6ba989
col35:   9ad98c9b9b99b9b97aaa7ecdc9fcd9b9acdadefa6ccfebbdb9de98fbbdafbd8a89ab79866bf6df78
col36:   c8cba8b999ebbece9ba7bafacbbacbd7f97b96cbcf6fecbbbd9bbdbc9adda8c7d6da7b7a98acbab7
col37:   aceb99ac8cbbbbac6b9efba8dcbbbcaaa9c8e7ddaddbaadd8cd9adbdaebbbdf7dd99d7c8feca6989
col38:   cd999cfbafe6abcdebbca8dd8ddccfebcacb7ed6dcbbcbefcbcdfdcaaaeceaadfecbaac6daad7b86
col39:   b8a99ccdc8c897dfac99daffcbae9fc8bffb9badc9daacbc6dac98acab74d8bcae8aebb9b8b8bb7d
col40:   a7c98aba5cecf9dd8acf9cdbdabdfbceabc8af8cccbde9dfbdca99eed9cac5a9c7dfb7cab969c5b6
col41:   fb7bfae8bd9cddf8caccbdbcebead9fdaecdbae9ddcfcaeaac9deeadc98ecc9b9cadbb8a8b9f7aba
col42:   9acfadc96bb9fc6ecaddeb8dfdacff8b8f6adacbcdedaeabffceb9a8fec79c99a9b99998d89b6798
col43:   a9e9bbcbdcb9dcefaaeece8d9cddcaefcebeaefb7ca8cfeddeba8ca7bbdbd87bfabea9da9a799b9c
col44:   8cbda8ebdbb9dcbdcbcfb8acf8bbd9eccace8cdaa9ccbaab99dbe8bc9ed9fc9a787afb9ce8697b79
col45:   c8b7aeabdb899ccabcccf9aedcfdac4b7bebbbfe8dadbc9fbcbb8cbbce9cdcdd9d99dcb8a8c8779a
col46:   d7cc8df889abcb999bdcdbbba7fcbddaadcebfac9e9d8acc8baacd8edbacdaaedbc9ea878dbbbbb6
col47:   beea89babbebaeae999baddbcd9a9fdfeefceddd9be8cacdfecb9fdaadfa898eb9dd959976d9bbb9
col48:   dcde9afceb98a9fbd7ae8eebf9ed7ba9dafbcedca9dcfbd9bdafb6a9cbb99feb9cfbc9879e8a8679
col49:   d9dca6dd9aaaceb9bcb9becddc6cdfbcafdcdbba9deb899ade9edfbbcbaaaf8db7cc9fcdaab8abd9
col50:   bbd89cdedfeacddb89a6ceebc8acafccdcf6da88beeddcea9edcaababecdbdf89dbda9d6d3bab8db
col51:   de9b9897bbc8b7baaa699bc9c9b689ddbda8859aebccc784b59caba88aa998799d97b98c8469b976
ROC:	 BPix_BpO_SEC3_LYR4_LDR12F_MOD3_ROC3
col00:   9793b99988c6a7666bb79b999d298c8b6a679bc9597aaac78a76b98b68467886884723a8d7c74123
col01:   8acaee888b8b69cc7bcaceb9b97abfe98aacbf99caa88d887aa8a6d88dbb969faa86aa9987c896a4
col02:   ba9aa9b969a7889cfa8b9aaa79cd766ddfd9bc7aedacac8d98c6fcad55a88a8ccb59bcb8877b7ad6
col03:   a99ba9cacd9baa989c58ba1b9b6baec9aa7bc8fbdfbe5a875b8a886b7b774989ca879d865a52626b
col04:   ee5abab8cfbd6cdcd9799c3a98adca99a9dafbfb9aeb79ad96bd592e788b9a67cb579bb874438754
col05:   996939cdaa7dadbb4b7afb98a7cac9cadaabc6cc8ac9ccd98c69cbb8a45698e796868988a36a9487
col06:   cba986698a8d8b8b98a8da9bc6bbddc88c99b8abb778d7bbbbdccadcec669698678a8457e966994b
col07:   69ced9ca78ab7bc99cba7b9ac996cfac9e6b9b999dab89aacaa6b8aa87ab8b989995e8d7b58c57b9
col08:   aa8797db976cbc8ca7acbb8fbb9ab989579a797da7cab995eb96a89ac8aba68b7b5ba8759485a85d
col09:   99aacae74a7969b87787d9acab2ddbfade988ad9b9dc9be9bbab7978ee9fa9ab9cedc5676aa48a66
col10:   54cbd9b66cac8b698b8bc98d8aa7aa96b8879788bd88c99a9bd8aecb5c7c968ac86c966a8e868774
col11:   ad8a5c99b877797787b7a8786db966bf5ed99d6abb89eca8abcbaa88c98bb6c98849587374788b57
col12:   76d8b699a8b88a69aa59b86cd8cea8bb68edbcabc8d8bad8ca67a77f9a8a6a83dad5c4997556b683
col13:   dc6d799d78d97d3ab9dbaec89bc89b96babfaeb6fcba856b7859e99ebb998b7c99c969aa898d3964
col14:   b8a989aa869688579cadb98a74b9889cbc98de87677c9b9bad75d9cdd8a8a9678966698749848976
col15:   9aab979d779ab6988aa76d85e89f7b98dabbbad8986cb9dc9889db7c9bc8b9b9a64b79e9a87c9a3a
col16:   866999cb3ba778ab687bcdcbda976ad9cac8ecabd9c99c9a9ab7b96ae8648ca9baa9a59677879c67
col17:   563b9846a66778aadb799b88b8ecaacf79b7b5c7cdb69aacca8e8be9aa9cbe9dae754578759a5964
col18:   a994b9aa9988b55c96b8797bd5aa76cce87889bdeefadfc977b8898ab9c9abb9bac9bda5b1546768
col19:   a68d85b89cada975caafcc988a9bcd9c9f96da7e9bad9aa8ca79a88a7cd85685c7a673984877aa76
col20:   69a7cb4c8bb779acaa39bb987bacc8badd9bcab8c98c9999a76a9d8aa77dadca84bb8767594d9ad8
col21:   6ca5777eabc949b6ddb9d8bb9abf7bccb6d89bab9ce8ca6babac8faba458986a42387a87a8c8d797
col22:   98476ad9a878da7c688bbdcc589bcd79997688878abd67b97d7dc6e9a9798ab7969967d76e67b666
col23:   8c47aba48a9788795db799c97c97c98b8b98969ba88c9fab8cadab89fb8885f963aa7d9c18ac6597
col24:   587986779bcac48a9bec9ca7aa75898bcda7767dcaeddd7989d8ba76d9f9879ab8aab96ab6776b43
col25:   99697a68ab9a687f7d69af8eaa9d7ecdca695876abaaaa97ea89baaa9baaf8a899a777c65c696647
col26:   9e997de98c9a8c8ed98fae8a8fa79edb6aacbcca5f9abb9aeee9bad8cbb4cab9cc8ba9a57a768ab6
col27:   7aab9dd59b8bd59ebeb9adba8b9a7cbacfabd79c69cadbf65cf9a7dcbcccac8c9b7a55a7e8868cc6
col28:   c8ad9aa77adca7adbfb9faabeafabda8adb8e9cccaedb9cdc7dddeacbd7aeec9cb98ba6796ba3a18
col29:   c7a7aa9868ccda6cab9a7a9bda9cffbece9a8a8aca9a9cdbe8acec79ceffa99da9d9b5844acb6887
col30:   78d8c7a9baccb9abacbcbdbabdabbe9cfb76be9aecdbfcadcdf9f6cb9a99a5f7dc99d688babc6995
col31:   9c9fc8d8a7a9be6fdbccdce98aaceeec7abdfce7acdaaebc77debbfbc7daffcbb94aa78a889d99a5
col32:   96cbdd8c9b899979acc999bdabcaae99bc9beeadb8b9ebb8cbebae8e88b9d9dcda7597bbd96b9ae5
col33:   995cbe7788ca9b7abceabc9dac9ae867bc8d6eabeefedc8dcc7ebf87ddafecdfc76e8b966bd9bbaa
col34:   7acec9b6c8c8b9bbb7cc9afae9eeb9cbba8fbfd9ebcebbacbaafcb9edfabbeecbdde4c8ab6ca88a7
col35:   a8ec99a7999bdace9dbebfe98a7cabb9dab99c9eebccc9cbbccebcdfa8eee9b779eccb7c98a9acab
col36:   b88eb7aed8b6a7e98d9eebb9bfdbbccaf9fafbcbf9ff5ddb8edc8bcacfbbcacadb999a798bab98a5
col37:   7a889d5d8f9ea8cacc9badee89bf6cdacecdce9cbffdcdcafdea9ed9bcafdb8abab9bea7a7c9c8e5
col38:   d88b8cbfab9cecbcbbccba8fdeaecfedbeeaecfdececeac89fa7abedb68bdda994b9adc964b7a5a6
col39:   daa68998cab8ce8b9bcadfdcbccddcccebfbdcffdfbdfbbeab8d8bdfc6a888bdbabeaabbbab5b985
col40:   997a9a78fcb8dacdac6aabbcfbdea89ec89ecffd9c9eedcacbbfdaadfcea6c96acfe98ab6aca8a8c
col41:   9c9989aa9c77799a9dfbce6cdedbeacffb8cae8fdbccedfab59cbebbafccabf9ccc59cadaa99979a
col42:   b85a99adadbaeab9bbddeb7bebffb8bedadbdcdaaecc9ccabebcceccdffc7cbdf86c8caa9cabf9b9
col43:   668ab9aacdbc9ca9c77afa97abc8bceeaefda7faedce9cefbfda7da9f9bc9dfbd9eab989bba9b989
col44:   baba8aec8d8d9c88b7aaaa77bfcd8bdcbfbeeabef9bcdcbc997b9dcd9badadfbcbc8aa9aa8aeaaba
col45:   bcab7bb7b9dcf8bfcfcbda6f8dfafb98fcffddcacb8c9eec9ceadc7fa9ad8bcf9ba8ce96bba88a98
col46:   b9bc8ead4c9bcefca8cc9ccedbb9dca68efdddc4af889bdcaacb8febd8cac9aabbcf98b8ae8985a7
col47:   aa5daf969bfc9caadaaabbfd8fda9ccedbdcdfccdeca8dad8acacb89dc8b9a98ac8a8a79bbba9936
col48:   aa9eb99a8acfd399cd79bd9ac8b7ecbdc997b97dbebdcb9dedac9dcb9bd9fccabbbcaadaa9b8c8c3
col49:   cb8acedbbdd6898bcecabac9eddbe6ebe9dbc5cf9bcadacbec9ba8abeefac49b5ca8abc7aa8a79a8
col50:   b899a9c9c97b9ec9fbaf8d8fb7cbbb8cdaf899decefa9dfdcded9e7dffaeaed898a9bacbd7b668a7
col51:   7c9b9a699addb8e4a9d759ba7c988cc996cbaa89b9a6cb6beaa6bdaa8d999d8898ab875c8bb1a175
ROC:	 BPix_BpO_SEC3_LYR4_LDR12F_MOD3_ROC4
col00:   996798a7286799819378697389448759a838885585c7a85aa5a7985a4956765868568655b7673464
col01:   bb998659a77986e7abbe9cd87766989be96979cc698588a96c82a9d78a7a598868bc97a556845c46
col02:   28c77936669a9986bc927576b9c6a895889b856aaa8b796e7abcbb8a87699587b885848764684585
col03:   89497c66b78989abb88679999abc6bc69bc99ba98a883d77a7a868b9a8ba77768a97bc578b5857a3
col04:   87b97976899b6a7a9d67488aca9987aac5b88a6a8c7b9987d89a85bbc6886795b67a93545797a675
col05:   54a4366898c794d359599867abac865b999697c78a9aaa759aa98bbab87a8d789885b3944585c744
col06:   7567a666a68a76878476aa6776ca988be5a97cab8b6b9baaaa75bb7c7a8887a9a8643babb879767a
col07:   888b2a6598ab9f766babbd99a99bc8ba6d6db8bab8ab7c89b99a8998c76b97ab2aa996a9b9a69a22
col08:   678b7a87a786a9778c8bea8987a87ac6aabb9ba98b9a8a9cb95b7986b679aabb88ba866b69775986
col09:   8789767bb8c996c6b9c9b7979a9b9e68a8899a78ab6797abd9aac47a7b8d6ba9685b7789b897949a
col10:   aa97ab977a678d698798d76ca9bacbaccbb8dcd979b649bb68597a87b8a8a8695e6b691796769755
col11:   6a897c5aaa754a69d9aa96baba99bbabb8b99d9b78b9959acd878a7a77999c49c58a89cb648a7657
col12:   a14d99986975aa77b8cb6aea88a89896c997c978a7ab868a7987bb8b9d9f83d987a7ba75887a9945
col13:   6a457cb485a5baab9b9b597698bb9ac87cb6eaadbdc5a9a9bccb799c9b76579b9889c748a8894577
col14:   87bbb9ec5a6598ba696c9bab899a8b8a9a9ada5baadceca7695a7a7aa58ba9a89b77c59986687982
col15:   a9959399776aa887ec8b7999a6caaebeab6b989bb867996af9c88a9ccda68cda56887198acd87359
col16:   69e9989888679aceb4d4b8bdb6fab9b9b684b99ca8d996bb8589abab8898acb7a98c9959988aaa75
col17:   a9579856784a9ab388849aab86bbb7577bcba89bcaa8bd8bbcba89b48ab6ac7897a6996986656765
col18:   597a2b98958ab956999783a8c98497c7c99ab98b89da987a6a88ab788a8988ba77a68a5792998485
col19:   7966687b6bb9999679a8bbb999bbdadb96c9ac9ac9acafbabadca8db9bc868986695559869377979
col20:   6888b8b9467c99aca99bb9998a69ccccab8a8e999a79868999866749b56a8eaa7976768cb8a36887
col21:   99999b787aaaa9967577a66987bc7a8d998889c779e77bca8ca697a9ad5ba58bb766568698777777
col22:   78878788696896c96c9baca988c966a9d69a9cb9bceccc968a3d6b9aa8ceabbac9889d7666479692
col23:   a823879c8b88978c77a99bdb8bb7a8b6a8b89da898eaa8877b78dc5756c79d96689db5c985964972
col24:   86a7bc74a647767b97b7889ae669ac9b7bb8989a9aaca7ab78a9b7a69b9c4a99b7b7a75577564857
col25:   c7968879978a875eca8a9dbaa9dddca89bdaa99ad76aab7afbbd8f98cbebabbba7a738c36a676b77
col26:   a9967898abad89c8e8cccfa9d8b7beac8aabdaabbcd57da98d9b99abc777a89babdbcd8c867a9a78
col27:   8da8aaa56a79cadf979ea8bc95a7abaabccda8e8b9add8db95599abcac99bea976a785876997b898
col28:   bb68bab9d95bbba7acb7cfaaaccacbaaacbcdbaacaa5cd9b79bcaaaab9a97d7acaaab958ac86674b
col29:   6c98abcb8cda7b7daea888aa99dadbeaabbccb9c8fbdbf3b96d989a999a78acca79d84a8ca64a697
col30:   aa9b9bcdcecd8cadfcb8b8a9fcafccbfb8bdcbccdab8e9babb9bec9bc988deb9bcbae787a8399a79
col31:   bac599b9bdcbb7beafabc8bccd9efccbbec66baecadcdfcefcceeaccaba8ca76baa7bbccaac7a756
col32:   aa9a9cbb9eb98abdc9bbfebdadadcceecdacf99d7c6b9cbcaaacbebaab9ddcc6c99988eba699858a
col33:   bb85b7ce9be9bbaedbbbe9d8ad9dbcdecbdabfad9dbbf7cbe98bd99fbabf9aba6bcd7abac598b75a
col34:   bd578ababcfacdab9daaadbf8bdc8d9adcdcd8ddd9cfeeffedbdbcaccb7bceebdcbef7eb99a777b7
col35:   aa987cf97bbbadc99bdacc89d9cbeaaacdcde8bcdccdfaa9cdb7dbcbebcceaab9fbffb8c68bccb6a
col36:   9ba6d9cd5b7999bc7ceca79bbcccbcabbfd9facb9cef9dacbccdc8cfab7a978d99799abb88ac5b54
col37:   ddbdbdebbabcadccadae99bfa9eb8afcbaacacadcdbbdbceecabbacfcacefbdc7babbdaabc59c89a
col38:   dbadcbcbcfbbbacdb9efa999cbddadfc9acefcbfccabf9ecb9aacfe9bdad9cfbaa9ba7aaa889ccad
col39:   bd8b89c8aac9ac8ccbc9dcef9b999faaadacaaadedbaadddfb5fba7aebcaaaaabcfd7ca79bda9bb9
col40:   aba97caa9c8bdcdacca9e9b9cbbb9eaffcf8ecdcdabc9baacecabcaeeacaadbb8abd68acab87a999
col41:   fda997dcaeedcce97eededcbd9fbcfbbbdcd9d9f7ddccbebfcacaecfb9dd7abdeb9a8d7a88b9bab6
col42:   ce7aa7ab9999cddcacbaacddcbfd6b8cedcdabeaebeceedfea588dd9cba89cbc89abacbba8cacb97
col43:   abdecacacee9cbdaa9bddddbba9fbb8eb9eddabdcdecaddaddfbdbffeebfaff9dae9e8c8aadada68
col44:   ea8baadabbbecdbbbc9edeecf89bfefbbd7aadeaccfdccbdeabb8dbccbcbcbcacbbb9c9cdbe8d9b8
col45:   58a7cbab8ff7f7bafcebbbbeedea9bb9bebdc8cbbbdfacdbddefdfb9beca9deca98edc7998a9e9da
col46:   bbce48bbedcc8bdadbebcbfebbccfebdfafafacc8dcedbfbadabd9ccafbeddc99ec77a8c88aca9ab
col47:   bcbdddcebdcaccbafdcdadcebfbcbe9daecd9ddaeddbd8ea8fdcbbfeabebeb9eadb7c7d8ad4ac7bc
col48:   db8bf99cc9a9c9bebbbcccbf9b9caebbdbfffbbd8fab6dbbbaaddfaebebcc8dd8dedeb7e98dcebb8
col49:   edec9c988dabfddccd9fe7bcbbdeedeecfffdfffcd9daabed8dcaebf9aaadde7bfa9cad7dbbddbca
col50:   cfdfcbcbcbcbad7ccdaecddbeccfeeeebafce8fcacdacccabe9efabdfcdcaabbe7bacaa89eceddb7
col51:   9b8bcc39a9bb7aca77a9dca8aa8eeadcaababd8dfa96eacc9bc99ae9b7cb89cc7ec4adb7a42a9675
ROC:	 BPix_BpO_SEC3_LYR4_LDR12F_MOD3_ROC5
col00:   c468a3957675758688b959a669876ba3868659976a668778689856799a989a726a97889473345a85
col01:   aa85579b696bab78aa859bd39bb8969a984998ab89a8a6b9a9a89a8b499b569a646c38978c972997
col02:   7a8c989875771c67597598758885cbb89a6797ccb96764664686ca9497ab47ba966af63367342c41
col03:   786a73a686969be976678997aa9a78c5eb9c998a7d9779d687aaae95cb9c98ca9eb964876a247bb6
col04:   a789cbb695aa86bb6969dd884a966dbca98d7895b7fa7bcb7a97d8a9cb8da787288b97a9885ab438
col05:   a689b7b4ab9b6a6f9c996a8b99878bfe6b874a59c88b778a88985dbac888a789798a7ab878b54619
col06:   aa99ab5d685a63383bb8b7cc98a9bc79976aa9b9999a79be6e6996b5d8dba897c969a956876ab676
col07:   a78b7c89966bd88b97798a9ba84968fd79bb9bda956ab9aac7797999b9a3475c6a85489865347787
col08:   568b9488cb3aa1788aa7d97a7687ba978bbb4aaab988bbb7a98dd7779a79c867aac565b8a6b56312
col09:   87999aba699a77e9b66ca9cab699978ba6b6a7e9a7d8b6bc7999ba4885ba79c58aa56767489856a5
col10:   a89a96539c95cc8da58e98c7b9c8a9ef8ca7ab56cc7988787a7bb647777475ad77a887b755ba9346
col11:   66a7da7766a956aaa8d6a9977999daa69a9a659a79f7b987788bb9698a8db77aaa84756877795861
col12:   5d7586ab7e65788a898ab99a86c9a998aac9888ac97bcd98d978b8c69ab9b76ccb6c646d387562b6
col13:   8b488995b66c5aaac66fa5bab8898998cba3fcab9b89cc9c9baadc74a8c677c9a9aa3979772759a8
col14:   7bcc56665bc9764acc5c8cb9d889a9abdc8a9cc9b9baba5b49baa97a676aac687ab7846986968a66
col15:   8878bd9f76ac68a899466ab9878c97cb9987adbabcca98aaab8995c9caaca857479837ac59765876
col16:   7456ac787a65597596a969e9799b78e98a976aa8698bbd8c896bd7db56d8ba648a67aa499555d946
col17:   47655a678bba5a99859c7a87599c798c938a89d6b5989379b77cd5a7989abb689676593957762655
col18:   997b9799769a765777b98777868962e9967c967da7c8b87ba777a87aa8c66a69c6879868ac7a5883
col19:   96628c9788b968ab9a8b99ac7d6a9acdbb7c879776bcc7bc9d96bc5b59aa6a598686867978d27587
col20:   6b76964bab89978a46868bba867a9969c97c6ac888e8daa9ec9f9eda9ab5675a66658ab588973453
col21:   b9789b48b869979a58bcbca99a78bacb78bab89baa8887aae7bac76cb695a9c97847566758788c55
col22:   53667a9c69a87b8a7a8bca97abec8bb8b4a985ed7d859aadb59bcc76d988b8d7456ba99575775421
col23:   5769757958b6978a79a889999aaa8a869bc879fa88a69e9b7debab8998687865785b448496496658
col24:   5369868695379a99a8bd6a7a96c9aab5c99e4768bab889879879b87bc47d48aa6b69a8b67888a14a
col25:   ac867977b8969acb98c888dc87f98ad779ca85866bec8a6bbca9cbbb7db97975a5b3aa8b97b95856
col26:   98aaa8a89b966faecb9c6989bc6bbecaab86dbbc98ed9bcbb9c9a9aecbb69a989b998779b9ba7676
col27:   7ba66b8cb79996c9baebc9ba6f78acde9aa99aa9dabb8afd78799b9dfcb6887cbc7b9a798669c819
col28:   aaccbe7b6a99b8abb7baa9999779acacabcc9a8de99dabcab99b9cbbca86959ba8d98788c89a8538
col29:   87aa8bc9bcb5accd98977897cab8b9cce8b9bccae99de9cedc988cccbcba7d978989c8abb6967797
col30:   798eb49aab8b9bac5bacb799cc677a8cdedadad9ba9878aab65bcebb594a7abdadab887b791ad84b
col31:   8ba9ceab6b89bb9ee98bc9cbdef98999b7cbea6ccbacc9c9bdbccadc8e8babbd569f7b979767a489
col32:   b89b98a997b999c7abc79ea5acb9ccbc9dadb98cd7dadd6b8fabbdc6bb88c6ebcd878db8ddb8b8b8
col33:   6bf969d6a78a997f9affdbac88d9aeebba8ebbcc89ad89bab8aab79dabdf9ad8bbcbeda85a5cb525
col34:   b7aa89b7dcba8cb88ced9ecacc8aa6ceddc8bbcbafcfdcb98bd886abbc89a9b7baab4efbbb2c9795
col35:   a6ccadababca77ab9cd6cfbbbdcbebed8dcffefeba89adcbccbcaaedffdab98cabc9ca8b74996a78
col36:   99babab68a8ca98cce9aab9bab8bee76f9accdddcafebdfaf8caabdcaeed7ca7bda97ac597cba69a
col37:   5bbbb8a989ebbacbd7db99ccdc8ebceacbabcdab9acbbdae9b9cbccbaccaf88aae88f97c7c473768
col38:   a8babdab8dacc9ac9bd7ebffcdc9c9abaed9c6dcacdcd7ddc9bc5b8add99fdc9aae9b9cb8b7a6d89
col39:   bb989aabadab88bcd9a5bdcbdb7bfacc8cebbdccaca65ad99bd7868fcd9cee9acac895b64bba8b74
col40:   788b9c986bbbebd89fab5edafbba8a9dece9adaeb9cafaaaecbadacab98cca9ca7bdeba88c888777
col41:   d8c978c9996a88bdc9dd9dabc9d98bfdfabecedfc8b89c7c67cdbeb8fa7baacdbbb7cdd8589d7897
col42:   7abec9a9dc9b9ba9c8a9ef98cda8ecadb9ffedebdbafcccdbcbbbcbfd8dca85af4bcddcc6896ed6b
col43:   79b7789aba9978ddaeeaaf6aebbca6ecdcfdcfaffcefaabcbdddccfd99ebc99b8bad999acfa9c4a5
col44:   5b797b68bd9b88dcdaecbcccacbdece9b8ddbbffccadbadd99bacadadaababab9ba8d8bba6a4c978
col45:   77aaeb9dede8bb8cbc9bcdba9abe9babbecbaeab8bfe9c9dcbdb9ffc9cbc8e8b9aa76ab89b7678c7
col46:   789a8c9ac8cfd8b8d97baca768d979bfceb7cc9daecccdc796b9a9ec9da8dbb9adadc89eca89aa79
col47:   b547cbcc87babccc8ebbdfbd9b8dcbe9ecc9feeecdcfacacdcbcbaaafcc99ebd8bdebdb89acb8aa6
col48:   7bdbb898b7d99d8bafca8bcaf98c6eafe9b9ddbbffad8facdbe7bb8e9cebd9fc9c9dbca9bbcbc987
col49:   8888a9add87acb8eac9aa6cbdaabbdbcb8bcad9eadebdeccaceadab98ab8b7daaabe9f7a979a6a69
col50:   cc685beb79c8ee99ddb9dbab96c88dbce9cd9b59acdaacbbc8bdefcc96d96aaa8bbd7aca88d899a6
col51:   78b9a48d8a9569ed9b8b67ba5babaab9e9a7bbcba96abab68cccb9bab6a878beb9ab9999a7789828
ROC:	 BPix_BpO_SEC3_LYR4_LDR12F_MOD3_ROC6
col00:   3376b586855b757561977976445b6669785c55d7b76a697a769558587975548787555aa534555457
col01:   b89a868b9b875dc6666858687585b5c9786c88bd576ab9adc799aa2aa7aab6d767aabbb84897a29b
col02:   7a784959499389a6888867776968b8b98a6a8c8677bba96698a9a879d98a69aa55a765989a2b8a68
col03:   698674976886453957498aa9c6c868c76b8acb8687c79db9a69a8966759986749a97a8a76897bab7
col04:   96a66948d96948ba8bb936a65c8a7ccb98c89b968977859bc75b6b9ba65dc68a77689698ba89c797
col05:   646555785a778568bac79f9496ada4758b6b3a983888c9a9a9b87b7698e87a868478c6a874628ac6
col06:   3898844a549b75b7c636896897bac96bca98587aa998a99c87498aa66759998c898a758678c378aa
col07:   857868a78667a7999ac97497759889ba8878b9dba9bfc5c887bc9a97ba789caa8c8a8ca6b59bd6c7
col08:   59676c897555599b9c57889d97877767ba6b5c7a5f9f77ca69c7aaab77addb9aba46b99b76648764
col09:   646c7995589876589bbba874d9b8a99db759a8bcd67b7ab8899ab9bdaa7a89b7886ba6b7a878967a
col10:   9888a9737787a769a797ad99a3965777b5e5b98b39bac599884d98787947998a846b9a6a5c97b326
col11:   58385c29898857777c88a348a7aaac58a8bb368788ac789b3cc8778cac9a6dc98f94bb778a987aa4
col12:   76a76988698b593aa75a69bab9cb5b88b63bd789877898b9599b5db8b7b8a756c76b883595696898
col13:   89a59958c6b967ad9a7687589b8576cac94a758ce8a9accaec9a85db885c6aab6a6a8b9a9a679569
col14:   65579841999b486b7a886abba88899beb99a9b9889caab99b89789d9d97ab7854a9357878a88a584
col15:   9975897966896c5b99da77586948b97b7a8b5b588b46fa89e5a6675789789c79a77e789857489c97
col16:   9876599a657899a998a996a98acab6c6ca27b589a878b89ba898ab9b6783adc8b76a28bb56796d86
col17:   6577b48ad7987a8b6babaac9b6b5869986ae97cab8b9b9c769c5d9bb9a579d9bb688a9b746647848
col18:   7566393a6a47786a795a86b9a989b7b7ca8adea8bc8c6ba9789aa57a85b984759aa8897455c65947
col19:   b779a9a9669978ab8786ac7cad74baa9788bc86ca67cbba9d8c9faba8b66a68a9e8b965a88bab684
col20:   6687b78958bb7d957a99677a8de6975b9aa2a78a78c8c8599dc999b787ba5bac98b68b3b887b6984
col21:   49679b5686ac7b9b7bab6a898a89978d984af9a9aa6bacced4b7b9cc97b99a966996a9bca5976566
col22:   393566a68a5b848b9a9468b96cabcbbda98b8a68bdabbba9aa688a78ac9a8aa9c86577598b3a9588
col23:   4965aa9586598888a766879b98758a7598bc77b66c7e9a97569a9c8ec99866957b784659bb975669
col24:   da79b9b696a855d8bbd8977b8afa97a86aaaf68898deb997bfc7888789f78c927aa5ba69574a787b
col25:   8a88c7979ea7c7ac9cbdc9e9b8788baaab76fdaa87b98a8acd69cb8acacc89aa9bb49b8589557d65
col26:   aa99ab687d536c99ad9baac799bb8d89c9db87c9b9aaadb9feab7ebab8db7e96ed5bca66d536988c
col27:   69664b9bc6d35a86bb9acd89b97cd87debacb9bbb8bd96ab9cc8d99cbd9a9db7bccdca89b8ac6a75
col28:   a7cadfb6caa97999bc8cadbcdfcb8b9a9a8bda79aacca94abdcc8baaebbf9cabacb967acc69c4bb9
col29:   bbc6987888a6abac969bbfbdd9c976debaca89dc7bdc89a67af6aedbaffa9af9bbccbcb97976da6d
col30:   977ab96899b99ec97abe7fecdaca8a8eacd89cc5b95afbdcaa6ed9caaaccac99abaa9878b97a7a7d
col31:   b9ac7ccc9ab8bd6acec9adbbeaff9aebbc8beebfdcbcbcd9cdbddae8bbd9b8eadbbac9a89ab6a8ac
col32:   d97cd9bca57798cddabaccca9dc9baeb8a6cb988bdc6bcebacb9bcbaaf99dc9ba98cc99c8b884769
col33:   96ae8c7987cc7ab98eaabdcfba7a7e9dacc9b7ebbc9ecbb9cc9badcd85aaabbac7a8ae8adaead997
col34:   a96baab7d7cc89d769af9ccacdad7d9d9bbadf7ebcebcc9bbc9fab9dc8d9d8cdebdad9c76a4d8bac
col35:   cace8ba598a6baac9fbf6febcddecbbbaec9999bf9bddd8cccf9d8dab8c96da68998d87978ea6bc7
col36:   b8b9c9ab9ca79eab3bac7b7b99eaadd9ac7fbfd6d9fedca8bcb8b97ad5a98f9bbd765a99a8bc895b
col37:   ca54a8aa88a87cf7efbb9bcf9bcdbfea9bdfb9dcaedecdaaed9bb8acc99caedcd8d98ebb7ca3b999
col38:   b9b88dbbc8c89b9bdc99dc89bddbce9fddcbbcfc9cdbdbfdcced9bdd9fbaf9bab9bb98eaccb6989a
col39:   6b8dca9ffbd6aabdacb8dda9a9d9bdcbeecbaaaeddccdcaed6dbabbcd7ea9bbacf9be8c8938abb99
col40:   7b8cbca7bc8abedbbbcc9cddd9efacbacae9cebfbbadc9cff89ccfbfbedf9acabace9bdb68b75cb8
col41:   ac8d997dbbac9c9babbef9ceceaffbcfadbeffcbbffa8a7cd9bdcc7b6edca8bb97cacdad9b898ea9
col42:   aa96bbc9ba8e7ecbc7bcc99bd7dcdec86cdf9dfd9eebc8edb8aadc8bc8ed9aaafd98cb7b7ba9a88a
col43:   889ecbba9ccabecfdfbedbfbdbdccef9b89ebbfeced9cbecfdcedebcefeecdcdabb9fbcb9cc8feae
col44:   d8aacc8cbabb9aa9ab5bcaccbc7cecbccbdfccaceffcaec9cfdd9aaeef8bc9fa78bdd9d9a8a98a99
col45:   a96a9bb99c798cb8f99ccfccaddcbebbdaf6dbbcfeadaeedcefc6dffcbbfdc9ddccccba8c9db9b99
col46:   cabfbaab9beab9b5decbaedfcafe7c6de8fdac59cdcefcbcecedbadddf7cfdcacca789a98b5be8c6
col47:   b7cc8998dccbedf8bbba8ccb9efdddefcb8bbbbfb8fddbbdfdafdbed98adbded7b9c897c9a89b7a9
col48:   7dacfabe8b9c9ac8bebbb8a9ccdabccfcfbfbfcceafabdcfccdb9adb9bcfadab9ccc7ac99998aec4
col49:   7bbb7c9bcbdc8d9a9edeac7dcdd7fe8baba8abbfbecebafdedbeffbacfcfdb8898cbd9fb8bcabc7b
col50:   bbfadbe9acccdb8fab9faa9b869bbbede8caa9cadacecbcedefc67fcbf9fa87fcecb9adeda9897b8
col51:   b86c6a8bb996abb6acb89c7c9cbcaca7ca8bc6cb8c9bdaa5aabbdcedb89cc657db7acbbb96469b83
ROC:	 BPix_BpO_SEC3_LYR4_LDR12F_MOD3_ROC7
col00:   a288678658859d38ba9c5569bb778d8f99689b896b998aa58ec6dea9a77d985759b96986b69a5991
col01:   96b95656576a677da87eb57987cab99ce4a6998c96a7a7bab6dbba4babd9cbbbcbb5ab6d96a68966
col02:   3b9777a5597979aa8aea9995b9869ca8bcacebb9bedcaacd889adb98b9dd76aa8b5caecd98666569
col03:   77a78bb587baca2a8c744ba7b83a7bc8a9a75b8d7ebcef9996ac987dbfba94c7dcbca69799688666
col04:   51b776a8bb8896aac16a98caa56cadb9c79adcaab9faa58aeadea889c89cccabaa8aabb7cb7a75a9
col05:   67d8d974acc9c8b88669be98889ccb9dbc8cbc9d8aa9bcba6fe9c5bac9bac9a97cc3779ba9975a69
col06:   97aaa9896b9847bc5d8e89b8ce6e8897baaa7ce88a79bdd996ba8db8dc897bc7aad89878a48ac69b
col07:   b183c7b69d8bed96888b88be798adc5b89da8aab8be8af7fb378af8f7bd7a5c978cb8caaa7387884
col08:   7c5888a97a9787588abdcb979b8a98daed89bdbd4bb6bac8a9a94ecc5c6eba9b66897a53848a9a76
col09:   b78b6856ca997b9a559bc78caa9d9a79d8aba9b8bdc9ddcdb8df9a87ff6aab48c89a7da8e8ac884a
col10:   b97885a9a5a59b78886aa9caa8986c8cfed7ba97abfaa9cdb79ad788a5cea7b87cbed668a8784a64
col11:   57a66939788b856a579896bc8bc9bbb99aa9fa9dac9d9b684a7f7ccd6bb9a497bec9896cb68496a4
col12:   d4658566e7a757398a969ba7aacb5c8c87d8a978ec9dc9b6b8aa9b8db86c8da5cdb7aa896987e796
col13:   5a7577a7843a5d56a7cc47f79aeaa8a6ba89f8dacf7e7679e77cca8c9a78adc88c99e6ac7889aec5
col14:   67a658869ba695338b897b7b8a9b979ab6d89bb9a8c8dbcb9b6a9ac9bcbaf9ca8acb6aa8aa89a898
col15:   6597998c995c879ca959da79566a85ad6aba7ccaca8aba997badbd9abba9ba2c9c87bdd94a884abc
col16:   b75c56a66935a8aaa7b7576adb98aad7ac6c9887d8cdcd8d8f5bdcf8b9b8cc8bcda859ba7d696467
col17:   893444848664996a984696a9a96a89e8787aa8aa997efab977aa9cd7aa79c69aac8b5c9b65974987
col18:   87553b7547aa7497b94799b76bbaa68d9d98b6b8ab6a8a8889aa3d7896bceca7d67bb9985344baa4
col19:   86754264a577ab968c889984fbd88ade8badc9bb9bac77d9dc87aabcd9979da9dacb9867f995ac89
col20:   8b9683566567484dc589db79b7b878d989cdaabaa99ddc8a8d97acdbc9b968b5bac1bd9a65963775
col21:   98aa4a65ea887977929aea99b989b8ebaba9789b97b96da8bda9a7c698bbaa87cc97ab978a577a5c
col22:   8b66a987779466886b686786778b9992579b8ab8a9769b7a9bb8a8caab7a7b79bc8cfa69b876e66b
col23:   4888478868949867978c757acd68aa98a97aad57aabbad949ced9c2d968adaad8a989776786a2828
col24:   7b8245465b48848ababc67a6aaca585a5cd8ac9acb9d88988bd79679999bac898bb77b988778573b
col25:   35b7a7b68978ca96b969678ebabdba8a79a9cc7dca9c7bab969c5e6c99da88865cb79aabca6869aa
col26:   8869999967a8a888bdac8d7c6b9a9baa7ae97cfecbaf6ebae9bcbba7faada9bdcaae947caadb9ca7
col27:   77879baadba7dc7779ded9a88eaa9bade9d886d9eebbbccecc9cb9b9faecdbfb9bad9aad9a9b9bda
col28:   69b9bcd9aa7897679bcbc8bbe9a97aaaaebebb89ab59bcbcddceaabfbd8e9bda9beaab7cc96aa5c6
col29:   774aaaea9a8688959a6879aa59dcb7c5aecbcbdc9f9ad9aeeedab86dc9dcbcbadc98b3a8f88caa75
col30:   b877babb9a867ab9d9bd49ddddaadef7dcdb9a9bfeb7abbabf79d78bdc9bdcbaaca8faa7c7cc694b
col31:   687a879c7aa6aacaaa3e8cd9cbad8eefbd99e7c7cdbccceeeadb8e8adcabccfdabebbccaca77c898
col32:   96789a95bb8759de75bcbcc5aadb8ccbaedbafb89aaedbbcadcb9ad9e8a9ddfdfc66deaa9ac4aa7b
col33:   659a8bdba998aacab8755a9cfacd8be6cc6cee9c8eb8ecddcbbbc6bcb8ceeaabcbbb95cc9dbcaeaa
col34:   9dc795ca8ea9aaa9c8c77dbb9a94a8d9bbc7a48dddbebda8b9c9cc9cc9dbbcbcde7ba8ba6acbc79d
col35:   dc576cbb7adb79d8dacdab7c9be99ea6cadcc6cd8fcfbaa8f99ab9b9fcb9aceae9fef8bcdccb787a
col36:   98589879bdd7ac7c88a7acde5998cfcdca8ba6faccacfbbcce8feddabcedc88ba98ba639b6cc79c6
col37:   ca989c99c88bb7eccce9aa8d6c7b5dfecc6cbafea9d8bcb9bcbffc8bbbd8c9fdacdd6bd86cf7c89b
col38:   68a88aa96e8a58aafbaadb7ecec8edc8aeffa9bebfcc8aad9b8dbbac99cdcacd9bbada8da96ca5cc
col39:   788ac7a859878a8ca8cac9c6cac8ccfbfc9fb9dcba9addbcfdbcbafcbcd5ac8afecccbbdaa777c9b
col40:   6ae5978b8a9d93586687bbe7a8b8adcfbbcdcce9cfe9ee8dd9cdac86cdeccd9aca9ad7cb7babca94
col41:   8ad659d4cb8daa8a9ddce7d7ccb8ddabbadd7cc999acbbcbeca88adcbefb7ceaca8adfc9daeae6ab
col42:   aa58477886d748879a8c7ab9cbca6ac8dceaca9cddba978edd9d9caabcfbcedcdda89a59d7db6877
col43:   8c47799dc86bb77adc79bda899cbecdc9dbeadacbec7eabdbb7b7fbdecca9fcabaa88cca93ba8a9a
col44:   b8b8b9cfbac79bb65b999b9adbadacc78acdc99beeabbc6eccccfcbaaae9ccceccacffaac7d87cc9
col45:   f77cc9578c385dcdcbbabb6b8edacecca7badcfafcbfeabfdca4cf9da8c99edca7bcb9be8863ff7b
col46:   924c89bb759bbb889acc9a5b7fadcecafc8c79b9ea9ebcd89f8acf78a99899a79cdccbaa67abb6f5
col47:   986767a9798b6fe87acf9bccaa99cae88cbdccfaecaddedecbbccabfc9aebda9abcdcea8b3cdc798
col48:   ab9778d6a77696b868f8bbba8d7acce8fad9ede7caa9a9e9d99faad5acaae4aacece9d6aab842b66
col49:   7bb7a8a76ae5a99aa9e6c87b6cbb6acdb99efcbbdbaaaac78cff8c9cccccbadb498d7a9a96ebaac6
col50:   d57b8b9975aa9ab3969bc6da877c996d7bdbf6cbcabbddd8f9eacbf88faaad8daab7cda8b7afaabb
col51:   59d9a6bc7866b884634ca399a99b5969b9c6879b797bc4c48cce8bbdacb77dbf689a9aa568a997d6
ROC:	 BPix_BpO_SEC3_LYR4_LDR12F_MOD3_ROC8
col00:   4c86969a9aa4688616a36638da7a789979897478b59945a7879a764c99a92958aa95994a84664677
col01:   64ca6888a9984774789879a64bab65c7a79aa76aba58c7898697bd8aaca98a89c98b5ac9b65a3b67
col02:   a668a7786a946976795c8bab6798975ba988e25ad96f8998abc78c9789bc7a587a78b85586568577
col03:   9896ba883cb7799849a36a87a9db77689886a9667bbbb98bbdb79497a859c9c6ba798974597733c6
col04:   977aa78a3375c9857b7758879aa99d84b6ba49b5b9d69a9cb8b8b3ab99668be9c9a7a6b863b777ad
col05:   757289a7d86c58aaab6959bb8b9ba6d49a1b7eabafbb78789d87a784887d9db566ab9875769aa328
col06:   e8a9baa99477899ac468c4bb7c4ca8cc9aa9b8acd2c9b997c8374759bb679abd87489b757c786dd7
col07:   8ba7977796a9bac899a8599995b88abeca9da9bab9d7c567a9a7789a8db6db787965a95376a799a5
col08:   787aa78bc7de8aa9a7bb6748c9768ca6d9b7b2d6686babceaa87d5aa6b94abb9c5773b7977798744
col09:   858957ab477ab99ac99a6a8dd9ca6d72a97cd9bb888bdaab6b87aad96866b67ba4987b85a6469a9b
col10:   c8969a9878e94786d9acaab6ada49f9bbc36a9b9599ec977a8c7ec8689b68aa98d9ca69bc84a5875
col11:   74c9dacab68aa8c9c9dc8a8a7a9eaba8c8adc49acea8ba999aad88656b7588b589da6889a817669c
col12:   95ba7858aa985897bbe88a9a8298a992aa3da8a79d7f7ac57cbb759a9a79a79679ab86a68aa7a235
col13:   9eb5af9aa68788c496adbabaabb99ca8bad6a9dcaebc888bb8d6b8ab979e6a7a8cc4899988a97882
col14:   9877667b28d66c8a8a9ab9dcccb69ba87c7ea9bc77abc48da8a8a8cb78ddaa98aabb9b96848ad699
col15:   99b4b8ab665bb897a8bc7db9aca99dca7cbcfaaa79b98ba88b88afc8abc6b65b8987584755a87b84
col16:   aa9ac8aca8aa888998cbaca98d77564cbbac9d7a68a57a9c57a8b9ab9e98e76b9b69b7aa8beb759a
col17:   77c9ac477aa889ac578cba8c7a93a8c79a8a89baa7a585c9588ba8abc6a7c9b7c7a8888a78756d75
col18:   9779ea4e887648a887bc8bb4c57a8777dea9aa876d5f599c879c6ca46996c66c9c159aaa56a6655a
col19:   ad778799ac8966bbb77c9b8a5aace98ad5a9ca8e98cd9aeaaa88a69664986b99e78998a995b8c9d7
col20:   997b9487ba767a8a79aa6bb8797cd99aed77b68ba68995d9498bad8c7c8ba45ac7baa9c9879a6666
col21:   79887aa998a98986976d5c88cc9cea6f5aabc8b9e6b5c7cacadaaa8bbaaa79a6a6b3d94b7c9a8c73
col22:   a7788775a598b4baaaadaa8fa978a9a9f67c775ab8cb87c89cbc97598d9ba9a6a7c98bb7797b8bf8
col23:   76673747b9c576a39bd7a77ac8bc97cb48bac8897e98d76b73388a67a4d7ab97a95acb8768c696aa
col24:   61969b6895a757cc4b8b877a6c89cab89cdac86c98bb6c6ac99cca7d6c8ca82a8bb9898a66788798
col25:   4a95aa999869abb77a9a8db8ada8dcadbbc999addc97cddbc75987cb9ad9998b576a589967e2b8b6
col26:   97a8c9ca59b4d88dcbbacb8c98cab7e5d7bbbfbaacdc9bd9ac7eabbae68ad9c96e9b8cb57b6bad66
col27:   8cb4aaaac99b78b98ba9989adadcc96e8aaa86fba4f6d9cf6cbda97b7cc89a5b5b9984aab6c899eb
col28:   8ae75779963b979b8bbcaddecbabccbfb8ccc7988cac8c898bb98aad9abfacccb5798d9a89abf6ba
col29:   c9ca9e9ba8d7c6889aabc8a8c8b9beacbb78ce8a88cdae99bd9edaa51bdedebbeb99ac9bababc965
col30:   6aaa849a6aa378d957d8bcadabbbf9db7bcddabecccc7bc99ad9bfceabdd9b97cbf9a95c9abb8aaf
col31:   98dc999bca89dbcabfade7ca9ddfedd9cd9cbcafecceacabacfb8986cb8b9ab9b8bd68cca9c69997
col32:   d8bbba7dadabc989abb9cbbbbabe9ade9e9b78ccaafbb8f99dbdabebab8ce99d98bca6fd79ab89bf
col33:   c9badbe56a99bb998abba5ecefeafcdcdccedbdbbdafa9eadc9cda7aadbbed77a9c8b5ea49aab7ac
col34:   edeac889aac9bb99bbdba8bdadcd7ddcde7cfb8efef9a9ff9b9bc5bdccc8d6dcf9c9c9c6c69a7ded
col35:   d99ef9bb8aa99ee8aaded8dec9fdecacfdeea9c58cacb68bc9acffaabacd96aabababaf98acaad76
col36:   de57aa89a688989a9dabcfdcbdecdfabbeeaaca8decb9efcbcece897ecbdba5ecabcc978aaed9985
col37:   aaabdbbbbc99b9bbbbfefbdaaca7deadfbdfda9cabfbbcddbddfecffacddacffa6be799a7dacead8
col38:   9ac9b9baafa787edabfec8dd59fdd9d9aadcac9bdcc9acce87b9d85c9c7bfdbaaaadeba98acc6ab9
col39:   988c9caea95acb8f97abd7e8eeead9db97ebaaccccd9cbebc8a88a9bd8ab8a9acb9eaadba8979bca
col40:   a8abaaaeedb8bbacedcffed79ded9cff6cceba6dcbffccade9cece8befbcdcbcc8cdffbbbaa97dab
col41:   bdadac9c88da9bbb7dbebcdddccceaaadbbb9b8d9c9df9fccaee5dbaaa5cebbfdfade8fdbd97c9b7
col42:   a8a7d59cbaeca6b6b6becea9abcbd9ddbdadc8abeceeb8a9aecbbcaba6a9afcbc8c8bfd8bcca998b
col43:   c8e9befdbfd5aaecde9addd9c9fdf9dfbbcdf9becfee9ec6ddfcd9ddadfdacbbdffbad6da9aac89b
col44:   9bcab6acbce9a9aebc8eadbfffcfb99a9dfabec9dcee99e8bbcceca6cbe7db9ecbb9dccb9b9b6d88
col45:   9d79eefe8abcaa7efbbeaf5ebacbeecdb9acbfababcbdce58c9ddabac8c8c7a9cccca8ced8ac9cad
col46:   b9bbb79cb8aa7cbd7bc9bce8a9bedca9ccceceddfc9e7cddb8abb98bfa7cbc46abebc9cdae5977a6
col47:   c8dbab9badfaadbadbcedd6bedebc9ccca7f9fbafcffd97dabdc8bc98cfbdccdcae88bab9eb8b8eb
col48:   cfbe99dc9c9cb8b79accecbcaf8beabeccdfcce9df9dbbdbecba8aedbbcbcfcdbf78dafac9b99dda
col49:   b989afbcb96eaffa7cfecbfdacbab989dfabc9eddcea8daa9bcfebeecbeddcdebdc8c99dbeddeb86
col50:   6aecf89efdd89abbaadbdaecaecdbfdfefcadbcdceefcb9cdbcc9fba9dccfbdfddc899e8cbd6b9e9
col51:   a989c7baaa78ba6988a7c7a75c8bb9eab988bbfbd997cdab866aa99bbad899ca8b8d5be9cd8789ad
ROC:	 BPix_BpO_SEC3_LYR4_LDR12F_MOD3_ROC9
col00:   ac7a865184b9c9768ae99b9b7896af74ca7a6b899cb276856a9b97948977799a76b62977587b3956
col01:   7a28777c468a6baadbd9a8a958eecb9cd8acaadccbca8a97ec8a9e9d8da758aa56899a9a85b45989
col02:   7897cad6ebb99b769bb9c989cdbac8b8ea88895d9778c8da98a5b6c9a7dcd9aa8dbc9abc86865648
col03:   8897bb6c964999d797b9a9de7bdaedb9899bdc8cb9db8cb9bae7b7acd697a896baa6db8b7ab89bc7
col04:   a5997a8496997799a976ae87a9bb899b5cca8aacfbe5a86caac87a8abd8979d79988857959589784
col05:   8963cbb777477888da57978dce9b5d5a79acd8d7acc7db9c9aad6abbdb97ba9798abc9e7896a8878
col06:   7a895ab8daaed77bb7598c7bc7dbde6ae8aa7a8ac999abb88a9ba5a986bcabc69aa778a97769dc98
col07:   b9987a898a8db6ea7addb79899a79fad69afada699b8cb6da9b99bf5aaaaa9c6ab987789b97ba9a7
col08:   a87a5568c89938a8bda89c99a7bacd4777aae8aadcbea9ca8ac897778878b94c9d8a989b9a796898
col09:   a99677a7a79b9ccab3688b97c6aecfbae6fadbd8b7c999c4ac87b6a7999cba99cc857c89ac5658a8
col10:   aa6965a3ba387e9a6987bb988b9c8df86ca9bcbf9bace9dbc9ddb89b96795b99889b46b7aa89a962
col11:   5a54966aa779a7a64ac967aabbc9ba5aa9a99e7e98beaa9caa8cd8c567789fba679a87aa99c6d456
col12:   56996c5accc8996ca89ba19898a99dacb5b86ccbd79a889c88e9caab99aa89c88ecbcdb8b996678a
col13:   55888739829779a88e8898cdbbcc9dbdabe7aae89b58e67b998c89acd69a9996ecd6b1a49b998ddb
col14:   6767994858abba6b9879a77ec8ad8968bec7accb9b87b8ca7955baacc759699866976a89b5aba299
col15:   7645798aab89997b8677ceb899abb79dbaacb7bdccbaac9879d9a99ba98eaad9c9bcea8baa7987b8
col16:   5858848c8a8ad9688bab679c9bc8aab9bbbe6d97b5aacb964abb9bbc8c9bc98a97976bd89777a6b5
col17:   9ca87e9bb7cb2b896766a6c95ed4a3beb6ddafad8cd84a9bbb8bc968d688cb3bbc7df798478b2858
col18:   b8a4b7967899b876c77a67b7babbac98cab77acb5699ccba96ab66bea86b97a6599896a485238848
col19:   8478977a6c9a6a395bbbbba88aaadcba8aad9b98b9d9f97bcd7c95ad9bcabbd9ad7685d6a9b9ce67
col20:   168a865989859ca3d97769bf6ada9ab2b87b8796af7de6d46c9b677b9dc49bc695678787a59875ba
col21:   58789c58aaf95874bbbd7bcac88b9abbdea99989ae7d48a979aacbdbbabaa999a7579ac935c899b7
col22:   429a79566859856b6996797cebbc6aeab799bb9ef597aa9a89c8aa8ae4a5bd85a6e6786a47b75365
col23:   a689634c89c7695bb989887fce8b78e939df9c946ca79c8b779eaac49bb6d9798884a5887a579cc7
col24:   317a8a9a388889a8b6b99785ac5a977e59798977ab6958a887b68c6988bba86ac989b9649ab6b7a7
col25:   99859bbbba87968ad7b263cc4c98a96c999aebd67b4de49c6b98c9ab89cb883caa84638a8899398b
col26:   b64bc9db976d4b79db9c8bc9bfcccdeccd8989acdda94da9da7c997b98c6a89ac676d9ad68ca7b75
col27:   785a578ec9798bc6cccc9a59dedac78aadbabdc7dace8baaf8bcb9cceb697c98cb9b5dd57a589ace
col28:   c8679abd9aaa897bbdbaa798979aadccb7a99ffaec8efdcb4aa6dcbc8aa7a875a8796c87b773296b
col29:   759a968db98a88ce75e1b9a9ae7bbbf999cdccc6c9aea6df7adeaa5a87a9cc67a5ca9a88795fc988
col30:   7c84b797c993b45a7ceb87aaeeacb7acddca9cae9cbce9da7986cad84dbbda4964aadaecdae9cdb8
col31:   9a57a7e9c996888bf7a898bc896ccacbba49bbdcd7ceb8cc89d99eafadebcdccb8a79ea8ba75b7a9
col32:   7899857aa7f4b499cbdebb9aba7fbcc69a9de9ac6caadbccda586dddecb96eab889a8da96ab7a969
col33:   9bbab59a8a789dac6cc945eaedf9ac9a83b9bacfccdbc9dbc9eabedc9dd8e87a9cbb88e76bfac7d9
col34:   88c97895d89b9ba8f8a69bc9dadbbeafbaba6a7abb8badcdbec9a9abf99ca8cbdaabcda9eb997887
col35:   eb78ca678ab6d2a9bbda96cabdb8d9babd84aaeaac9abbabcabb7e8889abbbbcab88cb88aac65aca
col36:   a81699a99baa883aa8bcc6c8eab8daac7fc9a6dbbccbc9c9dd9dc87d8a8b697cbda9a785aad4aaa8
col37:   aab488b689965979d79baaaba7c8bead9cf9a9febf6ebdfedbacda7ab8a8acec79bd8ad7a8ad69bb
col38:   a77679adc7987dd688fbcc7ca9bc7cdafcdbb6c988fbedb6fbacbbbda58bcac98abb7baaf9b687a5
col39:   9b794bc7ebaab9cea9e8cebbbdbbc957e9beadadffce99a9f37cb7bcbb9cd9ef99dab1f6668c8b8c
col40:   36688a7cac9db69c9dcd7acf8deabcfb9bdeb9df69beb8d986adfcaabd79eb7efc69cab76ba8aa68
col41:   8bcdb5786ad9899739ede7ad7b9fa9bbdac8dadbbd7ad99bfddbed7b6ea7cbd586ba77dda63ba969
col42:   9b9a5c8cbb59ab59bd8b8afdac796db97b7acea8ccabbaf98969cbadabec99b8ca9f8bcb86989a9a
col43:   a879baccbec9d9969e88caaab6feba6de98ccab97cea9e8bfbfafc7cbbeca6ed9a97b89a8b857c59
col44:   ac99bfb9c7cbc98eaed9b896b7dbfaeb89bc98ff8c7aa9b8b8cbc8ab84bb9a6cbacc9cab7b9bda69
col45:   aad6c8786b8ee89cac9babaacbdaeadacc9cfee88e9dccf999baaacca9cef9b98d68fa79f9958d87
col46:   bdb9773a87b95e8998ba9968fd9accdacde9a9ca7a97a5a8b5bdfaf8bce5c9bc7aa979889879566b
col47:   a978aa79b9fca9c5eadaf98dc6a8a8acc9a5c989988b8a8bd9ef89c97db5a797cdae876ca879c858
col48:   78ccaba99977afacbcedb8ad9a9dabbae9abd929c86979ccadbbcf78c9ab89abc9797d97ba7955d5
col49:   76babcb6ab7a8b8fcc99bbdb95a6cbdabcd9e9c8a7fbaabab8dcafb8bbdcad78c8aa968aca96aa78
col50:   aa9bca9ae8c5ab88896c6a98cc6b7a96c8e5cb9dcdaa9c8d795dba87a97e866bba897b8c98caba89
col51:   73697669aa47b75998a999998edb45689a7759968ba54ca6a6b96abb1a8b49b959278a94761b4a44
ROC:	 BPix_BpO_SEC3_LYR4_LDR12F_MOD3_ROC10
col00:   a981947c788bbaa6287a75d87274873896fbd869a7a77476b8d7975a6ba98564864654a562667474
col01:   658ba8d6a6868d91cac4b8baaccb8ebbea9ec6b6ba7a999a978a8aa47eaa989ae47965bab6969758
col02:   778865867b8c775a987c867baa7b87cb889d76ed5759fca9aa9c769ab9a7c6bb9b996a89785776a7
col03:   c6899b8776a4a7c97aab85aabb9baac8ca878ab5a6bc9ca6998bc9cc7eb88b6a78765a8757388396
col04:   4a777a9ca8aaa58685c58b686b769cebb9868a9cba689bb8c6b597c8bda6a99398a7a777a6868766
col05:   787499986998c85b9769a9be6ba6ccc7b5879887a879dba6bb98cc889a86bab4d9867a6899578a39
col06:   8a3583b8bc4775938b8ad99995bd87d8999a7a7e6a68b7aaa89d9daa9ae6aca7aa9947a3a56796b5
col07:   b37a99a7b9a2b6598a6aaa8a999c8baca85bb6b8aa496dd5bb79949a8a5999e9b9bb75a9a88a48a6
col08:   a884a88978da89877ac9b97977b8388b9cc9a99b889baca9cabba78bb8a6afc9ca73a39857a1962c
col09:   778688399d79a4488bc78827d7eccbc96a7dac9c978d9ba7b699c99a7bb76a7e8dbe588885a89b79
col10:   8669997aba98399d87a8da67a7e887a9d996999bc9a84bc8e5b9cb7889abd628888976c6a8594b48
col11:   896775c86c4b79c76977e68a96aba9abf79ab59aa8c9bca98b587a89a7b89a8b7c98b8a655975356
col12:   bc786b649a9aa4b597454aaa7968a6d678aaad7b78e7bd99c7aa57784876877685ba6d3a535755b5
col13:   89878868aa96a9d8cabd989c4889c9a9b9b9cbce899d9a96a76c99b99dba95687578a917ba668897
col14:   a987999577448cdea89999abc98adb9b7c6d95c978cb6ab8b7cdd8c75979a977a79b8986a988bb45
col15:   449b87c74c57b9a6869c8ba86abb698abbb9b8b68497d96bb4a9a9aa8ca849d5956b968d84a76b73
col16:   5e99ba7966c783c6c2cd994b84996ad8577c73b6aba5bb7a97d9adb648949576a88c999577773b88
col17:   624b87998d7c5bbb98e89c77a6ecd6a797bb8c9a8b7df7be88b9c9a7b89beac955a7898877a68855
col18:   8563aa6aa8978b779987aaaa9ca9988cd89c997b76ba5a8b67c69496ab6b48a9458c82879547a885
col19:   8687c9bdb64bc7a899cba97e8aca7b9dbce58c56a8cc99aad89e6b896a8abb498b9a98885be74aa8
col20:   778aba6955774d8a77b889966aada9dc76b59d869888c8a7aa5899a8a9cd9588aacbd8a96a99a57c
col21:   65a6b8a7c65999a7c5aa88487a9caa7dbaadaa667a8975c7a899796a7bc8cb67a7c789679b9b95ba
col22:   698c7659987d8ada8abd48b97c8d68e9d8a88ad8bb999b969874aa97b8539fa998b8a76449a7b977
col23:   c54665867c49454b96b9ba7a9683a5baba99999bb8677878899a77283878aa84c97b688a3a387867
col24:   8baaa4a6a74877948b86747c898988bdab9979cda8d6888cd99aac699578ad8a748678ba56e58666
col25:   a67789586977a9c789a6c8aacaa9a77ca7ab9d8ac79986996b99b9db9aa9699a76ba7886b67879ac
col26:   686dadcd9b9a7a94bbaaeaf94bccdfcaaebc9b8baca8cca77eba98b85cd9a877a89987bb8785a8a9
col27:   7b7968999969a5b7ab9afa98ccb89ccad687abc8fbdb898b98b9e9c7c499caedabea896a9598e3a8
col28:   79b57ab976c7977a887bbe8abb9a9f9bb88ec8cebc8adc889a9d897ad8ab9a9abb797bab9a69ada9
col29:   8d789ca8dba9b9d986bbbb778c78ecac8eb7b9aa9da7b6c99ab9c7adc9b97db77a8babacb87ab55c
col30:   84a9999ba6689cc856b69ba8acadcfacab8abaeeccafbbc7a899cecdb5b879c584bbc9a9bc867996
col31:   b86a87daa9dcb9bbca9bbb9b5aa9cc8bfebaccc98788bd87bebbd7df9cabc98a79d98b6cada9b6c9
col32:   8eba89bd97add9abdd9fcbd9787e9cdcbbda8bcba9d9cbbdb9a7aaa6ab9dbacb8da7ab7da85989a4
col33:   bb9b5ab979b8bdba8bcaa6ad89aeaaebdb9aacadab9a9a9a99bf89dbbca8ebba7eea97eebd76978b
col34:   cce8d998aaeca7b9aa7bdce9b9ececb7aabaabd8db7adccc98dcb9ea9cbaaf96ccc699b787b997ba
col35:   89cb88ceb9debaa5cbb8bbabbbabfdbd69a7bbcc98ea6cca9bbaf8abb9aae76ab7b99a4ed7ab89cc
col36:   87ca8596c969f7dacdba9bddc8957c7abbb89a4bad685b78bcdd8bebaccbca8b797ab9c9bb8c828a
col37:   fb98dd9bdadadff7d7cebdfd9caec6d8b7acbcb9d878ab7bbaaa8da7a6aaccfa9898c967cea8c87c
col38:   99697deebab98dbbdadaacaac9db9cd9aed9faabcabbae8edbc9f9bca79a6aaea9b8c9adc9a9b457
col39:   8cdab6dba79dca9b8985d96da8ede8cb7dbdca9daccac8bc98dcdeeceaaa95babbbbbcba899cb7ce
col40:   9aabababd7a8ab8ccbc98bcbbbab7ee99bbdc9da7b887aad78baeef9cabd9c6baa59c9b79aabdcbb
col41:   7ebc79ba9898bfbbdcffcdeaccccdabccbe9ba99b89edcbeda6bba6c9dac9a87a5d8dca79cbca9da
col42:   b6a57abd8dd8cdbeb99bbc79b5ddaabbc8bda7c9ac8fccaf5bcc75dbcbaccc998cbbdb8fa9eaaabb
col43:   cab7a9ea7ad9b8fce7cceeadedebba9db87bcc99eafbdaabea9dcbbc9dca9aabbae9ccc99a8b88b4
col44:   9aba68bb9fcc99b9aaaabcaaecec999eddd968dfbdedbedbbdacbdadd8caa9fbbac89889b8a85a5b
col45:   8bbbc8a9abbade8daaadd8aeabcaadcdbefaf9b8b87edbaaa898b86c8ddbcadbdb96a9ec88a876ba
col46:   e87ab8ab7c9baeb78aebe9acc7ce8d87dcfde8bfa99b979ad99b8ad8babaabbe75aa6b5caa9aab68
col47:   aa8aac96a7deb97dcf7cfcc99cee9bb9b9de7afcdaddc89adcddf9bbbdeabd9b96a9a8abc97ba9aa
col48:   baab779c7b998a8b88a9a9bacbadac9dbbadccaab9d6cabce8aadacabacdab9aaefcbdc8dcabb7cb
col49:   ccbd9acbbab9abcaababdcbebf9bfbfbcbcdd9ca7aaaebbad9cbac98c99bbae89ce65c99bdca79ca
col50:   8abbb94dabd968c9cba998d96abdd8efccebbaca7cacb9abcedaf6caecebfae9a9b8cc77d87a878c
col51:   5679aa79879c999e9b8cca9cc9c65abcb7bc97e9a6e8b776cd8ca889b767598abbd7e7a89a8aa6e7
ROC:	 BPix_BpO_SEC3_LYR4_LDR12F_MOD3_ROC11
col00:   d9a6d7ab969bc88a579baa9a97b879a688a686d785ca888baacc95b97b9897889547c8ac958c9565
col01:   aaa9ba877c6a7a76b8c79bbabeca97acbba978ab89ab8eab9cbe89bcabaaabbcbc6a696aec98683a
col02:   579ab98899b1bd9a8ea95aaab889acabc98ebb5cac66ca95ab989b5a69adbb99a87ce696b89aa977
col03:   9db98d7ace6ac9e7bbbc9bb78e96ae5a9ac7dcdbcb9b9a868898b79bac8bca8ddfbbc8cada857869
col04:   889bb847dbaa88bcc4986c98c9b8dda5becebe79add89bbda68b8ad8ca7b7586a6bbc9abcce6c6ae
col05:   5989c8b8b67b9deaa68c9b79d5acd6fda89b89a9aebe7fbbacbadd8c9d9abacec78acbbd9978aaa8
col06:   98ab9a87d7c98ba978ea77b8c87ceaab6c9bc9a8a87eacdcd9ad766e9aeaa99a8a96bc8bc767859d
col07:   c54687b769a79e8a87e8a8abb8b9eaaabadadc6f7c9ad8de88db7a6b9ac9dcdcb9c6bdba97d5a3a6
col08:   8a9bab5959cb788c9bcdd8e9badb9afc9ba5e6a8da6a868c98589ac7cbfaa79a8b54eaa9aa97a6a6
col09:   8abc79ccc8a7986bc998babce9daaabd2cdaabbd89b9aababa96aa99a889bd99ecea9bbbea89b8ce
col10:   67b6cb79b9889a867bb99acdcae9b8c9cbce7bc9a9dea8ca8a648a4cb8ab78678469bb6883969a7a
col11:   3a59a7896c8a5d8fdfaaac7bba4dcdbbfac6d99a8999dabba9ac8cba92798c7a8b87b9889b665987
col12:   985a86a9f6ba5abb77ea78a89ea8679ac96cbf85e878cab75bcc97baacbbccaaab3d79c5686a8699
col13:   8899a5ca7aaf9abbbba8aacd7ac8fb8e88ada6db9ddda88adbac978a9b9cce99a8c89ab798a5d89b
col14:   46887a89a9cb4d869abc8ac688dbd9ecbbb9ead979faaabcb959999768bad77accb78979888aaab8
col15:   8ad6b99a98bab7b9d8bbab4979baa6dccc88d8bdfc9abdb9aca779cfac98b8a89b895a9abd69778b
col16:   9a9d96bca6e8bc6b54cda9b8c999cab97887bbefac8bcb7aacaddaa9998ca8ac7897875cb4acbcd9
col17:   898769c9b786b9a94aa9d6aa99a89789979a88abbd9954cb748fd998a89eaba6497799b9a87777a7
col18:   a646a8986e987b38bc66bbe9cb5ff8acec8baa8aa78cd9dbdcca98b9987bc7a7a8566aab897a76c5
col19:   88e489aaabab58bd788aab677c799aa8d8b79bccaa86ab6a698a9aacccc8e79aa7b8baaa9758bc77
col20:   86a878d8da8ba86b7ab985abb8a6a8a599aac8aa696a9bddb7859a97787be5ca78ad7b9c7978a87a
col21:   a85a879a7878caa9dca979979b3b9bbc69e999abd9a7cbf9d9959bacc9da897bcaa598add9a97978
col22:   88aa6c7c92b889eabb6b996b899e9cba998c999ade9a6b99867aca88c7adb7b8a8c889579a7a9787
col23:   a6767bca5a556895dcba89b97db8db7699f5a8a7a8766787cb79996a8b66a9c8b797a98ab66b9465
col24:   66a6a988776989898aa77997a7a4ca3a8bb8a6abba5bd4dab598a8c77aaadb7949caa88c96c29792
col25:   bab62bbdb7849cfaa9cad9cda89e9c7a97a9c7bd5678798a6568797ab4ac955cfb88b7ac8a939658
col26:   cab98ca8989cc979c8c7a9bc6bad8eacdbbb8d9fa999ee7b9b89dbfad6bcabdbeaabfb7b86d8b5a9
col27:   87a79cd9c7b9dbeaceb8bbbea8cccfcfbcddbdcb9c4fcdcba8dc7aac788ba99d9bc97996a8996a58
col28:   aecaadaad8bcb7a9febb679da9e88daaeedb6cdcdc79ab9fdba9dbbb8adbcbdbb98aa9abad7987c7
col29:   cdafb89aea88acddbbfd8b98bdcd99d7b89bc9ccb8cacac6dbc8bea5cbc9897a98d6979bcac99978
col30:   6ab8b99ccd3bb8cbddbdb88aabdacdbb97d59ac98fedca98ab9cadba7a98a999ea8699c99a99aeb9
col31:   a8d6bbc93bbbbace7bbd9de9bbd7fcaa9bfadcdc7b7ad79abc99cc88bdbadbaddababc9bbba8afb8
col32:   cc6eba79a8cab9e9a8aaaabbd79eaccdd9ab78bdda98fab969aaacbbe7a93dc999aaa9b568bbc677
col33:   b89eda7db887ca769b6cbdbd9edde999bbdb9abcbcdecbbecec8e688c89abdcab7a9c7994aeaca9b
col34:   8bb699aaafd9b8bcbbebbdccbabec8c9bfecca8d68edcdc83debab9b6decab9a7667b9a88b6c7ab7
col35:   d9b8c88dccabaccccbbccccb7f9abfebdfabcb86dbdde7babaddbd8b5dc7f7aba574a9d8d9899799
col36:   a967bbd69bacb8bbcdda6a86ecdcb8ea8cdb888bbdce9dc9aa7daadbbca699d79b92ae3aa9ca7b9a
col37:   bb6ffc77acbb8a9b9fcaacf9eaddaacadeecc9aac9c8c69dacbe9fa7ba9cadb6a98c7c88969c7bb9
col38:   8a7cab9c5baaeac8ba8cccad998d8ce8bcddbed88afe9a8bfcacbaebaaaac9b88eafaca88bcaac29
col39:   866c9c8cd8abbbbb6ee989ab7bebeabbaeb9babbdbdfbbbdd9ebaab98dc6cfc8ba9e9bbfba87bca8
col40:   dcce8caf998de95fbab9daaaacbcd9b7dbfcf8b8d7d9eac7ddcbecc98ea9d7d9aba68748c68989af
col41:   d99aa9dbaaddd8db6cbabbddea7acddedac7fabb99bbe9ddaa6eebbf8df999a78a9a9aac78a95598
col42:   b68a9cdaa9dbcab7cce9ab8abcb9adac68daadbb7bca8c797aaeaa99acac6cbbc49c5d79adaa7878
col43:   89a79e9e6b9ead9aa8aaaacc9abfcbedebac8a9ebbfcfbc78acbb87974fc86aaafeb7cc9d656c969
col44:   8ddb7b8ddabb8aa8bbb8cb7aca9aedaafccdab8ca9dbbd998d8cbcdbba89b77abb7b8dc978757ce4
col45:   6bbb77ccbb73ae9dbaafca7cadaaaceacbff7dbbbcddcb8da9a7ac79ddad789acabc799f8bbacbd8
col46:   bc8f8c89d9c768c9aadcbbafedaae99beeaedce98bdce9b9c9ad99c8baa8cfb9a994ddadaacd4aa8
col47:   89c986ba9b9cdebcdccbedab9cdacbdca6dcca8adaafcaab98bbab7c8cabb5bdc6399eb6cbe69b6b
col48:   779aa8a9a6b8d6bc97acababaaa6daaabfcaaaecad7eb78dea9b77bb49bb9cab79c489848bc8cbb5
col49:   bc7ccc8ba9ba9cd9bda887db4e7fbd88acfebc8abdf59bfda9eadbaabccacbbe8b8789bcd8e9fa7b
col50:   798dcbba7db69b77cdb9c7bb7ccbb9cf6aa9ecb7abac8a898c8b4ce98a8b9b6a88da8879ae9baca9
col51:   a883999eba235da7dc4a5bb7766aabbaa758c6897ca4998ada83ad9c888999b66b669789a7a5a78b
ROC:	 BPix_BpO_SEC3_LYR4_LDR12F_MOD3_ROC12
col00:   b98b88a4c665869497988c66763c6657489cbaa496b28caa68c746698eb59ba687698a7899b9c659
col01:   57b9a7889e9b9ac7cbbb77fcf9998ca6c96bb7a85ad77438b9cb6a9ac79b9ab7aaa96d9b88688c9b
col02:   b6517a795a664ca399b986ba7abb77ca79a65c88cac9a798a896b39747984ad657c9595753b587c5
col03:   a9a7c754567866a788cb77b7bbb78f88b86a9cfb6d8968b8b8da7a968c786bbaab6b8a7a7b88857b
col04:   b5b5bd94c9ba7b85bca9d5aa999a7ba7b7a84a759b4b96b19bc6a77896baad2c98c49658b6b64996
col05:   6a76a5447656ba9b87ca9aa7cd76c76b5aa99987a772c8697798a5bb692ca7bad458a8abb6cab9bb
col06:   a7b574956976846b895aaf9a884ba9aab8a888977cab4b755a459a9a888a99c9b5aa8a781b3737b9
col07:   996d67aae8accab99eca4c9a8847dbba88caba79b9a97d6c5848968b5a99345989a8989777c338a9
col08:   776aa774897a77648676c8a693b55c976e67664888848a8c8764856bc64689479b6c898855984867
col09:   95bad5b8558667797871a8da86896dc88b7dc869496b6eea7b88ca678898b96bd8959b8889697667
col10:   777a66c466cbaae969b859cb7879a5f688b9a8497c87b8a8969898eba8aaa9735c94c91a9489768a
col11:   ab7b8ac497f87bb8a96b9689b86bb878bb758787869998657a6b5679968c78a5e9ab985689885ab9
col12:   a85a91a9c6a49c69377cad67bc86a9aad48d98aa1796c9b48aa599ad767e82788bd9647728576789
col13:   a49a7a78a9bb76db47baa8bb577cafb419c7b8cba5b85aa94bc96b796ca888827654dc9998b8a978
col14:   b6a777925ba8a4d7a9779b5a999accb776958caa965689a9459a4627a757bba2758b783b74297978
col15:   85ab488a9487abb9b98bb8a689daaebcb98857889646c7bb6d9b8bcabf586b75a598b8599cb785b7
col16:   9768f6b932a6d885697cc81869bad7b57a9a63a8359cc898a5869c698a69b88a7967a38485698aba
col17:   58599b9ab98a894a9783cbb6a76ba98975779999ab9ad88aa199d8cc676999858999b49846875778
col18:   875395898b9bb1a6a9b87c5aa99ad999789b996ab6aa89899486797abb575ba6a66e6a56889a677a
col19:   c88b76a758988a6b7ab868b6e579988c5866975b8b6dcbfda8986a75daea4a89878dcca6a6698576
col20:   38b999d79db6b74c5d8af77a5b8c8c9b7a8475bada45a89b3bbbc76759a567c8a97673a7bc856aca
col21:   aa3597b7a177b8889c3b6adab9d9dbd699aba6dba8c7a9b799899799a8dbb67bd6a986b778c97897
col22:   5962b9893999b733c5277b6f9cb9c987b978a9d95a769b7896abc8c5382c849254888a5a947688bb
col23:   bb378868896b8a7847aac3b96774ba4879cad7ca68a9a9cfaa9779ab9ea7d894ea868b6aa4a68ae6
col24:   e96789b5b74589b97cc76a9b9864adf9aa6d79784ad9b79ae4b7a898b795878d776874889888449a
col25:   87789669c68ab5ddb9dba989adbe967aabaf6b628989c8d88a8d6758bca7bda6a89aaba5c8a3a799
col26:   ab96968e894c6d7dda5cba8cd9cadb7d9bfb97ccac7cbdba9d89cb48b69bcaa8c6eaba7ca8d8887c
col27:   4896aadadba75ac8d7fac8b8c9c6acccc5cccadccddc8ecce7fabdbdc77ca7ca7cdc8cab8a9eb887
col28:   8d5bd6cea99985879db9dcad6c888ecba9fea7a779c796d7c7a85599aaab696dbc88b894b98ce9a7
col29:   4a99899ca8d7b699af99ecd77cba9a7abce7afc799aa58f876ca889b2b986abaa9ed68b7865b57c7
col30:   9786a8a75a67a88de3a8ccc9a7babb9aca97da79db77a7e9cab79babaaba1d6abcd577df9d8bd9c8
col31:   bc98b377998d36bdca8ada8d7acabddeaabadbc9c9b8acacbab8ec88fc51ea77c66ce9d8a9b97dbb
col32:   8898588ca9d677bcadac8ada9e9e7cbedba8afcfea7fc997d68a89c79c76b7f5eabf977dd787d7a9
col33:   cb99eab9aa9bcb68ccca799acc6e98d9cbfcbb98aecb9cd66acebfcbaaa89a5da99a78a7cf9be498
col34:   78cb8867bacbc9cbb7dabcec96cdcbccfcfbfbda8c4988ccbc77bdbd6bec659c79cc2eca5a8e7bb7
col35:   b77b67bbba8a8c9bdaabc9bb9ddbccdaac88afe8aad8ecccbcb9aaddaa999df9bc9e5b9ad5b7caba
col36:   b9ec7abafa9698aa78c9bb8f9ac779a9a8dbaa9a78acec8b9a7eb8ab9c68a99a59ccaaa9bc6c9ca8
col37:   9a8786d7a94dd9cbf6adcfffe8ccada97fddccdafbb9ebda7cecbed6eeabf9dc9dca9ef9bcdb7bba
col38:   a6c96eb8b9998ab7cdcac98cca88ccadfc88d8dcdedbaacab8b99e8cbbcacabbcaabec869abbab9a
col39:   8baccaea89ae9c9cb85b9aaa7d9eafbc9caecdccbcccdca8bccabc9abc4e9cecbbca8b7798b9b999
col40:   baaba68695d8babd7bd9ba796bcccca89bcdd8ffc6fdb5cd9abb89aceebd7aaea7ccbacba98d9fa7
col41:   6aa878aaadabb8bcd79ddbbcb6958fb9eaabc2bbbe9da98fdcccacaaa7d9ba779cdbe9b997c8bbae
col42:   5a397a99cc97b97bdb9cababcd78ddfbafebc589b7b8868e899abab6d9ead8ccaedb9797cbbb8fa7
col43:   da9cd889babcdbb9cedddbfac9ebacff7dc8ce9eaeea9b989edbd8dc9fdb8c9c985b6db7a99bcee9
col44:   da96bab6edca78fdc9dba6f8bf9babbcac976bf478acce58fe86b8dba7cef79acbd9a9caa6c797a9
col45:   b98aaa9ba9ac8dd98bdaa97db9cf7a7abba9bcc6cbe799d966efeadb79efab7cdd87aaadeca9c8cb
col46:   c9d8979ab88d8cac999aafdda7e8a8dbf8b8fccce96deeebedac6aabcb8babe9baa97a9fccdb6b7a
col47:   8dcf8f8adbc9f7bbb99badccba9fe5fea8ebaaccc6cecfdedbca5cabc75cacdacfe985aca9c799da
col48:   d989db77edaab9bbc6c7ad9cbdd99c9acbd7ccdca9eaaaaabbec9a9aaaaa57698aad9ccaea9aa69a
col49:   8f8b98878bcaaea879c68bc9cbdaedddcab9c77cdf5daeaa88d9b9999958c38ad5a9bcaa99898caa
col50:   6eb9ad9689bab996b799dccca9ef8bfbde97e69acecb98796d9bbaccadcdbdcab983acb899da6b7c
col51:   69a56a57ec685ea7957f6d97c6e8ce6cb3ad7a97a596caa9a8b8487bd88767bab69c73a5aab1a7af
ROC:	 BPix_BpO_SEC3_LYR4_LDR12F_MOD3_ROC13
col00:   7416512551472427464a756657a85776678266646376558556493259767559566954459966675a88
col01:   977668976788ca6656d9a87987475a77677687866981a7a89b7766686694da48b96a8957a6635799
col02:   7766847689494676d35673655385679665758871853984878c965a59b56bab667c754589a75584c4
col03:   775575596697ab7787589a8452b86a56b65c46a7888b9a7923769871586a488796677865268853c9
col04:   386a23b56783636a69659796955768769758a5a66588b57a994979a958a57766849a75776557783e
col05:   886879538667547a867a5a876888398778b4777855b4855989898a6781656478587357779c876aa3
col06:   88864827759994949995668796d96a89a4857b97698865754689776876557ba86a7997b8779b7975
col07:   84b2a87558b981856998788878ba89867a99ab2975bbea558797a9a8aa89898a965595999aab458b
col08:   7732a7967c98574779a869559759a78ab998c59ba7ab8a74aa758935899a4687ca7b6725daba9c99
col09:   844a6699891788665456b4b8a8ab4d87cd96967786698c7979b89a67c87aa9964adb877a7c795bc2
col10:   96a798666a9869761a754a94c65bc898ad97886565a6965587b937e98679c7b9ab58b9c73565a797
col11:   7978348879979898a7884786a795866a787b9688ea9998688acca888a498bbb8875687688a648796
col12:   6a7499869325a858a59a8998775aa68c9689ab5a67589a7858a7798b9c87a74d897b8ba6a67aa79b
col13:   77779676a877a69887b464a6ca9e7794a8876a8b94acc88b9985776c99c6a77c799aba9ba88cab78
col14:   697a696484a777a576a99878d98c7798a65a8777669695285b4a97b39977a89acd8698666888897a
col15:   798674a9497ab78588587a69a76bd9a98777c8c69c8aba6b56999b83e5c79a95bb9a8ab869668496
col16:   769889b59c79b447789a7acbab867d6d8b89b459a56ebab4b689d948c7aa79787bb9b8b48748396b
col17:   889967c67c96a6a55997b765a6aa5b7757acb76766c879899baa8aa9a7a765c6879a6898768968a7
col18:   76988367575997b68a77e6645799973b96b779a97979a6a67279a68976596975b8a4a976c4a799b6
col19:   785a889886764886aaa9899ab46785b98997fb7876c787b6e99b8b79e76aaa69a7ac856b67586aca
col20:   468763964a98855a46aaa7e86a89658a7baca78d89e8a7a69bbc869e67bab8cab6b979a595865ca6
col21:   766686778865995a4877994a67b7a9797996a7ab6ba879b8598b79a96a88ada6c7764835797587a8
col22:   7c7998a9978885768a7ba9a95c7cb845a59998a3a798aa5478bcb5879886cc5a9b75bbaa48376597
col23:   6868858a5a8678858c7a6ab89b98b6a9c9b7cbba9aa997b99d57a8a77a9b98a83b96996784aa9bc5
col24:   48a6698536548678b79699bd9986cbbb988a9bc6aca6a846bc9c9998797bc67ab9897a8ab97566a5
col25:   85367bb9886867a899aafa88abc7abdb578c85abaab8b99a9a8eeba978bbbc86b994dc93a78895da
col26:   7a979aa787887aac887b8b7af8dbcdaaca69999b9becba78db9caa9bd9cab99995a9d9799caa4afa
col27:   7a529867a8997796687aa9da979596a79aabba8a6c8a9968dc89bada87c8a7b79c7b88a9c7b88b8b
col28:   9b6668a99c98aba9f88c9c9db7bb5eeb9877bbbb9b9999cbccd8b8c9ea5d79b6c6b9a87ab9b88bb6
col29:   da799d7bbc59ce8b8899ea9998bb9ad8ab7cadbdddb8dbad8b779deb96dcb9bbcbf4baa57abca99a
col30:   a58a8699979b8a9994cbe8fbd87c88ae9badc98a9ca98bbb9a98bbca96adbbda988bd589db9ac9d7
col31:   8966878cbb8d976db67b8abca9a86bccb6cbbebde9c59bdee8adcc9e9dbf8bacccc97c8ccebaeebe
col32:   a7bd97ac88a87b7aafbadbdb87bfa98a8e9c7db9c8aaaa9cebb99dacb9d9dba8bdaddcd9bbc9b8db
col33:   7a6b8a6acaa9b8a9ba7aec6dca7caecab8ac79ad9bacadda98b99cacd9bab7a899bb6a8ac9e7968b
col34:   5a57aa899bbb96c8bcacebedbccacfac9c8ec988dbe6dcebcdaaaa79e9ddbcbfa8ec7a8bdab7addb
col35:   9e7986b8bb8899886bff6dbcd8c7cfa9ebcead9a9ecaa7cab8b9fbcd8de9cbc788ca8cbc875babb8
col36:   bce89bb9a998b7badad7cbbd8bccccdec8cbb9d9caccbc98ecc8d9faab6b8aac89a86a8bb8bbac69
col37:   a9b7bca9dbbe9bbbafbfdefcacacfaf9cbec9dbbd9bacb9dabceebddc89dccdaeecdbabb99e7ca59
col38:   d7abacd7feaaa8dae799a999bccddbbaeacbbdadacb9cd8b8eebcefcfa9adcebaaccbad9b99cbebc
col39:   67584bd95a97c9adb9c9dd9badcb9ebeacd8a8bb9a7ccba9dedcaadecbbb9ae6ba97acebab89df69
col40:   d5677dcd765c89b8ad999c99bbd8cf8eb9adeabcdceaafbadaed8dcfbfcb99aceabbe9bbedbcadfc
col41:   79b9b88ec8bcc9dcacabceec8bfa9bbc98a5a7abdbdc9dbdbaccbefdc9cacdd9daa99da8fa97bbca
col42:   c898bb96e8cdbcb8aad9bccbadcbaff8e9eacdebdaa9cbe8b79999bbdfcdbcccafbd8bddac9badbd
col43:   abc94babf7cfc9e9dcbcb7bedacbecbfbadcbd65cfe9bdd7bbdcbbaecddddaabafaccbcbabbeb9bc
col44:   c6a8b7cad9aaecb899bdabc7ecdadceca9cdced9fcffcfaedcadbbaebcaabbab9fa7db8abc96de9d
col45:   868bc9d97d997c9a89fbebcbbddc7ddda9bcaedbcfdbfbdc478abda9e8ac8b9adbbbbbfebdca6d87
col46:   b89d89ddc9cb8bd9d9e9ab6c9bacae9c99bacebbadca9d9cccffbb7ebd8ceadc8bada9fac98dfc5b
col47:   b8dafc7f9b7acdccd9dbca97dfaeecda9accdb9abcfbbbfb8fcebbbc8ebd9bc8bbfcabbe8fa7eaf9
col48:   c858bb7aaabcece9e6adb8bcbcccfbcf8bbddee8dca8dabdbdecfcdd648dccebde7fc6cacbacbd9c
col49:   689dbf988bbebddfdce5fecad9b99cccacfaefadcceae9acbcebb879adedcbdbe9bb7cd99cccb9ec
col50:   8bc9cabbfcac9bc9dbc8bbcadbadf9bccefccaadfd9cbfeffdfdfac7afdbdbccaeb9bdaebde9fece
col51:   a8bbb57ba78997a69cdadb6d8cc9b8bead8cba9c9ebbbace8dea8c9bad6ba9c7fb78b7cc99ca9c8a
ROC:	 BPix_BpO_SEC3_LYR4_LDR12F_MOD3_ROC14
col00:   5725657a6a4756a75545955a8464285534a697777289779987896817e66678c764aa9c791a798a56
col01:   1333a56388455975b2588794659a998698b4ac7a77b98863bb2d7a74cd96a8489599573a38cb78a7
col02:   6b456478625966b763b66881787c658859959b5a749a85458a9a959359ea876b86ac5aa6b6b7a5b6
col03:   276774962918524ba4767669cbb747787897596ca98969cb59b97778696668b7a886879865cc8699
col04:   451354da5744767695898858b5986a9497a868c76987847c64d6949779ab97a7b9a8adf2774549c7
col05:   52a7368b69c95775a979948967b8c8575688b449989c77bb9866cb568aba9aba8678849b6c659989
col06:   744aa296585738776887e8697589ca86d9667ab5d79a89979797699aaad77a477a289ba76aa69778
col07:   8213394b8ad9a97a8855c8899c8c7b7978b6b9baa778b635aa6c74a787a7d5ac6b77a6a8cb86b975
col08:   3a65667774143767553a87768a9a8976b95a799a18375787784668999679695b8677899649765697
col09:   b6547aa44668a2768b65c848b4a7a885da869978aacaaaaabb8ba8a9d79c9ab89355777887a49aac
col10:   646674b6b66565a937673b837a6b886d976b979bd67ac8a9b7aa96d894ca69aa697ba779349b6973
col11:   3763672b7c4847867685878cb689e947a7487987cc69ab85b577a769965a676bb697972399c87744
col12:   67937779969767a7774619a8ba86685be7ba83a5d9b737bb57a79aa67b8a9968a6968866b5913476
col13:   237779735247858b72c6689968579476bb66a7d6989c8921acbba76b6b9979abc959b8879959d579
col14:   539453455c57566585c69a869989a6b5a9677684b6b6c765a86869867dcb57ac8468788269888995
col15:   3754657a6375767a45b8a969da4a6d88ba6b79969a99b5aaa88c8e8d66b884a59a688aa755b8b8b8
col16:   562188385f8864977b8aba778b889783d8947d5792a8897b67a87a9a87c79cc8975ae999cdaa7858
col17:   265342a5855168d886a7a6964a74c89398aa6ac49887db598ba8b588ca78834bb988867868e58556
col18:   376745258a7748a494575699569689bbb996778a92887665bc586a99c7988a198b376585596a6795
col19:   53247889866683751ab8a7d7ab79c8b587cadb398b49bab7aaa566a9b87982f68d784856a56a6878
col20:   5652689788883969587567867788977b6b8978b8746ab4659c97555bca985d76a78578a975578436
col21:   45318286b98cb533a97bab549bb7b6658bc757cb958a9abba2a58dba77aa8c797c459a7989d85789
col22:   78677baa76366a733836aa548789a7bb7b88a5849646786889b678ac9956b7ca594a46a887d93cb6
col23:   757594596299797865866597686ba988867ca8884657b5a7979b7a8a8aac766898788784961a4628
col24:   32558989a78659a6385776c79b6b77b4469b6a7abc6bb964758596768b9b7b545a79866879773592
col25:   667377729b8769a77697796795a8c8787db8858a97b48c9bab5566da7a59da9699885b8735659d85
col26:   7495a777668d8777b777b7899399abe8ab9a7a999959ad678cb9ccf789c96a7ab75978989a555bb4
col27:   9a97cb896add5fe9c9cb38a9a95b8b7c799d9bbcbabbb49699b9cac4c6a9bd69a999888467d8ba95
col28:   4768a57a8eabbc78685968ec9778c9ba9accc9389867bb66c688cbbdabc764a789c897d9b7f96a65
col29:   55996967982b8a6865898bc87866db985ea98acb8cb8abcb88799aca669a9b9aaca896a7a7a67898
col30:   46475bcd8676aa87a78a6a7bcf8a89afe9896be99cbaa9a9cadbe58a8c999bcd96cc9f95887a4936
col31:   a777b6877958959d6699ecdaadcb988897c89fbfda78899adb79cdabbca8fb9aacb9a799c4b9a6ca
col32:   98687b9a67aa977d7aac7b9bccdc6e8b8a4c87bc65aaaadaaa6c786a7b86ab8c836759c8676ac479
col33:   b48b866bbc56cb8a997aadbcb78bbc899ea8db9accdb9889d9d8a9c899acc9e8bdb8bc9a65ea896a
col34:   588c7abaac1999aa5898ddca8a687ccbcb9bae5cab878899c98be799a9b998b77967aa8ba7276c86
col35:   788e55967aaa97a876a8abcc9b9fbbaee8dc78759938b8fcacaa748978987569b3a7c8c699ad9877
col36:   8879aeb84aad758b98ec776a9db94af6ccbab995b79aa9d8a8c696cbdeb98aca6a59b9b9dba4cd97
col37:   8a78c9d797b6968796c7c6adaac7abcbc7999b9dca78bea8d8b8c9a6dc7c9c7cbb5dbab8a8a97bc9
col38:   8aa689778bca89acb9997389bfea6dc7b9c889acf9eb68bbdcb7fb5febcb9b67bb8699abe4d97a87
col39:   b7b78cbe79b876b7be989e7adafab9989dc8c6bacdc9d8f98dbc9ab6c79acbcb49a8a87cab878979
col40:   ed97798a6f8d898a5cc769abe6ab8caa6aaabf898386c5af74b7b758dcbaad987b78a9a497ddbb76
col41:   68c7c8978c76ba79a896df5b88cda9be9ecbc8abbaa9dcc7aaecbacdabf9afb957bcc7bcc998988b
col42:   68c45ba8abb6a5bdda9abdafaccdc8989b6a9a9babbab89eccd88abcbcaa57a8dcd9789786a7d8cb
col43:   c9a8aaa577ca9cc8a4bba84ae98b9a8f67c89aaa88acd687a77aaa78b9ca697ee799556bb6a9b79a
col44:   6c7c987b98e868b6bbdb99a947abafa99c6ab7cc96f9ada8db8ca9b5eb9b7ca9b78989cb8c45ac89
col45:   858a88787b9739a9786cccbd99a9d8c8cb9ac68998dab68989c9cfd7caa8c7a7786baada9c56aa88
col46:   74a7b59bbab675b8598dcb5a9bb8ae9aca868b89c9d99eacdcbeaaa8ada9d996dd97c69ca779885b
col47:   6bbcb779a88d55d778c9d7ab9cb489799abbadcaeba649b9785bc9bda967afcd8aa696ba8676ac97
col48:   97b87cc679a789a789cb3b9d8d9d8adbbcaaab89a9aafbcbabba979c589c8cd8889679b64c5b8698
col49:   787b8acbb9969a999ca8aeba9baac7eacae8dcb39bb8fc67a59c9b78d688cb697a9c5d998ae7cb66
col50:   6759c797abb8b766d8acabcd8bba99ecc779c898d7b49bf9a8cb79df8ea99a5bdbb9677c946bc9ac
col51:   4567895875a765959999876a869867a7aca8cb97597b8a8697a7bb6a9b55aaa7d3756959976a74a4
ROC:	 BPix_BpO_SEC3_LYR4_LDR12F_MOD3_ROC15
col00:   587356865535327767475774868a7876789659467a76b4864597295978c47755746676a1746373a3
col01:   8394a7b6988557a99cabb928d886858694a775c6b8a866465a69d978398749b7c9bdbb6bb7848647
col02:   27b8589658a87a67a8579b8899aaa9879c79687a66c5d47c4a9aaca8a7457a6798b89658439b9a98
col03:   66448649486889a54ab5c78778a369a36977797a4ca68b6c9d99a998bbac6ae8a6a763c6c6669885
col04:   94865569864b576597476b7486ad8696996786ab6679799b988ab99a5a869b74789998968c795c7a
col05:   557648666a429567d8896578888869b8a7a8a7a4a8d888b8a7898ab9468959839a73899988858b87
col06:   8564574998746684b48857378aaa7a68977b8888ad9b6a4a79684899aa9a888a88389a749978b866
col07:   a4a65a778878a6b98aadaa7998a7b37b96ab7b65daba7cee7acdb7a6977da8aa9aa9a89ba77968c9
col08:   9276c87991858875cbaba98b88c389b997c7d7887c975899a996576da6ac956797878b697b688686
col09:   465761784a2886a77bbb688568a5a9a9b99a678999baba9c7a9a5797a9bb9699a7b96b69766ba67a
col10:   566478859575a3aa8a77a6886c79846a84b87968a7ba99958bc698ba85a86a88789649b8b88556b6
col11:   7793888a5a83787ad4794e6b78b5868585aab69776b9a77b8a8a48859b57e9475c6c9ab7ce487757
col12:   38756634a9667d9b879688988c5979a88448b8778599c5bc66a8c9699aa5a545c8a99b2839c86a55
col13:   367a864969886a8958aa9dc67b67577c779dc9bab7a9866a83998faf4acc8da7a8885576a76d7684
col14:   a4cab85676868788a8a6a4a7cc798687a77aac9ab9d8b9da68a866969589d996999a89b7a5c7a77a
col15:   9741b7a6a84667b7b4b6a89a99bab9ab69b66ab5b6ba598d864b9d8849bbb48a9c96797977988984
col16:   aaa776a897a6798a5868ba6877b8c8789556789a8a9b6995b8a89777aa6caab986c77ab479887668
col17:   555aa3856779779a85aacbd9a87aaa7b89b6b6877b78aab69b89a9c8769676859789786ba7aa7744
col18:   966a66758a7b357b858e86a6c968bab58a89cc599c7978bc9bb74aa74c67aa999ab778b8789895a3
col19:   2777875848a47baf898b689aca454bda9bb9669a7987b56abd9e597c8cd586b8c69776ab85aab7a8
col20:   5b8a975886587a53bbb9894a48da7d9cb5a89c8978db9b897b9da9b48a99a9b9788988a59b77a398
col21:   735aa87a759a7975987f9c78b9aaaaa5978c7987aaac8a7ca6ab9868c887a877b6ad77d8c86ab89d
col22:   85788942764478757c96694b7aba9a997c8b7749e78aaaba5c95bcb8ba8888a99abb8dc98c96d872
col23:   779768d8a9aa9477a999a8677872a9599c6aa9c885a767a67ba8abb577d969a9899b786874a988a9
col24:   9877897968b6aaa9d888a9c879b998a8bab6a6caa697a8b85b7a884b95899cb58bb8b8978aa66968
col25:   b6776b3667856e65f5cb9c7c9eac7bb99baa79b6d9aa977abb97c977bab98a7888b7ca6ca5947899
col26:   4a385578ea87986ea9c9a9bbacbc9d96b9d8abfe9ca6b99587c77bc99aaccacb89f884c76ab697bb
col27:   79857a6985a8a79697a7ab9aa998a99c9995db86b9d79ae88cbdb9e979b8b89ba8878aa964bfaa6c
col28:   a6699875ba68699db8b9bb77a8daa7b9cecbcb9ba8a7aa8bb9b989bfaeac999cb9b9b6dd8586acbb
col29:   a53ab9aa6a78babaa894ca997fb7aa99ed7ade7ba9edab99c9dbb9adcedeb8adb6ab889bd8b9cbae
col30:   694a9b7a67e998eaa9ebb8bab99ba9bacaad9cafbbaadecca8eccebacdd98ae9bbaa69ca8879bc97
col31:   9b8abc949baba668dbb89c9ebabd9bafbbeceb957bfaccbc8bea9abedf9f8bce98deebee88559abd
col32:   8b9999bbbbc6bc88acc7bac9a9aca89bbdcaa8bbadcea989b6ccbcbbcaa9cfbcb9cacdadbb6adcad
col33:   87aac78778ebdd8d6abb9cbcccd9fafba6bbabbeae8adcd9aac9abfb98cad8c7c8aaead8ca8bdaa9
col34:   4667b88bb9abba89bc89dcec99dbca97798aba99dc8bd9cdbaadcc87ba9ae88a87bba9eaadcada89
col35:   75a9aab78ad8baabb6cbc6beaaaacc99cc8b6fff79cc9dab9ccec8cca9bb8a8cbcdf7a4ceb79abca
col36:   79b699999688c8ab5abcbb879ebac77ab8cace99caac9a6ac7cabecacccc78dcb9c9c8abababd59a
col37:   7c5986d97b9da9baca99ca9eb8f7bcaaccbbdcbddadbb9ccdcadaeca99bbbed89aeadcdbca8cfd8a
col38:   8a66b9a8b9a6c8cbac7becf8a98eacdaceda9ddecd9bcccbbbdcdb8aadbbbfacd7be999ddf9adabb
col39:   59389b86a6b796ccafccebbe98acbcdbeabbca89cbe88babbfcaa9b6bad99bccdaceccbabdaecbb9
col40:   98686a99b99a8cabb8cbfdca9bdbdfbcedceaccae9abc9b9bbcbd9b9bccccaba8cb8ecb9eceacbab
col41:   496798ba9caaaa6b9a7aaacc9facb8bdcd8bdbebdcbecacdaabb9c9fdddabddccaa8996bbb9ebb9d
col42:   9bbaabc97bbcab9fc79cb8eababbd8b9ff8fdbccead9d9d9aabfca7d9ac7bcbbbfcc9a7b9bbcccef
col43:   b979b8adbdbd8978cdfcaacceeecfdcbdc9afaeecbcac5bacedccacbe9febcbadfdca7ba6f8fdebc
col44:   8acd99dcdaab879ad8bcbd9ecccade8ec9dbfdc78fdcde9ca9899dcfbaac7ced9bfbaadbccbccdde
col45:   698ca9899a9aa8a6a69aaacc9accdab8f8bcaa7aa9baba68ec89dcad8bdcb9aa89bbc9ccbbc9bdb9
col46:   a77abf9887dbbc9bccba9acaecd8babcadcdd9bcedcad9bcedcccdbbbbecccabd9aaabddcfaae9aa
col47:   6acaaa99bdcc9cd9ad9cc96cdda9bcfddabdabcdbdcddebcbcfabd7ddcbdaacdbfbe9ecaafdbfce7
col48:   b789aca9cc6eadb8dd89b8a6aab5ccbdd9bdcfbeaebcb88fbedbdbc9d6fdb9befbb8dcddebe9eccc
col49:   b589cbcd88ba778b8beb6baba7bbccbdf8ce9c8ccc8fffccaefaeeabcbeeddcdaecbcbdaabfecaae
col50:   9a3abad99bbeaba8facbeafebeda8acededeacdbdabeea99e7abdeeac8beecdd8fcc8bbbaffdf9eb
col51:   b9a664bba89cababaa97abca79a8c86abc8ceca7b899f88ebcaadc8aa79bab89aa98bc8bba89c8ca
