ROC:	 BPix_BpO_SEC2_LYR3_LDR3F_MOD3_ROC0
col00:   755b1757258b8b566797948b86a995975bad7b59b81b7ad7aa7955579979b9a58aa525b476757514
col01:   594bb789697aa7779898758a9e9ca8adba6bb9a8ad77779cfbaaba68aa59a9da4c79855999479956
col02:   979a8c85797788b9996cac86c78d9ccacbb7ebcb89ab4786ac7abbafba697a89bba5498a67c97658
col03:   6a857bc4bba789c69cbd8a8ac8e7a9b97a9eabfcbb5a87598bca3c9d9898569e346b8669876aa486
col04:   a7737c956d5d88a888a6aebea6fbbbb7bc97bee8d6ceb8ac9b98a88ba9bba6b885a8968c77a63847
col05:   5a689b5c63a585a7956986c577c6896a78bcfba7a68787b9b7ac9b9a8f8ab476bb89dbaad4a38d76
col06:   1796d8aca88976c2a1a8b89ea378aacb96aafc7aaaeddabb7bab88ba6bb9ababbc687b9ac77b693a
col07:   9b9857ad6d94a893673d9ea9a66be7cd9fdbabb7fb999b8aab7ba88edb877fa999c99ca996685c77
col08:   58578ab77c569967ba7cadb8c5b9ca58d667b9cc76ce9b8aae7f7a27ed93a5689a69881c597788a7
col09:   66656aa777685678c96cd99ea9f9e79aa7cfcc9dcbba65a7acb8b9ca99e89aaeadc968f7de9f4558
col10:   a6aa4a96793a96ba83b78a57a786a7ccc7c9b99a8bfafcacb9dc97ccbbb8e9a5bba95398f8698963
col11:   698769ca83859c48abab7b69dbb8989ddec8c978dca97c9af899468e687a7b566a67881b777336b7
col12:   67c9d689ca8b998a854b9a8659baada8eb989a8c48b87b9f979a9abd9f8cb94a6b799c9991d7578b
col13:   56e7935996ca7799bc3797897dacb8b8acabb97bb5969a5cba789addb65ec7877a9ca88bd7a76ca5
col14:   58a5a6578a8c986daa575746dab8aa98cc8a8fd98dac9a7cca78adbc6aaac997aa99988977883976
col15:   a46a435998a9d7c8685885acb9c97aabcb66b9ebeb9fd6986fb9acada899ddadb7a9dc6ae6689785
col16:   2787a4764879c8a8cab895ec84a9aebbdcaadabc8fbf9ebdbabf7dd1da88bbccb7caaa8bc6c96879
col17:   888b63d6766889a5882669798a988bd8abcdcac7b99466ab9c9baa98cab79fcab76e47777abba4b5
col18:   9a474c9966a8ada55bae68c7ba777aaee8cc7689ba8dbb8b9ebcc98ec8b8cb6abc7b9ab97f68855b
col19:   96a65878889a8a75876be79a8b9ebdda888dadcbfc79cb8bbefad67cd79ecb56db898c959a396696
col20:   d968956f997db9a889a48da8b4bcb6ac8ac5d965ccbddab7da87ea5967c8caa498bbb9b549444aaa
col21:   45abc79a7ba668a87699aaaa8a6c98c89aaa7998dabcbbb8ba9adba9c9ccc6db79f8a8da95879988
col22:   68798996666897b7eabbcb87b59bd8bd9cb999fbabcb9adf79bacaaa8acb9478bb8bf8553ba493d5
col23:   47969ac976b9bd965b9b879eab768a8bcea99cbed87cabbacab96bebba67b47a9a8aa2b696546654
col24:   d58964a6a74886bd979dc67aed79bac87cda7d99adcbacb8bb8959c7bcab6a77aaa46a889b78d724
col25:   bb9a88688577c5aa9bac87aebbbecb9cfe99cc7aabc7fce98fdb876dd77da9c9b987a85a77938849
col26:   974a97cac969a9d88a6b8ba9cfaddda9cebfecdbdab9caee5baddca9c9adf8a8775d9bcb8ad9aac7
col27:   77b679eda683d9badbbc59ae8e9e7f9c8969dc7db9acbcbfbb8ad9aaaa9bdd6b9ac8966ab4bcc9a8
col28:   988a7da7ac6a9bbdd8d7bcca8b9eed89facecabffcdfffb6eb9cdafa9fecac997d88659daa879fb7
col29:   778db99a8c9ab97ba9aa8aac7cdddebbc7998fc9add9bcafcc7ebc9dafa8a6bbad48e9a9b88b8c87
col30:   bbeb9a6c99a5ecea9c9687a89c8ddbb97d9dcecebfd9edbacbf8baaebaf7d9cb9aaf98d7e7799878
col31:   2988caa9cabc9cb98fcb998e98e7adbccbcbbabaebeecbbb8ddbbdecdaa9ccaaaab9778a97abcbcb
col32:   a6b786eacb997cd997b9fbcd9bcf7cbdd9ef7cad9d9caf8dbfeedbadaabaf9889a9cc48a774b98d7
col33:   ca869b7abbbacc9cccebbbabdacfef8c9c6bacdfafdfaacbaba98bc79abccadfce8eccb9895a9f69
col34:   ac955792989e8a879a558ccdc8bd5ceb78daccfcdaacdab9dcb9fedacdccfed8ca9ccf889bb6a9b8
col35:   b8e79cd6ad7a9a7a3fbbaee7feedbacccbcbccbdfad7c8fbde8affeaaaec98fada899a79bc865855
col36:   ac9799adb4afabcac57db9e9c7cedfaddf8a8cbfcaaec9bbebbfccb898ebb98aaf9aa998ecc3ab88
col37:   8aaebaab8acbae7b89bbdadeaaecf6bfcdfcbfd8df9baaddccbccafec9a998ccad5cebc87cb779ba
col38:   9b9abafa9ccbb9deecbc9cd77bbd8cacb9abaeea9cbd99cfaccadefafbaa8d6ba8b6cbbabdfc9ad9
col39:   8b99876aaa98fba9f99d9ecaebbafbbaedc8bfcfe9cebded8dac9b7dfe9dd88577cbabe78cbbb76a
col40:   8ca7cab7a9ab9b9978cbfcd8caebf7a8cffddffebaaabcb6daafd999c979aea69db89a99c86c3d7a
col41:   6accf73c5ebcbbd9b8b77dc8c9abc7ddd8b9ad9caf99bfefb9fbbcc6aaabd9abaa9ed777bab89dc8
col42:   69caa796c989aaabda9999e9ccf9ec9d8aeeca6bbecf5998bccb8fdcd5cadac8bcfcc977cb9cba68
col43:   abb6cab87be9abebaccebddddc9999f869abdecbb7ce5dbbcf9c9fbcecfcaccdcdfb8aba7b799e76
col44:   9ad6b7bc6df868acbda8acb97debbdc9bec9ceeccbd9face8fbbdc9db7e99bcfeb5aefcb9bc7bb97
col45:   cc9dcccc86a3a8e89f7ccac99ecc9abc8ac8cba7cc9aa9be8dcca97cdea8a98adbccb6bd87947fb7
col46:   b96979e89dbcad8da7a9cac9d8ed9aceea9fcacbdc7cbfce7c98acd7fa9ec8b8e99b96ac98c5a8ae
col47:   b79878787cbba4bb6abbbebbe8b9dcdaae6cdbfbcbfdabb9ca8a8ccdddc9eb9acbdbbc77a88b9c85
col48:   9babbd999a569b8a9abdc9abcad9b8d8aebeab9b7cbca9cd6bccd58fd8adbaba8b9c8797a8a7bab6
col49:   c5978aaa9b46796868bac9ae99b7858ac98a9aeaab996c4bcdd6dc8ddc9abe99b587d9b7bbac9989
col50:   7e98bac6bb95b37afeebb9ab6fadad9cddad8ebeabdce6cbbcbbcdafcbccdaa4498dbda9a9ba79a4
col51:   57886877589a779a9a668884b78ea8786e89bcaad7a7aa6cc6e8f7898695b9566585a4776577d466
ROC:	 BPix_BpO_SEC2_LYR3_LDR3F_MOD3_ROC1
col00:   56423298468846557169787745a6852b682795b2a488b76449d8889ac9869c6a389858a3a827771a
col01:   a83551963854a66659586898641b48a457bb4c799c78d755a668bb33ce88b97cdd8bca59cbb3996b
col02:   a421259b77997922a6a69381a986199c979975aaaba6559a95d7769a797ba788a6878692a783a735
col03:   4386792b9887645b3776567b669998bba66698c9a5ab6976485ba97a7a686a774889ab8879866468
col04:   7165b46786415778686d57749c847769677c778938379956ec6657db96d69a9a87a84539998b875c
col05:   53ca361861758934a56674855858a99a87ccaccaa465bc7885498a8a6da98ba5b81b4bcc86756c9b
col06:   a69448281356445484746658664b9c787cb43a66b776a79aa69aac929b9a5bbaab498989887656a7
col07:   84675a99769347a3467c89a9a7889a7ac75b76f687c9b9b99dab79bdad97ca8b7d87476a6b89ac8d
col08:   8982878a442763186b47adb968995779a8958a9c7aac437a799bb53b78ec88c9ca7786b9aa567bc5
col09:   574745888a689595388757a98ccb6c5d5bd59eb6a9bb97baad9ad66959b88c25ab87a563759b8676
col10:   b8784b781567878b39777caa98aa5888b7acd8aba96bd6ad6979ab9a6fc3598aa89a5678887aa654
col11:   63397457a745a4a487b66aa869588bb78bf997799b8b998e6cc6db68c98bb8895599954ba63b6885
col12:   18939948b2b569773566677a89ab999d57a9c777dab76bbbd7b5b677c4948a7899799694b4b69a57
col13:   89647877416b96b9b93a9889ac969ba57a8bac88b5b9896bd988999a56aebbdb9a88658c9788a773
col14:   4787b2844448279a7898c6c647776a99facccb8b8899bb87da9aaaa7a8b6779caa99986a98956995
col15:   575554cca49689486b967aa8c6a853c9c85ca699999ca75bc96db9a9e899b7aaaa8a78c9983c8687
col16:   996971b92a347557cabb8d86a99a8b98b88cab489f786a999799a99dab6dbab4aa69c89b6a687a82
col17:   89917378569895966d436876c6979ba5a96c77aa9a7ac8bcbbdc7d97875a7b86784ca35cc5a7b46a
col18:   b8726589495695566b6978b9e3784bbc5cc89acdedd86849a8b966aa44a6a7379b7a77788bbab756
col19:   c696679755bb88787a8a8c499a68ad759899abaaca79a6b8877ad99eabbb99556aaa8a56baab7da8
col20:   85365566c77614bca896a4672ab8aabd796a68999977b9d948d89c7ab6b8687bbb9ba63969a435b7
col21:   5463979ab4879a6a8d89aca98d98a4aa27cbbcb78d5864aa9ab6a9c5a7f997b54ba649959bbbc7c3
col22:   493497545875b687c694a757cabc869c7a49874c9b76ccd6bdc77cabaaadb9889a6a9a949a786557
col23:   56a6a7575857657a67164b9b48b6b9a7998ac87bad48a96cd79977aac7bcb77953a856c7969952b5
col24:   45885764a9968859aa265869a7abb859b9899a986c97ba7a79bb898a7bd8d4767b9cca87778659e9
col25:   88679c7f7679b97ba877566a9c69adca79b78adbcaba9bdf8a899d78a98c6cfaea689a9c95799957
col26:   4658aa798799866b7c8c997b9bc79abc9aa6abcdcbbba9934ba7ba6aabaa8aba7a9c8897db7a7a89
col27:   797878b78b67eb98aab589979b8e9bddd889baa993899afbdbd9b8ba99989989d89ca37b8c768a99
col28:   aa8ca4797aa8accb76aec99dc999be7cac8de9bc9eb8acab998eb889a989baaafd898bcc7b958c97
col29:   67596795bdc967aab79bb5c9899aa99ac7dccddab6aedc8a9a8fd6cfad9dcada5dabc867c5bba688
col30:   aa568a896bbe96b69ed58aa9a6da689c9a8bb8abfbffbaaa8cafca9caaa8fdad9dad7e9996654587
col31:   7a8789b6b5bbc969dc598acfcbc7cca9ee9aca9d8fc97cdefddbbdabbbbbe99efb979bad8989d896
col32:   9cc99ca7db5e7dbbbbb79ab9be8a8ba98acefbfbacbedcd9bb7fcff9f9dd9966d6799af6eb8bd8d6
col33:   d8ab88c6876cb775a9cdbaa9c9cdaa8babaa79ce8dbce939bbbaabe9bcebac98abcc98b788baba9e
col34:   945a96afbc99c6be8cbce95b99b99c9ebb9d9dabbddb9cb9caddaacccabfb9ccba78dcbbd98abbb6
col35:   8c9b56bc76cccdda5cbc8bbbe8cabaeb9d7cebdeac8e9abdecc987bcfbb6e987dca68d6a9c5ab996
col36:   77a88b8aaacb7b68b8dca5a98bc9b88edcafcccda9bdbebcbecbc6bac986aa9c7b88869daab88cd7
col37:   7dac9bac7deaa5aad86cb6bcb6ac9dbfbd7eadddacbf7ba9bac79bc98afb7bba9b9b6edba996acb9
col38:   8adbbcec6866dcbaaccfccbfb8cc8bfddfdbcffbe9ccebcbbcabeb88ffbacedba9cc9acd9a999b99
col39:   9c9d4cc99bbbcacadcccb9a86baecafbcdeaebaaba7f8ae8cacbfabacc7aec99cbaac95dd98db5b9
col40:   adc7aea6aa7c99a9dc8cacbfc9ecdcafeacedbecdcbddddffcca8ddcbbbcbdeeaa98ef978dcf9c9a
col41:   89baacbbaea87ebbb88adabc8bdabcd9bccfaccacbecadcedcfecd9acccb9eedcb988dba86db9ca8
col42:   88f6dab8eb7ea9b89bd9ccc8decbf97faabadc99d689dff9d6986adbcacdcfade979ca9b896c9a8a
col43:   9bcb69bcc9cd9be9acbdff8eeffa9d9fcdee5adababbcdcdbbdee9eacdadb8cda8ecdead68989d8b
col44:   8878cacafdebedfb9da8fdd987bb99ebcdcbd9fddbcaddcadf9be9cc6be68e8b9bab9adc7978dba7
col45:   fb877bceaa9dcad78accaa7cf97bbdfdbcbfff5dfec69eecac9dbdbbadd9ae68db8da7bced8bd8a8
col46:   b78eaeac4cbdbf6acadbafaafbebdccbbfcbdcbcdabbdcb9eabafdac9ec678dcccac9addac6aab6d
col47:   d9cbca9eaa84598beddd98bbacec99dffbcc9dedbedcf89baffb99a6effcab9dfb6bcca8dab67b7a
col48:   b8afa9cfad8a77cbcc98ebc9a9bccbdcaffdbdcb9cbc8f9bddcdafcbffb7dbc9c9abaab8aa769a78
col49:   9c56aac9cdbb9feeacbdeb889ecfddbdedffcbcb9cddafbabeba9abdadc9aa8ded6fab87bab67a88
col50:   aabbaac9cdaecbdb8cfecccbbbcacfbaaddcddaaf9dbb8cc9fb9d8b9d9bbebeb7c88cabd2dac98c5
col51:   7999689a9c454aeab9e996eab699cccbcb9bcb9aa8a87966b4d895a6bb7a98ea86a8966743a68696
ROC:	 BPix_BpO_SEC2_LYR3_LDR3F_MOD3_ROC2
col00:   41523242463613673672368624362525797823454279246885578589987a8477593553368aa64762
col01:   355457a6659647655835482767c8955867c7967ab56a8875659b87a78a5945689858a966996355a7
col02:   2428366388558545976679997a776c68a67896c85ba67889da3977834b346aa66a849a6554478797
col03:   722577598644446987746595755cb3888b9967aa97888795bac57977897c96a99c556777c7775a89
col04:   5569764935777a965275777486797a794998a47496896a8788857647976787686899675ba7ac8345
col05:   73575476653938876947898a6869a7a96755578789b95899c689878777796967679e889a945487a6
col06:   84749478a976382643966558487548575aaa966ba8b7986b795667ac5a99788a9b6ac49c87992597
col07:   555989268a79984a75869967b658698b87788aaaa6a9bca8879a997b7875aad977a69d7888795548
col08:   5968389486646656841668a586a867669998bb78a56acb7a8b97b8a77c8896889768958668889776
col09:   6486577995448d868a974b593c966897abaa987bbc57b77d98b6c8897ba896956899a59698899aa4
col10:   7667889769567898495779756875788898889668a4cc89867a6c9897abaa976976a87a87979857a5
col11:   45267877944764774725746b87aab499b995995685b8a3a7a66a76999b77a8ab37985ba776a98698
col12:   7649459c5576646378a55765959a8559aa8858caa8598b4989aa487587989b89a678896769aa585a
col13:   998776847845964778a7887978788a9c9b7aa6aa66bacca5978887cd7989bab684b776787bb76779
col14:   5639657a7673379458a6b7a99a957b8544767ac9a6a9ca6aba98bb8b898a8a9988a68d79aaa98994
col15:   5a78325ba6876567c89766b6a79a798997c9a9a998997cba9b98a6a998bb9c97aaba74b8a8459687
col16:   5986586a8754694794999856783979cb88aaa9995ca8992a5b88b9a9ba7a89a8aab9789aab76cc78
col17:   aa3b577796989749588a899b889dad59aa8bb7a7b9ace99a677656cd8a6d786988788877c678a686
col18:   35438381657a46766969456b75988d7976acc7ca9bba88f687a5b879889799a98a9aa7c776578aa6
col19:   578489a7784b6597c26a99a6ab77a8b84a8bc8888ba89b9b986b989bbba8bcb9baad7ba9bb88a676
col20:   76876a5655a8b7566b69a76988a88a778bb97756bb78b89babb3ccba9a59a779a587d8986a497a69
col21:   575a5986b965b8697a775a8b59a9bbb9cb8876ba9a9b7cab799a59bbbc89a886277d97c8989aa54a
col22:   844787b68557666489838a688958abb8878998b7ba77d9b7aa789a98baaa8b898a9898666757a8a8
col23:   6ac7ba958b77ba7c6895689a86b9b9ba986c98c8a5bafd685be8aa7b98a978583c99698666796875
col24:   8785565798a89994d7498985d6cad868b878bb9a98799b58beaa8ab87a79aacbca699a987ba69895
col25:   587a8a789ab777ca8687989d6a9668cabacbbaba77adeac78a8aac99aaa88a9adbcd88a8986c99ba
col26:   48998798acaa78aa9cc6b7aaea86698cdeb98a9dbddacacbddd899d79acdc9a7b97d99daac9aaaaa
col27:   b966a96776ab6f79cbacc88767a8899cb9cb99acacbd9cbacacbabbaaabaaabacbadcbc9a9baca47
col28:   ac696aa987d698a99abd8c8ccbbbbcaabbaaabbd8b8d9cda9cb6c9acab98bbaa7cb9a9fdbdb78acf
col29:   b799c98989ca7997dd8bc97cab9bb9cec9cbb7c9db8acbbeecbcdecbdd9d8aeaaaccebaadbacd99a
col30:   87899b998999b68b9daaadaba89b6bc99ccabadbccafbaebcab7acc8dbab7ccfdb4ddad8cacbaaa8
col31:   7aae9caabda79bb67d8bea7cca7dcbabaea9eecffeb9bca9fbfbdecbaacdc8e8ccbcaa8bac89db89
col32:   7a9889a898a88bbcb9ac989dbaebbcecbfcdbdcbebacacccbdaaedcdcccc9a9cdad8bca9ba7ba99a
col33:   8aaaca889c68abb8bcddc78ddbce9abacecdc9cbadbcaaabcb9dbbbddbcdab77bc9cacaaa9c88aba
col34:   b879db9ab98bb8bbca7abdcccaceaadcb8cbaecaf9ed8dcbabdedcad9debcdcccbbabcabbdaccc88
col35:   96a99bcb6ccb9c8a79ebcadaafbeebb9fc7afebecfebbbccdcaeb9cadaacc9bcb8aacb6ab8a8dcbd
col36:   9eadaaaaaac9d7db8a9888cdbbbaac8dcbcfced9ccdfdce8cb8abcaa9cacbdb8ccc9cb9b9cbaa99c
col37:   dabccccba99b8cbfacebaacd9dd9abdedc9bbbca8acdcccbaeb9ebcbe8deccabc9aadcebcdaada97
col38:   9ba9a889d989bab8aacbdff9cabcbabaececddfbdacefcbbbaadaa9ddcaecebcbbcdcedc8beabecd
col39:   c78dabcaba9adcaedd9aadabcafaaedaeec8f9cdecfdedaaabcddecbfedaccdbebbcbc7ecbaedfb8
col40:   aaa99c9bbddaeaadbadbcbbbdb8cbcdbbacfcdcdc9cdebbfcdbbbdbbbe9cdddcbeae9ca9bdabbc8c
col41:   8bca9acc99c9bd9baac99bccda6bcd9dcccbbdbacdcf9cbdbedefdcfbdfbcccbaacdedcccc9aacbb
col42:   b9abbabbea8b98adbdaacbac9dcf6cabc6bcfbebdfdceededb8dababcddedfacdbdfcddabbacde9b
col43:   b9cacddbedccbabdb8bddedefaeccceddcbcffadcaddbca9cebfffcebccdfddedfebedbcdaecdacd
col44:   bba9bdbb9c8cccbcaccbdabbacdbddfddddafccfcecdabbecbdeeaccfdcc9a9fbacabab9cdd8accb
col45:   a8ac9cbccbbaaccafa8dbceddadbabecfcecbabbacdddebedafcc8ddebfcbeea9cafcce9fc7becd7
col46:   cbca9c8ded7e9cb8bbcbcaaecbccbcbecbcdebcabbcfccbbfbeedcccdcbebabdaddebeaddbe9adbb
col47:   ccaae8abc7edc9bb9edbaeacdcb9dddfcf7dfccdeecdcdccffddeececbfabdefefefdbbdaffddbaa
col48:   ceedadcccdbaced9bb9cbeaccaedbbdefbcdadbc9dcbbbcfebbdcbdedccbbcd9ddcd8aca9beca8cd
col49:   b9cfdecbea9dccdeaeefbfdcdeadfcbcabbbedefccbedddedfcbfcbcdeddefdbcddfdbcaebfdcebd
col50:   bbdafeeedccaccbccc9fddbd8e8e9fdddedeeedfadfddeaebeadfbfbfffcafcccddcdabbabbbaaca
col51:   abbcb9aa9cbdadadcababcbcbdb99bcababa9799cbdbde8bba8d9ecafcefacbbec8d6bbb9abfc9ed
ROC:	 BPix_BpO_SEC2_LYR3_LDR3F_MOD3_ROC3
col00:   7474766886953a67846a9987a7836a85aaa8aa997556869a6867665877979597b7a9757675777438
col01:   8ab68673c69a879946a548d99aa7bcaac7cb7989aac98a888997abd9cca8b89b8ea774ba85775d76
col02:   49b44776c987b68474ba9874a87a87a6a359b69acaab6bb999ba8c9bb96aa9689899626aab7b9596
col03:   c677a9c76768799ac7ab99a7a6b26a8bb8699a7aa7a9a9a96d5648abd8a57b8b787683a8c68ab58a
col04:   c97aa8a8aaa7784748ba974a5b787c7ab7a69a98c87a898cb9bbaa768977987c7978746988b86a68
col05:   57664787585a8a477ab8a866986bb69ca88c79b77a99f9bd78ec7a6b9a994cbca6a7bab853db878b
col06:   a96c6639763399995b78c8c7bc988964aabac9c883679b77a99759786437794896ab6696a89797a4
col07:   91dc67c78a8877ba6b796ab9aabaf999da59ca899caaaca8a3999a787ab4bab6c9998b997cb85aa8
col08:   557578ba59239b9775b886b9c6a989dc7989ae8c4caba679ddbb938b8ed678a96887c9b76899a7a5
col09:   b6675966554ab6cbd97dac8a9874768a9b9aaac999a798a8caae75a87ecaa8d9b4a9a9cb67b3b9b9
col10:   5999a88b8bd7a56a877496d9a8b986a8a78864a6e7878bac9ae87a7a98b7699a9ad5b899a6855964
col11:   79c6b4745497687bca9d6bbc7969aab887b8abc835786c5adba665a6cb8dabb6998958565875b998
col12:   675d78a96b647b7cb15a7b5ad889c489aaab89dde9688c8ab99af9a97997779b7a89a9ab796a5878
col13:   79679883989b5c9aeabaaab96a8797b8a88b9a5b88976bd9a895bb8877a7395558aacc9587966aa5
col14:   8587676793d6684a7b8b9bcda49b76bc997c4a87b9bf68c78877bbc6ebeb7aaa9888754884464795
col15:   946947957768c99a6b67667abb756b3ba8469bb699ac7d9c89987e8bb8c99697e87cb99c67877936
col16:   5b7648a88a5998c98b98c89da9899c8b9ababa797a87dc9c9bababb9b798b9b77dd7c7eb6a8a6595
col17:   636855caa75976898a498d9949a67599789ab7b876c6978b8aaa99bc7faa864b8898b89899278966
col18:   697678696586318a8b679a79798988dc87696acc688c5dcc8b89898d6db9b9b597a7899999a67a86
col19:   69885889a98a5d84b479ba59aa9b99abb9adcaa79a88b599f9687b8e5b67a6ac6e47c7abc7896a58
col20:   8845596c54d696965998c9974b9b8979aa88e69b978b88d39b88aa8ab97eb9c69ca8797b8a978675
col21:   94ad94698a6a69777785d57c4cb6a96686b99ce6898c767bf8b5b8cce898c8988a58b6c8667b748b
col22:   95677986668778659dc989a9a7d79b6abc68d879998b9bb9b778787bd8ac995a57da58b898789575
col23:   798679a68767a789b7ac76b879a68ccb866ae6a997aaa97a7a78699b899ecc98b8488c9b55a76987
col24:   768486487a7b77b8a767b8779887a6989bcd6879ba8b79a8a6dacbc998b6cb986a5c6c86bb88a8b6
col25:   8b9c79c9bb8aa8495b5aec77b8da798cac7bb7cc8da7bb77baa8a8bbaaac7c9f5b6cdb788abcba69
col26:   8cdb9a8878eb7a9b7dbbaa6977c889ebc7abafbc978cac96c6baf6bcec9a9bd8779aa6b88ca8ab97
col27:   9589b82bcb695a996b9acc8c999ae7ccadda8a8fbaebca8bdc94b9a5c9898c9c7697c8d6897969c9
col28:   779b8d7ab98dbbac9b7f7799a6768ddcbe6c8aadbaac9cbfccba8bcbcc99a9ac888dbaa7ba8c6987
col29:   9ba983b87a79c6be7c8a8ba3899b98dccbcaececc8d9bbbecb99bac5e9cac99bdbba89677a97777a
col30:   39b699b79b6a87885c9bab8dc99a9a6bb7a9ce8cc998cc76accb9dccb79b9cf977bcba89b8ddbe96
col31:   af9bd9a68c9b89ac9c9acd788ca89baa9cba8adc5adcab7dcfbaaf8caebd8ee9b98bd8ac958a9977
col32:   798a9a7da96b99a787ca9ddadacdfcad9c9aecdccdfddfacfbbc9cbdc8baaadcbebabc9dbbd79988
col33:   889998774898bfeaaa8ca9bdbdcbb998becacbaa9da79bacdadceddb9bdabb7acdd6d7bab898b888
col34:   e87aa89bc87aaceadca9bcca9eda98f9ca9dabfcd9ac9bdbb7daaf99dddaaba9bcabbdb99b6cee9c
col35:   aa9aa7a78bb88cbb8b99dcba9db68bace9c9cecdab8dce9dcbfa89ac9beccacbb9cb6b78b9db969d
col36:   a968c79b8799c8a8599b9b6adbbbcea9cbfccbc87cbfcd7bcab999afdcdeef9aacbccacab4cabbc7
col37:   8ba86abc9caba8ca9aeca9bfe9aabbe9adbabdecccacbe9c9cdb9cd9cdaeacadedcdaa4dc896b9a7
col38:   7bbcabcabbc7e788c89c8f9afbbbbdffdcadecdacdefdccdcfadcefbcfbfabacddfacef98b9bb9b8
col39:   c7bbb988c849c9aede8cdc8a9aba6ddcefdadecd9acfba9accaf8a8cdcedccababedfcddaca97a9a
col40:   9ada8acd8cf9ba8fe9abbd8a899aaccdcecedfacfdddf8dbdbeecabcacbddababca8dd9abfd98a9b
col41:   8c8b6bbc8c9cbacdafe8aebdd8bccaf9cdacddddfbadabb6bfcdfdbeaaadee9ab7e9abaaec88a5eb
col42:   abc6afa8bafca9d898b9daebdcdf7cdefdfdecfafdccedcbbbdadeefdc76fabafbbcba9c88da9beb
col43:   ccc9aed8ed9b8eba9bc99aefcabafdcfcadfdafafbceededebabcefebcddebcffcbb99c99f9bcd6c
col44:   bcc5bbba79b9bd9dfa8dbabbdadada9dc8ecaa7ac8fc8cedefc8bd7bce8bedbc7cbafcafa9e9aaa8
col45:   d9aadb8abaaad78ebbbaacfbaeecdda9a79df8cfccdbce9dcffccecee9ddbcacdee8ea98b6abdba8
col46:   b98dcac8dcaa9baaa989db9c8989d8adcefeabaeacbdcbdcdbebee9ffeeddabfccdb7c9698bcdac8
col47:   ec8899b4fbd8b4d9ba9ccdaedcdb8becbfc75ecdeddbbcfdbedde8e9dcab9fbbdafc9efbdbbde89c
col48:   dccadeacaf9a9789cdfaeb9eedbbdfcfdfdcacd9cefccbfbcbcdfbbadebc8ba79a98bc9fccad9b9a
col49:   abbad9afd89cbcffbceabbbdcbddccdcdfadcdcfc8facdbfde9acfcdfe9bbbedafaabcffcc8aeab8
col50:   aca8b7dc7ed8cc7eaacfd8aec8efbcbddcdcaf9ddedcb9babcbfbbddefbdddfbbbfabbbfbcbb8da9
col51:   a88ba69bcc96baa66d8e6c8bcaaa9998adabe79b9cbc6eabb88c6ccb8967acacda97c8bca59aa8fd
ROC:	 BPix_BpO_SEC2_LYR3_LDR3F_MOD3_ROC4
col00:   4588645849598a87ba75746569b9b598c188a77987986aca6867a887b786bfdd386899a898988475
col01:   585748b947b5b7a73e974889598ba7b69ebcb769b79a996b89ab78dcbc89c8a97ec8265a9b9bb875
col02:   9bb662a875a7a869a758295a79a83789a9d7aa9a798dea8cbe995bc89aab7a9b4ab8b469b9996a78
col03:   b8b888ab8a658679ba5788ca696bd5bca6eaa879cb9bab95e7b7bc6a76bcda6868767b8abb9a6c43
col04:   7a458998b75496aad8887ba75768c8b9b9ac8c95b89aa9b7daa7bc68bacc77dad7ba979697aa7738
col05:   568655878657695666a7699654867aac898d9dbb99f78aab996a9b45698f8889757956887a878788
col06:   6777a86873778878ba569ac6b8bb96cc9c8a47a96abcd687a7c77aaab65cac9a76e7b78ab89b7279
col07:   8799a8a99769968aa37ab76bd9798bb87a9cbab13aa8a98aa8d98965ddac8f7b86a9fbd89a995395
col08:   6a3b9ba7669498585589bc5aa67758b9fb6ae96bcaab8b969bbcab6aa7bacc94b8d9aadc986c8689
col09:   77788a6a1c9858aa557789c8c847aa8c629778e9acbb9a79b89ba9cbbd569a589387b87884899c78
col10:   4a8a18795974975ec8849687876a97abc9a7abab8ad78aa88679b9b78b67b8aa99969769b79a7789
col11:   a87979673956559866da776875daa8c8c6ca88a9aa8ba8c78b75787d86b69664b8dd888ca9898c74
col12:   955aa6e69b886676aa9a7db7ab89697cd57c97897d98b79bc977a86a8c56a8a775af9bb8a79779a8
col13:   797866548769b885bda974999b8daa9a9a9bc98cb98b86979bbb8a9c99c9648995685baea7928b63
col14:   7b983a9878796996786e85892b8bb86c48c999ca86a7e899aa8a9daadebb9e9cab9648c87c97a7d7
col15:   a885a7aa46869776979ac6584b9a897bc7488ba999bbc87a8e7d8caba5ada99a8657b34a7766a887
col16:   786748776b988b7776797ac8a8cc5594577bbdba9adbbbb76aea77a97c6a9a9a8e965b998b6b87b6
col17:   4a785d86778ca6c9797c8bcb7d858d9a88aa86c4da4befa669a7baafb7682ba86675899a7977a697
col18:   a6a54a4b59696bd79575bb8ccadaed6976ab8aab9ec859ba569db69b744aa8a8b9baeb9671a66b6b
col19:   a7399869659ac867abb69489caa8e578aba87eccb6adb7989499ea675aab878baac7c86aaa9a8ac6
col20:   4999aa5a559567659d97dbb7c6a99997894c89d968f6dc6968acdac6bc8d5a9958a4abc76c3946c6
col21:   5573bad892c8ad8898c58aa998eb6dbacbc79cab5ddc9d58959b9a9b8d7b499a95ba4b477688a898
col22:   95b7a196696895abecaa87cddbb8948d8a8aabec99ba8b99a9cd99aa889dca79a56da84855b8a857
col23:   4b76c8553c86ac86e98b84599aa6b8799adb6b6b8b749b7b779b7b978ae75dbbc7a477677363b855
col24:   66b7966787a8777636b996788bae8b8995bacbab6bac887a9989bb8869ab6b592e667a8779599753
col25:   a87cbb98a86848ac78966d99a996676959b99d969878cb98eab76cabbcbca889aaa54ba9d773bd9c
col26:   689afa7c6d79adc97a9acba9994879da9c7dcdcbe88ddbfdc9bd7bb66edaad9a3b9eaab799aac999
col27:   769a877699c68a96b7ac784b669cca6bbcda9aaacb9fa76db9aa98c9e9bb9fb979a969aaa97888a3
col28:   69c8aa9b8dacac8b89c9b8beadb6dfa9bdb589ebffadd9aaedbabb5db976b8bbad99ca9ecabdcae8
col29:   97bb9adcb9b89ca8cce8cc895b7ed8bb79a8ebcc6fbcddeb9999c8d9acab9ca9dea89a7988b7b979
col30:   986983cbbb9a9abcdc9c889ebc9dbbdbadaabbed9af6ca9b9d9a9bcfcd68adb6677db79678ac7aaa
col31:   cb888e99cace96cac8d2adea9bd9b9b789aa8abeaecacfbbac9ec88fbbfada9ad9e98aa978c7cab6
col32:   aacab98a959a9c9cbcac9ece8af97ec7bbedadbe77ac898bdcbcac9cbdfabe79c79bcaa99aa989cd
col33:   ac8a8aae95989abcdcafacb9ccd99d98cdeaaedae9beeccdcaaca8c8bdbcbaa8fafaacc7c5b9cc66
col34:   67a89bbc7998daaa9cc9bcbdb8bbfc9dc9ce7dcfaadcbdccbdba8bac7ee79fbfcac9aaa7cacca86a
col35:   9bac8cadaeabc889eab87bccd889cdbaae7aacceedbcb98dacdbbdbfbcea6efcbc6ab9ad999a9aca
col36:   9aebe6ce6bd8abca997cbffdc8dbdcccca89bcb8cd9b98cdaec76ebdca7fbdfb9796a98adbadf65c
col37:   bc9cbacfdcce7d9bbccdbdaaba899bbccbdf9cdbccc9fedadefefbadbc83bbdaacbabcacbcaaaa8b
col38:   98aacdda7aa9cabc7a8ed97dcebc8affdbfbcaddbb9a88aecbacad5fcbbcfd8cf9cbc7aaab7bbbad
col39:   aada97b67baaacbbddc8ddefced8bba9e8beed8f9cb8dcaabbdedbcb78adbecdcebadecbabe9cd9c
col40:   8d88e9ae7e8ac7cbcfaab8dbfdbbbb9eeafbfcdbfceddddb9cc8bcbfbafac7acbb9b9ad9bc999c99
col41:   bb8eccccfba989dddcccbdd8bf7dfab9c8ebbedbffac6fc7cefacafccefbaffb88e98a9accdcc8cc
col42:   caabbca989cdddb95d9ca7cdecc8bf9bcbbbc8afccdacc9afabaad8e75becb87aebdeb7faba5a6ac
col43:   d99fba9cbcecf9dfcbcabfdee9bedeecddfffadfddcaeeefbcddbfcddcecfbabddd97a9bacadb8da
col44:   78daf8ead8869bbddb9b6dcbecce9eddcdbcaceee8ccbbabe9cadbadfaeca6bccdcafadaa89ae9cc
col45:   8d899cced7adbcdecfcfecbecdcdbcc99bbbffcdf6bef99bdfbcefcccfeddcbe9ccbc8ca99a85c99
col46:   88a79cafb8a9ddcd9ec9dbfd8deecfecfbddccffadfedafacfebbbabdebd8cdce98bbb7ea8fda9ac
col47:   bdedcddeb9bc799c89fd89ae9fbcecfaabadbdde9ad9bfebf8efcdaafbdfc9dcdbdf9cbbdfaa9bca
col48:   ecca59cec9ddae9decdea9bdcedcf8eab7ffadcf9dcda98aaa9c9ddccbccfdba99bdd8abb9cfda9a
col49:   87bfaddaf7ccacedadcabcaaeeccdf8bcbeebdddcdcffccc988cfdbffcdf8cbfabde89cfcca6acbe
col50:   b9ddfcca8ecdbc6d9cfbdcdbadadbba9d6ebcacfdeaaedcbefcdbdbfbcb9daafbb9aca8bac5c9a5d
col51:   a7acb5a89dabbbbb8ccb89abc89cc9c9bdb9ce9788c9d9a8ab9b9a8d6bb68ca98aad78c78ca8c8c7
ROC:	 BPix_BpO_SEC2_LYR3_LDR3F_MOD3_ROC5
col00:   929496365228a5734766737547864c17546964b966776aa548139b9886539633481a645464434461
col01:   87647875449578586a6834aa8a9886647c5b846955698a7988c71a86baa38b6688aa86a656391548
col02:   5a75957a69b55b94b7575b789b76a997a7775897bd753d8d2769976b289786b68556789913638778
col03:   899757747675b6768b584c975a6b5896878765686977769364485599877a6b566559555463396142
col04:   4676989a87a657a996988d37789675966ba86588ba5587a9a59a857b66678b457666965686764a46
col05:   7977a858878ba857c179957679aa595a7b996877568626968b86c89799a757668586658517467558
col06:   68665769268749a4996a876ab894c787b7a7a89b8b747ba79663367aa5459774b6555b5759545975
col07:   a455837a499567888b9a6991b9875a7b777aab6899988269ba7987a8d986666a76a475a646465458
col08:   4a868897c5b87a597b5379ac6a7ba7697aba94bca889ad9839578a7a9c7679887546696689845663
col09:   775b39956686b8795857974a9aada89a687789986b9a6b89a874677679a8586b89784b4615577936
col10:   58a8846896693565994666aaa999768adb5848998689c8a57578695a8674556a586a3a6557848652
col11:   988ab768a9aa97a8ac795a7a889b97668b798889a98caa99a685ab7ab86c266667a58593954b6492
col12:   762a666988567abb2a8d8a86799a8c9c597779588a99b7c8c5898858756bb6a96aec7b7476886176
col13:   66a89a7b99869786464866488787459aa7bbb9b747a56a698c8898c94b7867868589b74376557351
col14:   89986876a559aa688979c8976daa7b88c7c67a997c7cb899753b8aa8c95b6a753366946aa8664135
col15:   ac75685888898aa4a8a8b98b678b699684545998887688486aa8b87b8c8869a59578687423675987
col16:   29c89b8a965a48b6a8b56db8889596aaa6baa78cb977b8bb7bc7b54c88849a7696a789668569b653
col17:   6879858a9fa6785a95b94b8b888e98b6a4ad8a9b14668985a6a8aa976cd7553a7588a49467b54751
col18:   6979ba65a1586476759987ad9877a95b9b78cab9bb9968c8a696986b6ba79a84a74795987586856a
col19:   ab2978ac6a767779b97a9777988b779bbaccaa6b6bb6e5799995ba8d7c49987a6558887566b89864
col20:   98894576aa53a76c8b4589a67579999aa997bc95756996979db87a4c8a79b47a664b859884664848
col21:   5796aa9a7794658a896fc7977cd6c8aa6a99c56666a7a8a55a6a79a5837884a5c9476978654a7575
col22:   98b7987478a6769998d89497a8b8aabcb6497a8a9bb698888c8479a7677a79758867865b6942c565
col23:   295a9a898b7995aa96cb9a99b75a9d68ac95aaa89766aa7a85aa6a8a8cbc94858657965795788986
col24:   95a98997874546aad89a4cabe87b7998397948bc7888577b6a89a7b866966b33c49c75a855688795
col25:   8b98988a3ac7769aaa757caa7b989adc78aa98b9aa659989ca699c9d8bc9c98596445455b962a942
col26:   ab9869a889e8eb89d8c97dab99b8a9bbccdcdacdabeaabcb97ba99f858a968faa58b85666a8598a9
col27:   c597caa8aa9abcac7c799e9bcf8aaa689a697d8cbaa5cba99b78da89babbcb999abd778459458977
col28:   79acbab9bac68baa9dad5687a7ad7cfc6aadecbddcae7d9e8f5bacddbf98ba9997a9b7ad6b94b678
col29:   aaa86bc46bccab6c8b6bc88dcaa98bcacea9a9acac5abbcbcea8bdaecb8d9897cacd7a86859ab696
col30:   dbabb3aa6ca799e7697599bdeb9dddbedbe98aa9adacb6baaadeb89795a64a6d988acab6b5895a99
col31:   c89ba7998a99bbbbbbabbcdabcbcfb99aa9aa89abbfbcdcdbcdfea8bdd9accdb88cb98bab9877686
col32:   9a9998b88acbb66aabcaebcbaaedd6bddbb6b9ccaa997caebddcdd8aa99dbba85aa98c48fb797998
col33:   9a9a9cca9c8ba6bc789bcdaecbc9ccbddbaba9cc9a99cdcaaf99bb9da79b9e6a9a74b898b87e8875
col34:   9d7e9c99ea989acb99b8b898ac7a9fd8bacb99a8fb7acaaa9daf9bccce64ba89b9bdc97ba28f9769
col35:   bdb9997cec888a7bb7ddcb9aaab99a9a8f9fba9a8c99dd9a9bfbbbace7ef99bccbcacc8c7b9a9ba6
col36:   b996bbbacb96889acacfbbcba9b9ccbf8cae9c86cda7c99c9e9ba8ba7e98bbbadbaa7bdbcacbbf98
col37:   db69899debecbfcabbccbabaebdeda8abc989dddecaaf9deacedcccb9bbc8ae8d7dc767d99ab5579
col38:   aecaae6ea7b88bbabcc76aebfaadbdadc8c8cbbad8acfdbfbbcabbbc6aaeeaea9b5b7ecc8bbdcaa5
col39:   6dee869bcc9a9ab9dbdab8dbd8ebbcae8abedcfddcc9bbbbdb9e9aacbe9dbdf7ac989a7cb89ab789
col40:   ccb998daf9babdd9f9aa9aa9fbcbbd9ec5b9b7a9bf9f8bcb9babd9bfaaeb9d869a9bba959babdabb
col41:   cc9caacdac9fdb9bbbfaaea9ba9ab89cbeeeedacbabdaabafc989beadc67baeb99c9bda9aeabb7a9
col42:   acbaa7cccbc8cbdb8bac9d9bfa9dea89adcfaeb7c8bdbac8bbf99ede97c98fc9fcafbb6ae7c7c6b7
col43:   dacbbccaa89be8dbead9fcbeedcdfccbccfeddcbbefecabaa98bfbbcbdbbc79dbebfcacb8becba98
col44:   acf9d9dcb9da6bdedfc89cabcc9cd7beeacffbaaaaed9debadf9bfceabbcaba9acaa7acb6b8cd8ca
col45:   babcbceea9d9a8ccdac9e999baedbb9ecaaedbcd9cbecfbece99adedabda8a88999d7d889fbaac98
col46:   dd6aabba8ddb7eabaec9cad9accac9bdc9fbcb6bd8ccdeaabddc9dafadbca69bcbabeab8ca9998c9
col47:   7e8baccbadeea98895edacd9cedfcddcebceab9dbebdedeecfccefad88da9cca77fbacdc8a95bbc8
col48:   a98ebcaadc898bdcbfad9acacfdc8dbbcdbfbbfffcdefedbbaaa7c9fdccccb9dbbbacddcdc88af98
col49:   9abcbaaa98cdccbf89dcdad8ea9dfbca9bbcecbfdeddaffbecfeafbaabebeadedbdbd9c8bb99a987
col50:   9ebdeb6cbccb9ecbeffbbabab9efeaadfaceffdbceefbdefce9ccecc9be9babcb8eaadaeb7caccb9
col51:   a98ad79ccabbf6dd69babcbad7b88aaabbecbfdcc6cb99babe9eb9ad7e9a9da98a899aa5baa99a4a
ROC:	 BPix_BpO_SEC2_LYR3_LDR3F_MOD3_ROC6
col00:   22562227144158355831a44753777a69566696793bbd888998b96758ba756663879568a857664513
col01:   14b15b875465a666886776668f6469b9885aaaa6888a98aa93c899a5cbc6aa9a7875877a8888a797
col02:   985966777aa738648934586898a777a9a466bb895699c8aa7caca4aab897c8ab6b5979446969698a
col03:   755846334778a5748697957a7a6564857c6b98886c93776a8b858ad8a98968578538a76676875884
col04:   72984269475a787548796c9478c799a988b9a999b4878b4cba986bab98b387bb6a8a468a799a8877
col05:   5825796437b98166886876b584c879a977995879275c9879a89aa686784c7ac76749767998569a86
col06:   438366767288686b68a7788a94e9884a88cac846b8678a77999a84a7ca5a96bc7883957d5a757a69
col07:   459a6848a45766b976abb79786a988776b6b8a888dbe86886b594eef799a958a8679868984756a75
col08:   66862b3658771a687b5457acb775b85783ba99bbc86a9889aa88ad6996bad77588a983a988984885
col09:   98a369498667b98c788549c969968bb858aac7796788b8a478ba4c97b9ab7a7b79a8797973a87aba
col10:   6568678394788777979969c748557687ab9a87bc87b588c68aa97c6b778bb87b9a6ab73875a88769
col11:   898d6697a3a77b797359b8989baab649887787a86789879caba56a996976779a898a94b761977546
col12:   677419c59a8796367599799da8999b7b97788a5b879b59aaaab87a86999a8c598b9b5869aa7c4bb6
col13:   5b649a896d8898cab6796a9ac7b7ab7b898a99acb8b79ddc9c88b8aa847c759a998b8a98958b8876
col14:   9648a546456888b75978bfd9a797c79be77a58b8b8b8a7a8ab9699a9a7677a6ca999b58878a9a686
col15:   a69978374966658878596893ad9883c69ea8a5ba4caaddccc684aaa87938cba8bb98649a59b7a955
col16:   9aba57ab77c9554b597c85badaa889a8d988abeadb7497b89dab9a99c8977389c8b88867a49688b3
col17:   44655829794c97c9899769a9d88959c69a98897da898a9a8aa969c9baa78c84a87b847564b878824
col18:   768891b7884aa76aac8bdaa788d77797b885c97899adbcabc977a8bd89e8aaca95c9d589ca897977
col19:   7699ba89956ba86c8776abad86b7dba7a8bba9aba48788ba779a8ad9b93a84c689aa8877ab97b7ab
col20:   b4657a586959a898887a9a4a89b5aa77958878b78b5a7c8ba995a5bab6b9d9876a8966b9876a8aa6
col21:   946967784797aa5c789b6cab8a9d986bbac8db8b9aadc89ab8a98b78ac8999b6a884866495b6a459
col22:   545778b8b6aa9b578a6a67d8d9ce6cc97766a7c969c9abbb8c8bbac96eb88aa9978af78a47a978a8
col23:   838a57aa69866c66a959dab89986bab7c26bba99a8c8ac8ba8cadb78cb9da9b4aab5789989489736
col24:   595776c768898969a687b9bc7738a9b8a48aa55a8a5b9acb897b9f9e888a969b98bbc9769967ba99
col25:   a9ab76a79a8a78cc897cbcac88679a7c9f65cbaad97dbbb2aaad78ce9a9c7bac867cc6abaa79a988
col26:   8aaaa9ba69ba978a8d8aeaabbc4cd79dcecbbe6ba9b7ba988bbdabbac889cc9daeacdb98a48bb746
col27:   88786eab9b6b7a99a89abcadbdad8777acb989bd9a8998da7e8b798ac8db979daaa9bbcba69d99a4
col28:   ca7789cdc9c9c57a79a79989a78bc7ccbdabc8ae96b9bcdd8fbcddbcebbeeb9aabc7bb9cba989687
col29:   cdac7c9b997b99ba989ae8ccbda7aedbbb7babb8999b9ec8db8989b9caee7db9acc8aaa98b9c9d89
col30:   978b876abcc987c9a7ec79cfa79b9cdbddae9acdbaac9daadbddbcf8fbedbc986eacad7b79b9dbbb
col31:   9b8bcbbabcaa65cfadba8dcab7ebbdc9dbbbb8ddecb9db99dcccb8cdc6ddac99beba6beba8b586a7
col32:   aa96bab8d69bb96dbccbabbfaa9babceadbefac87bbdbcc98fc8df9ffeaeeaacfaa48dee99d9caa6
col33:   bc9e998decaa7b8adddaca9a9e799bbe99a97acfd9cacdfcdaaeaa7bd9dadabecea999757699c6b9
col34:   a9a8b5d6a7d9a78dd89ae8ea8bbbccffda9cdbbbcbbdbbcbabdc8dbcccababaaf89dbbba87abe79c
col35:   bc9be9bad9acb9bbccf8deccd9b9dddd96aae8ddaed898ddeccebdbf8ccfdd8eb9a9b98aa798bfca
col36:   b7b9cca67badbddda9cbbd8dcaccceeeddedfcfbabccadb88aecfabdafebfdecbaa9ae8aa8a4ca58
col37:   aa87af9a9cadecdb99bdcac8aa99c99dddfdcccc8cfbfcbeb9e9ade9a9acfc9acbb8abcb8dbbf998
col38:   f89bbaffaab9ccbcebaaadb9caceedffbaaf99bffcbbcedb9abce8bc98fdbabccfba7c8ebbabdfa8
col39:   99de8ecb89bbd9bd99c999beaaaeb9e9ebed9c99eca96dbd7ebbab8ddcadcbbabebcabcbbce9d7f7
col40:   9b577bdc9d8dbaeb8ac9ad7c8abbcbdbeafcfcdadc9cddedfdcdbdbffacbbcdbbbdccaffce9cd8bb
col41:   9bbadd9bc8b9a889dc9ebc8be9dadcdddfdbabfcbceaceabda8dae7e89acafcacdcedcbc9ddbcb99
col42:   a9ac99cccaab9adc8fa9adbafaaacaffcbdcabdaeddbaf99bbcabecfc9accebddcbbe5d78fb5bbb5
col43:   cdb8c7dcc8dcdabf8bfb8fb9cddf8dbacdccadaabfcbeeacde9bfeddfdadfcddcaaabeca9b887bb8
col44:   b9bbc8aa8babdfe7daebdd9beddffebdfcebf8e8bdf8fa8dcdabcfefebcdbbddceadacbeacd89ab8
col45:   ee5d7db99aa8cbaabecbbdbacabbadcdccfcabcaed9facacbfaddbbbce9bf9afce9ecab7b7c99bab
col46:   d7baf9d8adcbebdcaccabdddecbaeaabdcfcbae99cbcdcbbcafeedea8c9ddbbfccccdbcbdd49a8aa
col47:   f9adbb9acd9d98aceddfacaacaddeddebdcbcccdadbffecebaabadd9adefb9cbbae9ebcde578dcb6
col48:   fba8caaccec8b7b8dcdadac88acacbdcbebcfddd6edbaccdbfcedcdddf6deeeccdafacad898dba9b
col49:   b6a9dd9abf9ccbbbadacaecbabecfffebb8fbfc9dbfdfdaedbbcdaafdaadcadfbcb8aedc78aab9b9
col50:   acb9aad979dabdc8f69ccabdcabbdfddaedeccdbfccf8c9cff8be9aedddfdebb9ccaccafa9dcc9eb
col51:   a5aa9a6dbba99998b9ace8cafbbb8bdabecc7b89d8baaafccf9c77dcba977ad98ad788bb7879abb5
ROC:	 BPix_BpO_SEC2_LYR3_LDR3F_MOD3_ROC7
col00:   817583a5a6a575796b8647729845b537878979959787c8c65d6e858ac7b8d785aa6da5a287a7766d
col01:   9d78a9a65b4b49a653b6b79ba7ba7db7cb98898a99bb9d96ac725bcdaa9abb9aacac8bdbb72aa6b8
col02:   735d988689977887a888778987b98b6bbcb6cc6ab7bcda896c979ab9dcab9bcb6a8ab8a88998988a
col03:   843937758976a6bc996b86adc7989c8cbaceac37a7ba8a7bafcc9aa96977a9949ec8c88ecb78bbb9
col04:   895a77a986ba769b7d994b9b88beb8b9fa6a6998a8eb9bf99fadc8ebcf8adc7d8a887aabd97acc8b
col05:   766358b397ad56aa8a65789999a9b8997caaa79cc9bcaaf98abb5b8b79a99b9a66db8abd8949ab3a
col06:   658697696ab878bc95aa6725aa99659fdca9cced6aaabcc89dbe9caceeacfbcc9cbade7b5ca88a3b
col07:   b7a87d8c66b68a888b4b8766c7b8b98ddbbcabccac999b9cccbabd8abbad887ccc8a67aca9b8ccb9
col08:   a9489a75b8885566899ca99cea9b99ba869ccbacb99f997bea99c9aabbcdbbb8879cba6eed896a96
col09:   7a989448b8b87aa85696bc7c55c94779ad9ac99cac9cabc88cdbddbccce98b9cbaccb8c8bbbb5c88
col10:   959363a66988479788b778aab9bab6a85ebd9fbbebad5f8af9869988ad98cbabffdabca88ad7c793
col11:   5918485785b34898776fa8cb8db98cbccb9cde6a8cb99ab899a99de8ababa9d6abc9e9979894a686
col12:   78b9977a69186c8a79ab9ba8973b8ab7aaacbb99edca8ba86adba9bfdacffc7baab9b87cbc68aeaa
col13:   5a62c4aa39d3397c793969ba8ca7da56d98a969adcd98f9ab89c88eedbcccdca9b9abbf8587999ba
col14:   865858a3888667777b7bac98cc9baea5fabdceca8bcbbbebabc6bbb9cc8bc89eedfcacbbb729b786
col15:   4879495879587988abd8c993a6bf9a9b8ac7a88e7b8a9badb69acd6bacc6f588b6b548acab68485d
col16:   88976b9658648a57c6cb9b98ba998b9f9fec7bb9d6af9ffbd959dac9caaa598cdf93dfe7b996aac7
col17:   688d8772949796ab3cb688ada989b78ba97caaab98d6aabed7a5eb6cad8ac8c9675b889a697b68b5
col18:   27558a6a7859486777828b59974798a78575888658a9a7cfc9a7cadba68babd67c6a6c968daa6875
col19:   7b68945878ac877c7779bacbc87ab88eadbbbfb89aaac6b7baccaac9aedcbaa9bfa6a99989ab49b5
col20:   3a8749b859b859b89aaa8abd868579cccb7daaac9b7896d77b999979bbc7dabbac9a5d9ae9aa9ba1
col21:   6666679aa5bfabeabaa8983aaba9bac8d9c9adbc8a86febbd4baaf8aaf8b99cbca7cac8876699c48
col22:   a598745893888c27888589a7b8978a9997b987cc7e8bccbbe98c5888dc99aa9c878ecb87796d9929
col23:   9565c3657ba88c99c86587859ac9dbc9e9a8be7b97997a7ae8f9b298aa5c9997a7697579858955b6
col24:   6857694b989a6a45b789888b7b9c7997ad8badba96998cdadf67afcb9edabeed8e98989bb6868bb8
col25:   7a879a98796b764b999d869ab8aac8c5cebaa89c9f99c9c9dc97b9bcae8778a9eda68b8599b9b89c
col26:   e957a89b487b98599966dba999cdacbcbedbcbbbcccbaeaaecaacabb9ddfdbc8dba8798bbcabd8e8
col27:   2cab7a8968897798b17a98ad9b98cbffa97c88a99f9abeccb9ddfb8ccb7fadd4da2dab76ddabb79c
col28:   675c79b7876858989997caeaca96aebdcceca8ebfc999d96faebbcb98bd98babeab9ca87aaab99c8
col29:   7b697c8b886bcdae8ac9a8bb99bccefb7abab97cdcadccee79cfdcfef9f99c7c7f9eebccfebe986c
col30:   7866798b856b9be5a9b9478aedffbbdcfc8fc98ff9b9cbbd8dcb8ad8b7dedceeea9ab9698db47caf
col31:   6747a89c8999f696b8a8a96b9caabb9a9de9bddcec9ddddbaa8ecbefe96ace9a8abbeadee9abcda6
col32:   ba98bb7bb87bc869bbabbaafafcebbcdcacbacdbbabcdabad9cbadcfcedc9db87cadb7aaacea997d
col33:   3e7a9c7c6b65567d8c88dbca9baaa5defcabdbc7cca9bfc9decfbdeca9b9dcceacdcfba8b7a9bb7a
col34:   9a46989b9a4ab7a95cad9aaabcaedbdceceb9cb9dccfdbedcced9cc9bfcfadbd9edabacd7aa989b6
col35:   7bea9c9a9c98b99698bbc98b8bebeeacd8fc9abdf9ee6cccac9bb897cface6c7a77f8bacad98c9aa
col36:   be9bc9d99b64998a9997a8d9b8a8db8daca8baaffabeb9bde9cffeccccffacdbb9a9dcda88b88b9a
col37:   ab79568e879a7bdbba8c9899cc9d6d9ffe9deb9ffdca9fdeedc8999ecbd9cada78de7f94a87abe6a
col38:   8adcbdc9f8aba7a7eaa9dfacceadfbfccbcebdc9ccbeca6eed8fc8abdeabaffcbccebafda89dbba7
col39:   987c898a8b89b79ddab5ac88d6abb9b9bfbeccfbea6baadb9caadcdd99cffeba99cbbcacd4aabcbb
col40:   b5b7a79858b979aca9bbcaaacbafe8cdf9aadbbeecbddfbfdfccaccefaffabdcffaafe997dfbb6ab
col41:   a8985ebb8dba89d8fcbb77dabc8dba5dba8fd9ddccbefcb97bccabababafadab5fbe88ea98bdbbf3
col42:   a9badd8a7ad9c99b78ba7caadb7d6dd9bcfcbeafdcdceadccebbebc87bbcddbaabcccbacbabfaca5
col43:   9bc87aabd9a9a862aacaca8bdfc99c879d9ceccbeebdcd8fcdfadca8bc8fb8abc8db7c89cbeabec8
col44:   9da85b9b776ac868c7b9adbdafaedda9adbbcdcdfdaecbaaec9acb8acadfdaa8e6dd89da9ac8ca6d
col45:   a96a897789caa9cabf69dcbfbbb8e7ccaac9faa8dd9d9cba98af9fcccaecbecaaa979c99d8ccda9b
col46:   dbaafa7cc87a49b9a7b8da9daaccfccefbcdbefb8d9aadbfef6becdfadb95c9dafcd8b9cf7998f96
col47:   8a7c6bc9baaa87c7becb7959aad79cfaca9ae9b8ac8bbcecbcdbcdcbf9dfadba9dbb9ff9aca9baad
col48:   a55bb8b87a86b9bca8ba9aab87bcadbbdd99cb8bcccaccfccdcbbceddd8bb99fecc9e9acbbdc9e77
col49:   6c9cbb8d89a98dbacab8a7baebaaa8eecf98f9aacba79c68c89dbdacdcffadbadfcacd6add69ba9d
col50:   6b787dd9a8b99abbf9b8d9bdc9b8b8edc8fea87b9fbecfdc7bde9baacbc9ebfa98a7dc7da9cbd8fb
col51:   644b97aca96868aab985ab7988a63ccc97cab9a6887869b5cfc799b89bc96ac99988c69e7e858b7b
ROC:	 BPix_BpO_SEC2_LYR3_LDR3F_MOD3_ROC8
col00:   946a8497489a78897478957b89987b8438a6b4497ca58a6896ea9a6564b685649769896a75816985
col01:   38657aaaba96a795c99d79baa86597b95ad6a788cb8776868eb26a978c7d3aa855a876bb6487b626
col02:   a9c75ab9c9da9b86ba899bfb8d9ab69baa7b89556bc6879a887964c9399d94ac79a65a588893b824
col03:   ca596ecb9868578babda8cbb7a678a888688bca77698bbdbd988b968b9ed789c5979988ab7398667
col04:   796a7acbaba6b995697ebacaaab999aa89977767dbbab989889924888964aa6bb7d76b7666882465
col05:   6ac8c3ab9d9679978cab9b95aba88a75ab58b7c98a4874e86a7783987ad795b676636b7b6575a783
col06:   5a6bc8971aa7889a9c7aba7978c9d99787a86b66a78779a7c5297ad997789a6a9a89963484555a68
col07:   89a98c9cbaca9444b97979158988c9aaaa8cbab7b8bbb76887989c7975b8a95b588586a84a9b8876
col08:   89c868968ac647768ab879b998aa878baa8a7d6a889a89aa8c7da46ba76baaab69d8798588777a59
col09:   8697958a868678cb77b89668e89c6b9ba7d886a6bb88b758bd686469b45776573775b5a65a74a455
col10:   a9dde96998b6ad868b8aa7a9a9d39e7a598caa99836aa7aba59c79a6c7999a699aa57977bc45b376
col11:   7aaba6bbdb58ab6b79994975879889678448bc4c9c67b68967a696a8797b878986786a185788a795
col12:   d6866897bba599b7adcedaa59ab8887eda5dbb457b99799897aa788457995a5b888796899a963477
col13:   66ba899a7a9387bac78bb96ccaa38abc7a874ab9866c57b9999bb75676abb949a78d988859575964
col14:   97c9ba6d36b58888b89ba989beb5a6a6bebbca586ac9999bbb6cb597ac89679a7884369c6abb8738
col15:   d5a7ac88876568a78588b7bbbcaa86b988787a98ac679aab99a9b79739868cb653a856b889b49983
col16:   a8a7dca7b7958696a98caa84e8b89a98a9c8abd9989cb6b8797c69857cb6a774ec655879477756c7
col17:   a8a8a793a95b78a98877d85988b99b7f688bdda9bf788abaa9857a7769799787848da5835878a836
col18:   78a4b9bb676bab8a89c9bab74a7b9a89666949786c988757b7a67b86799aa8b89868846a77844546
col19:   7879fa74cb9b9baca9b86bd9648dca7ccbbba6796ab839a3597b7798ad96c68e65b6d785a8637795
col20:   85a797b76aaaa8b7abb9cdcba5a7c9af9b9a6b999a9da9ba88b788b8a598665b74bb7797698b867a
col21:   39ab9889bf4a99c868c5dc779a47a8a9586d7b88756a6a9bd5a5b9a78897987789d6598855338854
col22:   8c8686cec8672a3aba88a98adac7a77cbf8c9a9778bd8a9ad998b4aa7bb663a9693c577981669285
col23:   8479b77666a377a769aa8bc6a5b89a68579aaa99588abba5d79aa99b7ab89675a889976989767988
col24:   d99a58497889989877767a8b8baa95b5c5cb98a7795b87a76a88889448b6c95a3389b25633667385
col25:   987b676a7996b9aaa7aab766ac9ba98a86b89c7dce896c69ac9cb5a9b6aa779a58769882693c8443
col26:   c98cbd799988aeb968cb9aa8bcdbaaae8b7b9d7a99b69bc8d9faa9d789a8db688a84979aa79a9b76
col27:   49a7859839aa7cda98bd9cdbca98adca9a9eac8995c98a6c9ba89aa78a8c979588586a67c865b666
col28:   87b7b9979a98c6b55cc9777c8ddbbabeebe8a9b97a8cbaf8b8c7a988a9ada9776dc98ac36b8aae8b
col29:   89ba95b9a59978ac9cbabcdb9b9adbb68c9ab8cd695ac8ac9c898cabbb7875778c958666b3266b9b
col30:   568a7deb9ad8faa5a8db69abb9be3be999bcbea99d8aceda9a8caa998aaa899a998b8a3767559aad
col31:   b8ea7b98a8aa99eddc99abbbbfbbcccfc9d8da8a6fbf6bea99bbc74ab98889aba77a985588aa8766
col32:   aac6c3ba886ca9ddafb9abebcb7cfa8d596bcd7bea8b8fa8db9ac7caa7c98b859ca77b98b49c9679
col33:   8679ea99e89b66abbca93a9aa9abbe798bd8dc6ec9afabeb68b989576c999a99f62b66a1a565898b
col34:   cb98bcdaadbbaccfcbeabe9adfb8b9b8ba99aadccdc986a5abd88bb7dcb9ca995bb88ba56785cca5
col35:   a9aaacc5ceaaf7cbbaca8cc8fad8c9ababc8ae69abebbbdabc699c85ca9aada9b7dbcc698cb7c7c5
col36:   668a899c7acdca7da85ebeaa7cabbbbeb7f9b79dfba98698c79dbcd6baa596b68abd87c6ba9a7584
col37:   db8a8d9cd8cbcbaddc89cbffbcabbdec9cbaec9ced99babb7adeb8b5cf879a8d96b85cba7a967844
col38:   b9ba8bb7aaba8b6aafcbb9ebccaaec8bbab8b9e9dcbbdccaaab9ddc8c8e3caabd6b6a8a6aca988c2
col39:   aa29b9eb7c988b98bf799acc5bb98bb8a8ba88ebccbceaebad9ad8ba9dcabb776aa87c86b868caa4
col40:   ba6aa88c98ba8c899caac9cc779dbcc9aacee99c9d79b9c7bdcc9a98cb6abd8977985a9aa8af7828
col41:   ba67ba9bd699a89fbdd8caec9cb9ba7eeafedfb9ede9ad89aaf9a9cc7e9ca9b96ba5dda89c9ca891
col42:   c9896beeddadb8a8daa9decba8ac9e9dbdbe79a9e9f9ac8e9887fdca85779da6a8aad6b96cb99a69
col43:   c8b89adb7bebdaaada9ac9ceabdcb9cf77aa95da9f9cd7afcbb7c939ab87c9c7a67a989886897865
col44:   ab8a97cada96cbfd8beaebabd9abdfeebecfe9aeaabfe9bab9ac9baa8bd9477a9989abba84c9a696
col45:   b7a7baaa99ca6aabba7bacb8aac9dc99e9a8ac99baba6a7cebb8faca75587ac5baa95934a857a78b
col46:   9898daebcff6e9d8a9adae89db8a7a888baa7d6ab8d889b9a9a799b5ae7bc6dabbbc9c85b99879e7
col47:   c85adabcb9a9cbbc97ada8abcbbbfa7abcbccb8ddcdacc6becbab889db889cca9a9b9a76668a8c86
col48:   9b87cefbcb59dccb89899b8abcfad99aabb9cdad7cc6aac9c78b9d2a527b77aa88798ac789638865
col49:   7b86b9ed2acb6cacc889a99aaacd6cb89c8dcbb6dcccc6b6bdbaabaa9bbaa7bb68ca6969969969a5
col50:   d8a89a9a1ac8978698a8b99aa98aa9b69b8bed97b7ead8d7d8abac77a99b89edb8419ba82c847768
col51:   ba98a8a997a945a6b589899d85b7a5c96a776a97a488769b8573a887679778a7765743a554347529
ROC:	 BPix_BpO_SEC2_LYR3_LDR3F_MOD3_ROC9
col00:   a75988986b472873c76a65567a98471a773789a956885a65986747a49873515598214a5638382485
col01:   c845773779a86b78697975aa4b887a8799b66879b86b7a38979aa88b463815777a396867a8434663
col02:   c746e5ba6255e887779b798cb85989c7a77a6b7abba7c99c9ca985b2bb546aa7a763577a93681754
col03:   487874aa9979679a8a9a8988854bb69b8ca8869958c875a887967989684a89898989b76a66785873
col04:   888bb6879998b6896b98daac8868898ab99c98a7789c87959b95359889cca9aa63857949367a7762
col05:   65b7797a898a75955486c88b9c7aca9575758b5b5a8875a859455777a788852a7aa69947897575b5
col06:   78587b5a9994ab7b789b9c8966cb7b9aa9c78596a79a596b7bca9a7a6b95898ba757896bc666249a
col07:   ab8998b7b6a8a74a87a5979a89abb6695699a8aa4d9a8dba4895b8abe7c99565797a5247b5673765
col08:   8a75789b77c977a9b7591594b99a7b88dac9c74899c897a986a989a964878bbb637b675889688556
col09:   b697a65a78797579b797b67a9b96c7b5b5ab9cbad9778998a9daaacba98a9ba79aa3585f78465653
col10:   a7aba9d8779aa96768bb7bb88759a785986b5a798a799987956d8b6878a9b6a97a9aa5866556a766
col11:   a868b786799ca389ab7a68da5b8568bb8b67ba57cc6c9997b755b776a97a5dab79cb46a3583827b5
col12:   55969a977aa9c799ab6956959695a8aaa8aa6c7ab66a989da7b848a795ab8b987ba72859aa558866
col13:   996a67896ca59a9b7949b96989968acb68778ab8c9b8d785889b89989a786a7cab897478856a9694
col14:   a886a858ca8c897898b9a787998aa88a687799c98aa6cccaaa69a5b768bb9a87b8548d9965942779
col15:   697987788da98bbb688aca8a78797ac77debcbc79bb869c5b58c6799a948866ba7ba857654547776
col16:   ab87a9986b7b77bc8b7c778cb9a7d899b78b789b959b99ac9bba7cdb79d888865bbb9397666765a8
col17:   c989895ba759a8a866696a94987a5aa99789e969a68869c89a89a7786989952a949a35b563767523
col18:   8667c799967b9768b89755d974bab7bbbb876ac8669bc698aac6889b7a9c6b44a68679255b85776a
col19:   8b8b6a9598cc7695cb8b986b998a6b9cbab9a996aa9979b887a37a6a7b986b85a516648959599a64
col20:   6a4ad86a9a8e79979c99db8ac9d79bcda69ccd6b899a68a979898ac59ab6cba7786c776756369836
col21:   779ba9a6a879caa799e96978cd6dab6ca86a8cca6ab6a8c9e7da7b7aa978977a5966874a682aa954
col22:   b84ab596b6798aa58866c7b8b87a9bca9b9798eb799a9a8c7999465cac897b957878997b97749735
col23:   a6865b9b67a79d9986ac7958acb8886475948beb97cabd7cbbac5c8899b77a8988ab577367463433
col24:   868b69a977aabcae9977979b6aabac7aa995aaa898bbca86a9cc68678879de7978896b8675b2ab72
col25:   a9988a99bb99aa99de9bb87986cbba7db64a78c8ac6dbb799aaac9975ac4aac9ac6b68c999964699
col26:   9c69bb6a99decd89ba8ac9d6accdadcacddb8bdbf889f5cdb96abec89b6aabbc4abb8acb97ab9799
col27:   985a999ac957ad59bb7db6588aa89bcba8af8dd6bd8bdbbceaad8aa9adaaab8b8883795a9cc88946
col28:   aaa6acec7ebbddaba9acde99d87b97669bbebccc9e8d9bcc8998abbbaa8d98ba55699ca96b8a9867
col29:   9ba5cb9ccaaca698af98cabcacdabbdeaa7de9dbb7bcbbcb8eabaa8a8bb989db994aa87a868697a3
col30:   badcaacb8dacababbbdab99bbfcbbcac8cbbbfdececcb9c8ecaacacb997aba9bab6796c76a7bb784
col31:   ac9bcddad9a7abfaecedfcbbdcddefbacadadbda9dccbdc7dd9ca88efc89bbb9adfb6d9765b54a47
col32:   8baadbb99add9eccabd9dbcfdaba9d8bcdafcba9cdacfcbccebbaabbab9dd65cbdca79be98bcc896
col33:   c9abcf8c6aaaae89cebc98a8cadb6abdcb9998ddbdaaaebbadd797a8f9b8cbad9cb86dab9b8784a4
col34:   ca9bdbdbccc7eccccaeca8dbecacaddefdecfdcbabbcbbbdeab9bac5bbddaebabbec8a9e8949aca7
col35:   bcaaccab6adefcbaab7d8ec69eb9defcd6abaeddcccacbdeacac7cbbcaa9abbd7b96a9bc997ba787
col36:   cb98bdafb7879abef8ac8cab9cfaeddbefd7dc8988d8ecab96eebbacbcceba885a978abaa78a8c93
col37:   8fbb9beb8dbbbbbc9dcc8b799bb9edabcad8d9daa8acc8cabeebd8fbac7cbabcab9cacaadb4c7b67
col38:   ebeea96ccda98dbbbdc99bddbdeaabcede9cbcedafeba95ddddcefcebb6bbecd98ccc6db9b967ae5
col39:   c9cbccdc8bcfcad8db9bbcfce9baddcc8bab89decbd9eedbfba9bab7d99aebadbc8bbd9da97669c5
col40:   ebdbb9cbbaabe7efeffcbf9eaac9ccbdabddbdfffa9fafbc9c8cdfae9fdb9cdbca97ebaec7bb7999
col41:   c9abcc9fbcef8ecbeeacabba9cebdccfbbcc9ddcdadccdeaad9cfdadacdac9ad8dcedd9b87ac6957
col42:   abcbb9fbdbcdfcabee8fad8becdbfa9a9abcbdccbbbdb9cdbdb7bfeeffeba5b7abda9c8b899ababc
col43:   bdcbceabbaaeceedffcb8fdfbcbfbbccfcdbecd7fcebcbfeccdfcaebefedddb8dabcbca6a8a4ffab
col44:   6bddeabb8bebed9baddbccdfbfd9dcdecaebdeabed7babd9dfeacddfca7e8dedbc9fd98ae8c5ad69
col45:   8fffb9cccbc7dddafaeebceddbc9dccccdecdb9e7fb9ecee8deddce6dcbf8a98e6ebb9bbadbb9ae5
col46:   cefbdbffbd9c9fbbfbeacfdfdaccdbfccdc6cbbcdebdbdfabd8b9cddbba89bacfcccbc9b99fceaa7
col47:   ca5bdaaffeed7dccabdedddbdedcbebcdfddcbadea9dd9bcccbbcbacecedbebdabfddbacc79bacc6
col48:   bebd8ebcbcdbb9dc7cfdfeabeddeed99fffcdbbb8fccaf99cabbdafcc7ffb7fddbd9ccbca4cb7b7b
col49:   eebdcedbccfabeecdcdcedfbdccecfebdb6fcce9eebcdffdfac99bfcff99deb69bcca8ca8adaabd8
col50:   bbceadecca7cd9bfcfeddeddcdcdabfdccbccefebaeeccf9afeeec8dfdbdcaeebdac8c7a6dba9fdb
col51:   ccbf8d8ab8cfe98dcebc8ce9c8bbfbc9b9daabeaab79b989c8cdbb8bccccbbcbb9878ba49aa8ad56
ROC:	 BPix_BpO_SEC2_LYR3_LDR3F_MOD3_ROC10
col00:   a797468ab676667688b696d9676aa787b58b688b98aa698869c88c66896766956a66587575656664
col01:   baa8499a89ad9987baaccc7b9baaa999e8a78aabb9d8dab92a68af87a76999985596723954396566
col02:   caa67b6a77bbb9bb9cabd9a9bab9bc959a99aacc89aa985c67888969aba83c7986868a6988638683
col03:   96a6bb9688a799aabc9b799aaa9dd9baab8a9a7977bb958a787a87a998586bc8738955772757a586
col04:   89d8a9ca99bb88a969c8d8bc779e7bcbba6ba86b9bb8b9a899c6cc67bacb58c558899687b33b4767
col05:   ad9b69b9ba69978aab8a789bc86a6869bc6baaaa9aaca6cac7ba759988958689a789787977686586
col06:   9886899989c9c8baa8c8ad87d9ab8d6dab4a6dd7d8887998acd568baa8477a7766c76b7869151541
col07:   96e6a8b5bda6ca87ac78ba8986aac8f98e5b99ee9ba95c7798b7bb99b9a767a99676ab77871b4552
col08:   abc882798989975889c8a797daa9b9a97a8b9ab8ca898d9ea67b678b9b9768a95846e86974948865
col09:   6b96d988bb9aaab79c88998dadabb5acbccd9ac998aa888aa7ac936795bb8a77aba93656ba634758
col10:   8ad76979998ab6b8b5b6cac8ac9b8c9979b9bb8a8979bcaa988b8ac9a9bac87585aa6635c8794752
col11:   87699cb87dd9aab66ba98d8ec9b86a8ab8ce97a8ac98a8e9a888b3bab7d9aa987993794756457452
col12:   79868aa96a58caaaaa877a7aaad7eb9ba9a7ca8989999b685a79a6aa9a9959748a968c8977595469
col13:   9796abca58799bd89a997bbbb6b8b8bca8de9adacbbb5aaac779a469a6b93a576a96496998267715
col14:   a9967cb9799ba6b9ea7a9997eac9aaabdca8c9abeabcba9da99d999ba8bca8598736898738546585
col15:   9aa65796aa97786ba99bacdc67da7a787899babc98888787887b5bb9b5aa75da8286899b757564a1
col16:   8889aa5867a8b99cbbbbb7acc998bcb6bfaaa67ca99899786ca967aa86b97a757988639978686738
col17:   6ca9ba99a7bb9cca99be98a7e997aaade89b9acbc84d9b9b868877489696795577a7682182156521
col18:   95aca95794896b8a9a96a798879d9a7abbdc898bad9e8ba7b99956ab998bba58da69456855885743
col19:   bb88f99a668b7c9dd9b4e8ebbc8acba99aeab997a89ab99acbb98d6a7956b759867784b6a9777652
col20:   89a98989b482bcacac66cbacdddaaa8cb9695ca9589f9a8ba7aa8c97aa9b66b85a37685746653563
col21:   d789a9a779a787cbbabbb7ba6bcb79d8c798b39587ca87998aaaa9b67a8a6764a865267874328542
col22:   8967ba39744888a78b987ac98bdc8c99abbccc88ccabd7cc67ab879a69b8a58478299566656447a2
col23:   7a99ba59bad848c897cde9c895a9b8aa8a7aba989ccbbe6c88b9787a799aa6685658a81373416566
col24:   6a9b99b887b869eb8a9b97ba9c978a8a7ac8ce88499e8c9a778aa88a99a9986a3787a69555532393
col25:   bbb95c96bc7a9ae68a78aba8cda9ab9e9c89995cbb76c69cec98a969676a8f697499736873451951
col26:   dab8cbdc9cadadd8a8bab9f9abfbc9cb86be9c99ebab9998688e7aa9ae9b7a89a679568aa4683416
col27:   ca6b79cbb6bbdfbcbebb8aba99fc9bbab8b9bbc9abdbccacd9b69587788a87675736b47a78472552
col28:   a98aba6b7add9bdeaaf8ca5ddcd99cb9b97ecdad99babb875cccbbae9bda887bcd67977887569723
col29:   9addcacaaf8d9d8eabb9aecdfcddca9aabeac98aa9db8deabcd6e88757bbaa999789ca7753379558
col30:   d6ccacada85ab7c99ebeaabc9acbaa97d8d9eea9be87ad99b86cc7daca79a6996a6898579875984a
col31:   abddbba9eaccecaabcbaafecdbcadd9fda9ddac99cbebc7afca38baa7bb9aba64b7c457994675935
col32:   9aaaba8ccaac79addb8ac8ccddabbbbd9d8cb8dfaaa9ddc88a88bb8dcbde94b8a8a8787769cc6976
col33:   7dbaddfccc6bdd7bdd9cd8eaacaaccc78bdbabbb9d95babba7c9aa899cb8caa876527773b766a947
col34:   abb9eedcec98abdabbde6ad6badecacc8afecdadfdbaebaab9b8be9ba8c88cc99986c8458861a745
col35:   aba8ed8bd7abb9cafbb9a9aab9aeac899dbe9ddadd7a8ca9baa6eabb8988b9a78b67e66594b77665
col36:   cbecb99b9ffdbdbeaabd99bbfaaddcacadedaccecaa7aeb8be99a7a9bccbcc89da57796966386856
col37:   fcbbbabad9bc8decba6ea8e8ebabbbbabeccac89ecfcabcce9bab8d8dc8c9a74ca5ba55877285554
col38:   cced7bbccdabfbffd99cd9bffbdbbb7ca9bbcdebccadcdfbda8c8bacd7879787886789d7b7a95841
col39:   d7dbcf99a9dbb6abc8b9bdfbdeb8bdaacdb7ee7abbfabce8bc78d9baa979ba788bb6677996572676
col40:   dcadccb6dcbcf9aad9cbbaacd7bdad9bbeaeca9eebcaafcebd3c8a7c789797a8d588576a45852476
col41:   efb99fbabbcbbcabd9cec8bbacadbcddadcac9adc9ca8eccbd7ca9b7dbc98979bc8c36b6a5b774a2
col42:   8bdedcdb9df7cdd98abbecbfabd659cbcbbbcaaddedc9e8eeda8d9cbcb9ca57d6966a97684586586
col43:   febabb9ebcfa9c9abcabbddcbecfbd8d9f98ebe8cc9c9c9cd8cbb789ab9c7cba9869777698596353
col44:   c9bfcbbe8cdb8bbb869ddcdb5acceaaccbbeba9cd9dedd8c9a9fbb99bb8caa98ab99795779855588
col45:   bbbdecac9eccdb8edafcdeaacfafbacbcbe98bfa8a97fb79f8c88977d9b6abdc9647786896946678
col46:   caacebbaedfabcccbcc9cbaa89bccaaaa8d9efaccda9dac968a989bccbb9c87c7987a88b777a5832
col47:   a9bcccabbfceaecdddcb7b8dbfdcac8eecb8dcca8bb97b7eb99c9a8dc798a689968c58a9a3644563
col48:   dca9dff9cbabbcdccadbbeccaacbbcfdbed8cadcc9fba8acbed79bd67a999a4b898584d978b66861
col49:   babdabdacb9bbebbccaeaccbddecbbde89ddbabbe8bdacb9bccb9acbcadd8b7ab8c5677767855836
col50:   c7dcecc8cf99beadd87cbb9ddcccbdebdcceaaadeaecb89daabc9ba889ad769868aaa98639687788
col51:   b8b5b7e9a7acbb7a7b6ba8b8ba99aaabd9c7b8c7c7bdabacc7bca796979b5c8b6876866347816464
ROC:	 BPix_BpO_SEC2_LYR3_LDR3F_MOD3_ROC11
col00:   17258133571563a154877a3676763a5a6866b8862bcb87a77b993579587689b869448641aa6457a7
col01:   551554565b845a1885a968987648685a8c9b99a58b993ca6b678b5b86a6f9bc61785b59888897868
col02:   819371651b33735465a567686b44a94a96a9b68a8b9757c88dbd5885965a5aaa6866c658499875c7
col03:   8a157758669578678a967a85d3aa98c7ba944cd7e788b889a65c47869aa8bd899828695378aa5859
col04:   72867479238457b95b691ba97b56bc898a8778bb39a576b968aa5a879b8a879bc9a9476794792779
col05:   56346161943798675b27a9abba991985e49b6b73a9896dbc5b584a9b89839f888c746857a478a676
col06:   7528657a7648186a79757688564baa5a44a87199986a8d875866988a6b9a77af797aba8a97865194
col07:   657838357779789a737b278935d59c69c7997bcc9987b4a86c9c5a9aa598878dc864ca6a9b7b6b85
col08:   481a34188785767793488a557747a986589868b488695e4876a8e7a7bb6aab99bd56aa67ac648765
col09:   5987427351c54578643cb989b994a7939b1a9a48c57c77ac976a579aba9aa76ab8668897a966b597
col10:   44a34613776448849358a9b667c94467957a89a859c9b85c976a7689ccb7a8aac8c7697bd74d6574
col11:   7b7876b49564b7457947b878894a7b67a157d6c696894b989babba95b8a6bd8abc78ab7873ab8958
col12:   555888a6846858769a4a7a76a6a779cab95ec4625768da6cc8b85bbdba7989a898adb88465c7b297
col13:   967a5568891958c6aaa44b88597aa75779db677cb9e9abbb2ba797ca8cf758bb9898cc8758786887
col14:   7416b5359597a5b45989497bc568a99eb7ba689679869bcbc689ca68b6567b8d7dc7c98a8a99c8b8
col15:   7554a9a76847ab677a5aa9778b6899b77ababac7a679865aba88a8a186d9b7528daaaa8668754266
col16:   874677ab879375677a55a77789a89a8899679a8cc7ba8c7c6b77ba8d6aa9d8a5a5ba876bb7673a9b
col17:   4768b3a5b46642753b78679a77c8a77b69b7d7b695498b87968a9989aa7997c38b576859c9398a76
col18:   56762557984676b77396a7ac86677a469899ca9d97977b4a79adc79cb949aac7348aacc787885495
col19:   755567aa88cb7869d59757ba7ca477778b79cbaa8aa89869a887b56ba987da6dba8968a6c8a85859
col20:   976724b75754987235599388787ac67c86654cab5ab9799bab95aa8bca887abc986c65ac89c98495
col21:   87544777549141686866aa657b69877a8a9d986ad859676bb5d7a99898ac79597d77a698654a9984
col22:   75281469a56656a94987b9678b778ca9787c95ad7ebb788b95e984a694cc66965c59a687b65445b4
col23:   48737d66551859a4aa69a647aa5b68768c889a745a27843b8473798b98b6a7b9b9a677565a5872c7
col24:   a369397687616d6275959966c989bb58bca858b9c99d98968a9c96896679ba6d9879afda6b446625
col25:   a864886a768a451ba7e637cbba5a95ba56879a7997868e997ddac5c8a8a99a77ab667a876f965e67
col26:   a796867aac6e9747c89b898dc7b9bbbd98efc7aaeffe6dabacd8996cab87cbdb88ba369a99ac7a77
col27:   5756987688bb8a69ba99a9da6bbc66c9bab69b8ca98d9acbc8ca8abbe7978c568a46596885abc7a9
col28:   b79aa85abd68a57a9b7898bad86a8db6c88cce9ecccbcccd9bcda89b9bbba6ccf8a87bdab8768b6a
col29:   3c665c88e7378e89967aeeca9a9d998bcfdc7fcba69699fde8dcda9dedd7bab6aa6ad883ca948796
col30:   8888887ba9a7698fba9a78bcfabae6b7dd6ccac8aedcbd86bbcabb9aeadace98ceaf6ac7686988c9
col31:   4789695cbb8984edbb8adbc959e7addcbeeaca9ebebb98c9b96dcb8bbafb89eeacaac98bc9c7968c
col32:   8649a589a8969abcaa9c8698999ecbbaa894a7ccbaadfdca8eb6ccb9e8daa9cc88a996cfca9ccea5
col33:   6a79b899a96999aabb8aaed9a67afc9f7aca9268f7cdb8cb98caddc9b9d9aad6a96add9c968b9b98
col34:   998567998b987b8daaa8d9e5b7ccc99bcb9afbd8eecc6869c9baad8bfc769c9df9ad8fd8879c8b9c
col35:   b59aa99688acba6aa798ccb99bbacabebbaf9ccfcab5b8c9bdca8eebd9dfa7ecd47eabb8e69aa586
col36:   b8c5889db4a9caab984dccbbc9c8aedea899ba999ddcc9cbcdc9e8a9ac79d9bc989aa88cc875989c
col37:   d5ab9a8a8acd89f9acaadeebad9fcbedad9b8cfbcbbafeaaa8aca7c9dcaddbda7baf86a9c8975e78
col38:   7c7abf9dba9aaa9abb7e8bafc8beebdcc9efffda6adbc7af9df8fabcfaafdfcae8d79abd69ba9a89
col39:   d5a659caaabb678dbcab89feb9ddbbefd9dbb99fabbad98ea99a88cbca98cbbc8bbdaa9e85b9b99a
col40:   dcdd9bcbcccad956dfbaca7b98aead8d999bccaf9cbc7fabdbeeeecaa99badfdcecbabc7a9ac6785
col41:   cb6b9d35c9ce58bba8abbfcbcd9abca8fbccbeac9d85ddcc9abdaeafde99bbcc79ddcdcac97d8986
col42:   a9bac9c98c8b599c9bf689dbb9a6fecdebddacacbfdd9fcf9cadcf8dddcc9bbd9c9e6abb86acbbb6
col43:   c8699da887ccbbbc98cfb8ddecdddfabbb9bcbcfadebbbdfcdfe97a8cad8ac9afade9db84ba3eb84
col44:   a877ba7888b9a8cc7becacdc9ca97afedabf97dcffbfdbaefdacfdcc9afdedfbca9a89d93aabb859
col45:   9aaaba8b8ea9adac39efbabccba8ffe9aaccabfc7cfbbdaedeced7cadadbcea6fc9c8e8c797a9ab9
col46:   6e8a6a9ada98bf9f97bcabe9a8beef9f9ca9b8bdfda8fbbb8eaa9de9d7abfdbfc9babcac4cacbd98
col47:   b98489a77857acd998f88c99caccfcdcbeeeb7a889bbc9ddfedacdc5ab8deccaada99cb89ae8aa66
col48:   c7959acbabacd9cbbcc9ebcb88bdcdaacfbedaeb98c9defceefefde7c899badb9c9e9fac78e88eb5
col49:   7ebafeb6989c9bfc98aabcaa7ebcdbbaed9cdcebdeddab6fc9c7ea99a7cddbf99c9c97bece8aabb7
col50:   98b6c9db9a9bbaffc9aaabe9debcfeccccbddacfecccebd89feb9caedcccca95addb8ca8a98aa895
col51:   57876aa6b8babb5548987bfb9caa828c8a7baeaa9cbadb9c89dabba8b2a9aaa9ac4d9ba798a82378
ROC:	 BPix_BpO_SEC2_LYR3_LDR3F_MOD3_ROC12
col00:   385634114989253a72544661674b8748877c675856b877155a4878b8794a3cb78867545786699782
col01:   688886885884498539a768a877e84ba45876769786778799bb86857a9a9b6877c8a9a77678699898
col02:   64827645837455687b8a748a7878588a8c678aa97788958767c87bb9bab79989a698985288a97967
col03:   335a53a837645a69a57964a496aba9a8464987b8b6a986d5b89859b88a87b8992c99b6859c769476
col04:   56357377b8666897569a7a5879bb9b5ba68887c96b76789b6a77a8c998b7b9cd8c86859457879493
col05:   475735645886454964469a69658cc8a9786b766667c79d9956ba98ea645daa96ab7588b8859598a7
col06:   75967a644316894667482669876348d88868979ca795958999a8a7b8ab99b95b47857c9599b7a6a8
col07:   9964248887795779797896b7a866798c9d8797785a98b8a779a8cbac7b7c5c5b85aac7846ba589a6
col08:   934ab74966b5886a887795396a999648975bab7b899aa6b65879b568ad8896996c6bd99a48847894
col09:   95477c677666b78577a776b9698b8bac5776d78a3a8ab878a7c99bbba97797a69a98677ca9677889
col10:   876787568465279966a89a599976999b78a76a598a9aa99ba78babc9b8c878c89c89c98858898776
col11:   a63977855855bb684bab587899a97aa797c9c886866cb989ba7a94bacacbbb7887769994a9999aa9
col12:   5888598579867887b9b888768ad8256c7bbcdabd467bbaab49638b79ca898a6a7c8a6b7976baab77
col13:   776a4776895535486797a48a9a9ba6dbb9799b45abc9ba87b7b9999a8a9bb6db96637f2b72b55556
col14:   946555882874669ba86678645bb88a477976a97986758759a997a8699898bbb87d86e65728b8976a
col15:   87a8695a6479939ca888947988b797c54988788a9c89a8aac9596887bc998898a86aa985b6b9a65b
col16:   698675756464b9a767b7ca6789b5aa8c9977b9c998a39dbaaa7a98c9ebaa8bb78a94acdb99979889
col17:   3427a768759b9688ab664ab6697579a6b6b998d9aab948acaacab9965d8d89c897599b7a886593aa
col18:   96576544994775635a968858a5c87768b9a7ab7ba6aaf86ca8a6ba58ab89aa678a8699489a869765
col19:   74c7697778857929b885957c6b88baaa698c8a99a98c7a7b5ac7b6a9b89b866767aabab9c99a8a46
col20:   7997a4786579a787a76887b97368a889b998bbe747aba997baa77796c979cbcbc7aa76a897ba9a68
col21:   766d95884517c968867986568a8a97d6977c8ba78889ab9b87c784578fa9a69a7698a79469788776
col22:   6769979765687913876bb9979b3765b9bb9c996598baa9d8a6ca78aa6999b788adab88759a9b9548
col23:   a974a855646788855b8647ababda98a7788a7a6ad898b89a69699a8bb799dac3589587b88768a6c6
col24:   b98a87639aa5867c86887dca8468789aacb968c89ba5a88bb89acac78d9cbb8a9c6a575577669889
col25:   58565a99a997649d88996a378c958bc9cb59dacbbaa6ca87cb67eaaa68bce8b89aa89ba8852b5a69
col26:   96995a999b3889898d99da997cca8c8fbd9cd99bbb87edaba7abc9f8aedaca9b8aa87989b966a9b9
col27:   a6678a886784b847a9a67a9ce8b99cbbc66bb86eeaf999b99bcbb9b888baac9cc7c78859a77ae97d
col28:   ccb9b8a597955b9bb8cc8897c8b8a9898caadcbd9faadb8a7b6b89c9ab799c8abab9b9bacbc69668
col29:   78cd899adc68c879bc996ad88b69bcecac79c9dbcbabcdea7c9cbb99e89ddbbacba7cca7aaa7ab84
col30:   ba4cb8ab9998998879b8799dac9f978eac9baa9bbbaa9e89cc9f889ee9cce98acbd9cda694c9ba77
col31:   8bab9b9ab9b9eb97dd7d7ad69cdbc78d7fda9ada9bccb8bb8cca99b8d8afeedcdaa67aeadbbba698
col32:   699b9c6bc8bbabaaaa89bd7cd788bc89bbaab9bbadad9cda9b9cbecc6dbdda8cabfabedc8adfab37
col33:   d77c9b877867cca9aaa69d7b9899a9a99a78dbabcacebd99deac8dabbfbfba7b9cc9d9897c8caceb
col34:   bccabb868cc8aadb9acdd9ca99abaadcb88cc8ccbbae99e89efaa9acb8dcbdda99a9dcdc9aaccadb
col35:   898d639a9cdb6acd79d87bbec9cc9c9b9ddeab9f8b9ca9caaa7bbc8dcabf9b8aa99ceabbbb9aba96
col36:   bf9bc8ba89b8ba9dbcb7abfa9ea9ec8f9fbcbe9d6e8cd9aafbed9fc6cecd8ebaa7db58bb879c9bc7
col37:   9988acabccb77fa88b99a6a8ecafaabafe8fbbb99fbe9fbcbba9fd9bd8877bcdcb96e9bd8e8aca97
col38:   9aca3aba9a999b9aafcb799bddeebd8b9baceeddffddcfdcc8cedabddd9c9bbb8cec9aa8a9a8ea7c
col39:   9c8c7cc7eababce77cdf9bebca99bbdfc9babd9d8cc7dabaebabbdbaddfcdfa9ce9d777c9a95dc7b
col40:   9baeba7da88a89e88b89ba7d7eb8ca7dbdcaaaa7feee9bfe7bacadcd9eddce8dcabcccc9c97a7abd
col41:   7b8a68aba6cbaaadcaba8cbbccbb9dceca9aefcabd9eceb9eeaaccbdedcfcecccdbcfeb8a988bab9
col42:   bbbba8a8ab7cb9adef9aacbbccea6eccc8caeafc89b8dcacefb9c9cec7ccbaab897c9a5a7daca6f7
col43:   b9bfa9dbc9bad8a989dcdfcfb9bccddeaecdefe9fe9ac8cdeddcbaadbdfcbcbeead7aaccb9e6cbb8
col44:   afccadba6cec99c9b9abab99bcbdc7fbdb8c9aeca8adbfdaaedecbddfb7dcab97a9bde8bcda87e56
col45:   ca9d968daeabaaaa8bbab8dc5dfbcababafc9daeaabbcbabbabeeabadccfcbd8daaa8749acdeeaab
col46:   998baebcbc98daeabcdacdde9ebccabdcafdcea8a99dbcbced9ccbdd79badcbee8fc89c8a5cdaa78
col47:   decc88b9c98aecda9ebae9ccbeffbebaacbed7edf5cfddb9cabeed7be9cabdbbbeaffbb76c99a7a8
col48:   ab9c8cadca5a7cf9cbacb8dcaccbceaaecbeae9cbb6ebcbbcdbdbddecbed8dbeddbcd9cdecc9dbba
col49:   e9ca9ccbcadc8b9bbbcaa8ffdfacdafeebc9d8dedbfceadeccfffeaddbadac8caaf9bba5a9a8bab8
col50:   edcabb699bfaaeb8abc8eeb9cbe9accbaebacbbbcbcbaddcdbceadcabebeadebcb9e5c9bb8dbc9ca
col51:   68658999ba96cb5597bc68b9c9bad9aa8c878ec585a7caba9a7cc7adbcbddb88bb9bbb8b87e8a7d7
ROC:	 BPix_BpO_SEC2_LYR3_LDR3F_MOD3_ROC13
col00:   2333611246562755234345466b834144374132979715743778773457755679286584651454754672
col01:   644675763626122615585963365448475757779a9589a69788d5899a9a7889777b86665644778463
col02:   53692695447165775575684755454a86486977aa7a8795689894ab599b67757677a5445786345666
col03:   654147547314386656645817865946b9727756aa589a86758c8b6899a648a758967c797752747755
col04:   132324153364436438656447946893ba979676898b558ab797479c68746d37887674867665452721
col05:   64538547685624646817351797665a946767975a8a8b3a6b66679577b75b767b9677676578786433
col06:   3435a127652544765446754648639867a75636bbc9488a665789c67874a233526897747544788662
col07:   5552645344868275575637789787748478877a6386687a68c59a9692889a67888658963977568343
col08:   4646266576323577852787465555665c496777a64b8a99a88975596a385a8b277669783896993197
col09:   4838a597947764766586586b9449855b5947a288744c8547b89a6777a9787886b25877355a75387a
col10:   8347278654851371675a547639b7887863877649a89a577aa7786969b88a6657718579947596a173
col11:   815445754734354476377ab896658b5494998766769a799768a9828463346a5838571c7829768755
col12:   342554554964573645676415478a4b86c466779777669a887995598b7979a8a87753a48658999763
col13:   36574257b7568653558656aa58a55796468689498839b87884885c686977aa76a876637524583373
col14:   416246651975637948755c9a745568879366855a464799956a756c4a85b779a8899a869578525a76
col15:   7353925166a3486a56635875768ab88a984964798587598797899757b84866978538676787476646
col16:   972543863251454468754563a68197ba39489a98974bb75678754ba79688a5657777a7697767a744
col17:   283244173371577587686862873a4998ab564764684a8866b77897766a97a47a8666696768478564
col18:   56356545644a86534856a65848574986776474968989558a76b44b797a77a8996366775975545375
col19:   697625857753485445a568778886aa999b1aa9a78a7a98696b8958775677b945d756289635855457
col20:   4461343684446651763685657649c86939856678889799a7856899768965595777643585a5555875
col21:   55768a53577753683857aa668455794688aa687896a6787b6a8466677897882987582375a5555476
col22:   77843637589a3636543476a4678936786a77737aac676589a849aa767b79588854a9696765466134
col23:   767366766557454717579688441647996a648985887c874c95c7786a59a869732483677664625555
col24:   5971416345459555668667896968586636798a15b7899a6a89b76b7a679938744785396644456474
col25:   3745435a16659857453632568468276789a899c96a9a986587854669a63a898688b5487a45276576
col26:   7664953b778788746747839b8687aa6997a8aa75958aa9a88b89baa989c96795a786789767738758
col27:   665668648857aa558a886898954c747b89796897677ba79879ab99a79869585688a48b9488485734
col28:   4655765887876a94a874b6a978854a5a889ca699976883b69abbb77a7d899a785aa676878b647683
col29:   7452875347576d7666786aaa78898575b48b689a988acb9859a7a876ac85aa88a88c577441688386
col30:   9787876895658595767a5a669b999ac88757556856acca7863a769798a7b98867795745267564876
col31:   75a65676ab868b8a9a87b89998b6b976b6889aa978b77ba99b8598a876589b694cc55b6369a98753
col32:   68859666b43568b96a7aaa769969ba5aa9797ab966789cb5879b6897c9aaada799657679a8267683
col33:   a787847547879a776aa976a989987977a99e7a8986a97aac897989488b89648899978785786b4659
col34:   68665aa58b77587b7767985b88657bca877c6aaa698969ba6a79aa9ea7888b89a988a47768597a78
col35:   768583487a695bbb85c786a998bbcbc8bc7bb899889a8cb9da986787899994778988698657859766
col36:   88a776467a9887789897ccb6dabaaa7799ca6acb877c989798cba78888878aa8b78a9998677577a7
col37:   566c59966958b4bb997a7b6a894d7977a87dc99a7999bba8be9a85a99a867bb798a7a9a6968b8665
col38:   655b5949a777ba58699a987c88975a9baaa7a74babc79aab7bb99b98dabaaa791a776a8377573985
col39:   45a58996a755766a8ac66869ac8c8b98c797a8caba798aacb99889777a7649778866385639768753
col40:   56c856967789598b6c9989869b89aaa6a897dc98d77988ba9a599a798a8758777976846aa7861ba3
col41:   78345698787a98c878788caa6b8acaa779c8ceaab95da8caca89c799998b686998988799366898a6
col42:   777847a69a7698656a598b986aa59a99aaa87a8aa9ba7b7ab9aa79a9b8b7ab8897b857818659aa64
col43:   94a776695bd9cbbab88dbbbab7c9abaac9995ac9acaaaba6e695b87b8679c96e97a5667ab6676679
col44:   58787b88866779a69aa49bb7b99b98a688bba9dac9ae57cc88c6a9e6abeb786884a4bb8746398675
col45:   5851769a947777a9ac95dc5999997a82b7abb67acc9ca8a9989c79789a96989a5d664688b8984736
col46:   96755aa97878aba8ab6aa89c8c9a98d6ad9bc9b6aadb7967cca5a76d9ba6c7c7777c934796aab955
col47:   787687888b7b79a89a66989ac7bab89bc9c98b8b99aaa7969b67a98b8a88a87985a9697587995896
col48:   677a669a97a748ba7aa9a99cb57bb8ca9b7a6b8cc9ba89c889b7b7acb8baaa848a78998848449677
col49:   94587b749a59888c87a997a7aac8989eba7c8a8a6699aa6587597777c986998bcbdba4765b847784
col50:   887756689a9b579a8c7c6c49a5a9d7889acbb77bb99b8b777b8abc8a7988ba995a89aaa788878956
col51:   36a6778436356978a68a579a8786aa4889a859a889888b648a8789a7677996877788663489499675
ROC:	 BPix_BpO_SEC2_LYR3_LDR3F_MOD3_ROC14
col00:   6896979c36a98ba796b78688aa76a8a8679a8583a6b9789446366674867675b8b876136856747137
col01:   986869989679a7b7b7caaa9899897889c8abbd95bb4997a8877695487db6a6a75a48825996555264
col02:   547a79986a79a8e77b866698cbca8a5cbc9a758779b9cb988a8977a98b7834a557874b86aa457695
col03:   76645785498887a76c5b9ba8358886bb96a9789a978ea77ba7c9998d69979b75a167997692593968
col04:   77685888a7a3786aa8ab8a9a86ab7aa8878eb9bbe8ba99cb9ab6e7dd732899b76a87b48489764558
col05:   5975a679a9a89d69586869a9aa94a9a7379b9a9997589aa98ab8ca99657b78a77778586893563763
col06:   387897a7b8856bdcc97aaa79787aa9abb8d5c99baeea9bbb9b976c8b88677c4893746769278b755a
col07:   65898a7278985859b69a96a5a77b8669c8ba878a8acb9d8c9b987889cac99988d7c68a69c8989673
col08:   a95b879697798b858da7959878a87b99cb796bd9ccb8a6ababa88b87688a78a88676998752945372
col09:   897b8968abcab7979796a799aaca9a979389ba97ba9a999b996996dbab687c578849698a46755854
col10:   597a9994c9537598a5c5579a9698a7a6b79789d97ab7999a9baadda7958a4ba8d8a559a177265477
col11:   658778b678795864bb9699bf7a9a7797c6676b84b9a89775bb97f95949858b659957447982651766
col12:   599ca5878ab958abab6498994b898bc8989c9b9c9a9ad8d9777c889acab798c697735ac679656a76
col13:   8996994981888ab796a9e89b9aaaa7879cb99b9b8aa8bb6a9bd8799697868598966b3a6683463766
col14:   a88baa7c67578a789ab9a79bbaaaac8a8a8adacb4a999a9a399cac9a888b78bb9768c8a878847766
col15:   5899a7678967738979a8db89697abdbabbc79c9b9dbb9b8a99bca97a8c58d864a7759582a6576646
col16:   c56a889a589868b9c9bb9d69798bc8ba9dba96a8ba9b5d7aa879778b89667888b8d788a787945655
col17:   aa999798b9a996959a989659c96ababa9897a9a86a8b488cb686a9b7ab789772a7d6769465676755
col18:   885a45967778894a5b869a7aaa686a95a997b9a68c69ea4a9a8fa88b8a8977a77b8a377499446a83
col19:   c96799c98c9a86a99a596ca7ecabca999b9a999aabc9c99cb796a5abbdba7967bb7a795937a777b3
col20:   6b6728698959a8caba97a7689b99a8cb89cb86887abb9ad9ac9aa577eccbb798aa7989a896396656
col21:   b979889988769bb78c97ab4ac7869a98b899c799bbb6b99b6da65ca79674a9766559899569884759
col22:   a7a8897736956886749ab4db787a8786aaa59a99aeaf778a9aaa7c88bb8777c79a26985559973554
col23:   96998a97a8897946a69976886a6778a79aa979cbbeb8bc9aa79aaa879a9b6bc659994978b6a77771
col24:   16989b879b9989938cb88b76a8b86cbb99868b6b9ac7bb5978caaa99c8aa66569688896487517686
col25:   9856c9b78aaa8bb88b5c699b8c9bcb7aeadac9abaca9cbbd7a97999ba9788d88879689888754a4a3
col26:   a696986a8a7b8cabba8997b9bc9a999cb9dcb9bbca6dca6cbc7d8aea8c9a897c9b47b8e887489567
col27:   a95857bb8c8ab99bcab78bbabcb999eb9a9bfaac9aa99677b759479ccab89aa9a875bb6d9876a658
col28:   8d97b989699bc96cbca6accabcadb9da8ccdac88b9d9bbfb8accdbcad99ba8a8a886957998699836
col29:   68cc98fbc8b9a9acbcc8899bcadfabdfd9b97a9a9cdaa6aaccac9fdcb8c8cfab9a7bdbc86785a562
col30:   99aa9aebbcaa97a9b8bc99bd989bc97c9ccd8eeeefcba9999acabcaaabaa9d9a8a68b86793998868
col31:   b4a9cbdabaa97ba8bb978becaacbbddd9bdcfcb9ccacddccbabbaacbad69b987886c4d996ac97672
col32:   baaaabe8c89bbb99cbeb9ec9accabdbe7cabcab8acbca9de96aaac8b8abb9cabb889bab897a997c9
col33:   aa98cab97b797d8adb6aedcaf9ba7ccbde98ec89d9dae8abcbcb8899c9c988a7ca5836a777466a89
col34:   facdb8ba68bcabaaacaccde9b8ddbbf8eeab99bbecdbdd8bdd9ddac98d9de9aa87b8d8976aaba599
col35:   86cbc59c9a7bdbd7998c96babcb9bfdbbabacca8beeffd9cecbdabb99a987d988779b8bad9a56688
col36:   a79bacca7a8bfaa88cbb7aafbbc8f8aaaaf8edbcb9d88c99dbbad98c9ac9acbdad98677989a9a868
col37:   bc7888a9aba8aaac7bc79aa9a5bc9c9dabcbecd8cbaf9adbdbc9ccdae9a96b9bbbea988c6c8569a8
col38:   d89ae69cebaec8bafbc88eacbcceedcefcbb9cdbeffcecfdfe9b9da9bbe9dcb77c8a887a46797b67
col39:   cc9b9aac9b9dabb8bbc9ddbbecd9aba7c8b8db8adeabbcf9bcbbddba7bcaacdc9b88a8975a667554
col40:   7799bbebcce7a9babcccbddbbde9b79deffebaeaaeecbbf9bcbafab9eaecbbcba78abdaa57b9c898
col41:   daabccbb7addbd9cabc7cf9ad6c7bccabfcd9bc9addb9aeeaac8ebdcccacdb8bc99ba6ab68cb9b98
col42:   cddedcaecaa9dbdadddafdbbedfbbebdceacebcccdcdabdbdcea9b7badadaaa7abacb8698796a897
col43:   7cbafdab9abbb9bbcaddbfdcdcaddbeffbcfadbedaf7de9cd99bcc9bda9aac9cc8a8c9958a698b6b
col44:   9cdbbebac8ca9bbd9cdbc8a8ea9ceebe89bbdeadbadff8b9bfb8bc9bdccbe976c9abbaaa5caa96b8
col45:   99d9c9fa88bb9bbbce9a8bbaaccb6c9ceadba9d9d9dabba9d9be9ac8e9caecda97ab78688878a799
col46:   abad99cbcbd7da9cbdacdcedadabcac7ccceadc9babfd9bc79cacbcdec99aaba99dfa797ba896679
col47:   9abfbaccd8ac9a99faadcbcbbffbdecbcbcbbcdeffea9cddca8caf9dbc89cab9dbc9c88995dcac85
col48:   d6beecdfbac9debcdf9a9abcacddb9ccdacaadac9cb8bbbbfadacdc9bd7aba8a79a99aa8b7cb9b54
col49:   cbbc9acc8debbc7ded999fe8cc8d9fc8edad8ccacdadeffababadcbbbc88a99eaaa85bbc999ac3c9
col50:   9a8dba9e9babbaaf8cafbcacbaaccdbbaebdfb9debbaccedcfce9aacabccbacad9d9d8ddada79876
col51:   966da77b5ab8987b78aba97da79b89bc89aaabb8cb76bab4967c9b888badd887a6ab89a76a881876
ROC:	 BPix_BpO_SEC2_LYR3_LDR3F_MOD3_ROC15
col00:   465289768547769869569a4d8976968a576458669a7988d8789c8d5bb9baabab7875738aa734a861
col01:   966a8887787b977a64c48b9abbaaa7a9c87d99beb89a8878a49799a98b59a78aa6d55899949da671
col02:   5c39558b5867766a6baaa6985896dbadabca785a4aab88da8dcaa5979afa5b975ba8856aaa8cb837
col03:   99b88368578a36999c8a6eac7bca78a7976cd7b6aeaba8fb78a5b8a9c7a748697ba5b9a4a685ba37
col04:   d5a998c549a78ba8b89a9889bbab87867aaaabea7c989a8a7cd7987bbba77998988a89bbc9bac974
col05:   87398568ba46975a774838abb9a666aa7949b7fb9ab6b57aa9c9a9ac6868a256b658868b86b36786
col06:   69a69ba9bb77163ab871a98a8ca9c9d8a8a4bbbcc9a7aad848997b797a88ccdc98989785aba675f9
col07:   58898a7bd8b6dd89daaeec9ba89caba6bc3778a9e868c957eb86c98b87d8ba966686996a8a7aa997
col08:   a78996598bc86a9d8bea9a97caba8bb8aa9c6dc989c78ccaa6d5b87957b995b9da279cac9587b895
col09:   b776584b779a72b85b83a98aaa5aacbe8e599d976fcbc9e98a7899a9b69aaaad487eba968c8a6876
col10:   84b579ba548ab7b6b5678ba86bcdbdc9ab77e8c5abac7a6bada89758edc8d6a89b877b6a8a75b988
col11:   797c5b187335b9688cab6799767aa7aca8ac7c8aba9c99c6a9b79ca998696ca9a789899f89767754
col12:   69a98a88b8695da77a8797a7bd889bda576cb95bb7a9c96aeaa7bfcdd9a99b99d86989b779abb8b7
col13:   8325a5ba97db6c9dca7868bba9a7b95cdbcb9b99acaaabeb95698ab89c89ce98b7d5bda56579a8a4
col14:   57ba6899695928f97cc4ba664897986abbe8dccc7cac89fbd7ba7ebdaccbaaaa8bdcdae6bb9b49a9
col15:   b8687b978886788b97999afab7cbc98d79b97b9c69af8b797a69ddaa98b9db89a99b79b78a9c5769
col16:   a669a488884b5b5a78399aba8aa8976ac96bbaacabae8b598886c69dab9b8b8aadbfdc7ab766a9d7
col17:   7a9564b59a66665ccc9bad88668888b68cab7b87c88bbeca9a877846cdbaa6c9698c8979aca4a9ab
col18:   96765a9a894a786da898a8a8899eadf77baab8ba8748bbbba7a9b7a8e9d7bfebac4b8bbe96675aa7
col19:   58985259a99589dab85888d87baaabba8bcccefa5c6ed7ceab78bf97cacddbbaa72d99ba68ba9b79
col20:   89867742b6697b6879d75a8576abbdc966a8eaabb8c7ab8d78bda9aaeaab8879ab8bba8a766b8779
col21:   65b9ba8e895766b98bc56ad89aa97b8bbba58c857ac8bcbd799b8cc89699dcbf8da74c75bbe65a56
col22:   94416879a9794792b7aacca7dc5a86daa9b9acbacbb8acb9cb7aa9798c9fa9a768b87aad43acb68a
col23:   71c87b98a548ba789ba9badbc9a98be897c897dcaf89f6b7cb6a9a638ab9bab577c6bb387993aba7
col24:   475c789955a5a4dc9759994eea6897d5c9a688ab9a7a7a99a6bc6abaaaaacaabcbc7b8bd9c766a94
col25:   36995746744ac88a6898bb8cd697cccbeaab76bbcc8bb6cccbdcc999ab7a78f568aa7a79ba569948
col26:   97ca66a97d8878c6faaaacac98cbfdbcebeeac7c8eadccbaaddaeabcbde8aaa98babda89eb7a79b6
col27:   9a996998b977a47adea87b7c6aa586b7add99777ad799b8bbb9cba9caea8965d7a7baacdc87a4969
col28:   9d7ba99b57b998a89bb8c9be89ec78bba7b6efc8bf55bb8ce9c9abcccbcbbdeabbeaea975b98b9a7
col29:   37a75d9a6b7898baca99c997c87bdbc8cb9e8a7fed9ccacab6cc97b8b89ada6acba9dda7c88be7a2
col30:   99c4ca486aa9b89898ada7ba6a9b67b79a8ccccaabbae9ebc9dabc8fadcbf9896bdfd9bbdcfdaba4
col31:   b59b6c78b8babada8acb889ccfeeccbe7cacbcdcc998dead9bbcb8bbebdebb9fea9db6d9bbbdaba6
col32:   68b9e7cb98de9aa88aab8badc8bed9fdcfaca9ee99cfdfbc98dc9cbcbcc9caaaa86798aa8b5be878
col33:   89a857bdcbea7bb89efa9abfcaa9ca89fa69a95bbb8baeababc8bde88bbf9b9cfdacaacf89798d69
col34:   7985b9878addabe9ba9cccbb8dba9789dbebbcafcda6e8b99acdcadaea7ba8cd7daf8bababdd69d4
col35:   178bc8b7bc9aa8cab7aabacccbaaeb9addccdbcab9ccd8cdbac78eadfbd6d8a8896988aa9ba8a9a7
col36:   9988cbb9d9989a8c58f988d989ed6ece99cfd9a9ccde9ecebacacf9adbafcbfbcdab989c9abcbec9
col37:   a8cc7caddb5aeaaa999cd88d9b97ddfdea9ad9eb7abd9badccbd9cbdcd9ebac9a98ac9b9caac99da
col38:   a97895a79a8dab7e7abbcbefcaac7d8c9cebcecddbbaafcccecafcaaadfbdbba8acd7eabaab9bbec
col39:   c77877b688cbedcdccb9ddb9cd8bb9fec8bccd99cd9bec9bad8dbcdb687ffdf8cabadbb9c997ccc5
col40:   a9878a7cbd7c8cae7bdccebc9fd9ddedccbbbfe9ea9affbaaafaabbfb8adbab7bda77badacddb9ca
col41:   9a79aacdbeba8bb9dccb6ecbeea9e7c9cebcebecbcfbfcb7bd9b7d9aefbb7a9adc8c7dbd6a563a59
col42:   a887b97acbed9fb9ba98ad6e884da9cbbbebcabbfade9cad88cd8db9c9ab8fddc79c7d999c9aa7e5
col43:   5ab6e8be77985c5a8d7a8bbc9d8d9dafcfb8adafcbc9da66ddbeb78cfdddb89abda99baca5a9bf9c
col44:   9aa7cda9c99ca8ddcdbd7c8b7ca8c9acaba9cdddcbd98adcfdacbb9bcfc89dbbfdedb9989ce8aabe
col45:   9897a8b6883b6a96a7b8ac7be9ccbacbcacca8ddddcad9ec8999deddddcceaabecacbbb7ba8b68a5
col46:   89ca57cb999ba7bc87cdd9da598abcebcaec9ccaebeeccac6edaba989fe79edaca995baadc9fcbb9
col47:   98eade5cba94bbc7dbb6faa9c99dcadbf9cccabdceb9ebacaacfef9fecabecebdabad5aa89babe9c
col48:   8cbac4bd7c395877cadea799e87aa79ca8c9bfdaceecce7ba8aa6bafdbea7acca8caaae9bcbac9a7
col49:   dbb55c78ced88b98bbed9af879abdc99ebeacaf7c8abd9a7fbacebceedbcabb8da9bd568dac8c99b
col50:   95f6b789cb88bd99d9998aacccbfc9aadc8feb9b9fbaedd7cc9a8eaf9cdbddaabeadaad8da9babeb
col51:   997796995a59ddb86689a6a8a89d8c798abca9b9ac59bde9c99a379ba6a79bdc9a84ca3b9b8a8a89
