ROC:	 BPix_BmI_SEC4_LYR2_LDR6F_MOD3_ROC0
col00:   9867644c765b7a4b49c67c9ac758998a7e568c676a658666998b893a474c76388467764723699a83
col01:   89398766776ba7c7e88ca87ac8aeb89ba75b88b4ac8d998aba5b77bd86677ca68659888216686367
col02:   7898a675574ac89489c9799a7c9cb5c679ac6b6bbc6957ba768c58a789a6b7a5354b86c597875983
col03:   9a7785a8696b6a7b6ac857ecb8e46ea5cb6997bb797888bb98b76887b4d58aac8777377aa7522449
col04:   9897368679977d998789a7a4c97cfb999a986a688997837cba5a698977a799b5b88957c7876d6667
col05:   52ab79759a698b88b9b3879b98c8a77997a78898a9b8878669b6a949a6a982a9a7b7bb938a565a64
col06:   4b9c75966a87aac989b56667986db5897a9fdbc699888ba68d98a9a8b896dab55766968588398234
col07:   698987b4975b786b9ca7ccad5659aaa59799899a8b8bc778c7a7979a72aca6c5759fd7b659577751
col08:   6684595788979b5a696a776a955da8d8889a7f878594876c9aac678878348d56a657b94548593799
col09:   9846a898979a7b7c9a68a6d87a8cccb7cc7bb7887ab999e98accd959bc9eca8ab78e588aa66c8435
col10:   a4489677678a97b9699ba6b9995cc979b9d8c67bb9c59aa89998757a9886c63b59a6657876796587
col11:   6ca9738789b778c7e9736c699aaa6ac97bb97bb8aa97a8788ba897745b836d1755277a9666b7a761
col12:   64846a94c9568684855598798bcb94a8ac687b68bbb6ab85a976aa8ba25577636665877482275859
col13:   a88aaaa6899dba9a898693949bebaca898bc6a68cf4796b98ca4a8a5c99b39567c876895a8a8b5c6
col14:   279467ca68895b486877677889cb7a79a878a6778678b9b3758b8d68c68787b9647b7c9bb75338a4
col15:   6976675bbba9a798bab877caa8ca69bda58cad98a96d985936cb7a79b837b79668927997b9877776
col16:   b889ab8588b5b7759d67b8878a8a8ab96aaec87b76ba89cc7a989c9ba767a9944ba997ca75915564
col17:   5868897a4c6c79aa9b76b7d67c7b8c7b997667678a798c99a5598438b9b5ac577595a7896476a765
col18:   a985c6b5896969b9d9b6a6c9bd759cd8c79579b6c883949788ab98998989a67a7866b66237555684
col19:   86977964888ccbcb8aaa968bba98ac9999d78b8ac3cba78a78d8b9c9784788d69868898c783589c1
col20:   873a98756599978ac4dca79cd849b98add3bd69ccc9a87d865a5da6449579b5986d73959768a5741
col21:   8a958ab66ae979887678b989757b979b8ca9bbbc7aba9b568bcced6a66a48c78997d58ba5695b368
col22:   9818c9979948c8b889dca963799b79ad795aabb8997a58d68b9a8daa89b9ac677547aba886c65857
col23:   8671798ca87aa7c7c688ca9aba9a7b96a78889997899b9a9d89b7c86bc64c57a9796767976685488
col24:   3c6b54996ac9b7b9bc3899567b9bbbb989fa97b9c797b697b77b8a8bac98a4699bab89196b835683
col25:   779647a397889867aab6d7a9c9baf79e7bc9c58b69d8daba97a865b5a88ab9589d79bb84a5676875
col26:   968bbaacabaaacbc87abc57dd6989b9a98cfcbbca7bad9679aab789aebc8bad747868d76d897a876
col27:   ba6c8bc9c88b78bbb99dcecbcdb75b97ad79a6eccccbbbaa8aadaeb79bfc8ca9d97bb6b96a7db4b8
col28:   779a78adcdaa9a9abbcc77acb87a9aafdccbc8cbce8ccb8baa9ca79bfbae7bc8a77a6a95b848ad2a
col29:   976a7a9898bbcda999cb9cbcab9adfbb7a6ca9de9dbbcadabb89a98c8c8e9b87d7cda5a4b85969a5
col30:   788899aa7aa99b8d7a7ffa9aa68bdcce97bbcce8bcb9cedfbcab8e5cb9edb96dec79cacacb886688
col31:   cb9a679d9cdacaaaecec77a9c89dfccaeeb8ceb88cedca8bee7cd9c9bcc9bca8ab9b9ea95a888a64
col32:   9a86b76b69aa678bdace9acca9fabbccca9f9bbcb898da8e8dbdc6a6cea9b8bac99adac879896754
col33:   9adbb8c79becfacb6bba6bcdadcc7fb9bfb7e8daeeff997dcfebcebcddbd9bcda9afb9b9aa99bb9c
col34:   ac6ac98984bcabab79aeecccbeeeacd9c88bb8dbbda9b8beac7fb9bb8dbaeeb7788bd989d8f9b898
col35:   97ba8e96aaddcedcfccfbb9c9dcba9fdacfbbfbdd889acbbdac9b8d8e6cab88a9cabaca696888876
col36:   c99cbaad9d6fda8ddcabebc8ebfbb9fbbeaacfd99cdc9caabc8eb7fba7ed87bd9dc8ba99c9c75898
col37:   98c8b9cd7cbcbbc898abbdeeb99ecc9c8fcd9fdeab9f9cebafbbbbeaa8ccb5ebb969f7bb7b8788a8
col38:   e69ab88779a9cccea86b9ddebce79cd99ccb695ddd9dcfad9e8dcbaccfbac99db89a979b6cbc9594
col39:   ac9ac8d9799eb8cbfbb97deddef9aedcfdcadbfcc7dcb9fdddbaaacacddebabcbcd9ad8ceaaa76a9
col40:   b878bbcaacbbda9c88cd9afcf9e9ccdf8fccbdacaa9bcccbf9d6ebdaeeddb7cbacacdbfbbc6c885c
col41:   be8aba7d98b8c7bbbcbababc9cadddd9f6dbfabddacb8fcdfcb879baf9e77eacccdbc8dd8ba77788
col42:   898cfcc99abbfb6baaacbdc9bfbde96ffdafdeffeddad9eaaaaccdeebddcdda789ceccd9a69a7d8e
col43:   a9abbaabcbfbeeeba9bfd99fccccdfe9befdeaf7aecbfdecce9ecea7ffdaacb79aab7d9b6bccacaa
col44:   5afb98fc8a9a8a9abbcbcafba9daceffbebacddcc88cd9bdd84bfbdddd9dcbcedadae97ac9ba9ca9
col45:   9c8aaaaaedd8dcadcecbfebafaddfdfbabffcfebadddceefcbbbaccda9cc9dbba9d8e98da8d8d787
col46:   89d99acdac9d89ecbeaccbdbdedaabfcbe6daafb9a7decaaaa8e7b687bbcb89ab689b7cc65ebaa97
col47:   bdc8aeb89afba9c8dabdfaaca6eae9ed8cdebeedae99b97e68cabcafecddbb8cacbbac7b9cd98ac3
col48:   aab478f7a8ddcdb8c8c8bfb9c9c9aacbdaeddcfdcdafde96ebbcbbabfceec986aebbc98c9bcad765
col49:   5aaac87ba9cbba9b8da8caaeebdfcdaaaccd9ccbfdbfcedcfddbcc9cecc8bdaeaa89c9cbd8edcbba
col50:   bbbbcad6c9ce9adddced8ebbbeddb9ac9bfbccbcbcfa8dfcdfcacbe9aaabeaabaa99b8b8dc98999c
col51:   cae7788bc5d96bbacb89a76aaca877bfb9bab8ecc977acfbb9b95a99f8cbbb95cacb66a69a8bd7d8
ROC:	 BPix_BmI_SEC4_LYR2_LDR6F_MOD3_ROC1
col00:   348366643537487b55ca36aa358348754a975885377677a977477465643865447656664534834532
col01:   b85a77888986a9a958b49b79adb53c65b8ca8db4477768468a681879ba38598588946615378b6976
col02:   665697447aa55656b7186186bc9bb6b6b874c9ab94657987c6877836c9236728775a997779361857
col03:   95637598499a77b7b886374959a899da8c5644a7aaab8678d6999b757ba6aa9b9672676a53647b78
col04:   8867476566ac77b7868b889a697a5866a8c97c6a66438856a6774a8558a6658b944278677b154653
col05:   a46877857a88826577986d94a99896a9aa996a8bc8cba9693b6b576869545777578a976857883496
col06:   b574388767a67378a5a88878b845a9b7896788aa8b8bbb7777ab854a69666b86449b445479456454
col07:   76b386a99b6bdaa6689776a85ca98976bcab7ab7878abaa89abb898969995768b977798b8c966cc9
col08:   5668b798766335766389dc9a779a49c9968c8bb9837499598777db649b998bc8a76536a1644a5973
col09:   a7859a57a5a989656b5c889baa79db987a5aea5a77cda68c77c89a9859989978669a647b74867964
col10:   455a6534777c38b98946697cbd8846348ab779bb98aaa789968b78a9a9936969a9a88b74565963c6
col11:   9959757a6367497b8b8ea3885a5a9aa639997dcda6bcaaa7bb8816969aa3466777966568384aa869
col12:   58566676757759987a6ba998da8ca29ba7aa8aa7aa7cc7899a7aa595856c858599669a8657651215
col13:   78758598686bad98e58aa76baac7b97977b7aae6769b98b67ad9b76dc747766dabcba68585646887
col14:   ad9d9b59676a46f57989495a589a6a9c899a7aa8b778a8938a4a83bc7ae7897b7876746761664629
col15:   a69d749b994667d8a79957d9ebb87da99bba89958a6a9a66667acaa6b8585ba778d67a18797a4977
col16:   69666499baa85664c3b796a757aab78aa7ba9ababc46857ac8d6759d6794448563b7665a96b17763
col17:   a5b9668a5a56dbc595a76989b8a988b756777c8ac888986d9998757c7766ab84b3988a2c26477545
col18:   867b6a98778885a679588abb996788acb979cab48a65abbb695d8979a7789a8857977675968525a6
col19:   6c5677a5a64baa8a687b9ead17868a8d79aa8fac668bbd9966ba8bb7bac8782f499a8a989aa98665
col20:   7a67acca966979b9b99e8a8774a58d7a78779ba987b876979596988a478b8d968993998a779a7842
col21:   97567a367cc578a77b79baadaab4b8788c78bc8c6c8baa7b49769659969b77caa96957784a738248
col22:   58697787c98ae95aa8a57d8a98b9797968b58a96ab7ba77adaa9957b569a8996a4a3c298748a5471
col23:   666578966b9b965a6b998cd7ba57996a95d6c79a799ec7e9a8ba75aa7b8b68779796ab7997ab7525
col24:   586799c9757aa799a99797ab7bba7cb6b9998799bc8a88748689aabd7aa979bb76774794a6855875
col25:   b65679b89998a8a69aa877ab989a8ccdfaec7d8b9b8c3bbd489ac4a7b75ab6d78cb96b78238b685a
col26:   a96abbc9c7a87cbee89eac8dcbcccc8abacc6b59ae7ccccaa7b99fadbd7c7a4978ab993867f9a996
col27:   7bb95abc666aafc997ab879cb9aad8c87999da8898c97dadcc7b5aab7bbdbde6aa979a74a9a58a74
col28:   8b995bb6c89c9b899b8beeb8ccc8ac9abbbed78bdb8688e7bcbabb59ca76b9dba8798a8b7c59bb5b
col29:   9777ca8aa9cb899ace6a7ccdbcabaa9ac6adab89aaaa88babd7db9fad94fadcd88ab76acb9877489
col30:   a9ca7b78a7a9b8699aadabbcddbc8dddc8aa89caaab9b9cfa97c8c68aadb9ac7c9ec669a98799443
col31:   846bbabc7895b7a9dcc98eaaed9fa99c9ffeea9ccbcf9abaaba87badd9e68ccddea6acaa988588cb
col32:   98bac89cf99d8bf7b8dd89cbdababbef9db9ccc59e99abbb9c99cea7a9b7f8ba999ca9ab95997749
col33:   b68a88bd8ba79bb79dc9bcadeabaa9adbc8aabab99cccbddbf99ca9c3fd8dd99c9b959c96a879658
col34:   a984cc8c8798baca999bfac7c9cebc9cde9979bcd9c9bfdcdbddaacbbb9bb9baf98a8aa797b7a9bb
col35:   b8c699c8d5cdcdc6a7deacfbadbfdcdbceafdfaabfccbbbdd78db8ac99dddc7a5ba6dcaa9aa8a969
col36:   b7bc7d67cbd99beccacc5d9ec99a7bbe8eabf9bccbba5cbb9dbcaadbcb99e89dd39eaa88beadd6ca
col37:   5afbadedaeebfaad9acbb9babeaadeba7b6a97dcbb9dbeaf9eadcba79eabcbbbac88be9b87ab889a
col38:   b9d799bbaca9affcaac9bbbccb9facb9abbadce9bbbfaf999dcaabaadbbdbddad97b9ad8ba699a4b
col39:   8a9bb76c8bddb999cfcab8bbafdebbabfec9ce7fdeadddf8ede9fdbaacaa9fcbaba9aa9eb9b9a868
col40:   bd9ccdcc59ac8dddccccf78cfeacacbcd9da4cff8ecbdacccccc6db9dcfbcedbb998cac69cb8689b
col41:   da7aac8bd9dd97c98a6ecefcbccfe9cdabbbbeec6ae6adbe999bedaa8aaad8deaaabcdc9d6cacc8c
col42:   b65b9ad9a9c9bac9c78add9cecdf8daa898beedabd7c9b7abaed9af8a9bdf8c798bcbb6cc997dbba
col43:   daad97a9d999cdaeddbe9deacefbffbabbddbcd9ddcebadcdfebeb9e9bc9ddafebd7d97bdbdbeba9
col44:   8bbba7afabb6ba8dacabdbbc9bb8bbc9fba9afafdb9abcaabfbcd9df9bacdfcab879cdcbd5c7a89a
col45:   854cbefcddecc7a8d99fb9accaad9b99fdabddeadb8cbbaebbacabbcddeb9b7edabddbabbdba9da9
col46:   bbcba9b9cfbbbf9cc9bbbdebdd9c9acac8ecb9cc8bfbcceea7caeae7dc8ccccd99a999f97a8b67a3
col47:   eabcbc6ddac99b8bfbbbbc9d9bafccaeeebecafcbecdcdebddad7bbacbeccaf9d9b79fa7b7eadaa6
col48:   aada8ed99afc9cafbdb99bbcbbcfadbabdcaafabedaadc88ddbea8d9cfe9daec7baec9c9686b8dc8
col49:   d8cddbd6dbbc8acbc8faaca7eaefdeeadecb9f99ecdbbbfaebec9bebeebbfb89abbb8c8aed9dbb95
col50:   c898aeac8acdbbccbcac8bdffc8b8dcdcca8cedbaf99defbcb8dc9becbc7cfa9bb6d9b9cbbbacc89
col51:   839986aab9ac8aaa6a8bcc9a6c69caaba9aacdbeca699bc9bcbaa9c9aa866979a9a99d6aa58ccaaa
ROC:	 BPix_BmI_SEC4_LYR2_LDR6F_MOD3_ROC2
col00:   6925b56493b65a95c684c86b579a391a784c99675655a59b7b44371a43268558475b68585b17a781
col01:   815898a5a68758a795778d58a66849899a969b6a9466986ab59282856ba56a72898b6198364b6957
col02:   717a6381874e87b8b878795988439bd9874ac8968d86f66438a975746356a767861d6a38a968e663
col03:   a7856c77b4d853977e754577b6c7b677378ae67a8b9452cbb79a3476b7c8a389dc6b98a98ca86686
col04:   6b555a6a7aa95956575841a89367d4647599a8b7a3679976648a989c5ac59a7cec899a67bb8b6778
col05:   55b77795a877a5a5a77786c98993acab88774ac8aa95b97a67a698c4b777878bc897b6b57889c439
col06:   698399966786985aba96876bb5c689a7dd94c88b55edb5ac65a648bb767b7bbcb685a83ab7a5a3fc
col07:   c4594855994c739a7bd4bbb48b855dcaa7dea98978c6a6387cb5b7e676a89977c9989abd9fa9cc97
col08:   14766977896e55b9577bac976b9c9988a9a9a778567ac88878988967a869a38a68a38a7a9796bb7b
col09:   7bb77b7aa6f681a4aa9cbcb7cc79a98a98794aa585667868cb6d87684ba886a9ad89bda5a9ae8867
col10:   d2a9a3793bbc5e88dbab166867fb8aabc3747a957ca9999a7ab9668c7ab8bf76969ba97b899b638c
col11:   b776849686c769a6a5869a57a77dd8b65997888c477b89b5fa49878b68a787a94dc926777783876b
col12:   68b873575995db7b699589d459ab487ebb88858da8db4b8db8a759b75a56b77a599bad8953b95aa5
col13:   779441a937b9ab788598b6a88e78776da976b9b6a8a89f679cd9b96d887b9a73c86776556c76998a
col14:   154cc375565e856a84a696a9926c898a566988779771ba9cc4b698b78c898f688a7dc8413693d674
col15:   798968e3c6987a6864df697676c48c973b98979d6898cb86887c7698869cb69cbac78878fa665893
col16:   828a666ab887ba689a44b9989777bd3bac9ac956a66b99b74a7ac767b8898b98868c876796197785
col17:   d68798a45c553b4a75a4b8c879cc9889869b7c9c8499a9ca85abaaa6df8a88c999467cb969366993
col18:   869a9afbca6a998656453988a88b8868b99a9aa95bb6a9979777b8b948d9ccb9c78b39644966b658
col19:   1896b265a779a984b8a446ca999778aa867f78888c88ba86ab8db7468ab42b766cc9ad9977895689
col20:   2c53a3957589a9778985b78827759b59d4937a9a849867a8be95a67a74665476677fc45a844568c4
col21:   989a5484b7bb8c96b4fc9c9c969877a7c8b688a719aa9babc7ab64df5395736b98789b98b7ba73a8
col22:   8a6c277b96b4bd6b7b887998c66986b9ebd9a7b7b4a9a498b4d876a8a65678896c66ca95c699a49b
col23:   a542675677636abab7a78c466eab2a7557a956aa99d6777965a4d67689afd77a5aa6847884bab469
col24:   867b53756a9ba7cab757b7a8c6983caa85f5e98b4b9ab8aa778b8687a29a68c84c8537b86a678aa6
col25:   788cbca677c9c5a8aa58984688cab876bc98aabb9f6d959abac7759a8aa8697878517b7499b7d196
col26:   a694c8c68a99ed5cadd672aaeabca7b9e7fc89a8e3bae8a9daaaaa82a8a7489b87b9aa8998babb97
col27:   59789da49477798bbad867cb35c9cc7b7c4d88edaaaddc7aaa8c9eca7a8bb9aebbbf65b7778d7f6b
col28:   b7aa48b986ac7bb5ca9b897aabaf94c9fce8ea5e5ba9bba8dc6a8989dafba768d6969a7b9ba66b97
col29:   787897b58a88c79b88addae8edc689b8ba7ac7babaa898fbb7dacaedd9bd6dcabcc9aa7feba9d6a9
col30:   1da9b98dabfa786c499cb55caedeac9bbaacbb6bd77baabdc8c5a9ccfc99d4abba8bdde386a9a9ce
col31:   6a5cbb6e79e986878fc9d796fedbc8b88bd9897aae6e9fcbaabb9c7d9cb7c7ab96cf59888db8a999
col32:   98979bb94747e5acd7bb99c875f6a7fa9ada9c7d7cb8b99e97799b9ad8c8ddf6aa96ceeb8db29b54
col33:   699b9959ebbda298cb89975b577abb9ccd9f65a8ccd8cbcfcccbca8685b7aebad8a66c8f8ccaf966
col34:   a98ea9bea9dfe858abbca969e8acbb877cabadbc899d667dacca8eba9556ec8c8aebcada6ab79b9b
col35:   8aacdb88f6acfaaeed9bfaa96f97eac8c9caa9c6fdaaacdfa99c9bbc6dd67b877b9fb7ca9d86bbba
col36:   349b989e6b7ab8a985cab8cb8adf9e96a5ade796bbaada977959a6ac6f4d9ac9bf98fe6db98aba94
col37:   58783bdecd987bcd69f977e9abdbdd8bac9f6eebef9d8586ac76cdaecb9bbeaaaecbb9ffdae7c7b8
col38:   97ccbbd9988babba9b6b98bd9fd9abfa8beaaca7bfbabafc79baa8ab68b8b8cafecdada9cccaa488
col39:   679fd78e8e9b7bcac7daca7bfae8bb8abcd9a9dbbace9a8981c5c999cada7fbbcdbba7c9dabcbd9f
col40:   b987aaf9dbcd6bb7599da67cae97cdf9d7ccbda8f9bfbdbc9ac84ad7cefa99aacbd68fa968a9689a
col41:   9aabaeba98fa88db9c8bb8f9b99fafcec8b9ccaeb9ededef9daddecabbc8af3ba89c9cbeaab6cfed
col42:   b96a7a9dbbdcabbbb59ac7afbd7ccba6eddcbecbacaae5dbbacacecbbb879dcf8b78a787db9b6cb7
col43:   ab9bbf9c8496a7dfc9da6b9dd7dcdda8bb8b9fcfbed8dcd2c999bbcceab7cc6cecbebfcebbcab965
col44:   55aa9d6bb986cc98eb8bdf28b6edcca48d9b89abcbadcbdc85fba8ebc868ae6daa6bc9fbc9ca8589
col45:   5cc9babcbc7aaecaba8e6c6bea7cc9badacfcaeccbaceb9fbafdd883a97fc99fdc7aceb9bdc59ed9
col46:   89b96a7cb98a7c65fe95baad8c99d85c9db8db9a8ccdc88ebb5c9dcb7d7bc997cb5ed9e9cd6eabc6
col47:   ddba9877dcb8bbb78aadc49cccd8bab97a9db9e7acbbcb9b799b2a968febc96bbceac69bbee84bda
col48:   a8d9cc3899cc7998a9d9baea66fa7d98cb7c667bbbac9adbc7e774ecc7a8da68aaa2b9da8b9e74ac
col49:   ca77ba679c8bbb879bafacde7dc79aa883ccfe959edf766cacce97fc89caaa788898d9aae3cd99d6
col50:   a9799dba9deaadd9bfca889abdac999bbd89a6dbbcaeedbcfa8a99c7b98ec949b9facca6a9bc9dbb
col51:   887a7a86a9bb98b4a99a67a8a65aa9abf8b5c97aa6996889eef598a665689a6b6a7cedb3b8b47999
ROC:	 BPix_BmI_SEC4_LYR2_LDR6F_MOD3_ROC3
col00:   51911775559534743564846468615286876b7599688599896a8b5779d7f7997c372d79bd9766d686
col01:   6758547686688768795957b57bb9d8998ca7a9b8b99c798ae98ad988bade86b5dca8e979989bd67a
col02:   79566a769478a87696a9868ca867a999acaab7ab59889e78b5bdec9999e97e778acc97f9c8b5897d
col03:   9934878ab5a6c89b785875ba7999879bac96eacaf8cacdb7da88c7b9bc9bbb7a89a6a68d7ea9e9b8
col04:   66977b95868c79978866937be96498897988b7a8beda8ba7acddd5aad257999ce78899b5b99abb86
col05:   7ea956826ab9729778979575a9a788988cb49c9c6a687cc9568baa9b848cbdb798eb7a7a7b2c79a8
col06:   7486a87695a5b93e47aaaba35884997aa9ad86768c86c7abab5b86dabb6aac799e7cc7ad9a69a678
col07:   8555648a4677ab6959d4a39999979988e88869978ba9bba79b99ea75cc9c9aa65b89aba89ceb6888
col08:   48774847c95c5a9a5987557766798876797fda476b8a477ab9649a99ada7b68ab6a6888a78ba7a72
col09:   89b48349978da9887d799766bacb8599bbc69a9abc9cac94769baa7997e6ecac9cab9cb5798ab948
col10:   764576647988287ca699bc97678a97fd7bdcc7bb8777b897cc7b5cbac9aca8c8b9877c9a997c77ea
col11:   66648a865697485878976797b8abab63aacc6ba89587d99a755a955bba998b68c9c6abaaa4a8eb6c
col12:   798b868ad75837bc694c948b8389d758a76b679bb97699bac6a98a7b86b98b8aae7d985bc9b988a8
col13:   585d877a95b85868797cc1786979ad8ab79cbd97baba88d87de96bb89bb97a86c9b9a7aaba979b6c
col14:   572895586a41ab86ab479a4c97cc888ba7ac9859b7c559a8cb9e9689a8c88c9ac89fbc8b778a96d9
col15:   87754896472ba56899aa8c9ac997b8a868b76579995a88accf8a6b7eebb9db48aca97f89cccb8a68
col16:   9685a88335784ba7a8eb798e8899744786ba89999969bc66fa698d988bb9ad6969b79aca998bba6b
col17:   588b785a75b7438a978b46a8ada98e9ca9cbb99a7676b7579ab8ac5879b6986c87aab9ba975587bd
col18:   51179361955e859db86c7796634a999799b94a8c8aeab99c7897ca5aabca6a699aa66bb98bc86997
col19:   54a687866b8687796a887758a948685acb6c8988aaeab596be96bcb555aa88a8cba58a8a889dbad7
col20:   468677796b4265695c969b8967788a9aa8a9c6d7ba4c86a8849ac9cece87ec77bb7a5786a896ca7a
col21:   598676a98556a749aa679879cbd75a88689ab9b9e89a46bbaab58a88adaa7996bb67ac8998877ad8
col22:   46336c5a737ac59ad2a4a757a377d889baf9974b889b9b99aa99eb6ea6cbd5b8ccad6aba779a8a8b
col23:   45a89489a647a8aa887b3dcbb6aa9a667dbbdb9ac8786897a8ca5a5ae5bab87bb5996859ea895a9b
col24:   4545487365858479a567b68ab9b5b8e8788a79c8aabba78cb9da7db79c5ab898b79db8999786aa87
col25:   76c69575952b84dc967468697ab7987aa8bb99797f97bc9b7a875b9b77ba7b8acabb48c6ab9b9764
col26:   6879aa7a9b79b77a8ad8c9aab9c9ccedda9afb68dbcacd86a8aaca9ddb9cfcd988bcc9879c667ab6
col27:   96af98a8a17c9d8cbca6cb69ea7aa79cbcb8d9edc9a9bd998cfdaadc6ebfb6cabddc8ebbabeebdc8
col28:   b65995a7b648ad8caacc56caaa7bdcee8dfc8f77ebcbd87fa9beba8cb7f9bdcca9a8ab8c4bbe89ca
col29:   8a9a865c9bcbc9789b78cbdbac9879aa8dbbcba5aaac879a9cadbb6cbcbabd88c7edabfc999abc8c
col30:   67ca6d777b96b8cbdbba947a8b8daddcbdedd8c6bab9bbc9ddaceb8bcccc9a99bcab6898d9aca7a9
col31:   89c766986987bc86bad9d8fdcef7babaab9abd8cdebbea7bacce7dbcbeaddeaa7eecdbafabaadf7c
col32:   b35789abb69584a8c99ba9a3dcb98eafc87acedd9dbbf9ccc68debafebfeccd8ad99baccb6abccb7
col33:   99867bc8bd6cb8b4bc9a9dafc8bbaeb69e7baebbbcccbb7d89adcfe89cc9e9bbfac8cfecce9d8d6a
col34:   6a29ab8799774dcdaa997dbb888d9c8aadedeba9fca8decefefd7fbccccdccb9cd8dbcda9cca96cf
col35:   9777997bc9cba7aabb9bacbf6bbd9ebd9cbcddfaf999cee7dc9ccbffb8dcdbbfbe7abd99dc9ad9ae
col36:   aaa78c8fd88697bea9ba8bb8a9999daf8becae6bb99acbaba9bbcc9ebeeed9b9888e8da9aec9ecc5
col37:   c8977b6b8b9bfce96a85bbfcba98b9bcad886dbcb9bcbdcac8d9a6d8cccabace9cae8cca8c8a99b9
col38:   b9674acc9f4b9a9bd6db77bdaa9beaccbaf8ca8bdbcaa7dacef99ecdbee7f7b9bffbcbb8ccbaa8b9
col39:   6e7667986b69c8ba8b9ac8babacbcabaaea6a8cda96eabdcabbdfbbfbbd5bb7ecabd9e786f9bacab
col40:   68a9aa78bbcaabb8dc98fceba8cdaac8bdda9ecaabedbb98e79abd7cceefe8abedbfebc9bcbbbec9
col41:   c9aa9bde7bc7799b99aa99c866cb8ccbb9da9cbcfbf7ce999ea8bcbbccfcdbfd89eabeccc59c8ab8
col42:   ccfa899a6aa9ddad3b7cc9af8eb9bcc6cd9adaffccbf9adde8ceb8d8febfc8fc998bccfcfbdb9bd8
col43:   9a9ab7ab98978b8bb9979bceacdca9eccc4cccdaadecfece8bef9eceefddecfcdddfd7779df8b7ba
col44:   5b559889aebbab669da8fdbaebc8dcecb98b9cdedefdcfceecac9b8caebadaececdd7bffdccaede8
col45:   9a4ac989dfadbbc9dacab9a9e9baacda9cad9bbd9bbac7fa7badcadccfcada8d9998caaaed5fdbbb
col46:   95eeaac9ba97467368d8ab6bfabbdab6fe8fccdafd9ce9d9adcaaafdbc9ea7ebcdaceada7aa8bddb
col47:   c75cb99ba968ba8ac9baafdbbcfdaadaad86cfe99ababcbb89d79adcebade8b9acbabacbbba9dfe8
col48:   ad7a869b7a9acccbacb3d8b99bdcadc7bcc9bc99fabab98cecb9bffcadfda8e8cb9ccf6bba7f6ed5
col49:   b88a93a459998b897e8978acacbeaaccc96debdabca99eaffdc8ff9c9adafbb5d8cddcafd97aa9cf
col50:   cec8bca8688cb8becd798ba8efbcb78badbe99bd99bcaaccbc8b9aedcfcdcbddab9c6ef6caea9ab9
col51:   f4538a7a7a87875868a5a24dd598699a5ab9c9abb6dcacae988aadafbebcedcd367b778a278cd689
ROC:	 BPix_BmI_SEC4_LYR2_LDR6F_MOD3_ROC4
col00:   666598a72a8644e67659499599dbea889a6c3ab359f8a7987995acb42b7c89aa9899a81a9777777c
col01:   bb966795f9d68a79bb7759cbb287e8bdd9cbb89ea9ad855cb998a7c7bba6a76ad8daa8b8b76a8c87
col02:   7b77aac7da68e957663a7d5d6b8b6869aabb96cbbc988986d98a7a3bca8745c9babc6a6bd7ca67a8
col03:   85a7a67b7b68b7dd9c7c8599a9b78a8bf7c9ca5f6ba99b5b87ca9bd6a5a7cd6ec67d76e79a798b57
col04:   a7659997d78c895a9aba49b99b8dbccb9aa5b5bcd9ba8b5bb975c69ab895ba7a8c6c8d7ebc789a8b
col05:   568776a8aa85aa6b98a9d9888ab59ccecb8fcfc2757fa87ac86a9ca7894ed6da8ad9aba89877b6a4
col06:   73bba878685b6675d9ac5b9ba98b59c7eab48cad9c5baea97c9cb66a5bebcdb87bb6b8d77b78cb69
col07:   69b3987dccb59b8b999ba8d6b9cace3baeb9bbcbe7baba8b8d5dacb99e98a9894b9c6d86688d668b
col08:   36977a6ab77867877d897e9e9a8ccbd99ce8acfc6779cc79b7b6c5b8d77bc97beb38b7cbb7a8a799
col09:   7978768aaafbb468aa98d9a6ba8a9a775aa9b6adc75ca98aba788cab997a9778bca7b9daa9cadac7
col10:   78979aacac7bcc87479e57bf979bab699a8ab4c7757cc9a9f8abaa6ba7bccec7b599dcd7bb8e4a66
col11:   9b6e997379568a594b9a9b88997c886bb8dca78a78bd9956a77ca9bbb85ce988ba966785dc79a886
col12:   76457979795a9b74b7c698987988b9bbbbab77c9e8bca9c7a4ab88ec5ea9c8dda78559d8ac65ba79
col13:   7b57888a9ea8a7dbbc6b97975b8bca9abbb59a8b779ccb98e7b5a96bd979d8a689578e7844acbd8b
col14:   19577b839996b97d87ac8e6f9c88898fc89eb9ac56dad99b685aa4779abbdaeba84b86b58c9879aa
col15:   78576768d75757989b9889b8c9a7dab98888bbccc8bb9bac96c8c98ac8b2a67a986afb5966346c86
col16:   55b7aa9988748c96dbbab999bba787ecbd87b9c9ba8a966f85b8a55c9caab67a82dab6e7a8938c9a
col17:   99b659175e9ba5987b96e67999da6c6777b9a9ac97bb9cd597aabca76a8cba77d6969ba9ba9aa8bc
col18:   784489ab98a7a5997aa85889a473aca888676ccb86899ad89bc6aa967c599d86ab99878a8578da98
col19:   66b8d8a98968768aaabeaa8aaba69e89ecc87ca8ca98aab9a978996ddc978a88abc69a8adacaa888
col20:   57a976a5dbbb868b88778e8878c898c8dca89cdfac8f6938a78ca7c85bbc9ad9bdcc787b3587cb4a
col21:   3667b9973867757b8999ca8bf898ccbdaa69b76c788d99b9a9cc9a8967ccf6bab896ba57d69968b2
col22:   4194a8aaaa678bbbba9a67698b9ca957a9bc789aaaae59dbbaaad3c6b7cb8aa678b7b779b8ab689d
col23:   755c9a7485879b79795bb5861778979bc9bc679768ac7888a66b9bdc7d99b6d7ac586846999a467b
col24:   9a856bb9677a8787aa867676677999abb98ba9769878ad9897897b9cbca899948adcba7aca7b6791
col25:   867a56aa8a798b4bbed898f3ead7bcabe9bc59bc6aab94bcc7edaebe7acda899bcadafbaab9d9dcb
col26:   a98ac7aabcde97bba6a9c9ba8eccccbbdd79dcba9cd8b8c8c8dd9da9aadcea888ac8bc778698a97d
col27:   89539a9abaa85afff39adaaa9a8aa5cb6bcdea8a999ccbba9aad989cbab75ad9d58daaad37dbfa35
col28:   65aa8ba9ea8a89acd9b9a988ab8dc779da9d9ae7bb9bbdd9dade89ddcdadc9c9b7ed88ab96c79bc7
col29:   798998d97c8698dabaa9a69ccbbeeda6a979afcbd7cbbd8be6fcbe98ceadfbddcbc7edb7cc9b8788
col30:   9889979c98c6c8979af99cc89a96c9795aa7b8eb7c997dcaa9ccade79797ade9d7ac8cbccbccb8ca
col31:   8a7ac98cf6b6b9ddfcdc9ab8e9bccadbeccdbdbadcdbdcca98ccb7f69ab9acfebbbbeed9d8ddc9bb
col32:   39ca89da976caacc8baf8cc9bdfa8acb9ee9d8cd9babd8cabed9acb98becd8cecf9daccbfdcdcb9b
col33:   579cac9a9fe79b79a8b89e8e89daebb5cacafa8ad7ec8cbbfbbc7bbfbaaeeccc9eababbc9bdcdb8c
col34:   b5d9c95cc9ec78a5cd8ecbbdf6bca9fa8bcacdbabbebde7ebbebdaba6b8cedabcac77abd8bfbbd67
col35:   8ba7cba48cbb478dc9bbc7baba85ecf9f8c799ccaed9c9d9e8aafaeafbbdebdabccccedb8aaeccea
col36:   6a8397c8c8bc99f68ae85a79c8eb8a7cbfd5febbcd9bc9bd8a6eda9bbfccbbcdfbac8b9efdaadac9
col37:   7976bdd89f68a97f9bec9bbaaa7cbecaadacacaa8bcb9dbef7bbbcbdd9beebbea7cd9abcdbdfbbfd
col38:   a2b8a9ccccb9e9d8a9a9da7c9b9bb9bacab9cdeca8adcefb788caabadebcdcbebbf8db8cf9d7bcd8
col39:   3755a6b9d7ebdb9a8abca8b6d8cc89df9f9abcbbbacafdbbf98abaed9cdabfbb9f98ebb8cda979a7
col40:   77dba7c698dccdc86ac779dbd66c899cedb8dadda8ccd76bded9a8bcfeaaafefaa88aae9eadccd88
col41:   9bb9bd9b98bdc9ccaf8db58b9bdbeedceb89f8fc9ddbebbedacdbeeeeefeabccaac8ee8beadacea9
col42:   4d7669b88bcb6fabdd8eaac6999cccdbdacba7afaad9bbdcfbbd76cabb9adcf8daa9f4da7beac9aa
col43:   55b8cfbccbbdc5affabcba9aeaaca789eaf8cfecbbabd788effbfbbdc9fccbb8ddef9fab99cdddfb
col44:   997aa8aa9d69ac7eabbbadacacbddefbe7ff8cbdee9abfeacc9cdacc9fc99bb9caeee9cb75df99ee
col45:   4a269dab9bab87a6dcacb5acf6babb6deaddd6fde7cccc79decae8ebdddefa9adcebaa7a8bebbbb9
col46:   697dc99759c9ac79c876ac6ac87bcdbb4afcaceb588d7abaacadcac8ddccbb9baaecdaafcc6aeaeb
col47:   96c67aabd9fadedaa9bd9babdbbededa8dabebdeeddc7bd9abdcdcaceecacbbafecfeeedbfcfcce9
col48:   997d998a9dc58bcfbbce8cbad9a879bab6acadceeeac8ac8fdeb7cb8adebffc9deaffba5c9fbcfdb
col49:   3967cbdb7c7cceecacbe6cc99bcecc99c9c8adfbbf9d8caabcdcddf9eddf7ecba7bfd99dcedeacf8
col50:   66958acfccbba876cdb5c7ba6a99cbba86aabd99c7efa7aa9cbbddaba8bebbbdecef99b99daaeadb
col51:   239b7988996856877eab8bb6cc7cd9aeb799bb755a89caa69cabb689d7aaba889b8cedbc7b9aaa9c
ROC:	 BPix_BmI_SEC4_LYR2_LDR6F_MOD3_ROC5
col00:   e67559975644344847696435737158773332c4683a76658953861487583958564618373aa6275667
col01:   78645757a9a99b77a8aa988d99a896b857a6d8726847599a86a594a67b9a9878a8a798a855b88992
col02:   646a98956ca87886989bb7a347948899869a56c99b6552e949a66a56692775376a57698386289668
col03:   7633867277a566999777b8985887b66a9998a68d797967756a68a7b64b78aa96c4586dbb6b987587
col04:   886359a878a95788375898879aaca4a39a96b4aa765c489ab937a6c6795a8a7a766e65968868cbaa
col05:   466988a7b7866b8877857da478884d5c9a78b3b7ab75b3bb9a8a8588975675aa5b889a697a797876
col06:   938984c64898aa79a786968979b765a868bb99b7a6876aa89898a7bb6877bba6a77a8a475a978a77
col07:   12137877ab4895a3699896485cb8a96aaa7c8ea7a89acb78a678df59b8caaa6a6c76467752b9b7a5
col08:   36865c668a77542497968cb9b98b75846c9b7a88cf7587fa858888a775aaca8573b7779468559678
col09:   954aa3a57a8a638ab996b8b9d39aa93a76e9b968bbb68897a8579b8d86677466989b875788488454
col10:   8766b85a68b9969b9876c97888f9a987e9cac96ab887919dc9b717a6c7558b89c9a7977e6889b766
col11:   88537576c9c98a83982a5656a79b5a3f86a8aa9886b9787d91b664a37b5856a6b369ac7847586868
col12:   8589bbb9b7ccc97bab59889697944853a9aa86a58ab7848b699987d76aba878656ec78aaa89a8266
col13:   a2a576bb67bd968a88b779c8bb9598a9ea8a79876f5c858caa9a867a996987ba8876b8768796bbb5
col14:   68834b59a689b9757794988c9dd8688b969896978899d68c8b657695dd966ca99a88478a84b2683b
col15:   e4a884b797aa88ad67c9578464c896b5468a69e87677d7ba8a6b66c58bbb7e4597969a5955886781
col16:   99388a6658a955b6a86487ca97ab9b95678ca9769ad79b8a6786b6985498b75c7ab9588948657976
col17:   76b8999a99b9b9395a78448886ba8ccb9965899bdba98b7aab798a85b7b7fa7836865d857da84895
col18:   9889582466ca75648a98d77998c8878bb988a97b7a66557b866394bb97879973a7a7196878279699
col19:   58846ad7c97648b4c6a9b8bbc7bcb768c689e7ccba988b76a687a5aa9ab5c99d9a8b9685566c94b6
col20:   5737898369a9a6c89857a587bf69f7566789a59a49d9c5b7569668a69988a7847489a9959a9c8987
col21:   872a6d8498a7a42ba885aaa89958beb88a5867b6739899c6787b9768888997a7784568aac6899587
col22:   aa658c75c7c978a89777a79958b98b593b8b8ab5b6965c7976788baa265898969466988ab7867b96
col23:   a6a58786aa56857b7767a87baac87ab9999a97759789a7b975998798d89a98968748b3a94b797782
col24:   a6876b7b7797bca677948a69776887288d8a888aa6a766947d69655caa859a86988c774696a36881
col25:   969998898558878b586a9ae8faa6c4ac88979a86899ca8a659879964a6768ceab8babc766c4819a3
col26:   6874e9b6858899cbcb778c8bfcb8dcfab6869cb9bc99b9eba8887c96caaadc9d4ec8884b8798769a
col27:   98a3d6c8dc8889aaa6aacdb9a9f97cb949aa97a9994da98b7c8aa8a8a588a72baa8a5ba77b8bcba6
col28:   b68adc7bb9a9da759ca977ab896ca7cc5b9ad6d9dddb799acbac7bcd9898e9a9ab8aa69bdbb88569
col29:   aaa9aabaaeb89aa9c7bce5a9abd997b8bb7b8cb8e99b6ba7c9ab8bc89c88fbe9a5a9a7abc5b5976b
col30:   a9d9ca88a98ada898b6f9bf49eb9b988c65baa8a9c9a97c8ca7ddac7b797ba87597bbabfbacb8995
col31:   789ad7c9db8a9abcbb88a8bcadea7dbec9bbbabbabdc98dccaba9a9d7d9dade8c99abcbac9dacdca
col32:   8979aad7b8acd5a8aacbdbb8abd9daaabbdbca8b9ebabaacaedcc8aaa7bcb789d9999cff8a6cb6d9
col33:   79b886caca598c7bbcbadeb8e9aa796aabbc99ea9aec8aacc698b8aebb87ba9e8b9edbc7cbb9bb9e
col34:   926a8a8abdae9ca6e9cc989afbcdbbc99cc79a89dab3dd8c8aadccd89bb5a9b7efbcad75acb99daa
col35:   9989cdbab88f9a8cec79c98b9c988ebcbaa9bccc4cab7ddbdb8d9baedcad6acd97fbfdacbf7abc79
col36:   a899a57a7da68acbba8dabcb8ebdca7cad99fcaabcaf9f9fc8b797db998a9aa8aa9c98a9b87d89a7
col37:   d68cca8cabac99ecbbc8cdd8aabbe7dcc9ccbcaced9bdaadccaceba99def879da9b9aeacea899a85
col38:   8aaa79cff8d899b9ba69fbbdfcebe9b9cccadce8e9af79dabe9eaddf99debcadaa8cad9acacb873a
col39:   98e9d8af7a8bc4bfbcbc8bcfa7bcbbd9eea49fbebabfccab8c58bddd68f68fdd8fc9aaaac88ab7d9
col40:   6b7798daebec9abdae9dbbacbecd3cf69aaf8cbabd97acad8a9aec8e7baccbcdaa78ab69cab989ba
col41:   adcbaabbc9cbbdaadbcbcbccc9fcccbcffd9bbbcfcadcafeadfbb8ea9afbbc8cb9f7dc7cc9bca9db
col42:   9cd9e9bdbbccbcfcded7ccac8bdedbd88f6b8fbddbc9cade9afddaecdacccbffbb7da9c99becbda7
col43:   d89bcbbcbda4e9fec8dcebcfdcc8bfcbddbcc9bdfbbbdb8d9cc9ce8ceabaccfb8ec9cbfb8adacaac
col44:   ccd6a7cebccaabd8bbbbcdf5cadbbabfaec7cbdadedbdba6ccc99798cfb5bdadd9debdabbbca9895
col45:   d9d9aabc7c9bcec7d88bebd8bbbafbecaacfcabaceabac9baebaad6bacaaec8bca89ea9caacc7ceb
col46:   c68c99dabab9aa89d6acbbdbecfcaefcc98cca8cdabb98da8b9a7beebcb7badbad9caaeccedffdaa
col47:   8d8cf9bc9a9cca8caca8dbdf69edcbefdbfcebdbaf9bcbcfbdbccab9dbeafdebe9af784db4ecba9b
col48:   97a8b9598c9eae878e9ecba8b9b9ddecbdceccd9d996cebcdbfa69bbda8c7cdbabbc7ccecbbcdcaa
col49:   add9bdbddc8b9beafcfba9df99abbfddddedc7e8cc99dcb8bd6eb8cdfab8cb99aa9d9dd9caf8bcdb
col50:   eb86acca9bb7bbcdd5dc6c9aa9ddb99bdaff8bef88fcebfbbbb9a9cf9e789eacaccdddbdbc7a87dd
col51:   888f96787babba76986868aa6c76d9b98aeaa98accac6b5d89988a5c7c9bb9489688c9e9aab9ac95
ROC:	 BPix_BmI_SEC4_LYR2_LDR6F_MOD3_ROC6
col00:   443663945717534624431446587a6593959a8968974796b796695b9a678b8a89857aa75738749755
col01:   7686625c886ba7885b7777988979ab6ba6a99b6aab8a5daccb998b7b9b89b6d7b998898b8db6cca9
col02:   4437595747b775ba68956a87568a67679cabb685997b3ac863866899b99b97e97a89b6ab88aa9a85
col03:   a74947662a8845b9626a999299a6879c7b8b9bb9cb77c9b7cc79a858c878db98686999cb9879c9a8
col04:   55964b777584778866a8a466a5a59795ca677ab776bcc8a99aaa8796de989c79a89a7d9a9679a8d5
col05:   98748a7a6794796a7957487985998766a755ab898f7a4bbb6cd9697bc7aba7aaa8736e6bbbb9ab76
col06:   837a34638b5726b966487757c6775a68b99a7cbcd97b9577ac78aa868a99c8bc789baa979a99bb5c
col07:   6946783a3b958c6585a58579688aa9997becbba879cbbbcbab7999879a6daa9ab8aabaac8c7bcda9
col08:   674236847a694c99a76817a8b8893e878d9786a9b9a88b5b788abb76b68abb87aabb9ab985cb5868
col09:   5768878836b867686588da99c57b9d9697a9babaa8a996cab7cca99a9a7bd9ab996b5b4ce6b7a8d6
col10:   78ab7785199b669385b7986c876279586c9a6c7b9c8b7a9abc6b8c6e8a9a9aa6b978a95a8e87b6c8
col11:   68657945a669796774743a96884b988a978ba798ac8a7babb9abaca9a769aba8abbc87d8c5489967
col12:   a8936156a9674697868467a76578567c67a8cbe9cba9ba87aca99ca87c9bb7b98cc885aa8789a586
col13:   3887947a66736387dba65aa988567a6c98b79cac68cdaab9aabb6bcf6bbfd9b9eaa7788c99a98dcd
col14:   55a8659589aa768b58773b667767f998b85ef879d68bc7bcbe8aa899ed8c9d7c9da9bc7baa7abad5
col15:   465746a869a5a6a6985886858988aa8a77bac9e6adbcabdc7b797ac7b89c6a999ea9aaa838c985b7
col16:   5a177c7874d8969cc789bab5b63a7668c998aac9cba79fa9999cd95cb8ddb8ca9b69a9a9a5a8e9a9
col17:   78766647578b96ac5c9aa668a26ccb7ac88d865d67ab8bb9a88a6bbc7ac8878d99967adf6caaa899
col18:   583a45696b8766aa866566a776798879898b958aba99d8576998b58a86b9d99abad4cb8898987aaa
col19:   669577855996b47a9879c57cb8bc7ad8aabec8a8897bb8ba9ca95a9db979b75c9ac8485bca9a788b
col20:   4965455a5a8b669998c9c896897cb9bb89889ea799896d8ab9a9b99b996cbb7a978a8b98d9989986
col21:   656289b6c4698669fbb8ddaa8d8bb976cab987879a9c8b98a8c9aa77765d58aabc9cdaa99aaba8aa
col22:   37448568498c5a4388fcb87a8a97b9a9aa8a8b8d3a5898c69bc8eb2b8cab6adaaa9ca8bab87865d8
col23:   7869528399a969d767bb92989a498b75ba9babbba96ebea97e9b5758a6ccba7cc3cb876a7afb5a88
col24:   8758897799858b775664287a8988aba8bd886cbaeb7c8ac85bd979d984badbbbcd97877a877d6582
col25:   8597a9a9548ae97a89a9a9aab788a78adce9a89a88bac8bafaebcaacb9addabcca788dbcabbca9b6
col26:   8699689ab77bc94a7a6b99967abdac97cfa9b979bada7b8fb8dcfbdc7dea99cbbcbaeb9b6bb9d99b
col27:   83b8b69a98786796cc796dabdbaac7cb8babb9aaaeab998bbbabcafb77ca9ccca96bcbb8a89b99ba
col28:   9778a979b979a9b98bdac86aaecbcb7bbca8bdeabeebeaddada8edcdecbbbaad9b9ac7d9bfd8d988
col29:   5b88988978cb6c9aba8bab88cceb7c8a89edbfddcdbf99bccd8bb9b8ceeccda8fbacac79cbb9acea
col30:   883a8898a88ba8bccd8c7a6b9e9969b687cd969acaccccbfcda8c8afe9dbab9bccdacb9ab8aaae8b
col31:   8787996ac8a8bb77ccd988abb698b6bcb9abedecbadbaa8adbefcdcdccccefcef9ad7efcbdb7ba7b
col32:   898886b78aea8b898c899cacdbb89f8d9facb9accbab7e99afdbcb9c8dcbb9cbe7e7ddcca9b69aad
col33:   86b7aa7a9c89c99aea9a88db7fdd8dbcb6eccdb9c8a9bab88ababb7ccaebaadeedd6e99fbc89afb6
col34:   b987bd8dc8cacac896a98afbafbad9eeb7dbbbcbc9ca99968dbedeb9ddddbcbc98bdbbdddd9d9a7b
col35:   a74b66dd9758ac7e8ca98dddebccdcddcdb9bcdecbbfecbcbfd8a9aa9ad8dbd9ccdedc9bbaaaddcf
col36:   6797c89baa588bbeb89aab7ababc9bfdca9ff9c8d9bd89ffbbe7ebadf7fbfacbbac9bcdcac9b99b8
col37:   ab95989bdda8b9d7ab8cb9a8cfb7fce99ccbb9dcacdaf9dfcc8cbbafbfcbebfddfbaceaecbcedbaa
col38:   856eed8988ebc898aac59ebafacccfcecf89eaadbfbfefbffcdbab6afe6ceb9dfbc9f9bdc89bf7c8
col39:   accaa8d899bdb5e99ccbbeecccbbafccfbcdba7cb88bb9fcb8eeaafcca8cbecdaed9bdaaaccaacda
col40:   7a99aaaab8a9bd76bddacdadebabacbcaad9edbdaabceddccfb9bbecad9bbfbc9ba9debebe8ffcd9
col41:   bb86a899d9cabbcdae8dbe9ddbbdad9cfcccefbdbab9fadbaecdffbadabfddedccabddccf9bdbcd8
col42:   878bc87b5cbabaa6bacc7bbaceac8bcacdb9dafebadcdcedbcaadbdcbf9dfcbafbdcbcbcbdaacbcd
col43:   9ed787b69ec9a8ad9f7dcdcbcd7f9fbdddcbca7addefa9fe6ddbcfbecdcabdceb9afebbecbdedcb9
col44:   985cb98ccda8bfcccdcdc9fcacc9eacbcbdccbece8beefcfec7dcbc9ebccbaf9b8baccccdd9ab9bf
col45:   897996d9b99ae998ded99e98bacba9abdebaadafcd9acce8cbadd9fbacffcfbdcbdcedabbddbccec
col46:   7caabaa37bab979aecce9bc8c7bb99aabcfdcfddafab98acaeedcaeeebcdf9cabfbdd7ef7fabebf7
col47:   c9cb4bbdbb7ab8aa9ac7dad88d88edbed9ceeffcbbdeeb9dcebaababcd8cce89bcd9babfecafddef
col48:   8dc9898ec698b8b8bbc7bba9bbc8baee8bceac9ace8bcc9fdfafbebfdcfbdc8aaddd8abbc9cceae8
col49:   b8aa769c7aabca8cbccbceacbdc9addbbdf9bccbddeec8dbaaefccfdacddddcd9effeefdbbdccbdc
col50:   997ba8a69b6958c8becb6ffacc9ccceb9bfccd9dd8ecdfeaf9cdddeecdbad99bacebbbfdd9dbabba
col51:   b685777a7aea8caacab69b8edb9aaedccea7999cab9cb9abeacbdaecdae8fdbbccaddcfa9bfacdbc
ROC:	 BPix_BmI_SEC4_LYR2_LDR6F_MOD3_ROC7
col00:   8596372ad9b48567a9a6a4874985886a978686a5b678b6a9a59587c6a676739a398b76cc58b8573a
col01:   7751592975998948a548b9c5db645c894bb8baabb57cfb9aba75cd7a8aacb8967c5f8799989b8a82
col02:   469376574ba865a8816b8969d8598c38a7b67fd799c5acd68a2799d9775ba578bb9699578a898878
col03:   8d497b96966c8a778a7da6e99676ababbaa89b5a99798fe9b4fc5c7ba3cb66a8d78bfcfcf5cf8aab
col04:   d66d9e69b7996b653b89d829966bed886bbb7cd9c8e8aac797b8d7a97c969ad9bbbcc9d87c8db7b8
col05:   a75b96a59886b96a37848b4b8cb9c879886c99c65a899b5abc997c3b9aac9989c899aca7b69a7579
col06:   48b795598598aad86c7957bae79a8b98fa87d697d4b85a99a97d4ba9d8d9bcfab5a96a9ba77a8699
col07:   66588dc657bac8a7f7c6c6a789b998ab497aba86ad5bd9b9967ac97aaaa9ba828a4b78d7c3de858e
col08:   7b29178a7859b58b895559468879b956a94975b669cc5baa589889c84cbbb916ddba9bd9a85978b8
col09:   98aa988a58778a99aaba996b8a7c97dd96b9abad7e8f6996a9794edcaaaa7e8ba5c89aaec7aa75e8
col10:   ab8c5578a9a7987758a779b8b6858886ba95789489aa978c9c7acdc9ab9c86c6aadada74bc9e7ade
col11:   76589572a65b978b66837ac7bdac56888689994cb8b956d84a49c49a8e7bb78d999a95cc65baca8b
col12:   829a679979aca3b7b99ac6566794791a7888aaaa19c6d88d8b78a94bc99aa8dbb9989da9b87357e6
col13:   596846c776879c4aab7a6916c7ea5ab74d9768a7dbacb99aa78499bbabd59b9cde8a9c879a988ad7
col14:   669659c696b997673ac47988ea6a4b964758f898c74b97ddd59887aa959aa9babaa77c77bb798faa
col15:   7578738a54c746a46ab969aaa6956b199b38b8ce8ab96bdb8b958bb8beb8ec98ab68bb6bb9a96a34
col16:   49155c6976984b99585761a69ca898698478b8aa3998877698ab999748d8aa997b97c9687ea8cd96
col17:   98497925848a8986b597e729c5897b6a5b97689da36b989b9a9879b9c9d6f78789a89a58592aa773
col18:   2486b9873888796d82896966c843c8888a76887bab6ca8b968c8cb96ac787678d738cd4f94e96ab9
col19:   5366686779a49a68a89b9477a997b486ba698a996cb72dba9a79c5acea5ca87b68899a5998a6b8bb
col20:   b5a6569686759aa67aa86aa7979676698c898d7a5759489b79eb6d8a6a9cc696ba87a5d5b97aa656
col21:   576a7248796995aa86a519b67976877a98799777dabc998ba9ae8cd85ae667acb4a99659bda6779c
col22:   569377947964b69919a325897a8bc9988b9d937a86bb9967d9d99a7cec8abaaba677a29b8a7786c5
col23:   4579a7896b6475a98968c9826a566d97ba877a97a78d99caa78acbcacb8996bacaa9c9868b89c255
col24:   74765668a3a56d839d688da678aaca8767c5196a19a9da888777c7b96cac85a78a9d89ab6aaead88
col25:   5683957564b8769b57a9889a99de3798fa575b6bda75cbb8a78dba8ba9b998caab98caf8bce6a998
col26:   6955aa577a6689a8d867965a2a99bdbaca75acfbc997997ae7cb98d8ba8bcbcdcbccd9cbf88be88c
col27:   45ac86d9b7b68f7c9c8cd87d9bda99efa9987ba9caa68ebbbcdb79ca8a9ddbbef8acbadbcdcbaa8b
col28:   94b525d98b94aec17a6e78abdfddaa6ad7c7f7baab9bfadb9ce6e64cca4cdb787e6a8b8c646bc96c
col29:   b4977a679b5c859cb47b39c7f599896aa957bdb7c6a7acc7a8bb9c9bbc99c7ba89b96878bc7d8c87
col30:   5a86a986978c9b88bac598faca7c9adcb76fb9bcd96cea98687c5ec8eea9cacec9cd9ce8bbd797e7
col31:   b2c79b6ba5baaac68b988bd8bc688f999abfddbfbafa8bddcad99fb58ae7eb8acdbd7aceddb8c88c
col32:   75a8b3acbe98b99ba7baaa87d88bbc9db8ebdabbba99cf6abf96aa67db9cabcf9a5bcccee8bb7b7a
col33:   584a89c8afdaabca97b8a6b99dbbea789ae8cad9ca99facafcdca9cdfc9fbcbfaaabcbdbce86adba
col34:   8abc9878a769889c5d8a677aaa8ad8c586eaab8ebc9cac9bbedca8cbacd5aaf8997abbda6eac6be7
col35:   76848d8b6bb7cabbae8dadb6ada9acc9caaaecaceecaf9bcbadb7bbbcdbbcbbdcfbaacd93edc8d9c
col36:   878b97c49b89bb5aa98fa9a6958ccacd9ab6fddbdc8daabd79d89d8aadcefaed997c9addbc9ea78c
col37:   98cacd8a8a9666b7dac8bc8cb9beacdcbcea9bdcdfeddae9bf8fbcefefeaaa8dbaaddbbcdbf56dba
col38:   abba9a7bceac7d87e9b689a8b9dbca9d7bcdc6bccabfc9dabddddabacaabce7d97ad9bacd9c7bca8
col39:   57687765779b8cda9dc878f79ab9dbcdfbeccdccedf9fbb99aafcdd8cdc87d8dff7efabdbf7f6bcc
col40:   797ca764aac8996bdb99abfcd9e7aec7baaeecbd99acf8dfd9aaaecbcecabccbccbecadb9abb984d
col41:   5a856ba8898b3c786ac8e86b8e7ad9db99d9c8ad7a9bc9a8be9adcdcddceecdfcbcbbcfc9c9db5de
col42:   b885ad899a7d7b88dc8f7a8dacbcaabccdcd8c9fbfacae97aadbecbecfeccbbcbeabe9dafacbccb8
col43:   4baa9c9bbc9888898dbabc9b9adbdcbba5cbccfab6cbdbc8dd8abed98bfdfa89dce9bda8afeab797
col44:   89b66b58cb8bddb6c67897bbdc8efafeda9addeeebc9e8abbad7aff9bbbddcccded8fccf4bbfcd9a
col45:   6c958e5aaaab39789dbcbcecb6889efbbb8ddcedc7debcbbcdcdcedeaffcecdbddc8ebc8eddbbad9
col46:   4ca7c75aad7787a6aa69eedcc88decfaeb99febcacc9988feeebefceaadcedbfdd9eb9f9f59cc8aa
col47:   976b9689d8c7cb89dc9ba9a9b7e9da5be7b5aaaebbfebc8b8afbcdc9dcfbbaadfb9cdabbeceddd9a
col48:   528ab88387b8a69798e9aac5b9ebc888aeaace9aadfab9ed9ffbef9bbbecfc7abeb9beabcd8bb9c9
col49:   b8977764bea39a9ab999ab7dab9dd99f8aafaab7a9cbebbada6b99ccebbca9accefdacf9b9ab9ed9
col50:   96e64798ac6acc8aad86ac996cabae79ef6cd7abc6bd6bbaaa9afc9bbdcdf9ca97cbea8aecaabec8
col51:   5945de7957659ba36ab6368e75b5999a89baaab9755a8e869e7c9bcd577799a5f49ac6daaf7a64d6
ROC:	 BPix_BmI_SEC4_LYR2_LDR6F_MOD3_ROC8
col00:   54965a4aba9a6359666b8989788995a7bce8bc8a73cbc979bd8c8eb7ab88a9755dc78b89642a9455
col01:   594a8c9c97a468b75c999a8a8c997c6aa8ed86f6cdc9aaba87b7a78848894658ac68b587b665bc69
col02:   8c66a79a8b94858988997a96addbbb8cbedcca68cb7777d9bbb67aa97cb688698ba9823767989a74
col03:   a8c858b97c796b96c79a6cbacbfca8b4dc5cc96886a76fc8a8b997d8cbb9d98b4a86a679a9849298
col04:   68bb997a7bb99ab89b9cadcda8a9a7cdbcf598a747fd88c9bb8cd696ab9c7aab755ae8a898857885
col05:   7a7d94ab677baa9a89abba9cacb39ab8b98bcbbdd7c748d77bad784a89a7dbb885b75764c8769866
col06:   89649bbb6b888789aab8b5acbdbabc9a9598cabb989da986ccdc9dabba89ac865b886859c6358886
col07:   5466f86abebe6abf8cafc99cc7eb96cc6d98b8d7ca9bba59aa78aca7b9bb799b98c967966bbc9546
col08:   5ba86a6bd58cdb79dc79bf988ad9a8ddeabb7eeacda7dd83b6bc65bbb7855ab8d54bc4a6e99a54b4
col09:   69b6b7766c6e9bcbb88b6bad8d9a7a9c9adbba9abf9d8bbb9bdbcadba9af98b8caa87a299a486a94
col10:   5c6ea9aa798d88da8cb599acc69e6a7bb8c9aa98eaa7a87a79d78b94dd789acb558dc71796a69776
col11:   8ac5997a7bb88865ac9aa8a7eac9ec8b69dead89fa9aa8adac7bb9b7a7c8798a76b58777a9697784
col12:   a4a8c555eac8a7b9b76c9abfc8bbaaea79a6ccbdba8d9ab7ca994d8bda868969ba57b98943b59857
col13:   bc88b59b5bb98ca88aa939caae9f9baade8ebacc9a78899bdbaab9dad7bcae966485c97a2584b861
col14:   3757b8756abc68bcc9a898b69d88a8abc9baada6f7c789bb5b498d6b75c7b976c777c29974758a68
col15:   97a9a7acb48d7a988abcca69e7c79f9e68ab98bb9d899aabb9869c78bb9c8fc67f8a96b39a678594
col16:   87dc99996ac5bef9a9b77bacae6b9cbccc99b9cbb5ab6cbe64b8485b7baae958b77dbb6986a75966
col17:   8179687ac5ba66b849999d5accbac77bdc67cafcbb95397cd7988c7a9cb99968965bd77b9bb84975
col18:   9b879b7ca9988c7a4b9d897eb799a76997cea497db78a9877695d9b978c62c6ba89b679895769751
col19:   8c4c9b75adb6aaabba8bda9bc9e8e95e56aad9ab378c898bacce8ad5668c7996745986a667c56d58
col20:   8569c76a69898748997c6faaeabaada8eac9aa7a75dab7b8b7a997685d6794a49864b7a4b55885a1
col21:   6a7876b99f99ddb665a89a77bb8ac8dbb967cc7ad955799698cbac877abe6b76b789a67b856c72a5
col22:   96a68c69dba7ccd87987d9b9e8be89ba68fc8869fad9b9a98d899ab9c7998199a85649abc6754894
col23:   6799a866465a97b9aba98c998bd86a89b865987c7bacac8b9ca887873638979aab76a7765677281a
col24:   6a9d96c879c99aaa5979a9c9acddae98bc4ab89c8ac69b99aa699475c35898ac78c7986568664245
col25:   a8adbb5af758b8a7ab8ddbb8c6999a6d89957987bb67db5797da5aabae867cc83867b69ca188772b
col26:   a5aaba795ab98b7bbbb9a9caca8acfacb86b7eb8f97a8abb7cb78a6ddb6cade8ba6aa487c5986347
col27:   895ba87a7cfadacccbf79bbdbdffd78ee9bccdbe8b9aa897a97aa9c9a799dbd76aac78a97b767b46
col28:   99ab789dea999ba8adc8dcd6da9ccccae7bbac857b9fa8f9ed98ab5abaab79bac797559a79888a77
col29:   d46baa9d77bcdcbfca79cbc59b9d99b8dbbbbbbabacba9a85c9a7b78bcfabebcd9c8c89b746bb686
col30:   888addb9f8a8cda9ca5b84aecacbfcddcc8cc9da9dbd79bbbb9fabbc8d7b97b987b67da7abc58694
col31:   69b86adcd7acec58b9abbfbc8aafbbecbbaab9bccb98cc9dd98b8b9d8b99dcb898ddabdbd6e678e8
col32:   b9b8ae999acaa8bcab7dc8d9abd6f9fecceebcde96deca4bd8dd9bcdbea8d9cbba89d99c9c679629
col33:   9cb7ad98cdce9bb8ccada9d99bbeeaeaeacebfddddeacb9faeaab8dceeacafcbc99b9bc89da9a748
col34:   dbb996ba9bc88997c71dd9a9f97dfeeee78cacbcbaaacdac77cac8eb9dcbcc85da798bcaade8dc67
col35:   6a9c975a97bd99abfceab89fecbeacaee9fbfd899fabcfbbb987ebbad7e8b8dadaaaae8b9cb895a5
col36:   89ba9abac99bfdaeacadddb999dfacdcfbbdbcd5daeefd7ab9cedbb6db9abca8ab795aa7acc73ebb
col37:   cb6cd66dcbdfcbdecf7ec98c8ddbcced9cfeabddc9e9a8baea9fcbbf9ea79ddadab7ba9937b95759
col38:   38c6a9caedfbebe8cebcfdbb6ebca9d897cbdaeddafafbfccd8dbc9cada9be5bcca889ab478987b5
col39:   2899797dc99de9dda59da69dd7afcbc9bdc9ccbfed9c9bbdbbdfa9aabb9ccab78b8fb89f9ab8a6a3
col40:   8b58cd9cdabb5abfbaeada98b8ce57a9bccbada9d9dbb8fcaabecbcbccad8edeb9fccca6a7c8bd53
col41:   c759aba6bbaceeaac5dbdebfca8ccd9cfc9efce9ccbecbdbbce8dce7bcf6be877f997aa9bc498a9d
col42:   a9aa7cf8dccaebaccac7bc9cadcdeccd34ccedcadc99a9db8bcdcbfa9dbebbcc87c5958ebaacab9b
col43:   8889baeab78bcafeeb88af79bcd98fb8adfccbd9ceddde9c9ad8da9abbdcd9a8d9bd6aae9a55a97d
col44:   b7fa9a79feec98cbcfaaaeb9cd97d7bb9cadfbcba9edbcea8bcbcddaaf6afcd889cca66bbb9739ea
col45:   d8ed8fabcbcf99adefadabdca9b9f9fedbbecc9dbd79fc8a6eaacabad9baacbcadb9f972a8c994b9
col46:   a9a7aa6bda9efdc7baedbacdd68ccdbd9ded799dacac99addcffeb9d8febaeadba6ed79a8a7c59b7
col47:   8cc99a87a8caedfaddccabd9cfbdbdf9eccebeceafdfaaacccbb6efdec9baa8a98daacabdbb8c875
col48:   a8ddad7ccc7ba97cdbaccfcfbbbcbafdae77f8ebcbdf7adc6dbcd6cbeb66cca8ad9ceb9af889db7c
col49:   598e8bedd9bb9db7fcbcb9ca98afed9ebbcecddfcacd9ccbda9c5b668a9b9ca99aa8d86b78895888
col50:   6ba8dacbaacda798bccfb5f95f8fdef9abb8fba9a9defa9cbc9dcd9eaab9a8bad988a87abfa9ae9b
col51:   4646e6885acdcadab754a9c8a39d979cf88bb97e8d6aa98ab85699885b67874e5ca9fc78525b8967
ROC:	 BPix_BmI_SEC4_LYR2_LDR6F_MOD3_ROC9
col00:   a56b687488a9a566b77539467a34765b4b79469427589b76878a9193a7b7386587458849881b6954
col01:   67b64ca8aab96778bb978979985696a986f9d7b6aabbba999dc78b4a9cc48839b98576b5799886a2
col02:   28289c88b589957a5a68476b8a7695edaa8666d639ba68a495b7c759aa976778a87cb9b6a8a4c784
col03:   dcbc7d86786899d9d5ab87cc799de89b9a9c9ead7e78a9a6b8babe89b999b836997b79aabb87ab94
col04:   366844795abb79ea66abc9aab78cea79ba97b6a9bbac5bcac8887e387cd8a98a999787958b6a9877
col05:   5598797ba6bbc788a76a989f9bd777a27abdb8b8586c64998878873796cd8ac79a38aa9866987752
col06:   8769457ab8b99966bba387b794bdaa97b797cba5599bc6be7a777783b7b9697d9a8598979aa88d47
col07:   786a959485c997a5ba686b7b6a999ca995a89ca79b879a99b979935ccb89f667c92b688ac47a9897
col08:   7375a95776bb9a776975b98775a8bec88996bd77979a8e978bbcac99778ca79889596535b8c6786a
col09:   5f6b58c66d76cb9cba969adf99dba98d7bacbd9a8a8a9787b7b936b9c77d6d78695c86beba763a79
col10:   89a5b8cb99485a799968d76788bb97456a6a7e9b669d88ba9b989aa669aab7b4a97c699676c985a8
col11:   15856bab78e4a675958ba99c5b88b6828c98bc57cbe8abb7796a95d86b685ab578722847869a5987
col12:   5578bc82978b65cb85a89a66cb7d78c8c43caab6eab384a88996887a87576c75856da67ba78ab687
col13:   ab8aa768b9679779b9bbd6975a98cc64b6aca7c675baada9c98877b7d99a8542a687ea69ab8679a5
col14:   7267a88577867487b9b95867688a653e8cb6bd7a6579984c8889689aa68ca9bbaa56979aa78c7c84
col15:   58595865b88758898789a95c898bbbc9aabca9d9c97d76a867867c979b9796c3a5983a7bd9988978
col16:   9845c97b9a47699c7647987a9b8899c8a8989accac9aa88dd86aaa7c86adb89eba9769fab678a8d4
col17:   66158a676a558648c8bc74769659a9a8bba99ac97977a74b868b9bf8c46997767d8878dc94697874
col18:   6757a548b6b787a579d7586ab5a6b78ba8b98a7b77ac68b69b997958b8c49a885964ab7aad987877
col19:   3658b789ca66b784d9977ab8a89ab88788a7baa997c887fadc9a9b76bd8aac585bb89f6adbcb7694
col20:   8a2a976878887d78ac399878975c76a9c888acaaa7e96c66bb76987a768975a5937af88b79a987ab
col21:   c6bb88869aaa9685696b7b84a7acab978a61c966a99a876baf8b9b69a9ae5496838b9a7a777b4a6b
col22:   77b89a69b5b97bd89a9595ab68ad9bbac4897999adab9a895a88598ba7c6a46ba4b7aa887b577a45
col23:   195779c5868a996988a8b49a98ab39e97cb99a299ab84ab765c9b995b779b86ce5569898b8da7678
col24:   779c942b96769a6ba99c6b98c66bd9ca9889597968968a8ca9abbae6ca639dba9da89c2ab49ba896
col25:   59b99b8c6d96678899a55c6e7ba9ab7c7a7a9aca7a99acbdb8689dbd959d8d88d45b8a978a76a998
col26:   c89db99ac7cb9da8dbc59aabd8ac98dcea5cb89cada79cbdacad9fbbccbccab6acbcc868d8b86d57
col27:   6adce9bdbd6df889be77a626ea9ccfc9d6ad6aac9abc98c99cd9c4dabfa9be6ea9bea978ddacdc9b
col28:   98f33a479b7dcabb8b9baa9cadd7cf9f8fab7cc8abccbc9c9ceabfa9cfeaacaaaeb8cacc98acccb7
col29:   6aa99e8977aabb698599d6c798b9cb7e7ba49c6bba8be7dbf7acc8ccdb98c9b8d9a9c99bedbb95ee
col30:   7acacaa88aa99ca97ab8badc8baccc9bcbe6bb97dc7fa7ee78abdbfcacdec976d9cb69469e97ac8b
col31:   58a7bbe88ac9b5b7699cc7e8ddc7bdeaeafd6ff9ebeeacc777aefc9cbfeb9a97d9ead7bb99faabc8
col32:   9b6876dbcaadacb7abdca8d9ceb9ce9ced86a8cccf9bdfcbec9bbdd8efdbaebcaf67b9aeee89abda
col33:   8ba7ab9a8a88f7c7d5bd9fa88bceaaecadacac68da9feaddc8cebefc8cdddecacdaac6bc7cccea99
col34:   768d8a7abb9b9d7edb9ec6cb8aa899abced799abcc79acdcdfbcccedbabcc9fee5ecef98dd6cbdc8
col35:   6adc878bc89ae7d8bbdd97d9ac9a9b9cbb9dfeb7bd8fbbeafbaa9e7c7baccdccaacd9999ddda8c8d
col36:   bbd8bcb97a9cc97bbccbaa8baadabccc7d9dbeacaea9cfdfb79aefccb9afa89f9cfbe99adaa9fa9a
col37:   a898a9b96cbb998cbea7ddfa9ddebd68bc9bdadcbab7bfefcd9bbbbc9fdccebfbbedaddcdfabbafa
col38:   7a97dc6c88699b5879ccbdbcaace8ee9bcd9bcabcaedeae99dcc999db6cbfc5aeda6aacddbadbbf9
col39:   aca7caecdc9b72aeea8ebcbd9dbf9d7abc4edccaacd9cbdebbbeec9bfbeaeeca9aaacabe94c8c97b
col40:   aa88e99ae8f9cc9abb9daaaababbbbafffecab7bcafaaadbb9abed9cba9ffccff8ebebacafcafacd
col41:   999b7889a9bb7acaf88da9bdf9bda9eb9ec88ee4dfdddaaff9ab8fbbbd5dd8efceddcbfddaaacdec
col42:   a9ccb7c698899e5dcbc9b8cddcabbce9ec7bdddbeacfbbb9bdecf9aacf9a9cc7b6ad9e97ffffb7b6
col43:   b8ba8e9cddb9887acdd8cc9ceb979cabebdc8cd6a899abbabb9ffbfefdcddbbcdf9aeb997ab7fbd7
col44:   78c3a8b997daabdedbbadccbb97ed9edccdcca9fc8a9fbfcaee6fedf9ddfcddbbbdc9c8cbde97bdd
col45:   bdcec5bafbbba9c989cade9afa9886dabbccddf88ddfbcdcefcdadceffcdf7cfb7bdcb7d9cdaec8d
col46:   69aa67c9c99d59c8ad99bb97b9ad9a6faaaddbdd6cbbfc9affeccddfbab9faa98babbfebc879ffdb
col47:   6b79b8cd7dab78ab7a9badec9bafb8aa9ebccdfdcbdfefea9c8bfed7f9afbebff9a89c59e6caedaa
col48:   6b89ad976b7baacaa98ca9e8ebaa78ed7ead7dcbbc9796ed9b9afedfbadb9badd99ae8cbccdebccb
col49:   86a989b7b7467adba4acbcb874c85aa95c5ddc98e7bdebcbbbcbbb9ad99cedcffeb63dbacb9bb9d9
col50:   7d897cabcc789a879aa8bdb7b99ad88abbc6dabfe87bddb97a9c9bc8bbfbd6cd9bcfbbcf8f9ba8e5
col51:   b41654b9886c4678b5b6a59c3ad7878c9ac8ca8ac9cedc8b8699c59cca9ccf4a9996c9bb69aacdc5
ROC:	 BPix_BmI_SEC4_LYR2_LDR6F_MOD3_ROC10
col00:   6511868775b977685294866788956986499888556b778ea7a784b777b887769cc62898e8999a6778
col01:   a4667aba3989856999a96a98c956c56a9a76989579d98998bbcd9b9ae7e896d5997bd9a7889aba89
col02:   58a83812ba9967aa887a66547979ccc4976687b775c8b87b9ba6a9a38abb9989a868c6758a79b86d
col03:   89258882a68547796696999bac6a68ac67786acaa5bd9e676a87b69889c58bc78abb77bac9a9e6e3
col04:   756868a66575927947ba144b78b77c99a8c9c69ac99a9c85b8aba9c9c89eaa8897a899ada88dcb8b
col05:   a558565869558579aa589c79baad898b878577d994bbba8879b8b89aaaa9b7aba798a57ad5d8a8c6
col06:   8895997669c56a96977766c367786a8c5aa7caa99a9869879988ac88c88aa7bac979acca98899877
col07:   6659756897dd766969e6a79e95f4686abc9999b77876b8cba799cd9acca979a7ba8977c969999579
col08:   8263899b5848649369b7c7696687a689998aab74ba9a89c69a96b987b99489cabb6cce8c8ccd997b
col09:   9767887b55676969b727b9876cac8a86a9aab879dcb66a9677aa9b6aa9a58bc9d77a9b787978b974
col10:   986897bd698643c4bb8a86594ba8ba87cbab999bb999ca8b89c99989947b88bbc9bc899799ba6b78
col11:   44ab678ab98a88c97b799b8a54b9aba97a69b89ba7ea5d9cbce868798ba9b6b896abb85367f9f9a6
col12:   856a55bac5478993777958ab9ccd89c658b3b9b8a7797bd8999acaaabb969ab99aaa8b6e79b7c699
col13:   9647a77d99a588597a5a9a9ba8abaa9989caaa985d6b8a79fae8b89dbc79a9d5a88bb88d878bbbc9
col14:   83b9666c453589c59a9ca5a8aa89bad846ba7cadc6f8a6ac86ad9baca8dabcac7c9be7ceaba7967d
col15:   84866978479cd69629a34768a899e68a989aa98a6a7aa989368bbaa7ebb6b4b8b7d9a98a8957dd8a
col16:   43556a9889788ba7bb898c66a89adcaf79aba999885698accad9ab5a5967aa9aa9b9ab588ba85f77
col17:   9356685964a677b879b797859bbce946b698d9577c885dca678b98d6aa886a878aaacfc588bb9767
col18:   7167474586469ca7a9897457ba9a89aa966ac4e89baba9c67b6787d7e88a6bf478bb98c88c597bb4
col19:   64495453687998a85ab84c77ba98eb77663ba987bdabbaa6887d889bbe9ddcabd6d9a978d8798964
col20:   8587ab87a696987378a7b7b6cca3b7a7ca9a9897788e78796a9dbeb9c99a98bc96b798dc9985bb8b
col21:   37a638692876576a885749a99dbb876cbebab99686bba8aa9c89865c9bacd8ec8b777a998db5ac8a
col22:   5356574996989879769b95ac74a9ac7c9baaa5e8a8c9a7ac9696c9dab88acb9abdca76b4a99ed989
col23:   4368957b185999b785a6a79a4d8b9974aa6a8c8ba9a6c6999cda989eaaa77a75bb899cadd88b45c3
col24:   a4865c7a77d8b88a9393b667698be9bcbad9aaaaa776b86855888c9b9ca9aa7bbbacd6a8dabaa7fa
col25:   5a9687b988b9978869385c88c7a7a95afc9dada587da9bd8d9bbd88fb87dcbcbc99aa69c999bb889
col26:   563a87bab5b8cd9bf988bad9bdb78ebacdd9ac8dab9caa9cb886bd9a699daabbe7ca99abd8abbb7d
col27:   7578787a7c9a989997b9dc8ba9a6bdb9aaadc8a9a76ba8f699b5fb89c9f677dc86999dbc9b9acdd9
col28:   878a77879a9a57ad9db69cd6d9d88ccc86bcc9b9c8b6d5bbb9deab7ebc8dcca9bc9a9dda9a9dcae8
col29:   b69b9767aacb699a88ab8eebee7c7aaaaa9a688b999dcbf889b9a9beab9abfcba89c99b8e69cbbb7
col30:   5b6668a9aa88b7ba7ad89da969c7dabb99d69a969b988c8aa9aa98bc9a79cf7acca9b7ee8b96becb
col31:   73899bc75ba9d379a9aab8bcbabbecc6d9beac8eaa9abad987adb8d8ddc9ba9abdd9a7fabfca89ee
col32:   aab765b75bac8ebdc878a89bcaac9aa9beb9baa99bbadac8ac8ad89ddaacddbcca7acbab8a8caed8
col33:   269aac48b6ebc9778cddc9bdaaf8abcaf9bceac9abad9db8dbc977b999adb9aeeccdcaafb99ccbba
col34:   73c47799c996a9988ccaac6a7aaa97bddbc5ddce869cac8aeedbcca8dbc999de9cbcfe9ed8bab8ca
col35:   68888a787a87c7aada9bb9aded7dabdaab9ac99edcbaaeeaaacb9d9c9a9cbdebddcbaa98b9abd8eb
col36:   9588c9d7b7b896cb9c97b5a99df9ca9979eebcbecb8a7dccfd8789cae7d6c59abd6ccbd98a8ec9aa
col37:   5868cb8eb9a9aa9cb89dbb8cbc9bbaeacde9bbaf9bb9dcdad9ccfcd7d88bacd9cbceafabfdfcdaf7
col38:   ab798856bbbaaa9abbbf8c98799cd89bd8ab8dacd9bbedeabd8cfc8fcc9ce9baebdc9dccdcdcaab9
col39:   9aaa7c8a8eb6dbd7c9bda79a9bdc9ab8fb8abacba9b7beb8bd9aa9facebbddfca9cabaeccb8c8fc7
col40:   6c998c8989cb9adbbbbec79c9ec8bb8c97acdbda89ee7dbcec9b8b9a8bbdfb8cbbdafbfbcfdbeddd
col41:   a9a99cac9bac59d9bb9c8b8fcdbbecbce9ecaadf8dedd7b9adf8cbfec9d8acdde9bdbdadedececcd
col42:   ad9a5cac88bc8c7b78b97ac988dadca9f7aaf9dcccc9dcae9bebbf9edaadbcba68db9dfd6bbf99ac
col43:   97aac8daca7ac9acbcabebcbcdcbbecfddbe9dc8c8aba8eaaffbaac7ccfcfaec8bcabcbedbdafbd9
col44:   89b6cc8a7de98d789c98dad9bb57ccfc9c9db9eafccce89aaedad97cc9dcecc9dbffbedaddc9abbc
col45:   5897a8959cc7badb8cacbcbbbbbabcedc9b9bb9fbddaeaaaf8dbe7da8a8ce7d9faadcadd9bcfafdc
col46:   58418c9b897b8abbc9bbad9cebde9caedeebdcfeebd7dabac97c77db7efd8ba5ea8ced98acbf99fa
col47:   989a9699bacba4bc9caafda8c9bf9da7f899bfcddbaccddc9face9cabcb9cfc8bdcbcceddd8ebdf9
col48:   759aa79c69c9b99a7cef8c87dbdedcdecbaaa9afbb7b5eadcaacefc5dcacccdee8fcbb9c7efffdbb
col49:   45988bb8a7bb87ca9aadbccc9dc9e9f7ac8db9cca8fe89a9deabccbadaaacccddcbbebbcdddbfbce
col50:   b69a739b69bbce6da5aaedbacecddbbc9ccabcecc9daec7accea9dcc9cafeeaf9aabecabd85bccda
col51:   7a68d96a68b956888ab7b956e8badd88da89bbab8accbb9a7c8cab7abbacbf89aa7aec9cfc7dccb6
ROC:	 BPix_BmI_SEC4_LYR2_LDR6F_MOD3_ROC11
col00:   497769453269b6798566a62865d6964ad8859a4478ab7a2aa69c792769bd1487541857851396a257
col01:   78663797694757a876a7975c9aacc9a85bc7baae9cd875c8289579676ca9aab5ab696768a769a87a
col02:   47a9a854bb769988b8a7a97489a9e483a7cbc852a887ac699bf9b478c57b6b87b736a27a483969a1
col03:   99c3a975776879b9a8678b56aa8c7567cacba7a9a5c865c7c96ad9c88a8b8938acc8895a49271554
col04:   b5978a6b7775657b8a888865acbb5877add7c9889ca898a8c98eb9aa8cb6535f8a946da6b8a19696
col05:   a8557b64d77aa98fa63c7b3a37ada8cb8689886cc8b4dc9bc8589656a7ad6aac9f57959b36447987
col06:   489b67b4a9655a69496a89ba8986d75a7c789d785c79947b599878d7a6b5a7b85b8376829779955a
col07:   bc8658796aa677a4ca9ac69a997e7b3975dedacbb3caba9c969b7ac79e98ab987558a9a857975857
col08:   686647a4c96775737c8799acdea668b9fa58889f4abfb8a9a3ba569b6979bc9a8f6a7696597b5684
col09:   8ab989a65dc6996a9c7a5c8894a9abe9f889c8aaca677c9ce8999799a9b87939864595a89a656814
col10:   88837a79b38a5a9c775557579bb87abb85b887bc9586b9aa95994998dcaab81a8b6a875b8667572a
col11:   a75976a8c343b444369a97a6868399dcf8db9adefaa9a958f7a865878ee768b84a577c4364796b34
col12:   78cb499954aa5abad687b856b9b2aa9b89d99a66f5758adbbd79bedc9dc9996998ac7b8988a99498
col13:   a9bb5596917495b76aaa54bb87ba79c5fa9cbf898b9a984a78976a5b999a4bbd79a557bab59a7991
col14:   67a81969ac9ac8ba7c9995baac8b87bcec68abb6aabbdaacabb48ab96949bf9a9cb77b698d449692
col15:   778ab879a47d8f89ce9749a5acadb49d9437bb88a9dbbbaec9a75895859cd566767779d658993897
col16:   4b844958589ba7a465b398d7fc688ba88459ad684db89bbc77698a8557969787d7a9a966ab6a8799
col17:   858ab789985a8ea8ebb9947c8aba9ca8fda88abebc899baa98a95c885ea95a749b84673888865587
col18:   7779384974576b8787583398b485a86b99b967745a799abab7498a7d9a797653e487b96877998976
col19:   9ab9672376a38ba6b8a65599bcb79b9ab7e6799a966999b9896b78a98c6dd97759dbb6bb8b94aaa4
col20:   635c675ac668a847c99589899c59d2babbc9989a167a8b9ccd47988957c9dc78ac5a888a782a6a29
col21:   75889697638b9976aa888998958898db8b9ac98fc6baa6bf666cd6c7c199b6a9a3859934a968a8a6
col22:   8ab399adbd95398baab77878abc69988abba69a96aa6a5a7b9a7596bc69d959c98ab6a7b63796a75
col23:   7738354cda9ae9b9c9a65b4a7987aa86885a69ab945a7aa54a6b9dcd7b8ba896897a7b667535ab95
col24:   a76b77b4646b77a87a8c869abca99a867d896897b9ee89744947b586dd9668b61d65b95ba86da383
col25:   a6baa7968a9d9d89358bc89cacb667bbab654bcd9cadc7c8b6cb5ca8588aaa77855b76fb69756595
col26:   aaa8977b7ba8a8bb9788aac8d5a88a69f988bed87cfc89baaedc7ebb7a79b9ab698cd773a9b6b745
col27:   9ac78889caa9b787ed3bbc7c997adb9cdca6a9ad8988cefa9978b6cdabcbdebccab979c68178a8b1
col28:   ca8a65abbdabbb987696d9da6aceaf795b9a96cdf698ebdabdac9bac9d8b9c8699ea669aa9878cb8
col29:   7c8b9a68996ddd9fd87dddcbc8cad8edccf9c8ea9a7ecc95c96cc9bbd9c9c7c8a976f799896a7bc9
col30:   1c66aaba7856aedad78afa96cb7cb8a9babb9ba9b8aabcceaac7b9a9ee7caba67bcb7c97c688c967
col31:   99baacd98b8eecabf9dbeb78bcabbdbfee9fbcdbe97aabea9caad99ad87c7a8acfe9ccd9aab77ab5
col32:   b79a76a9bbacbabedcbeda8a8ccdb7cab8999cb8ccb7cddad99bbb7acfbdfd8a69495af98a79c987
col33:   8cabbcbaecab7dadbd9f8abdafd896cebe78cb88abdc9f56e8bbed999a797aa79dada9caaa97ca79
col34:   da9c97c9b7c7ead7f8ecbcadbea8a9d9aca868a88fe9798a98dcdbb9dbbccba6bcbb8aec27997b49
col35:   85befaa9c5cc8d9bbbecdbeca9cabb5cf986dd9beb8abdbd7a779e3cccaeae8c9ed8baf79baa5d67
col36:   7b77a48a49d98967adad7bebbc9d9a99aaccc85cbbabeadedabc8997fcdc866cbfeb55475ae66d75
col37:   b8bbbb85bddcabadcaa9adaa9cdb9aed5abd7fe99d9bdcd97dcfbaf98ccfad8eadc67cdaf9bd77ba
col38:   97dc6faccbc8794aafd6dcad985ebebd8adfeadef9ccc9d8beac8dadcb9bb97ef998b89cbd978f9b
col39:   6c5a9abdcb9bca9aeccdb8bfacc78ce6cccdbbcf6dfe98d8ba7facaa8a9e998b6df5697ddb9dcca5
col40:   978bae79ae99acb8be99aaecaf899cebbd98cbe7988abf8cadb9b6cfada9a9b6a7db98beba856a48
col41:   b89a99bb9b598bcca9b6dadccdc9ebbfcfc7dec98c9dcefacf89afcc9afcc8fa88b9e6dd8dafb798
col42:   adbea78edaab5badbccbe9eafb97bdf9c9edfade8b8fec9ac8bbda89cfb8cb6aad9aaa86a7c9a9aa
col43:   a3db6dacadaffb8cfdbafffda7acfecf9fdadee9befc9ac9df8dccb9f9cccfcabbfd9f5a6ddc7c85
col44:   5a67a9aeb7bd6cbaeddd8bbaa999dd8cccb9ecae6ecfcbbb868bbbacedffcaddaab6bad89a8b8979
col45:   dbc977ed9d8ca8bbd6eb8fcebdbabaeadabebbfaeada9fbbe7bd9b7fec87bcadd9dc79c7b5559dcd
col46:   898e7c7bd47c9a7ccd8e7bdfeb9bdde9efeab88accacfbbbfeecbdafab96db78daf7b5ab6c777367
col47:   b799e89cec96be8e9ccb9fdc7dbbb8d8dfbdbbafdafadedaadffbddbbcbdbabe8f9ddf8998f7b971
col48:   6a699cc98bf97bbbacdd8c6eae9dcfb9ac9f7bab8d9aeeec9fadaacd8f7db9aceebb5b7a9bc978b7
col49:   a8e78575f89bccebdbbbadbf89dbbdbd9baf9f9afafdc89b68ddacac8ecafb9bb88cadebb5ec89db
col50:   bc8c88a77c9bb7b9cb9c7bebbb9d9bcff9dadbc7acfdaa8ec67cefed87bcddabc9caca78e9af9c55
col51:   b8ac7ab4a996fcba48bcc9daaaa66986adcadc8889cab7949bd78cdaa879eb77779ac6696685bbb5
ROC:	 BPix_BmI_SEC4_LYR2_LDR6F_MOD3_ROC12
col00:   5575a76db4889647967c62d7679b9b79c678e4b99a857b9974988b98686674c868c854b3769be928
col01:   88586399a9877ab889658c9d859967c7866e78898da689c989aa9ccbb9ac9bdafa59b99ea78bca55
col02:   896637687dac87eab6ac99b8daee6799cebb6679dba97cc7dca69596b5d864a6b9ccb5dab141385a
col03:   a6b89ad78aa6c9e8fbb77ebd879c75da589c8aeb8bc97fbd9c98bbbaf4888dacb5cb939b79abc5c6
col04:   9686a6785998a94c67bf8877786a579a78cec9bfb888c89ca89dbd77a4bf87e8d7c89c988687b94b
col05:   ac1a6bdaa8bbb97bbbd9aabb76c78bbabcce77a4a7eaa899d795799aa6d996dcb6c8b8a9a8a9b5d7
col06:   64597a6c68a3aa7ca757c6bca87aeccd9889fccba3d59767678477b7dcdca889679a779775d958b7
col07:   c78a615c87979a9189e699ba75d89cc6ab6a74a8dbcf8c9847c8cd77a4b6a98d5ba586abb5cedb98
col08:   6328a6b7ba6c94b95a4b8989f9966fcb998ab8987b98a989caac6b9ad88c87c769ab9b54999898ab
col09:   47c9b9b879dba57adcbbcab9abbe7d98ab8ba9acb8b9cddb6fbadace98acba59a99a85cb79c7fa65
col10:   a64c8bd7a4bb86c6ab88978cb4887969cb9ba86ac9ba886bbfbbb98a8beba7aa9d7a5b744b98a697
col11:   4a51679e8b9c99b9acc7a9f9688eebb999aea6aa67a8b8ca6999b8cdb5876cfeba788ada67b69aa9
col12:   3b349b7b4595989da9b7c89988c78769d9bbe63b69d999bd979bb985c9649a8757eda979b7dacbd2
col13:   72b49576dbd69addb6b9bd5eba4cb3dfbab9fda6aad797cdcb7baff87a4d35367debbb5b99a867c6
col14:   a78b79c9776869aca7b885a5e49bab489a4b99bc57a8b87b98b7b7cc6ba685db8b99b8b858568b75
col15:   4d48b916aaaa6a9598aa7f8bf7da6a9c8bb9a8599c9d9b86cadacba5e771aabb9cc6956868778458
col16:   466a656856ae9a96668145ab8b98dbba9cca8348eb887d39daaa9694835c967596c8987c8547d697
col17:   8564c966bb969c76d897d7dbe999a8b7a5a6884a888a99ca78687768a795ed9a9b6857a847869587
col18:   34a8856a8ab76379657babeaa6bedd6ac8a99cdaa9dd8594a998c77b9c7debc7b495981b7777c856
col19:   6967979b9567d98bb79bda8c9cd9cd7e8a775c66c4d7ba4bbde58ab97a777cd8aac8847247ccb746
col20:   7532aaa7b3c999d36b844978ae7ce8bcf98aaaca87b967d6b7a6bdba947beb3a8d2b96ca965ec5d4
col21:   b5a7b74ecaf7ebb9c8a8c7997bf56c79b9b59c97976ad69bccc79aaa7ba6dc4aaa88ab98aa8ba78a
col22:   469a728a9a9594aa8577a8898ca968987ca778acbc8ca6caab8dcabbab7858a66aaf89895976c979
col23:   3a734a737597aa9abb98a97abc9c9a87acc7dda676a78ac5cab65cbacaab6b96bb89a784d9c65b99
col24:   8888b366bbb699a879caa65698a16aba65c977b49aba6aa7689b8776873386a9a787c4bad6c4d8a3
col25:   97939769749ab8a9d69dc7adad98dca7db85b58cc968999876b8ce85887b3acad88f889c8938a867
col26:   a8a5b5b59bb8988aedc6a9eab8988a9758c679b8cbb97ea7c7c76bd99e969dbbd7e96999bacdb9da
col27:   aa9a76bcdd8c9dfca9b8cddc8abaaa9aacb8cb85e9cdbec8da897a6b7a9aca7969ccb5886aba395d
col28:   58ac988c28bbcdb6d88e8cb99fac79d7f9a874b7b83abaa99aeba8bbcbbeffcccb767ad9adb6bccc
col29:   c7d69bdad7a5c6bdc788bcbdbd879dc99f8c7abce8eb76a987989598eaaac4fcaa9ba79699999d9b
col30:   7ab5a96be686f7dcbb858dcbccb9fc99acba9c889bbd949689a89daab3bafb579d97ed88aa76aa99
col31:   d8aabc8acbeebfbeffb86ca89d6addbfe8cbd87cbdaacb7f9e9999db967ecefb9f49a87ed97daeba
col32:   3a679cd8bd9cbadcb9efb9cecaaec8bd5cad89ad6c9eccabacd6a96689c8dbe94fca68eb9e89bc8d
col33:   ca798aa6dbdead9b8b8fedddadacbeadfbcedbbcb88eaacadffe9c968c7ee8adb8e9aceb999b9ac9
col34:   6767aa9776e97cd8cadc8eabacdbdcba8c89aabbeeeaa88dcb6dddeaccfade8cbdaacbabaaa7d78c
col35:   b389d8a9fbc5aaaac9afcfb9bcbdff89bd9eb7e97b4a8fffaabbec89cc8b97abcfc9bbbac78a6dab
col36:   768ad6397c8aca8bda7ccb4daa9ce79abb888aa8bcb87abfcaadb8f7a769bdcdba5988fa79cf9cce
col37:   7e8d9babcfbdbeddebedfdf9abdce89bbbbd5ceaa9e7fae9969b9bf96ddeccad658a8c73cebad8c8
col38:   56adafafdbb7cc7fbbfb6ae6ddcdcadbb8bef9c9cf89fadbcd6b96ca8e9bebc6d9bc67dda7b8aa5b
col39:   8c876cdbafcaab8998efcdedd5f8cc9aced7abfb7cccd6c99d8deb8c5a88bbc89daae9bf6588be8c
col40:   a98abd6deec9caabb7aeaabfdbc8fafa5ce8fd9ebccbd899ca47daaacee8f99cc97b888cabbff4a9
col41:   a889e5767cfbebaa879fac7a9dbdf9f8dccdef9699eac7bca55feebcb9f9da799aa8afd95b9e8e8b
col42:   a9c9ef99dceaac5bff7dfbcfacdafaa8c89dcbd9dff79aab9e6a7ccfff88e6a9e897a7fa86be9a89
col43:   7d69b7dbc69ba77fccc7fc5cedce8bea7bcbc9cb9b9ab9f6bcfcaccabb9db7dbbe9afcda7a8997b7
col44:   b6efccecad9cc92c7babbbba79dafddc79cdffccdc5caa9ac9abbfbaa499cb7bdd8ceabdbeae8b9d
col45:   a9bbbafbd8e69ffdeabba6e7bc9bd9c6e8fd98bd4ab9cad7e6abdd9edcdfbcbacba7cecdaebcacd5
col46:   ce99cadd9da9abdab9feabbc7bcd8feddf59ccaeb9bf9ee9bceb9e878e8caedec999df9ccccec7b7
col47:   b7c6997fbab9bdd68a98df9c988dbfcbbadadd7faddc9abdba8bcea7b7abd3c7a85ed97babd97abe
col48:   aeb999b9ceaebd7ddcda998bdadccbfb7ddeef97d7abdae77cafbb9eacece7dccadee686a9e8d8a8
col49:   8d5a7c7acabc89a9feaabaca6caecf9fadcc6eeaca3977ff9eafab5887fdcad8bb66bdabdba76cad
col50:   eb7eba4dabf98cfafabcc7ccdbcfca9abfedf7debcb8dcdfc79faebb85bacbabaab99b6dfbc69479
col51:   9566c7d486998f796c898baa89a8faa846bac869fa8ba56cab8b3c879b6fc69f8a638598a37876a8
ROC:	 BPix_BmI_SEC4_LYR2_LDR6F_MOD3_ROC13
col00:   3576b8464967675a967486b668545696995787345587b85757868878a79978cb9b7889f74a727693
col01:   8369a6cb8998a789a769d5a77798be9c96898a5b98da4b659a9a688b9965abbbba95ac9a88cb97d5
col02:   2a85468519a849755aa7479a8b9a98db97a89a2a8cc487978b89c7aba986746898ca8ca99daa7b76
col03:   169578c7997ba768d8b986a9a68477969aaaab97aa9a989a79b7a9aaa9ba78aaaa799ca89877e4a5
col04:   78779aaa78b968b8663d97668aa7779bc5bbc79c8879abb5b8c7a9b8abc5ecd89676489aabb9b2aa
col05:   552a5812685aa587ac67b6a89b8889c78b8e87a7bbbcbbcaaa9ba9ba6ebe9c7a9ba8a95ba4878786
col06:   6ab357666c7aa66ab79994a88929cb7bb88bbb89ca7c8898a7e97fa98685de7758ebaadcc876a887
col07:   273868646766784aa9c8a9df7abd9ad698a78998ca7cc97b8868a998c9a9adb8c9aab7bb9d7abb78
col08:   7c6897888777679a567a5cab9ab879a9b9986b9bb9b7d79a699c98c88999ae87567ad997b999ba97
col09:   74557a7989788939a878896a78978acdb8c5c4c9b9b7a8babeb6d5b97b99e48998d9ba6b67ac5876
col10:   7576bcba7a64a7757a9b78b87ea8486aab679775b9ca85ab96599676c668b79aa8ab8586a8ab759b
col11:   868587858aab79b578988acd995abbb999a787ba8aa99b798ab9bbbb76b8a99e9c9bfaa8a5696aa7
col12:   93b66558b7979897a4e9b79a7b958b8bb7959dba7ba7978c7a6aabba9b6ca897f8ac98b685aa9835
col13:   79a768578c6627a9ba5b5989aac558a86996bc79d9abc9e7bca7cccabc4aa8ca89cb977cbae96c89
col14:   877878a667a9b888a89ab788c59a8b86998aad8a79baa8889a9ccccad748898ababd976b9c879989
col15:   7ab3a8768a8a8997a79a878699899d5c997ab869b999bed8bb88c9aa7b98bdaabcd98bca969bb6cb
col16:   8839855988795836a359938999ba8998b8a9978bba7c269cbb8a9b966b3a9b8b998b999bd96b9794
col17:   995a8caa868a8ab9a88a667aa89a67a9ca88d69a9d96acc99bdb9abba9b4b78ccc983a9a985ba8b8
col18:   78b4597a9689878b88a565a887a7b98cbcb68c9d89b3d9b77d94878cba99d98a9bc8acbb65998a87
col19:   b76588878758ca876b7ab38acbcaa79b7ca966889d9ba55b99b7d69a6cdaca7598acb9d7bab8e7ca
col20:   6867c799aa9796b5c7b99895b668a9b5b87789a896998d6ab7bea7bd7bab9bc38a799d4ba6b49bab
col21:   675a83358bb8c7c7a88ab7a87acbcb7a5abbc8c7899aebb76acabc89b9bcb9bab77b7ab978ab57c9
col22:   5659b5a5a89c7b897a8a9678bb9787bb9ab8bab77add9895caab588988dabd986bc79bb8688cac87
col23:   c5a9a888868a7949535d7b36a79777c9d99a6ba677a7dbad7bbababeab79d9dc7cb779899788b953
col24:   769645e56857285975996987aaa9abd88cd887cba8899d966ca7aba78b9a9b86957a8858868a48a8
col25:   a8a477978b9dd79979baa99a999caa8bf9696bb6886d8acbaa7bd8babcdcca6cd97f97ad7abcac8b
col26:   8576a58698a7a9aa8b8daa8a9c84c9d8bbeb95bacafabdc8dacadeabccabaebd977969b8bfd9aba7
col27:   a79ca8c888ab988da8bb95accab9b7da78c9da9dc63be9e8cbababcbd3988bbdc8b6daef98abadbb
col28:   a78b89a999cc6ac9b75889a8a9cacac9adca99a9d99ccbddcb78ebc98dc8dab89cbeddccda9bc9bd
col29:   888799987aabc99b9cacb9976aa67e6f5da9acbacb9da7cceaababcd9b9bcfb98adf7688d87ab8e8
col30:   598677878b678ab6a9cc9ca9a57ca78a7a9bcab98ba8cd89cbffbf9caadaecb9bacbd9bad7b8bec9
col31:   79cda9bceaa9dbd7c9bb89dcaceffbddfcb7bae5dafc9dac9cfabb9dbd9cdf9db78db9bdadcdb9b8
col32:   a959ca69bac8aaab8b768adacbdadecb78baaab8bccbcbccf8dc98bedcb9cfbbad99c98be9c997ad
col33:   a688a98699c9b99ea7cab89fa7bb9eaba99d8cdbbfaafddcaab98accbccbabb7d8cacd9cdb8bdbde
col34:   a798ca99a9d9e8fbd8b9baae8fceea9bcccacd6acfc9dbdad8face5ade9c9bdcd7ddcdce9d8bec8e
col35:   789ab97dbc9abbaacebc988dbbfc8bd99d9ccb8b9b9bcc9bacdb99ccfccbcddabdcbcfcc9ace8daa
col36:   8865b896ac8858aa6bc9bceffc9a7a79dadbbac9b8efbebacbddd99bedb8bcfabc6ceb8acebccbc9
col37:   c99caed7a99bcbafbe7eb8badddf9db8cbccba9aacecaceeccedcabfeaabf9caebddd7cf9eadbaca
col38:   878cb6cabaabbaa997c9bbb9b8a9dc9cdaccec99bde98cdfc9cea8ba8b8b9fddccdcccbdadcec97b
col39:   b8bc964a68b8dcab76986b8bc7c8a7b6d99ce9bbb7ed99c8cbcacb4e8ba9b87ccafbabe8bcb9bbbd
col40:   a6aabc9ab88c98c7ae99e99cbde89bcecec9cbdeababecd8cdabb9abcaedfdbcedcdfaabbdc89ecc
col41:   a799c9ee9aac9ababb9f8da69dde9abd9cfdbfcbfdeaccff9eceaaeddcac9aabb99fc9cccadabc8e
col42:   aba9efe7999b8b7aa97c8abafaacbc9ba9badf88bddcc8bdbefedda99ddbeeabbdc9a9adb9b889dc
col43:   9e9c9bbaa7c6b9ddfcfceb9abbbdbcbc9bcbdbf9aac9fcf9ccaffbaefedac9edab9eedecacbbbec9
col44:   2db5d8b8d8bcadb9bbdcebcab8abab8bbcdaecbadbabbdabdfcdfaacecfeddcab9cfbfdccccd8bfe
col45:   9bbddab96bca9778acd8cd8cda9eca6a8dec9bec99bbbc8addabfaecadabdac9aa98deddecebeaab
col46:   aba78a889cddb79c87dbacdadb8a9dedbacdecdb9dce9d9c9fcefbdadbecda9cdc58cfdac8bcdbcb
col47:   77898aa9db9be9d8bb9ec9b8dd9ccccde98f9cabcfa9cddabba7cebbdbafab79beababdfceadcf89
col48:   8bb5ecaca8eab8baeb9a99b8f9acbdfcebeecaabdedbd7abebbc9dda9eabf8abfccfbdeefdbacefb
col49:   aac9b9cbcaaccadca9b8bcacabcecfd8ccedcfdbeeaaeccfccbc7bfcadfbb6eb8daafbcbbebadcde
col50:   99988b8997caaacaaccdcaca8abac9cbde9cdcaeccdceeedadeddbddcdeaaeadcccaf5cac9faeeee
col51:   776775b999bb9967c589bacdb9ac5edb7baed9adbbbab9c887cb8a87c6abbc6bd9cb9969cbaaeaa9
ROC:	 BPix_BmI_SEC4_LYR2_LDR6F_MOD3_ROC14
col00:   4553666c35557799432346ba438787457771874942484573557948575958b7474856866949818145
col01:   388986589c67cba7b895787866b9a86997ba76a8968c88b99a2b8254a8c79baa769854a78a959779
col02:   95a86862996c99a8a6946879ba27847659688893a5665998b776476658da65584516383766358178
col03:   b7378e88a8686a7767b878b7cc78aaeb8a776a9da98557aa6ab4986575a493b77845989526779459
col04:   35b4665947a7a96bb63b75698d98cc95b8897a76bbb54543b8789869a577797ba32967b557767844
col05:   8699c961ba87986cb369a966ccab857a8c8b9657bd5a7ab683c885765ba735898995ba59587b5728
col06:   2b8965796c77a66b6876a8b375d95bfc8577aa85875c676778398317789449518763637b2a286461
col07:   a9b478c9687bab86a88a997da8db9f9b9b3cc7c7b4e87c88cdbaa9aba9c7c7966778744a8437a365
col08:   5149846b894898c85a8a8957e7b87b78da8cc6b96b8658a9752488647584557787a5774646a75734
col09:   999665449859a7b8ab77aa49a6a9b78b5b9b8c699b96c76ac9c99a47cbb4274c888535746a755a46
col10:   84715a775cb5675796bb4a985969688875cc769a5aa6967e3989878bba799869a7869b586b373421
col11:   56977737878c65f877ec9ad688986d87a7bb898da7b957ba76d7799547bb6775a837597625563579
col12:   8792c4598787bbc7a86c6877937889d9b98765cd4896894866a59665a149468a4757298a18819387
col13:   a8938a7a98a8bb54958d89b9a767abcead9ba89c59748bb98b8a5a3aacd787665aa86697653a549b
col14:   5766754cb98a884b6b6c7898a69699857ba8a484c946d86875b87979a8ab9b976866953867828113
col15:   aa4b57b5a899a9bbb7b82a6eaa8a758c9ba876a8779db6a4a58a968c758b7d9886c6738697844784
col16:   6544b9a9c97679889978667b99aba588b99a8baaa65a58856bc939658976a837a757757766699761
col17:   fb77ab7979ba86b96bca675a59aa9998bbc899a79b8868887bab4378c844597787761584755316b2
col18:   b656a585a69a7ca9898b8478dba985b978aaca98568446a57876847187685568175a26655a343416
col19:   b267899dbfa5a996d8ceb6b9e68aa9797d777699ea8a7867c9dca8b9cc578b68692969484624a6a1
col20:   577585a769a989c957a6d498577eb7b887cb578a6665a58a986779c5979688485654845a883952a1
col21:   8bc87765dacb9dbaa5da8aa5c7bb8aeca8c857bdb866cda7762a7a7699986897a555169876679665
col22:   868bd79a57a76957a4757a7a892c9d998c9ab789cc778b5ca6ba9444a779969f69328b9885665548
col23:   66a8b68fa97aaa99aa47a9ab77c6b87cc9b999baa6d8767ce964776628847a665324656733984966
col24:   6976c95a98966b99a887aa77bd966699a89a85a67ad885658a7b8976796a751a7677374a67361644
col25:   adcba88bbb77aa78949acc76b9c96adb795888ca8889bac87b98c976b7c4ca7a6777a56389695833
col26:   b7878db8a7b7b9c999cbc9adcca8f9d9a788c7db9dbab88e7aa8a97d59b86ab5686d789a986a77a7
col27:   8a77b9aabad8b9868aea86d99abb9b99ab99cbaab8cc9aa9c78d99a8badab974d8a598778a999687
col28:   967a6738c7cc9dc9faa8c7f6d9ba998aea7aa87adceabafea8c8aaa96c59497ab7d6854798884876
col29:   95888aa88ad96cd8dcbbdaaccadccb8b9b9d9cecbadedfcb9bcb8b6db797a598cdaa69599786b939
col30:   999fa979cd9ca88ccb7ffa7bcddded8cbabeca878cbeada9ba8dd6c98bc986ca8b6b6a8c98945944
col31:   9befc99c9bfcdddbddfbaaefcaf6deffedbcbfabbb99bcfd7bbad85ccd9597abbdad8a8aeb7aaa95
col32:   786c8aadcaa99bf8c998cbbbec6fdbc9acadfbb99f7bffc9bae7799b8bbe9ab7b77674869c5bcbd3
col33:   99cdabdb9b9de8ecbeacc9df7aededdeadcbaacdcc889bee8cd75bf7deca8aa7d97ba9ddbc56cd85
col34:   a8b99c8aeada9d9fac7da9bbbd7fb995bbedfabfb8dbcdb8bdaecbbcd89c8adb8cc8bb76ab5ab97c
col35:   8dcfd9accabcceabbaaeacfcca8fafc9acabdc9f9badddcbabdcbead9fccbc77bb49ed8d7c8a7985
col36:   8fa9caad9e29cbaafd8adf899d9fcbcaaacdcbd9dacdecde8fbb8cdcbb9b9bf98b5c87b9bb98e68b
col37:   be9bbd7bbbb9afecb9cb88dbefdaceffcecfdefcffa9bb9d7cc7babd9fcf5bcc8d88cfbdbba97ab6
col38:   c69cb8fdedc8cbdff77ab8abdce9cccbaebffdd8cadadbbdaa97bcb99edcb9db8fcd6bb9b8da86ab
col39:   98a8acabddacbbeacaacfccec9a85efd7ad9edcdbdebccda8abbefbc9bea9bfb95aa8ec8a7bf8978
col40:   99cefdab7cdbe8abacbbdddbc8cbfabbfdc69f8ce7ccc7be9ecacbaadb7b7b97b9989979b9e9ba87
col41:   eca8afbe9fcfefbfadef7dbdcdbdafffbbdccffacbfececcfccaaeaaabfbb9dbd8da9daacb9a676a
col42:   9b8adcbd95ca9beebfadcbc9ecd8ddaee5ccebb9cc7ceea8bcc66eb9bc9b69ca8dbb98a87b6b7959
col43:   d8de9dfdbfdcdb9cccacdbe7fdfddffedbedeeccf9bfc9ecdcdefbb7cdcdeeddd79bcf7cbbc89aa7
col44:   bd6cddccbccfcacbc9cdfcdcac9fcdfdbbdbfabee9bfeecacbebb69ebbac7e9adccbbbcaaaad89aa
col45:   ebfacfcdd9a89efb9db89bafcaa8bcbbdcffdfcfbddbef6ccbeffdbd89ef9f9bbc799ab7b8af9abc
col46:   acafd8eb79beedebdc8ef8fcbfabcd9bbdeefbcbecf5d9e94ebdfddbecadbdecadafabae988e49ac
col47:   d6dd9abdabaedbbcedeebbddffbaccc7d9fe69bccbbcbeafdbd79fd9ccaf8bddaaccbd97dcbc66b9
col48:   cd99796fbebda9aaccccdf9bbdcbfcbcdddbdbbffebdbbddcdecbcee7f9daceacda79eac999aa656
col49:   d9bfdcfdfd6ee9d9accc9afae9ebacebeafedcdeaddbadcdecd7bcfeaad9cb9fdeaecef8a6f75bba
col50:   bcdbcaafdddfbed9fa8aebaaadcfdefbccedaeddefebd94cdbccbac7bf98f8cdbd99a8cc9967ce7a
col51:   adcbfebaca88bb9a89bbcebfbedba9abcd9dedb7bd7b8d6c9c8dabdbccfccdd9a9b7a98a87887586
ROC:	 BPix_BmI_SEC4_LYR2_LDR6F_MOD3_ROC15
col00:   6445849387c658976856697a767474877594797659e6641448456286a8768465879596149589a49b
col01:   688848c5ab77625897b97bca88ba98979956a45b66a79e6abc3787a68a77ab885bf65575b696b872
col02:   9781b777bc96a6a683b55882699b69c8c8c68659678bb957568a987349495a898aac93a787b87a9b
col03:   5845bc59d988d95a9a7b999b859798b7499fc7abc8588acaa889c69baaa65988da6ad6ba789b9549
col04:   84687675baaa57c8a997ab869b86883895c8bab9358c77e99886c7dc9aa7a573a6e8878b8888a657
col05:   58a56ac98594c9a8aa6a69a98bc7cb49aa49d997baae8a776b9a5947dd887b855c498a8b69589384
col06:   698565a667a967a96c76b7ba87573a79a8ab58aa6777867b95a5b778e4678b87946856677589a688
col07:   7962bcaada78b97dca8bba7dbb99bbba8a89bababb7ceacb79b96a58aabaa9bc99b46777898a79b8
col08:   3ad77965785967b53778847566581c6c7bd7b67c6a7ab79bb979889897a82a778985877986495974
col09:   3a6a79798686aa953934d2a988dabc998abba77b6899caec9a9fad7c7a89ba9b7667c8585568586a
col10:   656469a5867968a87594aad897a474a7ea786678b898a957aabab4c99a88b589b86673699a887a65
col11:   97458a185aaa9ab99a9978a9779daa7ba67a6968eac9a73b7a766bb7aac78d98f6b878878d9896c7
col12:   a85b69746a986965478aa889d8ba96a8ab69b87a67b87d869878acaa88899db676a678a7c3747a99
col13:   8b6957aa9d35b75896b8b9ae9969bd88d89ba8b9d7899dc59969d778a87a99a876988968d69888a6
col14:   6559879aca57a8a679897edb888cc67a7dea8675a676aaaa98a6dc96aab6b6bc687ca688a6442851
col15:   a4745a5499a7b6389ca9a7c8a78b88a9ac99878daa8cac7858bb998b77ca5b77a7aa7d9688b8b785
col16:   d8a88bdaa887a567db9c6a7a8bb788b99c99988adaabc68c7a445b7baaca776a7c67788b7386674b
col17:   379c68ac9879b99a98a79ad8dc5cd6998a89ba8d7b979a3c77bdc759a7ba96cc6bc766868a587886
col18:   76467952372c98a5c9a687adc6a7b7c97a6a8baaa5ab84bb79788877aac65cab77c4585459869496
col19:   b67687b5a696db9aa999b8ab8bc9a98cdcdaaba9b9878daaaad1997bc9cc9ab68eabb87a95cc4995
col20:   5a87776779845bb57b9a9a9b798b99ad86cc859b9d6c9b5d87b98c9665586996ab77e655889988a8
col21:   487675b29dd7957daab3a997ac9babb7b7697ba8a9b8c66a9a8989d9abb795b797889687b98997a4
col22:   2548a79966566b8899bb8695c6ac9a6a88b587b5899584c98c689b9899aaebc7a773a988bb866a66
col23:   b3867a66b8aabb7abb5bc9c7adb54abacaca6c89ad4a89f798997a9969cdbab984ea6a7b9a9c6587
col24:   a8675b95886896847a4ba997be988a964d7c88b79b9bab9a9b399698e477765986ac3a8b8a9a796b
col25:   95787b869aaaa6dad587689c9bbce9acb9bc88a8bbaaabcbbba8cba9ab879bcaa77a89b78d9897a7
col26:   88dab8bea5bb98adaefeacbac687aacaedeecb96a98bccbb99b9bbbb88add6abd9b9e88bc9b8aa6a
col27:   396c9c59b9b989b8bbbb9c9dcb9998baaaa9db7fd7a98bbb7caa659dadabbb6d987b8db47ae95c7b
col28:   a677889b9797958dabbfb768dddbba99a8bec7ac6bcaed8898cbeacbfd9c9c998dc7c8aba9b9bb6d
col29:   b7aac78bcb7ab9d9accdfeebefacaf9ccabb5ebdcbfffabadbbbdadb79cdb7d7999bdcaaaa679a7b
col30:   a7896c8fb7b98ca8b6a99cb9c9bbbbaf9eaf8babcacbd98bacb6a9faebadbdc3e6add78ab6aa9ac9
col31:   c76cbcc9bfeda8c996aabc8fdac978cdae8bcdc7accdcfb8fcccedd88ddef9aaedceccdd8ebe5dfd
col32:   98c9bc9a9bfa9aeb9eb7c8dacceccbefdbdfcbbc7dde9dbd9cababfdc9a9d9fbddabab7cb8dcaabc
col33:   8ba89db88cba7c889abb6afbbaad9bc99b8ea9cdbcfcce69a8bac9becadba9cf9ad9ccacbfb6cd9c
col34:   7bbbabdc98ccaaccab89c7bbc8adbead9ec8caaaccabadabcfaefbdbcbbbb6bcbadc9cb99cdcb9b4
col35:   bae7babcc99ca9d8bcbbb6f6c5d9cbbebebfaecda7a9ec97edebbebfec9f9c6efa7ebfd5aedb8899
col36:   9979ab8b8ac8b8aafaa7fbccc9aafcaaf9b4a9a8dcc98d89bcd7d9cac6abdbd7dcfa9bbad7bbaaaa
col37:   c9c7a7ddabaad8adcba9df9aacfdadacdfddd9bcbbd7fceceadabceabfdccbbc7dac9aadad9f89fa
col38:   b7c8cfca9e79de8becca8ae8b7adafe9cbdf9bddaac9fcaedaabdedeacbba99aeacdeabbd7aeaabd
col39:   93698aa9b898ad8d7ccdac9fabddaeecbabacadbddcafaa4ddccc96cbde7d8a9abddeeaecb9bdbae
col40:   58658cbcacaab8bcadd4cdbfdac9be8aebe8ca97b8bae8acbdd7dbaafdcacacccfbfcceca7dcb9e8
col41:   998cc69abd9bdbda6fdaa9fad9bedcaebeefbae98add9edbbddd967ebdaabdbabcb8ccc99acab7b9
col42:   a878db7a9aecbccfaabcebc9cd8cd8bca9cbbd7a87bb87aaaadbcacdfac9eeacacbdf8ce88cadcf9
col43:   d99bcc988cbaedfcc7caebefbdfeb9cdfcbeeb8dfdcccdcdffbecffcd7cc9dcb9defbee7eda8bcfd
col44:   a7abaae9d9cca9a9ddc8eeddcc7aeadcedccdbcfdaf48cedfbbaadceeddcab77fbcdbacf8aedcdab
col45:   eaaad9e6b8bafdbbacfbddccb9bab8dbbedef9bb9cfcaefcabfafdaceac8eacbb99dddfa9caccd9c
col46:   e7a87c98dbcdbccc8bcbafbbdb6dd9bdfecdcd55ebeabfd9decf8cbdbcad6add6ebdaeefd7c8dbbd
col47:   bbb89eb6d9bbef8becfedceeb8dfbe9fbddfddafe9dcadad8e8fedabecccebeffc9cdcbabcfdebcf
col48:   cbbcabcdbdbc69cdacdedddaedffabbea9cfdcacaacadccadfbccabddcdd8ab8cddcabaadbefe99b
col49:   ccddbcacce8bbeddbc6afffae9cbeccff9fdfafedbe9ebefffdfccbcfafcdeffedcbdbbfbefdbaaa
col50:   bd8baba9b8a8bdaddbbabcfbdeacfb9fccdefdfefcb9cdeaddeffbfdcfffaffddbfc9c6aceac9cfb
col51:   a69ac6af6ad9b7daaa88a99bc9b5a88ddacfabf779cbcbdcfcffbda8c9a6caa7ab49ac6bad6d8d88
