ROC:	 BPix_BmI_SEC5_LYR2_LDR9F_MOD1_ROC0
col00:   7845375359782287595334628a6899696a971c744848cb7ab94a9256837856a6c896869594b9753b
col01:   663674b67687d54767664989ba78a95dcda8ba969ba8a74dd7a4b8b8baaa749919659c9799458b8a
col02:   754737b6897744a958bb9c78a69e27bc949b5985987aaa98abc79a367ba87bc59684b9bb876baca6
col03:   17723c997639aa899258a744a98bb6daa7dcade8bac68a5eb7ed5a669396b9759756d7a57733b467
col04:   579169a73a77776875669448a89c54aa8ba54aabc8a9acef655af567d578963a958a968b5c997597
col05:   46543129874b564626794a8c4345699b77bbb9fb778ac8948ad4b79a8a5da9a74165649a8874a59a
col06:   aa6494e998ad6a9898b59599398a7a89ab8cc5d89e9c7d8bab8bba89779b4477774586845b97ba98
col07:   1275386888769a37ba85699d796c674c7db88cce7c99beb6a9a77771698556c596649498876b48c6
col08:   b567955165e9169ac477c5849679ecc74a8e9776b7968ad9385646c7967abb664165b876a69877a6
col09:   ba89876397976854878768a588c8a58ecabaacb7da9b8779ab8bd688568748646fb7b7a9a7f47139
col10:   3449c5489798a6794acb9a65b8868ef9bb6bcbcdc89da8a96689968669f9897aa3a87db9778bdc99
col11:   35d2b78765a95c46b79455574a598dc8c9a9ba849ac9c9b58a15667364bab7565b543588e9868c86
col12:   7b499a889b2655757688888ba8798a3c8bb98d67dcca7a9bb9a668a666b8aaa85576a899a7367999
col13:   752a597c6666a8659a6a8875a39c67acd98a597abcbcd86592462577e7a78a3d7699a89a957a6788
col14:   4416b3666c9787a68b779488798bc1a3b9d98c9db98b8687948a9b663b98ba5849734abb88885582
col15:   9963a685679bc5d9ab8c2585789a6bdd9dd59adab7e49887b689949679877987bb58598796996848
col16:   b7ba8c3b63899b6d9539b9665d88ab8a87cacc69ba99b7c667ca8bc6ba7f2a577579b849548a7668
col17:   6355a73a85a66975774646684939d9aaa858d6695c6bb43a96659a8976a8eb17987798b77b87648c
col18:   6562b3ab87566498785939978a6988a9aad98959aa799d99baa9acb6b88c8a76b99584f5b2857c44
col19:   77139177b96a3b7ab16a79a847b3a6b86a897ad7b996abba769b4799889a967993b75779be44a737
col20:   2464645d6d5961a846a379a8aba98c9678b9797ca7b699bda8957d8b59857956686aacaa7976a963
col21:   93715728485ba984289f55399aa97b964aa8acba66accba9cbc6ba6a7c6d9565b7897c8da9b96959
col22:   577645c6b884778a78b7b896a977699797bf7a789b69da8a74d8a54aa7a4a9688b578b956c96d77a
col23:   45475869bb2487688c9474a9da88ddbd779c8d889aa891da64e66698a69b9b75c7157b587b7a8692
col24:   a48946965a9ab7b5457669a99768c97aba9a7bd8c9965985776896aca987377784868987a94bc8c5
col25:   95588867585699a87a556777aa8697b5977a5ad6cb8e8a9ae9ca85c9e888793bb93b985a9657a758
col26:   1d789989b8cba89ac96c6588da99ffacbb9997baca7c67abceda8a9b5acbbdaabeb79b8bbabcb5b9
col27:   5962c63ba9959abc6967a8a7bbcaecaecbd98caacac9ce999bbc8abdf9bb89db7d76b8cb878c5a97
col28:   648487b8a85aaa78a75ea9bab7abebccbab999ca9899bbaeccd4dda6fc687dfd98d77af8c67d8cb9
col29:   878bdaa8a2a69b988985b79dbebceb9bfbbcccdccab98af97cacc99ab8cafc9796837879abda8658
col30:   988dda9bbd8bfabc9d7a8b988afcaccbfaacbaeebb8df9cbdb8fb7a99998c5ffc9bbdcd95ab5a789
col31:   592978c8bdaa88d929776a7c68dcecedfdc9ecd7bada79f7f7cec99b868fbc788cffa8a7996a3bdb
col32:   bba8e7867bb9caa9b97d8a9afd8dcaedcdaefdbfbcc9bcf9faecad7abbbbac7a7c8b8cbc98ac7888
col33:   8a9a95acb8db87ab7ce88a68aececc98efadb6b9aacc999a6bb88696de9b8d78bdded999cabbbb68
col34:   5899adaefdc9ad7bd7be6b6cacdefd8cfd79dbc8af8bdedfaeb9ee9c5b979dfbe7ecd9bebda8e5aa
col35:   95da6a6c9a5669dc7abc9a9a78d9a97a98cfe9fbc8aaec9ead89dabcf9b9aaeacb6a8afdaa7b8977
col36:   a7a897fdd69d8fbebf9baaf9e6cbdd8cdcfbb8c9cfc9aa8f78acc999aab3abb85ad79bbedaccc68d
col37:   36b5a8ab787bfbcbbfa87bc5fbe9cccbcdcddcc7ffa9cccc997cebbc9baaaa9d89e8ce6bbaaa9bd9
col38:   9aca98ca9eb6ada89bbd6ebaabeeacbff9efedabbbadddf8eeabaacebbaba8bb8989cca7b96d98bc
col39:   9baba89db75b9bcf87bcbaacaadadabccabbfabdcac9aacab9baeaac99ad7ab7ab9c89cdcd7c9898
col40:   dababbab8dc8de98bca9abcaaeefeeeedbdefcebafefded97cac58adb999e9abe9ca9e9da7ccfcd9
col41:   a9b6768b7aebd8758a99d9d8bca9edeeedbedb8a9cadefddc68bdcc77ac9a79aa7eb66b9beaaa84a
col42:   969babbefccdc8ebdfaa9bceb7cbdecbe6499ff8cf6ec7cdfcc79fc9afbc899cbbb9497bcbbaa6ba
col43:   a669f8b9cdfcc9a8b88ff8ceafe9fbdedbbbbaebfadbc9bacd9cfa8bc88aa75eee68fcb9d7ace9c8
col44:   98bc9c88ba6ad6aab99a8bbdeedcbbc78ffaffeed9b7d95bcbc8fedb9bfadba7e9cbbebabcddeb9b
col45:   9ba8a6f659c9f69d5cbb9e9b88cddcdaafbaf79bbd79cbaacab9e58aa9b9bbeb7c97ded79ba9cb79
col46:   96ddd568786bcbbd6c9f88a9bfdddcfcccecacfcebddfeffddeff8feecdedf97aebcc8bebbea9bcb
col47:   bbcbffdedb968b8976acbb8ebcada8cdcfcd7fcaeba9fedbaeb9ccb9d5e8e87abae68cd6ac7ec688
col48:   ad4fe7998bdc7e89fcbcaaeddbebdda9defcbffcfcbabcbffe9a9c74d959bcafc3fac9a9bb9db7d9
col49:   5b8a9866a8899995b77a9a99e9bebcbcbcedbdcafabbacc8dc7bd79ce97b9da9878a872badbc9d6c
col50:   9bbed887ebbb8ca7ac9ebed9fddeddccecaceaaae9bfda9e9bbeab887ce88fe99bc6ac9edbb9ba79
col51:   4614baa2aa976999d76797acbc4c5868abadbbc29cc359a59897899c47b895789659aeab9a889b76
ROC:	 BPix_BmI_SEC5_LYR2_LDR9F_MOD1_ROC1
col00:   656571845177759144811655657773667896458a3698788687762246346256276574473287465446
col01:   97918a2485979433447485545664766a7967959a78648a74474582536b5325626642157859585468
col02:   6962458766866a944849573493675644996b7897786868844965272797477658677736c863464b53
col03:   54578353552749676977726825347886777566737869764775546565286348835595476446557677
col04:   27548564664615975b358437428a7755b76a78986a77736986667444678568567666289664886347
col05:   3456577665554681132575738486878776484888a268a5585874742552438274693548452527b584
col06:   8786677566c2386395a5377a67287769988487b79675658477366378856495887867b846656768a4
col07:   85677458b45864466985457758687479997985a788798878776663446464359592a67592749a97a9
col08:   31645b76a565a988625685699977ab48b5658a967a78668a62585467575738616869a89698ba5676
col09:   445699882442779a7899555466588aa687a676678798a99ca955955667574a7877698477726a4878
col10:   5763581673a656868775c56975687698ab6bc6a8666a976a99568868747a485246975885b9888699
col11:   463378687956461587696a36c786a5a856986484a78848698676675469749567388a8278a4987455
col12:   467666865529864456674359a9489587c6aba8c696458b57655996547a66938449979766a8479a74
col13:   57848593457896185567636679694967aaa7b9a9bb988525cb68a6767775339b9784558894657746
col14:   486387993368874784465a278964a8a79b7a8da7bcd97769966496499996497a7779664467886474
col15:   2669b9ab5981986775755979463398b9a5a5697866598589885a736456886b6697d767577b796996
col16:   6a97a6c4666655666757675785976788a999ba9889797a678967c55847ba69679649a657737986b6
col17:   7c266a738369868659465466456a85899d9cbc66b6ca8a86a79866569478377583688964aa387643
col18:   6646a79665694556b453558777884a76abb87aa976a889a97979a978ba68868496564678c59266a4
col19:   448779976a6a687b4869898aa37b89bbb788959caa94ba63c8b98677478a587d59a7687884c89b88
col20:   667668688588767a55997a957a6887ac99b8aa59aa89789878a996867699769bb8a7ba8498a97b64
col21:   5495777789999568267447862a7b968a8878abda998b6688a98aa7967a978687746889a688b67466
col22:   998669879987845976768759ad9aa89b57ad99cbaaa977a97777656389956b78765988b696879b99
col23:   694b688a4563466766757569679cab9a689a97968ba9978a4773885876b9569948887a94594a7758
col24:   95989b999359b96b969866879b9aa887989a97a9688bab74c9b8c55b9d78ca8778a89679a6699974
col25:   9487ab996777a888a88965a86795a6a8b898a7bca89a5aa8b8b37759979885a8aa8aa99c7a5a8788
col26:   78a88bc78797b868c9b8a98988bc9abaacc99ac9aa99cb89c9a6acb869799ab6ba878a9cb899ba78
col27:   777596bcbaba78b97779579a98a7abcbdbab9aba9cdc98a8b67aa8bb697baa968975b4aabb677ca6
col28:   6a9a9b5b9ca8b8dbc96899db9996a9afaab9bcabdebdb9aab99b88b8afa887bcaacccbbaac8dcb96
col29:   ab97cbaab989986b699b869aabaac889aa9caabcabba9598cb9d82b8989c69a9bac9d89d789a888c
col30:   a99bbb7b9a85cb8958777679bb9ac8ccaaf5cebd9aba8adbceb9b7958a86aea579b9b8a88a79a7d9
col31:   f9887698ba8a9da6ac97b95799aa9bc79bdd7d89a9ad9abbda97c98895c9d9adb9da8abab8776ab7
col32:   9d9ab9a8aabdb9b6ca69b7ac9bbdcbaadbcdbb9bdacdbcbdc9c7cdeecab8c9abba9bbadbeacca989
col33:   a2daaacebbcbb7a776cbabababbbbb9cbbaadb99ab7bbbac9c7b68cb797bbcdb8679bca8bbaa99b9
col34:   87ba99bcadacacadccbb588bcebcc9becbfbddfedb98cdacbcdc88dab9a8ad6a9cbecdd8bcbb9ac8
col35:   8c48aab9e9abc68ad87899adaadbbbaacadcbabbc998edbbb8eba6a79a89cbabba97a8aaacacbab8
col36:   ba99c9bbccc8bbaeccacbda9cedabacddbdb9bdbcbbcb9a8dcc9c7a9bc7bbcaec99abbb98a9c99a6
col37:   798adeabcbcabccaba8ba8dcacdbaddadcbabfacaaccdcb9bb99bd8dbbcc7b7ab95adcdd99c8aab9
col38:   7b9bababa9bc9aaca9caabc8bb7cbcedccceceacafbbcafcbecbee9acccecee99abab9aebdb9d9c9
col39:   b99fcdbec99cdcbdbc99a9e8bd7c7badafcfaceea9dccdbabbb9cbbda9a8aabbcafabbbabdaaadca
col40:   bdabaac9bca9cbb9ac9bbecccbcccbcefebdbccccdd9dacbcc9dddbbbccbb79acebbad9bc9bcbaec
col41:   aadd8cbc98abba8cbb8a6baba9c8bcbdbeeedaaae9cce9bedebe98d7c9caa8a8bdbbc9bacaabdcd9
col42:   aa9a9bacead89cdda77cb999cacfecacceffdcdabdb8deecaeaddcdbac8cbad9bcabcccdcfb8b8da
col43:   b7ddcc98ccddbacb9accd9ccebbbababbcfedcbcbcfbbbbaeabfabc999dabbcbccad97ccde9ec9a7
col44:   bde89caddcafcaadbdac9cacdbdcd9ceddffdedeed9dfdcb9ccd79bcaebbaebeb8b7dad9dbc9bcb9
col45:   cb9bca8acebbbdcababbba7db9bcdbdddbfcb9fc8dde79eadcfcdeba9daaa9a9a9bcbcdbabecbbc9
col46:   adccc8dc9bfedddcebebcacadeebbadcbeefcfddfafbfe7dfccc9acbbebcafdacc9b8cfbebbedea8
col47:   cbcdcaacad8aabcdacc8b89f9beabaaccbdfcbefddfdabec6ceea9e9dacab9aadceabbf9fe9babde
col48:   bbacdaccbbdbccfecbbbbfccccecfbbddfefabfbfc9ecbccecdaaedbadb9e8dbabcbdaaccabcecd9
col49:   a9bced9adbdfc9baaac9cbcf9aebdaedbccdcdcdefbfdcbbfedf9aacbfbbbcdbfaafcacdebbbaecd
col50:   adac79d987dadddeabaae9dabdbdceeddcbeedbdbeecccb9cefcc9a9fcf9acfdddbac8b8cfc9daeb
col51:   88ba7ea9bc9a8968a789aaac6d7ba9cda8aed9ca97cb8bcdbaccabc9b9a989a8ba8ea9ac9c79b998
ROC:	 BPix_BmI_SEC5_LYR2_LDR9F_MOD1_ROC2
col00:   4552441136436677a54b7616716879564636977997969b5813663467734484698438896965267553
col01:   421411736c766767699b779457657269676ba477ab889ab4b7b996998b65875587a79ab68b666883
col02:   32657557a9475797776588739989839589b968b67b48baa56ab4571758955a57988999779b9b8a76
col03:   5117567947337a67a625c9a78b877b8555a8889686669778a7c9568766776493898a6688ed658977
col04:   17596413737687a25798897b976a8986b78587aaa9a6c759c779699945b4a678e7998b9a57baa438
col05:   73633428665b689b88875b67738838d55c69a8a893a6b68ba9748a6897576976cb75c78824866947
col06:   745855573575a767b7859779698788769978c6998a96b6b79d3b585655555ab995788b9988897716
col07:   7778438566956567489a46b65a79b57bb7b8a7cb7a89bab766787437b693967a9a6779aad68e98a7
col08:   476418887589a6a79a9f97b996c764ab9899c7b95c7c7c977b86da696869a8a876648b7a96948879
col09:   1164685899965658667664668976b89a6b99479ab7abbbb88c876889995a96a899c9ba99a5663b55
col10:   8837a5677764aaac7878a868979887aa7bb9768784499aa969959a576477797a74b7b859586786a7
col11:   6a34186758959888ac73ca658b995646ae689be9c979d5b5898954899b88656684997a6868835377
col12:   67181676796b8888a6788aa7b3a998b96a4aadbdfd67a79a6c8975a989977a87989898a5d5666594
col13:   6854687947a6ab66ac88cbc79a79898878a6778db99caa9b869bb576b8b5478789b68b9697d67a88
col14:   467457969488666bc68796c9799a54a86b8cb559cc6a8ca77c78a67769ca8799965b8a778a7aa698
col15:   5374697556a37a7e87ba99a5a98879686c5786888aac8b6da8b73aa8a67578a7b66896d58884ac83
col16:   8375687484977a66788da5987698bbba98ca97996988988c98a6895b5986ac96bba869a9a6878569
col17:   754576863c599a8a87bba87876699b976a97798a9b9a786ab9788c995b57a9c78b9a77a7c88954aa
col18:   65968697c6777279b85699bfb4875a8bb7b99bc87899bb9764db96b8487677cba79ac5da6a768774
col19:   89756369a776a697887885c996a69ea8b8ca978abd9da8c8c67a68abaa6849a8b97ab9a7766a7543
col20:   56573866677697965a7b76a989d83ab8b85c79a9c8bc996bab78b8c5a9b7ba95aba5948d9c9a6768
col21:   85567b568756959ac7bd7897aa9bba97aa9ac97cb87bac88667858a76587ba6a2adc8a7b28585636
col22:   45567519b8698a77798b98ab867777aaa7b798a79bb9986a4b7799885a77d9da98b9aaba8aaa8671
col23:   186a87667a36965999986a875b8a97766a669a6aba8995b7b939c595a787b8c96989a9c668b87963
col24:   56548656788bc87ea8c6bb867659ca97aaaca58c8a7ca5b7bda8b787ba64b86677788a588b9588c5
col25:   53455596b9998a9867a7875a9997a6886789c8b979cbb77ac8c9a86b9d9a87778bd99c9797878558
col26:   85a77c49758bd989c79aba85d9b7d9a7d9aac96cbeb7dba88bcbafa8b9c88b98ba87769e9ad8c8b8
col27:   9a65a56a99b79ab9d799b97d858b98cca8ea8bfa7bbb7d9bdd9c89987c99bcccbcbaba9aaa39ea97
col28:   66275a99c7b7cbc9a9c7999b6bbd8bdddbdbaacab8acccfcbbf9d8799beaa98bacbca9884b847988
col29:   d6984a88aabc9cbbc9da85b87ea7b7d89afecc489bcab9caabcd8e8cc9ebc8babcbbc888a96ca798
col30:   7c5797a9aeaabc977bb9c6ab89e9be5995addddcabda7bbbc9c8cda99cb9d9aad9ca59c9db9ba9a9
col31:   a89aa78b8d79aa9ad9ba98dccdbda8bcbd9bddeadddba7bd9baccaa8bd9bac9bcdb9bacae989cab6
col32:   7678b9b8a85aa89adb8bdae8dbfcbb79ca9cdedd8cddbdbadbd9b8cc88cacafdcbccdddc9999a985
col33:   897892a779aaadacdaa99cbad5b6bdbcadcdcc8adbcbef9bacddccacc7baacc48a8a99b9a9c8aa9b
col34:   a4b7b6999abadcd9c877ba888ad9ebdcadbcffccdeccbbcdcbb8c796aa97dcbdfbddadbcbdd9baaa
col35:   a6c9b8ddd988c5dbbacb78ccb9cbcbacbdccdddccccebbb9dbac7ab8bdbdb9bedbacad89da9bcc8c
col36:   a79bc8889b6bc9eeeac6bccadbd8fad8cebccbbbdccdddd9dcadb7ebaddc9ab7ccddeb9babccca59
col37:   8aa979e98899edfbcaaabacf8c7cceadbeeacadeececca9ccecaba9dcaaadcdad8bbfbccaba8accc
col38:   95ab75acbb9dbabbebbcdacaddbdcbebaedbbcaddeadbbedbdeae99abcdabdabcc77fcc9d9ca7edb
col39:   37a687a4ee6cdcaceacccfa8cbfe8ca9bcacdeeeccbff97bcdaccebabc7cd6badcd6b8dc8b889ddd
col40:   ac8d99a89acabed79decbbea9bdcbfafcdbbc9cdcabedcbccd9fc8cdde9baa9bfbfebb9fcba8abf9
col41:   d97c98ca8cd8dbfd8debeeabccedbcfcbfd9facc9b7bddabacecdaeaa9cc9ed8acb89bb8fddb89da
col42:   7a8a9abdcbaaeebcaececa97badacadbacdeadcfeefb9d8cbea9aacaddceecacb7dccddedb9fbab6
col43:   989bb6ecebafceccccccdbaebce9bdfeccbdebb8dffffaec99cacbecbfccbcebedebddcccaebcdaa
col44:   777a97abaecadbecc9ddcab9dfccc8cbecf9acedbefcde8cd9bfecd9febcddadfddffaefbceebdcb
col45:   7a7bd9ebcabc5adbc9caefbcb8cbcdbc9afadbe8eddadc96b9ebbceb8aedceffbbeaccf6a9baebd8
col46:   8eb8a6dcb998abccaedcddfe88bdbdca9dabcddbfbefeddbeeecbbcab9dcccdedbacbbcdefbdcaaf
col47:   ebe9d7cb9cd9dfdccedb99cdddcdfdbeecffebcccbdffbdbd9decdc9d9bfcebcaeacbdabbf9dcdea
col48:   b9a978a9baff9aedbda97cbdacdbccbbddaadddcddedcfdbdc9afdecfcceccbccc9cdedbbdfdcecc
col49:   7999bbb8dbeac9ddcab9ccb99fbefd9beda9cbfcedbdfbecfcadebfcace98adfccffabbeabaabdb9
col50:   79978acafcd6cccfbbfabaddaecc9bfba6fccdaeb9eceddcedeacd8f9bc9e9cfbffdadcafebbfa9a
col51:   8b57d8977c9d8a69a98bde7aaaabbba98b7cc9fedcb9eabc89dcc9ca5ab78aad99c8acbcaa6b96dd
ROC:	 BPix_BmI_SEC5_LYR2_LDR9F_MOD1_ROC3
col00:   5486115663231117245ab786396854218795838747695a8663457737585765477183359534331761
col01:   7a5534745a277a7c5a979b5a489b6647ad47844a9a69a6b98597989958668a958593695638644298
col02:   83155656799677547556869695554924979887a387658689597c6866726567977a3c9a8787184953
col03:   186a4933497555429799887c4a56873a7a1777b898849ba877a8a2657774a648cca6675747651433
col04:   616644513313a955a8c85859665565674885685b75a77954ca4a6a85a3b46865a988a96915766913
col05:   6113454564714874b9a17aae7577898aa9b9b49859a9c9b86547787966392775846a878476855627
col06:   11624474545238237327529837595777897b69a4656b885286b7566a6758965494868aa622651712
col07:   95963367594884a4a88a96b58559948867b67c8bb7b9aba489b7a5d67475698559144c3479926487
col08:   a126475855859688757b75a7839b787ab3a7579d677a798bac584a688897836a9979838737927351
col09:   4314173517987967157dfb8a595869656ac77658969c9789697ab979656558735765786965468155
col10:   335538165576d78989498974a77a9579a8698b76ba9788b9bca877879a9746375464c59627361142
col11:   6437246b4486496ba986879889785ca9868a89cc7b57aa56bbba5a8a612484997a99a59487433711
col12:   45834734b756652a758a7776487a7698886a52687a9d99476697734a586588987b5665483a364483
col13:   7436739b896a1468c6297965a887b976479577cabaa98a3a89ca756a9bc984aa4b79ba8ac7867354
col14:   5578216264687876877787b9dbc79c6497bab89aa97989b69aaa6a76737a45ab8628974566f56784
col15:   163666717136864ab97a85a8c5b3a64e78791aa9699885c797a7688a87899b4854aac9a867773463
col16:   b645775a7886b764aa976b96c6686b6a884886ddbae9cc8c9a98973585866868a4878a56a3527462
col17:   77563a575777b89cb9ae97799a9ac48b8c8a9a4aab9a5ccd86668755388a516bc765368895469531
col18:   96562118735c7695384b62747674959494899a481b7c5ab98aa85aa99b8b3849a855b89769814438
col19:   743846699694998689d578bf6a8998b98a969caab7c749ba7969a8c885e8b87a8658a9c8a6967685
col20:   175566854a6882895a8a7586b67bb763a7b6ac879777569c8468681b78575c9839b9568a66279812
col21:   7519256865bc953aa86b7a84b7a779ba6769c6c97977a6a76699aaa9887957b392b8799158739874
col22:   284569748b7ca18799996889a9bca79699f87b1c96aa778db9567647879bb578a7797c7567864956
col23:   667427438b7588c979ddcb6a97658855787777a2877c7946cc88b85a89756885cb6c5acb7a185561
col24:   48458534589b9da7644b3868aa757f678856e6bbd5898698a86b9859b94987469b68a68b76358968
col25:   698985b6a95a988a9adc9699cbaa9779db898ce78a999daabca97863959abb97a898774987553554
col26:   7973777898cbad8bba7d99bd495edd9a8989b7aac98f896ebabbbaa9abbb8b29945c7798b4894784
col27:   57767849993797b7cb977b8c899c67aa9d97dcbcd6bfcbabd7a98de7d75dba899a845c96666982c9
col28:   647582a796789cbdbbb875bbcb99a8bed5cbae969da9bad99aad9adb9db76b89789baa7a7a689656
col29:   ab39798884a7e999898cc7a6876ce96ba97bd99eabedf6bfabbf859dac7ab78a7566db799568cc68
col30:   69876aa96aaa8cb97a89b9aa797c75aca97cc9ea8bda9a6bbbeaeca8b98c79967c84749aa9a457b6
col31:   86979898cb8bfa5aecdab7c988a8dbbf89c9abbbca9c7aadc8fab8cc8f9adca9ec8a7b98a8d6b8b6
col32:   7897ba8b6bc9c9cefabdfb9aabd8abcbaadda6b9cbcb6aea8d68aa9b888ccd94a48a9ba7999b95b6
col33:   5b758c7968d6fc7b9fcb7ed4d9eece99b97c8babaffbdbdaabdbab99db8faa896abbea98b8995a98
col34:   99ca6b6788aad76a8eccdfbd89c9add9bbbccbcfcaa8fa9dd9ddc98accb7acbaabaa8d9789bd8da5
col35:   9ba98b598ec9a9dd6a8bcd8a8bbbcacbaba9dcbbf8c9aa9aac879c88b7cebaa7c8998b67edc87a97
col36:   b7698a998a6688cdbacca9a96adbbaafab959abcf879fdb8fcddd987ca9acf9c9a7c76b6b97ca862
col37:   9847a6ca7975cb98b9aedd7dadbcdbdbddeadcacebd88b9aeaacc9abf7d97fdacbcb896a8b775a86
col38:   599b7a8aadd9feacaba99bba9bfcd8e56ebfbeab9eedcefb5cdf8a8d9d6ca8d8cdaaabcca9a79b88
col39:   8865a98ebabadbbacba99bda88c7acace9f98ffbdacc7cd8a99f6b7abb9d864aa3bcbaa8477b79b3
col40:   68959a79cc87bbbbbb89babdafeea9fcab6dacf9bc9cfceabd9dcbf9d9a7cf7cbbbbac95ca74b899
col41:   a96c66999fdb6caabcbadccbfad9debe8ec7bfafcdecadebca9bc8ac9a8df9ebcbf7be8acacabb69
col42:   b8a978dd8a7aebbcbd69ccacacd7ccdce7cbdebfdadfccfddfadbbdbbafdc8b99689bea88a78c858
col43:   c7bd7beddecc9bcaeac9ddbcfebbefffabbae989ef8dcbbefdccbbfceccccd7ccccd9aacb5bdaf96
col44:   bb8ebbabbc8a69ec896da6dbca9cdcebcbaabedbfdbcbbfabbba99bc988bece9ccb7a79cac6f889b
col45:   6997a8ec7a8eaabd6aabbba9b8c9cd89acccffecbcadacfbaabaaccd9bac99c6df9cbabcbbcb867c
col46:   84a8cb899dfbacdbd8e9b998ddacbcac89ae8f79c8aadd8edceabd8a8d9c8eca9bcbcaaaba5ab693
col47:   98a648bcddab9ffcd9beadba7a9bebc7b7eacc9ccdacddaafad7bf98fbcdccbccbcc9b99bc969c89
col48:   a744ab89db8c9ec5baeebbcaccdaaeddb7baadffa9f9bdfb8acea8ee6baefec8cdbbccbc89b8a6d3
col49:   c989787dd7dec8acffeddcc9ecacbecdeadbca8c9cfdfbccc88baabdcba99c98baacabc9db989a78
col50:   8c68a76ab9daeecb8c7a9ccbc9facaecddaed9e6cfdfacca9be9fb8cbaabbcd9bba787b9bcaaa7b6
col51:   949869b9b85dda8aba97a89a9b969bbbc9976dc99968fafbbc89a9d9958888acab58fa6cba99b7ba
ROC:	 BPix_BmI_SEC5_LYR2_LDR9F_MOD1_ROC4
col00:   498418474816354624746786769a8282478a8b779567d5a86754964276d769b66359736357226364
col01:   6746676a766a4abbb7b8599b65adad88884a7998ab9ca8ce9b8a43dd69898766a666766798719723
col02:   c4569471695796e88c76a76576aa9486877d8a697b86d6b47a6a798c679a9bb757c584a627766965
col03:   78555a7a5b6966b98a789a8748bca8cdf68c999bcb4b488b6b917ba89889ab9897b8997867184755
col04:   a565758576696877419a7677ba5aa8988b899a8a7969b6bc57b8baa998276a97746479a796567891
col05:   776732a587795b97cb9e8696a9a8d6ab2cecb9f8cea9b8a7a9cb9a6798a969577ca4d8748754a552
col06:   956599696668aa59676b88bc9b8a7cabb88ca87bb6bb7797ada8c8ab91566878866979673986b573
col07:   74476588887887688bab99b9bcd9cbdacbbdaccdae8f9c5a7a8ade98ab9dbfbecd67bb6b567a5772
col08:   297b57a7847889c9698a969d89999a88cbb77a69a799ba84899d67979bc96dbc7988948a688c8941
col09:   58917676468ba998c77cb98bc669a9899b898ca87d8b79cd97db86dcaba9c89b5577898b8489a537
col10:   7668944737889b7aabab94c8ccba8a796acafabcea8c7a9bad9868869ba893988ab827aa89844847
col11:   847a7987b978d6a977afb8b85b9abc8eb9b788c679ba99af89887a858878967a6aa8b86b98156876
col12:   3574648874867576bc57699a8a8a98aac98c9ca985f7b659757558ac9847c68a6c99489765776836
col13:   8a6793399af75a8ada58b978aa88b78a9d8bb87bdddd6b8cdda889c57b969c747684967a56879883
col14:   4a5aa97687c86597bbc8bc95ac8998cb7dba67dc8ac9adaa26cb6a9dccc9989a9988988887777434
col15:   79852975a78889b867bea8aacd9b678ba9bc8bbba9ba77bde9e9e8aafbb8a8c77e476856b8a95a74
col16:   6634485b6ab857a8968e5968cbb8a85a7aaa68b99c9c679c899749aa8c76797c4863a56b5b463568
col17:   376a6bab7948899b8cd98a66d5c8fbacb7c8896c986c8d86779c7d89858974a745c9b88a88876839
col18:   8474245b486866998847a9ca6aaa997a869a8b9a99aae8ccc7777a7a96b999c7cab7978847b46864
col19:   8886a8a93c96abbb9bb89aeada7baa9acbba9e99adbbccb9ba677bb8a99a7aabc97b778798587751
col20:   5158589996679797e6a6a9bdc98a9bc959c79aba9a9ca827bbcaea8ca88669779785683b5742ab45
col21:   386778878894755a8d49a9c99bdaaa869ead5d9b6ba9b799b7ada8a685bb9bd8998a5b8678737a98
col22:   9b98875549bb8b9b7999c99997a8ac669bc6abfa99c37d48d7a899ac9c667d65a55865246a945476
col23:   714d46a69dc8ba6bab9cc56599a6a8aa9c89998cca6ca997e8aababb677ba69aca59899848523464
col24:   6898657b6777a58c58a9c897898866a8ab9acaca99b69a89aad97a3cab8c7a9cb5ba99b862575b63
col25:   267588cbbe975caabe887baca6bd5fcda79fdb7cbcadd77dbc9c9899eb4ac6e6aa68a95f79889771
col26:   9779a89975cdbbcbb898769aeb9ecbae9c6c9cbfaacbbcbaccf8c8a79babba6ac9a87caad7397661
col27:   c9c7abcfba9a99ac8dc8c8aea97eabb5cbbc9f9cbcdaaca6a9ba9a9cbc8a6acab6cb8ebb8897a977
col28:   972788888cdd7acd69ae9dbf9d9abbbaf8abbacdabd9bbec77fdaadede8ccccbd8a6a987b8e9b962
col29:   999a9c97ec9deb8dbb8cdaadd9acaf9caabbb9accecdb9c88db9bb9acd877abda8a898a89da75427
col30:   6f8877675f99cbfcc97ebdb8b8cbc5cdaf9bc6b99fcccfacdaccbb9ae96dd97ab6c6ba7a45599847
col31:   9789969a9cbcadaa9adcfbb6fc9febbacaa9ccc9aa9cbe9fcb9d9fcf6ef9aefcdaacbc9adba69884
col32:   9b5a6a8679d6abf89d9eeccbcaffccbbd7c9eea7b9e8bf6b8cd27b68da6a99cad68caa7bc3779ac5
col33:   57885bb7e9ce8ea8e9df999eccbb87bfbd9dadbcccaecbabaea8dbcedddc9bbcabb6b89a998659a7
col34:   795ab88eadbdaebf88bcaaad8effdaaca99aacfe7bcdc88cddf79d9ab95c79bb9d99b889b97c7969
col35:   9a6b9dea5c9bc4a9beadbfdebbfaaf9e9bf8fbbbdfccad69fb8baef97bbcecababa789cec84e55c7
col36:   978a75b894ebbaeb9dcabdcc7a6edccd9cabac7caacebdcd8a8abdccfbbecabe8abdb9e668cb99b6
col37:   ad77dacadb8c9fa9cac9efdaafbdaa79dcdedceefcbbcdbb988ab9abccdaaaaabd67bacbabd87999
col38:   5d8b8bb999cbad9d7bafaddabcccdd9cf96fe9de9bbfbfccaabcabbcaccdc77ddcbcbadbaae8a69c
col39:   ab7c8baac797edbdbabe9cebddbdbdafedef9e8adbcab9dc9aeadcd85ccead8cdba8ba83cd596759
col40:   5b999a4febd898abfedac99ecff9cdfbab8abccdda8e8dddbacccac8db9beb9b8ccb7a9b7959b4b3
col41:   67ab9bb9dbcccf7fcddebcbafabbff8e9beddeacefaacbbddccbbde6bcbcc99d8cbe87659bb99475
col42:   bab647fcbd89badcd98ffd8ebcdcfab9c96ddddbccdcddceadd7bdbdbe77bae6e8f8475686987476
col43:   7c98cbacea9bbcdbaefcacb9bfacbad9ebbdccffcefdaedfcfed8a8fcdc9aabccdbabbcf7a59a8d9
col44:   7ba99da87cedbdbbe9bedbfc9acfceedfa88fdfeabeac9babcabd7a7bab9bccacacbc6dbcb562698
col45:   9b87a88bacd9cade7aaddafecc9fddcaffefbdcefb8cecc8cabebc8889aebacc9c698879ab899697
col46:   7e988d9bc99cfa79cf9fadbfdafccceaa9deadfef9ba9c6fbecbeadcebfbaeabbb87a9c97a5aa972
col47:   b8689cca9feaacacdaddccbdeaeadcc8ecadddeffddbf9dfcebbdbe9c9fcadde8bcdbabd8b8985b9
col48:   8dad8deaadedcadeadddade8bd99becba9edfdadaff9cbcecaaab8b9f83ebab8ab9ccda678678998
col49:   8799cccaadcbcceacefdf8acbccbf6f6d6cdaffcedf9cbbe8cefdc7beaac9adcdbccba99696a8eb6
col50:   bbba979da7bddebbe9abbdface8efceefbaadededecbca79dcfdaa389b89bdd96b9c87caaaad3895
col51:   a7a99689a9de8bcb9c6bcd79afa6a9ebc9babe89e688c9b9a6aa7ffabe9cca9ba739a887c8876585
ROC:	 BPix_BmI_SEC5_LYR2_LDR9F_MOD1_ROC5
col00:   32613246647454736255148567436897464987575568376575256649965579625346391784497183
col01:   57637547b773988638569789ab8779b76988a862a96876a695d866666865a57b76779aa457466773
col02:   1864936676576839bb4aa844559a8745776867b7aac6878ab6d94599a8b691a9565467968533a591
col03:   312714855745896c1776767976755785488a5b49a7787998aba869678a767a5695978a6758a97796
col04:   56755a27b4766848a7466a6639888ac97558876667b786a968a984a77a49ab86895769756a988663
col05:   465226676779ba4e46965789b85978776594857988667799a7796868869779a7974a48e686baa868
col06:   2c58b541686869999978a685895a7b964986a7998776b8b866c888a67a6c99685b4688b96b595886
col07:   78289b67a7757b55a699c78b698b97a79986c778d7a998aa87cd6da69386e9a7997a9878f67aa634
col08:   877875456a83a7785788758c679a87cca6797ac7cbb8c9998a9998cba5abb687755c76a8bcc98b76
col09:   4787665448769676ac8a83c8b8697b6a9ac88674be99b88998c7998896678796998d999498788744
col10:   9688758667e773488877988ebbb6ca8d6a77b9a8c7c4a8a58867989677579d8baba88a38ba979666
col11:   75b8695497795a87c7a63889876aa7798a6669867b8d99b83839949a356a8a688bdba86668877979
col12:   8368aa988b977a9c7899896cb749978796656bb9aa8a9875acd66985a667bc6a8a67999a97aaa686
col13:   35a65667468a6736c78db97cb993cc479789988bb786dcccbb98b9bd9aa58c9b98899a7a65b66688
col14:   577178828b9a7687bba86aa595998747cabbaa7aeaa89b6676aacaaa5a99996a9978785bb96495c8
col15:   6846a7687d75a6b9c57897a45697699a77a4e4a7a98aaac88abab6976c89cb97597a9566b7c79545
col16:   977268a593678a88b86a4d8689ab799a9ac6ae8aacca77a99caabacaa9bfbbbda7799a5696c86889
col17:   187a77686876cb7392987a4c79cb588b986b99abd7a79eb86ab9de989a68aac75b4a587899aa9897
col18:   13765784329b86899ada69a977969977abd8ba9ba9c998bbaba7c5db8668db78c5abcdb8769a3583
col19:   78559a59877ca89acd9c7a99898aa7878ac87c86ddbac9dcabcb98f8bb7ca8c7967949cc5a99add7
col20:   616856c6765ba583778a7bbc9b698a7aa7b99aa57bb99a9ca88978f89b6998469878887acb9899b7
col21:   968a3898499756a989d9ab6bc5caa78aa576a9998c7b998ce78a9aa5a869d7be976a99bb3bbb8aa5
col22:   27967b96a8a7584777795bb9c56aaca99aaaa8cb9bec8999add8a96b97db9c8b989a98a9c6fb7c84
col23:   355598868557c697a3bb7a696a8ca9abb8c79baa6997b8988b98bad5da7b9889aca68cd98ba89a46
col24:   589995786acbb569ab659988bb5cc9ba9ab6869eabbb85ac999db78acaa79d6a986cb9b8789b9c97
col25:   9496499b9ac9b589b78a879dac9cc9b89dc9b9869da87b77aca97c8c8adc79aba8a77bb9bb7ca769
col26:   76289aa769ccb9cb9789c8a9bda8ca99ba4dd9cbb89a9ceeca8adfcbc97abcd89baaacc9bc99adb9
col27:   93c7b9798aba99698d8988d7c8ccaab8bccc788caabda8e6fcc999abcba9cc9885c8c9abbca85785
col28:   887ca8dee8ba89dacdbcba7daadbbca989cdbadbcacaabcfb9fddbde79acbc8ecf8dabbc89bb7989
col29:   69859a7cad689ec976bd99accaabaacdbbeab9dbf98dceefdcdedfcc9bdad9a8ca89dbf99b7cc9b7
col30:   957a6ea5eb9bbabbc9db985d8bb7a9db9ecac9bc99abc87ceabcb8d9f997beb7c9cc9d8d8e8c98a5
col31:   5899bd86b8aa6daa7cf8fb98eccdbc9babbacd69dfcfbcfcdfb9dbc9bcdeb8ce9b7bda7ffecc9aba
col32:   b689d9b9bbbead98da8dceeafbd9999aa7dddcdc88ebe6dacedee8f8afbeb9bf7abbe7ce9ca9d9c9
col33:   8bb7a8ba59b8a6b99bbcaba58cdcc8b9e7bdacceb8fddac9daecad78fab79facbc6cabcfc9addd86
col34:   8ab98cbdb8ca9899babcccdccae9bafadaccccfbcfbdccaaefc7ad9cbecccaa9ebbcddedbe6caa9d
col35:   bc99bb8bfa89bba7a8997a6dbcacc7accdbebbc9cdfcdc9eceedac98aacddebacba89caaab8bfea5
col36:   969ba9bac8bb499cdcbbd8eddc9dc97b99f9c9badacdbcacbdddabbbe8bcfcdbdcca8ab8bbbcd9f9
col37:   aa6678b9c89c8cb9c9eccfdecbabece9cd8b9e8fdbdbce9ccbcbfbceadceadedf58dbcac9dcd3cb8
col38:   a9d9daba9bb8a9ab9bdb99cfcfdccdcbcecbf9ed7ceebdcaf9cdfbbdedacbbbec8ba9bcd6ba7aee5
col39:   a77a99aa799a97caba99fbedbbbb8dabc8bcb9cdcdf6cb98ebcbacfacbbcfeccffabfbccacbfdba8
col40:   99a6aaaacb9ba77edec9bcbbdcdb4a999ac9beea9dbbd7cbebbbee9b99eebccad89afcbeaa89abbd
col41:   8879b8799badebd9addbb97cebbb9bbcccaedcbcbfeefd6ddbcaccecfcc5bffdaeacbee9cfeabab8
col42:   8c69bbcda8dcc8bccb7bcdc99abdd9fdd9ebb8abcdbf79ccebcbdddabbfeebcceaa9bcc9bd9b9ba8
col43:   a689cd8bcadeca9dcacecfcb9bffbeddedbfbed9f9ffdbfafdd9bedecaf9fee9cfdbcddccfbeb7b8
col44:   87ea99cbabb7abdccdfdc7dbccdcbfdd9bbcade7fffaeded8eaebdcdcacbbebedde9cece9cdabacb
col45:   a9ada98be6898bcc9f8fbffdcacbaecdacefc7bffedacd9ceedcbbcbcb6cabcfa96c8cceadccbaa7
col46:   98aad98ab8cdbcc9dbb6fdebeee8cbedfcabdcbefcebc9eaebbdcabdccacdbbdeace6cbaccdeadb8
col47:   89acbacaccabcaadfecbbcbdaabdcbbadcaefdbabbcddbfeacd9bdbdabec6bbdabae9e8bcbc6dd9b
col48:   86968dbc9cec9acafddacbdfcfec9a8bccecbdb9dceae9aeeadbceccd8dac9becabdbb8abaffcbc7
col49:   9789c8cb9aeac9c997caadbad9b6aaabdbdcadddbcdfedf9cd8aaf88ffaecb9bbb7eacc9ab9c9b78
col50:   8758a8baaafec989cc9bbaafaacbcbacebbbbeddaeccfbcb9bedebbab99cf99ccacedaeaaba9cba9
col51:   676a79a9b59a97adabdac9cabdbf8b7887d7cbd6ab8cbccd99abdab788b897ba7cb8a9bbb6b8a95b
ROC:	 BPix_BmI_SEC5_LYR2_LDR9F_MOD1_ROC6
col00:   73587455951255549a778767a7a89385997a79879a5b96789896e9a49caba4487a74674666566877
col01:   6947752353477ab96799b88d58a6f8ab78d768869b77bbda6d78e9bc9986b97698969a8566aac877
col02:   76a285864668839b58abbc6aaca67d7d7b59aa9da87bab98ecebba98bab78ab99b799476b96a8c74
col03:   897849a44482c55d8597d788bcebcb7ac986665988a699e7a8ab98c667996b498895b6a77537a87a
col04:   7779778b6b4c9a74687975c78babbdaabb48b8b6a9bd9d87eb7a697bb6bab848a8ab758496978667
col05:   365772b97639a88968a796aaba84a87d9e6c62bc48efabc9aa8998a5a8659d87a6aa357ab636b752
col06:   7723b8a5497d97a597e5aacce9ad9c9489898db8b996bc79cc7746c6bca8a897776c7759b7576758
col07:   a646479647a493c97b335abcb6af8877ab88796978a788c9db759639a57bdcaa685b58bb9a769865
col08:   28768993a557a5c9989c89a8bd4988965f8a85469894baaec9989caaa57b6c63eb7999679b496579
col09:   469b588a38a7b98798caad779878abd6759c6c87a9aca99beb8a89baefabc8b64837a468a9c89aa8
col10:   39258a5898a3769c9ca8887d8bcb8a96be7ab57789a8a8ddebcc7d8a5a79bc9b75167774449c5693
col11:   687636855461674887ca9a8c9c677b9d7ebb6a69da8aa847fa98db98aa8c8b87b8d75449a86a2343
col12:   67315965949698ba6677a79898bb99c8cdaa88c864b7c77d7aba879889e5b7ad96535832978aa564
col13:   14653a7349674e7589a98db78c5b96c8b98d66949a99ba79478a9aabb6bebaccaa88d878868aaa6a
col14:   57394a3254956698758988ca877c8ba8a6698767bbc7f987aaababca9c8aab457869a9353784bc46
col15:   19647569667a693b958daab9c996ab8b987b87869bb9e9abaaa8ac8ab6ab7886a377add7668cad27
col16:   a82539a774c42b8894bb856c88999b8bc6a7ab7c49aa985ac88bbbd6c788976d478b697b79766465
col17:   412925a79178773bfbd78789a56b776c757a9486b969bab97b8ae8ea688c8cc89886888784775782
col18:   3215a48646779aad9a7ab9985bb6a9ab8579a8a69897cb88b7d48e9b7c97779786346979a9ab767c
col19:   386a26b9b671855a1bb52b89b45bb8997896ac58af9a9f88c89f8b994ab6a8c8766d9acbc9a5b483
col20:   83547668a6747478867ddb8ae84a66a98b2987c89b6bda97fbcabb84cb7a688d7d698699b868ac27
col21:   55979267a5b75b5c9a9d6aaca8a97beaa884c9879bccdc5d9aaabf39b9cca686895dc87778899878
col22:   596589627727587b757b669ac8a689a7a5d979aa79a99ca89ca9cc8cbc8cb999aa8e7b89586198e6
col23:   8769754a7978a755c9999585c78cda9594979829826bbbec7aab8e9a698e49776a4e6a8675976978
col24:   42735232676865a94a85d5a98deb5a7ad9c689a9869db6ac6aca78afb979e67e89cabdc6834ac659
col25:   5758993a4668a956cb8a7997ba7a68972b8895a97685ba679dbb89dad8cb58876a963b6d7897a56c
col26:   578b487689d787e95c967acafc8cccb868cabdcdcdccbbcdceecdabf8a89ab67988cb98d9b78b9e8
col27:   46579c9497a79a8da8a879b6d996a77bfab9f98ecc9c8c9f7b9dbdcc89b9dac998988e9c8a569477
col28:   84485576a8d9599b4d65bbcb9c7de8a8a899baa888bbcbbeba79ddab7ab97a96b7baa4949778a4c7
col29:   658a6488a81966a46b87b8dbd8d3bd86b697cec7eee5dcc9ecccad98cbcd6a99946dc97b8d895dc8
col30:   9879be7967869689acaa58f958c5fd8a978cc8ada9addde9eccb8b5e9bbd67baacc7acb8a6b8bb99
col31:   b6b99a25764cb95cb89ab9caccd9becb9becba75cbd8dce8ca9bc8dcbb979cd8db79ca7bc8c8f6c9
col32:   89c77b39d76636f5dc678998bb7cadf9899b6b5cf8dbbdc9a89cdfcffb959d748cb99ab5aa985c97
col33:   d6579767877abae8ac8b7b9eb8aab8cac75aad7b5a98edbdbbd8b7abfcb9cbdabde69c784b99de86
col34:   a9b5a99778977bc8df8ebadba8b9eedaae998abaedcbaabacdefcc9eacbe6bb5b8bafb8b9caaa995
col35:   5759a847c476cd79bccf8abe5998dbc9cbbbcccc9c9afdeedadddb9bea9cbec88c9dc9b5b8dab766
col36:   9a98974a9ad4893c8dc67afbafebbbdaa8999daddbc9bdfcfbc9bcbb5b7bacbcbebbc4bf8dc69a99
col37:   915798b7a98967da8998bf8ccaacb86badff9a9dccbfabf6bddfae8cbbfa9bbacbb79da577bfdad2
col38:   938a8eb7b4ccbb8ab8fca9998ebb9ba9facea9eccbc9eefbbbdc7cedacfabdfd9ad89adac989a978
col39:   ab874aac8754cdaca7b7bccbbc8bbcb99d87a7bddef7dc99bdbecdadbc9dc9ab9a7e9e99bfadba79
col40:   9b987a2787a7aca9e7bbb8d98cfedcc8b7cc9caadcdfcfbadeddffdef9a8fabc7ba9c99aab8bc97a
col41:   a7767889a55596a98ac9cb79ccac7d6aeb97b8c79bafafcfdacfcbd9fbebccadcab7a99dabcac7a9
col42:   9cb58dd99b8659d89b7adbbd87d9ccaabdabcbbc9cbdceabeeacacaf8bb89eab7ccb87c6bacefbc5
col43:   4ac8587d6ca989b9ea898aafdda8dccccecbda9af8dcbcbdeadacfdfaa8bcccaca88d8a8dabb97a4
col44:   aa799597cc887bfa7eadcbfbc8fbcc89766cd88ddbcaeefcaafd96fad9b89c79c998c7b868e8ba9b
col45:   6ab899ad7caa9a9bb4bfd7c9adcddccbdbacfdcfccb9cedee7d9ccbb8b9ccca7bbcac98ca8cc88a4
col46:   56ab972ac878b9a9cce5bddbd8bb3aaddb9e799fe99a9fdacdbccacbefd7ee869c99a79cabac767b
col47:   865a8b9799ab99dc8fd9b8aaf9cacbdacaa9abe7af9ebacaffcbdccaff7ce69f97ca9dcae8eb996a
col48:   c69567685859a9aaa979fb8c9bbc99cf79ccdaa7cfecfbcfc967cbdaea989e9bd96aaeb7cbcead7a
col49:   99a8889468a968a7bccadbcdfbbbd8aa6cdacedadcbdce6b9efababfa8f6a9b9c787aa8aab8da98b
col50:   744878965a97abbb6cacfccbbb9bebe7dcec9ab98bceeedecbab9ccbd7d98fb99abadc9cb8caa8a7
col51:   418687749465aaa966b796a76b9aa79c98c5899988cacab9b8aacba8a974aab9669867cba8889aa9
ROC:	 BPix_BmI_SEC5_LYR2_LDR9F_MOD1_ROC7
col00:   4654984a6487646aa87bba948a57b78bb96568c448a64a8c776593a9466866a6c659ac88884689a5
col01:   c6a64a46799bc4b6c86a99bd9a97c8a75879a9897a6b76b8add9b889a6a969a9a98578a7968b9476
col02:   3548756a2768b8ad8bba8ba38899a6aaabb7878d9babb68697a569c5aabbca86763c8b7a878797bb
col03:   48756887989c768bb9fcac65875896a9c9cc87bda6ac859e7699778aaa947d79dd9a595d898cb7c9
col04:   16789817498a988aaaac9bfcac969863c9ca7ab9c8db5ab8999ac7bb4a48988885dd778a577ccde6
col05:   86368499b86784ec8898a9a778c7a9c38baa966b7ad98c8cbed78a4978b646aa6949a7829598a8a6
col06:   7587b547598cab6a9bd5cba84c9e97b69f6e6997dddd995d89cbabcbcac9aa7b98aab6ddc78b8a75
col07:   2567766627a8897ccb55fbb289b68a8d76a8ca776dbb89bab8db9a7a8b99c879866eaabc5c6a9b67
col08:   a717658a75aebbb8a6d8897a87999877a69b9bbb9bfabc796baa5ca8aa77687626bb8e4b94abfb75
col09:   a738763547a6889699c85ac9a6b79768768da6997ccada76b99abb8ca1bba7afa7e759b59f7bb17c
col10:   7378445d966a897bdee7e4ab6cb98b9869aca8bcacaacab995a6788c97c999bca6abaaa85bbeb7b6
col11:   624136688748967bc8bca7bb9a75a69794d77c8688b999a88985653bba47be8987d98ea67adad687
col12:   96479689496ac75ba97987baccd5ca935aa77a5ad8968cdcadadac78aa86c6566bc968a9b86a77ab
col13:   646657578678baa8cabd5e995b8a8ca889a8a9abbedbda59aa969a87899969b5b88aa7ad6dcaad8b
col14:   924795b76964aa799be8a9792c95969786b9898599c9a76acad9bb72987897883a98c8c9a5ca9677
col15:   5374974648a976cc9b6b889bd9cb7ba5b8a97d7ab7caa89b9ca988569dbd969ba9c866f5a96b99b7
col16:   138592c69a976bc8bc994b87f6adca56798a9eb6ac8797cdab898694c9e99e98bb79bff76ddbb6a6
col17:   27478773a78d7b77edc89aaa878a45aaa588875ce4ca5bd99a9b7cb77caaab87dbbb56657bb8a9c6
col18:   5782377aa6a3a85bc6a7a7999a869957b8a9bacf7bd75b7db3d8caab5a99b5f58c8ca8af6689c8ab
col19:   b33938667875876b98ba778d4cceab5a8849c9789a66985356bcc96495cac59b98978aea798bba86
col20:   3887ab457394a4bc6bb79876b4659994bc769a79acdacb99957f998cbaa688bdaaa8a7848b68b787
col21:   5669a9836a8895bb99ac5b6ab669988878b9adf7ab98b999aca588786b9ac967ca997878678748a7
col22:   1449837689aa94986688a76988a61b5a73a9ea587aaaac96a9bbbb97699cba899baac9967b87a8d4
col23:   51562979169697657b8687e985b7568853686c6c87e767a8a76a87aad799966bc868b7a66c7e7789
col24:   12139626857998e8888879686a7986d8cf76ab787b5a8adbcbac576696cb248a9cc5ad99b7e968b2
col25:   7146483697c695dd9bf58aa6b676b99c7be98d84ca8bddcac75abb96a876c8a59c5bda858b7e5ab5
col26:   773776bda3bfa78bac9989eabaaa8bbd7bcd97c9a8ddce8cc9ccaaeabcaea9ab8c7bccfd89ccd7a5
col27:   48498b58b638ba7aabc9a6a8b9e8a9a8979b87ab9e89babcbe7c6ca7eb9aa96cebbb8cd9cd88d9ba
col28:   97663697cbdc9bbeeb6cc9b9baf9a99da8a876ebbada9ca8a9999bca9aaaf89baec5efb9f98ba9bb
col29:   a616697698988a99bba9aec6ad9aaa898b7acc8c99b99a6edacadb8c9c899ba785cb6a6cdc9c9cc7
col30:   8654687b7a97cebcc97d9ba8dac99977c8c9bbdebfcebc7fcc999bacea7bccbb9ced8abeb9aab787
col31:   68b7c7a9cb9e9abbadadb8967abf3bba8ab75cdb9bd9bafb97c895aaccab79f9acaddbdf998bbec6
col32:   74679565899cdaacd6d8cb7ba9b9d9bb7cacbcdcaddcaba8dab8eabd7b7b8ade7d9cca9ebcbfd6ba
col33:   668ab47b8d9abfc98ab8499b9d69eb7bfbadd79d6b8beebaebaaa98a9cba9bca8ce9abac9daad8cc
col34:   7979bac86a5daa89ee8ebb99b9cc6bbcea9ebcef8fac9bcabbaab86cc998d98687bb7cc9a99ecb6b
col35:   965a9a5965adbcab488ccb7bc7daa8b88dbb9babfb8ddaeb9afa98d99d8aea8dbac6b8ccaeced7bd
col36:   895599457ac9b9bfabc9cbbab9bacbfae9b97e6eccead9ccfd8caebe8a99fbce8cf9ffec9ace89ba
col37:   87ab79a47998acaad8b9abde86bf98aaa877f9cab8ebbbcafba9e7969a99abbdf6b9a9e9fbf9ad8a
col38:   68958a58d9bc9c98bfcdec6eb99cdabacbee99dbacefebddaa9fbcbaaab89d7ddefbffa8b5f9b9c5
col39:   596499bd476ade9d9fbab8bbabb97c798b96caeef9bbbdcfdca8a76aedacc9bacc97b9fd9c9ec8be
col40:   a7768aa88dbeb8caa9857f88b9cfc88cd89c998c987ceaccc9f6baf9bac9bb6adeddddcec9bbacb9
col41:   83589966b8ab57aa96bae89a78bbd8dd8adaeb9b9bbbefb77c7cdbbac9bc689dfdcdb9e9c9ddbb86
col42:   47989b9ecb99bce8c9b6e9fc9b8e9baeab8cbcaabcaafbe7b9bc8acfc9bcf99fcbcccdbf9dbf9ca7
col43:   a7688bacceeab9a8dfacc9add8edbbda8a9aaab7cefeeaed979aada8cba89eb99eeac9a84cbaaaba
col44:   7566899a7b98e9dbbcd89cba89ba8bbbc9dbcbbaafcefc85b8abbdcdc8ba8b8a87cfbbdfe89d98e8
col45:   b7b9888a4ae6a7bb9aa9d9dac8fbbc99d8c9dcbdfeb9dc89affdcda7cabc87e8e6b6eccbdba78758
col46:   5548a878867b297bbcaac99bdbaabb9696c8ead8f9d9ebdc9d78a7abca99a49bc9ba8d9eaca499bc
col47:   89597a99b797ba9b99bdb99dabdbdbb99abcd9dcadee7ae99ddab9b7abf9bc7f78acfa7edbab3fa7
col48:   883978a96a8bc97f9cb6a8ba7adfbddbfebcb96ad7cdf6acbaa8b77cbacb8be999998acaaab7bfda
col49:   2a747a8b99fb688cac7abacaea9a9bc7accfe967bcdb9bdba6cddbdaabd886baab99daadbb89a9f9
col50:   46649889a9b8b4da9ee3ecedacda86c8bdcf7a99edbcda869b9eabbaaafebe8ab7b7bb7dc8a9ca99
col51:   715486b14866d65aa7ba67858999a7788b95cb67988a68b5caaba693eaaaaa895ba88959bb5b66b4
ROC:	 BPix_BmI_SEC5_LYR2_LDR9F_MOD1_ROC8
col00:   32325513114142347668636c78363958682a73476a699974b761b58646b46363857764a6683696c1
col01:   35256a587668a6769576b6a9b3476a878786797978a9a867aa787ba4789586e582b96a976b99a986
col02:   313337757a434587a5799389b89a74546a7675548b686669ca799b76c8b966a77a87a9a577b63656
col03:   665827446454ab758756a86957765aaa8888a78a89ea7964ba882a7b788869489b6483595847655c
col04:   35275515956874aa7b666a8bb8899a777776d8b8b3ba7a87aaa48bb8b986a7a6a368697877989a67
col05:   6548758b6ca46655c5a86c8c9c68c64d5a57b49b66587c87589b5a875caa599997a59a889c579484
col06:   258369326586884857ba9aadb5789787e89a899a977e7cb96ab9c9b499976db87a9b9b93a6a4a876
col07:   52687776a4a639319768bb8b97ac87987ab86999998aba8bc96d899799c7b767ba8588aac7a78aa4
col08:   58988249539596b87877bcc7d78699ae9788aca8dcab89a975a5bec8a98627947958da7c9a678675
col09:   36329415bb95a49b37a888a4baa74a8a86796879ab8b8799ba9ab887becaa7857a87995c66876938
col10:   148a55248466489455a9878bb5c76c5878b99d8aba77b5999aba9885b95cb46898a7d7b885a7b984
col11:   5559a779998373a6a99961b8ba95dcc665558c797a9a55daa968879a76d7ba98a897892898b4b7a9
col12:   356958a7656686886c46a879b98bda7aa9aa98a9dd6ab6baab88d74a9e88347aa7a6897969789696
col13:   23419266949747876a787a89a967b8a7cdb95ab667886aa498a7aabda56868a75b8b97d799c77aaa
col14:   29268a45778679ab999965bc9897999799986789aaa6a748797bcb9948bb9acb9ce97aaaa767bd99
col15:   528191887746889599dbb5c69a6bca9867b665678d997ad85796999a8787caa8695a77b9a78c467a
col16:   7724a78a479bb69299676aa88a9b988b8bca8c8974d96aabc8c6da8a76a8a989a98aabc65cb87b97
col17:   7c377344787c8b495a986d7bab6758589c59abe788d95cb97bddb97867d7aa597b98caa6b9469797
col18:   25989b887558aa98954bb8bca779c8ab6a6bba6aa6a54aa9a9b57a7589f768da5bc75a6658ac98b7
col19:   3776b76698886a99a697a89a47cf989897c6a289bdc9ca8b8aca97a7a888bc8ab5d9a98a8a8c8963
col20:   97138a855888b67876a48aabab7dc7dacaac6ab89d899a86aaba68cbaa87da986875b69cb8b9a598
col21:   64765468737456885b5988795ad8965689a8587996c9594e8aacb8569676666aa4a8b8688a85b959
col22:   2867a9598988989b855969789bcac878ca9d9de9a788ca797885c9bca9c89bdb97aacb7774aa7ad6
col23:   a964478659898a67978895797aa87ac666c5899787aaaa97a7ac9b7b86899d7897b899a98799e773
col24:   65676a874a6846da9b758559ba9987b8887a98a89cdb6a87dbab9669e89a9a4c889c9aaad6d8a9b3
col25:   735466865768a9859d78aa9986757a7767cee57a76a9ba79acacabae968bbaa7aa9c85c99c74ba69
col26:   4658769888a9a8d63b7dbabbcbdc9ca7b96d9bacbd9b9a9dcc8ccabcb9dd9bb78bcba9a9bd7b9b97
col27:   6595a8447a766a9c6eb9caacccd9ca9ce8abc975b7ccbaecaa9cccaae9ccb96bb6bc7ab8ba89aaba
col28:   96ea98566788bb89a8bacb9cbdea8bd7c9bebde9ae9ddda99dacdbabcbca6bfcaac9ddbaaeda8a75
col29:   9c8851699cbd9a87dac8dcddbab9abbfdbacacda7abaabeadcd8bd7a5a6d89adaa87cc9daba9aa9a
col30:   9578a9ab78d5f8899cabadcd99daaa9aa9cdd7c7ecbba9dbbbadcbabbcaaccbcbcbfccaa99b568da
col31:   9969787a96cb9a9dde9cbbcc6c9cb9adfdcbdeecaabadababcdf98ac9ebcca9a9a9aaa89b7aab7ca
col32:   7a9a95a9ac68e5d99aa9fcb7ac9abc9bec8cce9becbbc6fdcaba7eacbfaa8d7c849abe9ea7be9de9
col33:   858898a96a5a9abac9bcc7c4cbcc8c9acd8bfcbb79a5ccfea99d688a6b7ab89bbebb77fc7cc8eb7a
col34:   59b8989bbcb9bacceebabfbcdadddab89a9cbb99da9ef88dadf9dbdaade7daeb7ade9cfdceaddbc9
col35:   caa47a9abcbbabbdaca9c7dcbbb89bebebab9bdbbba9dbead9cc9ea7aa9b978d9e9aa96ebadca878
col36:   c6768a7adc88aaf7f9c8aef98ab9a5bbce8d8ea8bd9cda8bfcedcdfda6cdca9c8bec57c9cddcbbb8
col37:   89a99aaa8b8c8dcbabbadc9ecac9adfababaa9cc899acabcbcbccbb8db98cc9ccbcdaafddbde8ab9
col38:   97bb98a979addabebbc9f9abcdebaacff98bbbdcfbd9fdbe78eee9dcbc9dad9cccccd8a79fc9fbd7
col39:   877a69cb9cc9abd9ac8ce8aacc8dcbff7bdea8badb8aaedbde96acabba8abadb7a9bca9f8ccaaf9a
col40:   8dda7aababc99cbfbd9dfafbcb95bfafb8baaa9b8cd8cbebae8dafbbccaa9ccb9cbbbcabdfcdeaeb
col41:   85a67a9fa7abdcdfc9dfae7eb7abcccae5e9dca9eb9eceedeafde998aa98d89ab9db9accccbae9aa
col42:   3ac8bba8b98baa9bc8adccbaefbaa7affcddabd9afdbaecfbafabbb9fca79aa9bdcdccacfbf8ffb8
col43:   98b8bbb9cb99aa9adfafa8ec8b9dbcedceaec98beaeadb9eabf89abffdcabdf9bbac9ce8abedefab
col44:   988ab5f9bb88d9d6aebccabfb6cebcecbcbdacbeccef8dbdedf9bccdc9d8aebbcfaebbffc7cfbbc9
col45:   658885c89a9d87bea7fcb9cdfccbd8dddb9aca9bbcc7babbab9b8cbbbbcaaeacba7cc8ab9ccb6f89
col46:   a98833a779db6bbc9dddcacfb9da89a9bbcdda9bbecd7dee9d8bdab9cdab7b9addf99ee9a9aecb8d
col47:   75c6b9789a79cbaef99bba9aa9d9ec96ececdbfe8ad6ddd8facb7edcec9b98ababdbc8bbd8ebfbce
col48:   89b66aaac9d797cba9cea6ebbebc7bbbaafcbdd88a8dcca8c8dcc9bcfaaceacbbbc8cecda7dae9cb
col49:   b39ba8b7999bb89cdb8ec7bbaa6abdb9acc9cca9b789facc8caeaeecddc79af77fb9dee8a7dddcbd
col50:   67ac78a8d9eb959cdebbcafd98dcbbbbb9dc98acabecd8bbabdafddcadccbbeaabdbbfba9c9ea9bc
col51:   59594885a8a8a479888d97a69bb8777999648c97bbbb7ccbdeb99aabbb2a396bda859b7a9b99a6ca
ROC:	 BPix_BmI_SEC5_LYR2_LDR9F_MOD1_ROC9
col00:   59546468993438495328db47898a736a89abb97965ca5b79ba7689a688a697ba7a8a643973777542
col01:   9394a567b89cbc56a953583965aaba78da89a9cbdabc74aa9c78a2cd8abaea6c48899676b7795b75
col02:   85949545567a53a8c7a67678ba89a67bbc9b9bcbc78a9cc5dbc9bfbaedadaca878888b9865888449
col03:   c67979a9f9ea789b88a8698b887dc9b8986ad6d9b9bdaaa9a6a97bbebaa57ab94c7bb999576c8467
col04:   47979459b9caa89b79acbaad9fcabecdbcaacebab79a96c6b799b86b979e9aba9bda9666b99d8937
col05:   76bd78696da9a78799b7b78d689e88699a9fd9dcccb3de7ccaa99b8baac8bda6bc89789b968a9772
col06:   5776ca9888f59b97b5bb9979b8b1bb7ccbeb9b9b7db8b9bbbc9dc2cddbbb9b8c99a78b7ac9658976
col07:   85c97996976ba8ad8ad79689b7da96bc9c7beb6a5cbc5a9b688dd5a589b9998c885b97671aa7a848
col08:   77377778a66ab628a6b6d7bacbccf9d99a79afc89bb99979a898baa8ca8ef9b9b99b8999d5958c51
col09:   555b9aaa7ad4aa5a99b855aca68b9aabaadbec9ca9bc8b7d9b9dea7cfabcaab6a8a66ba79c596876
col10:   85a83b598dbabab5c77667b88878acbcccf79ed8aa8987bbbc8a6a8badc7a6dbb96ba484ac748815
col11:   5b6779b9c989965bc891e877a94ac88ab9a987baa79b7c7bcbcac99aaa65bb9d9a9a98c786a743c7
col12:   567b2ac8b97bbc899b58aa94c3b88689bcbd84dccabacbdaac9af968a6b98b7ab56a887467482874
col13:   699bb8976fa7d8488c996d6aa8b788a9b9cda8adacd5bdcb7cabb9b859aa989acbd8ca6786866385
col14:   7eaaa867aca97bb95ac8a9a7ab96c7b9aaaab7cb8d7a849a888a9979799ea897ba887b8b88653865
col15:   9aa598a87d89b99aaa7797c5ea5dbfc6baad8b78879aadac9a9a9899bc8aaa979a99a7b686369871
col16:   8995867bcc87bd67c97aab8bedbabdbb6bda879adbabab9ab69da99b578adbd789d5949798887914
col17:   77539ab99578878ac9772b89db8a79f7ce8b9cb7b9a8cba88a8ddcc9b9c79aa68a6a5a586a46a183
col18:   854a78baa7b6b89d97b99a98bbdaccd8bc999dc7a9cab87cbd9888785c88d79a69756848979a5636
col19:   6797e9957778db9ba9a7a94aca878aabcb8a9aba966cbaa9b798b4caaafbd896599a5a8c83287949
col20:   6778859887b8a9b67789a758dcf9889a956bdaad9b9b9a9a79666dcabcee8b756885797896475744
col21:   a9957cca97a6bb89ab8e79a5aa7a89fca6eb8aacce9ada89b5cb8ccca9cb9d727b8563b6b8578435
col22:   99888a779764b8758a99c6889899c998ac89ba958ecbaa678d9db6da98968bca87a4b4b6b7178585
col23:   4566966b877a4a8a8ab7b78d9a7797a8ccb97c9a8e78888c78aa8bbfba9ac9784a98478963b78474
col24:   7956aa869a599567b979e9adbb7a8cb7a5c5aab9ac999c889bc98997868b997a7a87865a86b74769
col25:   3498bb7787c8c89ca4856a88ba8ab849a9cd18a5776baa877cca9868e88b89a8956a6764a6578588
col26:   b8b998d8aac9c6e8ce76cbba7adacdaeaea8886ac79bcffcf7bdbcbbebacccbbc7bad7abb79789b4
col27:   a9a78ad99d8b89a8b989c9aacae7b77ebdabc9b86aaaacc7bac99bbacdcac98cc9b97979687cdc64
col28:   b5aab9db7e9a9adc98fcbaaddac5edadfc8bca9accdbcda9bcc8e8ebbaebcda8da679ca9c3988856
col29:   b7588ad9999b6979a8a59ecaa5bf89dbaebbdccbadb76dd5bebcdceca8ccc79aa9987b58a9d89935
col30:   87789a989a9bba4dbdadd885a9be9cd87abad89a78a9ce8ec98abd96d9bab7cbc88b674a589638da
col31:   bac7c7cd8bbb9aebb9aa99b699b9dcbdeacbcccacc8cdfdee9ce7baac9bee78bcb88b86a69c9a849
col32:   958aba898c695bbb887bfbdef8ccafbebfbbdaad8acbe89b7becbcccad8f958a8cb959ab87178582
col33:   b99bedaa99387bcb8bcc6ebaeadd8faebefbaabcb8ec7bcd9ddb9a7f9cabcfae986caaaa6bea8246
col34:   dcb89b99abb8abaacd9bcaa9eb6cacbfcccfdbbdfebdadc8f9caffdc9a98edc9b9ea7ba97e687a66
col35:   789adcc9887aaf8c7dd876bbbbcdeaddbdcc8bb7bd6cd6d9cbe9dd7dbeebdb8ce79adcac9ca3a7c9
col36:   89a99b65ad8dbabceab97eecaacab9efcd9beb9d9aaa9987c99c7acebedebbe6cabeaaa8ab7ac769
col37:   ba8da76d8d9e79bccb7c5c89bd989fc9eccb7d899bbacdfdb8ad9cddacbdaaeb9c67887e8583ca96
col38:   baceada9aaccdaeaadbabcabf9ffedafbdcfecdbccce9dd9bcd9cdadd9beeabac8978bac98378a47
col39:   56fbbca7d9897c9b8acd4d9de786cdbeaccccbbddcaecefdfccdfd9efbdbac7a95ba9ab9d9766886
col40:   d68abdd89cca96abd8ccdbc8cbbbbccf9dbf9acfddfcefefbfee8bfd9fbaadacb7986babcd9bce5c
col41:   dbeab8ba86ecbbae9ccdb99c89adbcbcfbabf9caabcaadcbed8fbdbdcece8ddaa8968a8ae9cbbb88
col42:   d87aebcca9ccfdc8eb9ecaacedfbddbfafaf9fceaedbb7e9efeacafece7eeecacb7a8898ceb89a77
col43:   968999879b9b5a6cfdb9dbaabbffbcdadacbebaad6beefa899acedba9cccabbc9bcbb9a848597be7
col44:   8c889cc8a8b9b8cec998fecaf9fa8cadcfdfbbded9ae9e9dcc99aebabf8cdebbdab8bd6d8bc6b295
col45:   98b76da5bbc9cc9cbedbcba9ffabe8adacfcd9accbd9b966ceeaaabdba9bcd9b79d6b6d8d7d86785
col46:   896bb4defa6a6abada8ebb9baabb9cefb8eadabca9fe9bcbacbfcf7ac9abda8bcdcde4ae9a97c5a7
col47:   babbd9b7aba8aa88c7b8a88ebde7bfbcdccbcbdceb8dcdfdeaccbac89dcd6bba9caaa6aaacaabcb6
col48:   b46da79b7a6a88bbd99d9adf88ecd98d9ceedfd7d9cccf9abdccbbdbbbfbabbc976c5a89a8bea494
col49:   997d95a9c6887aad9ad9999b89cdfdec9cdefdeffae8f8676fba8dbbebaacbaa9abe69d8bc9b9a85
col50:   ac8deb9a9badcd9c99c99cdabbeb8d8fcdafdaabdcedbbfccfabdbbbeacaadec8baacc9dba7abc85
col51:   8565758a7d998438b4e99697d8b6789a9a8bb97d7b7aa5dc77899bfa897a79a49a8a98ae587467a6
ROC:	 BPix_BmI_SEC5_LYR2_LDR9F_MOD1_ROC10
col00:   877737b56672869adc87aa79badb988daaab9a69887a95ad999aab677ca5b6cad77db878aaad8d51
col01:   b65965b598a6997789aa97ba7bbbbd9aabc75bb88aab559af88ba9a9c78bb74cc699cdba8da79a9a
col02:   99857889b87969ab7698879bcbe8d799fcda67ab5e8bbaa97aaa7b9978accfd8b9cbfce9b9aae87a
col03:   7869786898b6b75956aa764a9b8b88bcc5db898a8a8a9bc8a79a88b5bb6aaaca7d8deaeab88c99fa
col04:   848ab6d8a69b8659ababa998c88b8cc7b7be8bbac99bd9ccaa69be697fa8c9b79cd8b6ed789aaa9a
col05:   9863b8bdc7eba3a2c2a477a9e3a877da7dd9ba8d9b6b8ba6bdb8b9b7f9876cc7657f98ba7e5baab5
col06:   57d56bbb78beb98947cdcadccbbd99987cbb9aa79d9abdddcb9c9bdb8bccada7a89bedaecaac77d9
col07:   7597a4aac495967aa5cedba67b985aadbb5b996b99b8a8b999aaa89aa67878bd99dc9aa7b888c8b9
col08:   986a77958978bc97ac937bccbaeebaca9e9bf677ca9daaba999b869caaeaccc9b67792f9b58aad9a
col09:   85954b13ebc7ba777596a7a76889a99d7c6bfb8b9b9d8bd86a89bdc99784ba9abb96cac8d9cca9b9
col10:   8779b788ca9b8a8687accb889997bb96d4fc98a9a9abbed57b98ab8c8adc99dba9bc9779b8a8bb5b
col11:   845669a4c4a67b978768885ba7ba56c87ba988a8c98789b797898b889cbcba799a6bba7b87da689a
col12:   589b49b69796e7adbab785c9bead779bcbcd989aafb8ca89aca98ba8c7aaa89daabdacc9c8a9ac7c
col13:   68aa8878caaa6758788c967b9abb7ab98987dd7bbe6cb9cc8adbbc9b7aae9ca8998a9b7eccba89db
col14:   26793e8696c8978697b989769b8a8abdbadb89a7d9cbadf897d86aa9d9eb7a4cae9bc67aa8b9cb7a
col15:   8489b4725187858ab75a75ab888d9bcbbd9e9997aaa76b9bb9a8b99bca9bb99a8d8ebca999cc9aaa
col16:   c68878ab9ea8948cabaab7a4c4979a48c7e55a83ec9da766c9877a9bf99ccaf9abc9aaea9b98dba7
col17:   6b566a91b9aa48aa749b954856bb75cb9a7baaf7a9a56994c9b8a9bba789d966b8ca9dbc17baa7ca
col18:   18879a69895bca787b7ab89ba98b999ac839b9b8cbbcc79976abcbb96daa9acc98c88d9ddbf4b978
col19:   797967b6d75a585694786b77dd8883ccca6dbb659aacb7899ab985f6f9cd9ab9ebaac5787bcbe8b7
col20:   789ac965aa5b6b6b9b857877fa8a8a9a5ca89899a9d896598e78799b9b8bd6888b9a9baddea98c98
col21:   24b18997dcaaab87657a6677bca898cacbd68f8889fbdaabaca55c9ba7689e9abba8788bbdf8bcd5
col22:   3799a963a86aba3896cc9a6668a8a968868dcacc9ca69b9db7a7aa89879b9bacbcb699bcd9c587ac
col23:   a2544676979a8a85ab8773ab88c44d859998a9bba8678c87bac7987996a87b67796a6ea8f7898ba6
col24:   84a9659b794bb97778ac785c8cba888879bd897c97d8acacbdb9a79688b8badc9a96f98a7d978ac9
col25:   654489788ca9c8cb635797adbc88aa87aab68755bfa9b3a9dafb59cab6d8a5a96da6b9cdab9a6a9a
col26:   5769a8cbbaada799d9c9c979dba79ad7e8acbc9c7bdcbbb68dbdf69af9fbe8e98dcc8a6afbbdaca7
col27:   9777b7baaaab89e79a5769b6fa8ec8dcffaebe7b88dc88a6deb8eebcb8b8c8bbcc89bedada89cdc5
col28:   587588cb9abcca9687bc9a5d9aaa9bca9cbcff99bba8bc9bccd8edb6fdbaf9c77abd8cf9cdfee9db
col29:   8685b7b784daa77ad68cf6bbd67988adaca7ce9abcc9dcedb97a8b9b9bfccb79cb89bcba9bda7dcb
col30:   89a96b98cb9caccc99e997ddaddcddbc579afbefcc8ccd8cbbcdaaa7db8c9ccb9aab8bdac7c99a4b
col31:   798ac5b78b6c94fa9abdbad79bbc5cbeddb9fddfefbeabaacedbcc899c8aa8cacfdc99cb7dea9894
col32:   77a9bcdbaaba8c6ba6cec9dcfcdbf88ca776be8c9bd9bcbbaaadcad89da8fdbaaccb9cfcbdfd9987
col33:   5bbc9bc8ba8999abcadcd94bb8acdfdbb7fafca6c8bbecac9ab76b8ccabdcaa9b9ac8bd9bcdfbaab
col34:   69cabbdb89d7aaabb9b9869a9c9acdbcbfbedaaca9bab899ccbffacaa9d56bbfcaadcbfaebbfacb7
col35:   89acc9b8b9ea79c89bbae5fdac68a99ebdafbfbdaaabfccbdcbadfcaababf9abdcebcd9eb7c87cc9
col36:   a89bd589fd7889a67c7c9dc9cabcbded96bcbcbcafda8aceecabfbbbdabbc59bbcd8aaedbb6cdb66
col37:   886687dfbc99a95ac4a969b4aabccdcbacc9f8f9dedbe8799aa8b8cef9a78ed7a9cfacdfedabeaca
col38:   a89b8ba8ecaa7ec989aac3adbdbbaadcbd9ddcceaee99cb9ebb9dbbacdabdcfce9ddcabadfbc9ad5
col39:   88979bd9e8f6788fecd9b9dda776cadbaedeaffcf97ddba879b89dcbe699dd999dcfcbdacb7cab7a
col40:   5795a8a9e8bdca89bb8acdcadedeeeac7cabbb8acceae9decfbb8d7ec7dd88cfec99dbdca9a9bbcb
col41:   7aa879d96966dac7a8a98b977ddc99daa889fabcfdbc8cbcdad9c8af77baf8c88c6bbc9c89bbcdca
col42:   d8b9bf7eb98a7e696cccfe7a7aacfb3d8c9e88cda9dbd89da9dbeaa9dfabd6bfd99dbeecbad7aca9
col43:   4869f8c59b89ccddf9fb9bf7d8c8b6e9acffda8fddb7adbadabadbc8e9feab8ac8cbccd5f8b8c7de
col44:   86d96b98c7ac96bdd78efbf7bbc9cffccdbabfc8bc5efacd9dba986b8dabfc9bddfcbbbe9edbe9cb
col45:   a7759659a8adbb8a66bc97b8baa9cecafbcf9eaca8b6cdc57bddc9fce798aaacdccc9ae99aeaf9ca
col46:   979cbbca78b6a98ccb9bbaacbecb9cc9fe9d7da9b6afbc9a89ccd9b9dc99dbde99dde8cad8dcba7c
col47:   c89b8ddb9bdb9ba99a87c7bcb89ab8adb69dfcd9fbccb899ecbdbccdc8aecc59bbd697eb89ecdda7
col48:   499ba6ccca9acb78aa7cda8baba7aabdb7baaad8cddf97ed9ec8b8b6ccac95d7cc868cbbdb9aed98
col49:   bc25c9958a88aa959aa2c697abbb9b9deb9d9ffc9b5dadaec9a8db9987b6d8a89ab898b38ae9bc99
col50:   99bbacbc7decbdada9ab9a84b4d97bacab7b9ebbbebaaa8bea9ecc997ac9dab8ad8a89caeafdeaf7
col51:   851416948699348a3cc6878b5465a7aa6896aa1b9b9ba8a7a7aa998b888d575a4856a5ab9979b977
ROC:	 BPix_BmI_SEC5_LYR2_LDR9F_MOD1_ROC11
col00:   682596866876679c942a2448b96775a79725899d3a85a79c9a99875a7b79c3a3742345773a656275
col01:   7777547887bbb684ca87b9a998b7a79857b98c8c678cb999d8ccad6a96c896556c79a8c645a86a76
col02:   527667857aa9d76b98866acb6bab96abccccb867a8cb8b8b8a8a8b7d8a55aa6897768465685637a7
col03:   14673a96a87a26686b89787798598a8abac56a9aa78999c9789b779795b47c6977765aa76b686255
col04:   384799772c78799786b7aa4a89794aa7b5aaa9b5cce7cacbad4aab78bf9b949977b847b579b87593
col05:   7a8a8594969a6c94a3b93c989a9d99e67c7cabc879a6db8899aaa799979488876a7b7793a2887633
col06:   9ca75627ac698a68777867ab9889cbbbcbcbab5796ccbbadc7bc79a7da86d778797689c9b8868967
col07:   64546629587aa8b9a7998aa8888bb8cb8974a8ac7baa9cf75b897767559468379e5a597395847767
col08:   4146b7888a84863cb59997bc9887a9779ba6a888aa749acaa76ca859d76594399ab58aa79b366399
col09:   5782a79caa96b9ad879a8587cb89b997d5689dd9cbaefab7887786ada978c85d6677a865496a7b66
col10:   59358695859885868a59677c9ba96a8986fbaa76a9ca9aba9b79bb99d65977947cb9687b85557942
col11:   64755985855569996bba864643c3c79978b6a95979cb98187a88ac6abbb877678965a38796695a8a
col12:   7479896658975a7a7789962aba7a869bbb6bb985cac5ca7b787868a7789476798963a798499b5565
col13:   35467429548774587a6a786c6b8b6bb89996788b87bda9b877e549a8a787c8ca8266466985885616
col14:   535669a58a48785669a366659c7a384aa9669eb89b88c9ba97ba39a6a793bb98666775695a826771
col15:   78958774a5578a98b696779c8999a69aa8a79a763bc99bacb8a7aaa986889c75a856b2a566a65a65
col16:   94587769dc9b98688a849788ed85c61c6a768c77b97aedaadb95887b97899837ba6ad35689877754
col17:   6744456596b6e94399656856ab6a78844949a8887c8b69ba75adaa996588a96384663737b4855988
col18:   c176a543666a4569875996674769a9a879a9b9ada7aac5b7a99a8ab87caad9899877659978857375
col19:   9169778bd9496778767b9b99398b9a575b7b8bd8b89abbb7b6859699b88699c7a56a8b6665458476
col20:   25767b477a5556bb8886ca7ca68be7a87ba88c4bb9c989bc78a745aa9c65876ab9648d2978388448
col21:   3243a1a897b567964b899aa4b79798656a6698abad9a9b979b765a959868787a9a7b888d9ba77776
col22:   8143675b4a56686996688498bda959be6ca879a8aae97c9a7aac7aa8587d7a569745a665a4d82ba1
col23:   5358748566889537679744a85baa99578a579b7b49eb97b966942c5479ab4496b568687844968346
col24:   7384a55b5ac669865a8268a7b9c66b4ab989665d4c7c8cac59ab649379cf6856aa859a67b8735879
col25:   a6366659a62ab1a9697b688565b777577877696a766e78bca9779ac8998b67687685aab9675a2464
col26:   765676a8c87d9c9aac788cacbbaba697d9babc8abdb7cbbaddbadc88a997aa9ba778a8aa9ba68a87
col27:   94a9597b9be67698785b779579867be8c8bac79b8a9ba9cbbab9ea8698584faae7479a696698ab93
col28:   3578988bca77daab9baabb8f9bcbf9b859c998cb9dfdebec8be85bae8aab89a976798d9da9ba6867
col29:   893a9ba9b8b9b86b958665ce578d79b7b69b9eac5bba9d99a9ad5989a9c898d9689664c86a877878
col30:   7875674c757dcaa4878b698dccadb98b76bac7c9bb79eccaab7a98a7faaadb97a7ba6aba6e7446bb
col31:   4b49b8c97dab8cba98fa7cbaaba97bbb8a99999bad97acb9b8c8ab998bc97cb8b7c9a58b5bbc98b8
col32:   678a97ab888aa84b7858abac7babbc86cc8c889bfd79eacb8bc9e7bad8997749dbb7b99abc4cb6a5
col33:   937cc9ab3baa5caabe98988bd9bc678ad95baf8aebbabbaaf8cfda29ecb578a9a2caa999a3bda977
col34:   655abac659c6d8b899caa9aa6b8a9778eabbed9b9ecc6ccdbab99899ab9b7bc999a7b7778b79c86a
col35:   758bdacc87b9a998c6dab8a9c895a8eaaafbabdba8ecb8e8d9a8d9cbacd699d8899a8ab9ca88bb88
col36:   6469678caa99b7ddaab8ddd9bdaabc8c69dae7bc76fbbe7fadeb56abc97b89a9aababc9cc3f8564d
col37:   696b669bb98a87cc5b8b5abb8bbeb9ed2c9cbdab89c8be7cadae9c8bd697969b7855b97c58a67887
col38:   7865a48ebd99f77fdaeaa8a99c97a7cbac8daccc9fc9fbbda79c88cc6869ccb4acbc958a887f8899
col39:   977ca8a9cb8d9be5cbac9ccbb8d7cdabd9b8ddf7bcddbc9cebb8af9a89eaa9c8c9bce888b8888bc9
col40:   e765ca9778a878aeb7fcb8a656ca9a7c98c8d9e8dbecceccbb97bd6babbb69779a69ddacdac59aa6
col41:   65799789968799ac7e6b59889c78cd9b9f7bcdcf9becac9c9c87beaa8c9854a74a7747bbb35a86a7
col42:   3987587986a59894b8996a9fdd8999ccbcd7bceb7e8acbac8d897eaa85c8ac586988ec9ae9a78eaa
col43:   9186698b88bc98da9cf9c86adc8e9bb89cacdab998abcb7bce7aeb978ad8ab8c8bca8adb4a7abaa9
col44:   786abbb9dc6c9bb9b87c8c76668ac8daeda9eafbb9b9cdccaabaad9bb4a9889aadaab95e9c787755
col45:   5b538965b699c9c5c87a5cbb7a98ce99db9bcddd77d999baf9aa7acb97eb99ce699788c97e94d77b
col46:   4b985f5858873aa8b94e58385788d699bbcd89cddccca7c9aac8c489e698898793bdddc77aed79ad
col47:   66a9aa8ab4a45a598889f7a958dad798b8a98fefc8ace898c7abbad695cd97a86899da8b587d6a96
col48:   c796d576cb8cad9c8a5ab9bcab59dc8da9daeabaa88b78aca8d9ccacb9aba99baad8b6aa89ba89b6
col49:   7a368697686b9d98d7888a9a9998984c77accc88ce63ada88f3a9768b797eeda2b7859a9896788bb
col50:   637577a95675cd98a9cab59cdbaa79999cdbacb9b9cbbbddb798c8bc99baba89bca868aaac6aa87a
col51:   719a3a9369b79657888589866467a9a6899aaa759ad79aaa97959198b56877b76a97969569845186
ROC:	 BPix_BmI_SEC5_LYR2_LDR9F_MOD1_ROC12
col00:   374799168635398693648b396884aba95bb7abc9867588a79aa9b4888ba988b57668a85686888874
col01:   8a877976478a988969bcaa8868b5a8b98a5cbbed9cba6b8c99a77b56c7ccac459a965a8acf763873
col02:   71995637b79cba8a4a7a7b76d889854ab9bcbb8799a89867f95a8baba7968aba992879c5a5b84755
col03:   797768c4964c87bad889a976a9d758bc9cc8d7789caca8bb97a9787c8b7a6867ba8a98766756a647
col04:   95268499997b9a5a4c8b9aa9aab76a9888bcadcaabb9eb8cae6887bbdbb9fc88977cba5785967246
col05:   755859a756a687b78b99674956b6a98eb6dbd6d74a8d99eb988a8baccccad7ad6687568c97996859
col06:   ba4ac787978888ac9da9c987e79abb9ccad9bcd8ba79fac7bbec87bbccbac9598c99663873948634
col07:   467566b8988498967dae86899b7abbbb7bb97ae97bc8ca874b7ecb7dca9c8765968b7889b77a9677
col08:   8654a865674bac86a998a6ed578c9b966dbccc9e96bc87a37b9a9e9ba9d7d857777a799a6a738672
col09:   7aa6a98768876d989da998da479c656b8abefcdaad7d96bc89ca79aa7986a9a7c79ca66788467985
col10:   3589451c947a7db935b9cba78bb8ab9c8a9998bb98a7ab9bd79acccca596688b79894b815599547a
col11:   a695b788e787899895db97a968bb69b8acc98dab89b8bc6aa8ebcb7b6a5a8b7b7a6b99baa56a5773
col12:   6598658176a5bb88a4c7686a779c9d878bb9866ba8a7ba99a97a587ab88a586a697bc8a587596493
col13:   93496675857866866cd7bb9abacad8a89ebb7a5c6a8b7b7c697749cf7e86b9d8feaa86aa4a677986
col14:   4293a67585588379b966959be9b689899c9bf996a9ea9ba9bb7c7997b98abaaa66a78757a6c76366
col15:   55468698b9a8b99caea857887abab7b9cd9dab8aeaa88dcbccb9a98ac987da98a8ba76ba568b7936
col16:   aa8667687ab8c599c79c9aa8bcaac8cb88dbc85d5ebaab8a6aad6a978a8a5d8a73298cc6b877aa62
col17:   7574899867a97a97568b77a996b79eb997b86c99b99b8a95a9a98886948fa899b583c98a9587b864
col18:   3994487ab595bb999d879ca66b7eb89c7c76cadaaa9967b7aba87baa99aa777a587c69694c435551
col19:   96897896a57883d89c398a9abdb7c8b7c9aae976abdecbcc7bb68a888b7bcb86dd78b66846aa77c7
col20:   6c2b6748e87598bba977fa89a9789aad8a9da7f9ced9cb79b4ab9d7b99cba7a495877676d5955944
col21:   b579399c9c977989875a8bb998ccbeb8a9ac7cbbd69aa677d79c8bb8978a8cbd7978877aa48575c4
col22:   686a7ca7a6959a8abab83789c8dacaaab7c89bcdab9abcbbcc979a6cbc9c88897b989d88579d9666
col23:   42945695a5ae767bc87bcf817d798b9c8d5abbb7aa97b99b9b9aca87d9daa79baa5a7677835b8658
col24:   46ba5397a87996baaa8a698a79c7a9aa7ec77daaa9ca98baacda76b98699a6abca97c67a76664684
col25:   7775bb87888cc78ccad9dc7ecc9ada85aaaaaa8bcb89cba7a9a769b999c99e9956689a749a7a7597
col26:   7aa899bbc98698c9a7addadc9ac7fbace9afdbabd9fb88adac79aa8bebbf9b5a7b979473aa96a995
col27:   8a87adbda5bb799aaccbcb5cabcfdba9ccce9bc8aa98aacacc7b6abc7fbcc989a6787986a5879799
col28:   771a9bbe9cdd87e49ab9e9bbddb9dc9feb89bcee9badbdcedcdcab96bbbcb99adbabc77b9c858dba
col29:   8a8ba7aeb78f7ab8cacbc9acd87adbc8b9f9c9bed9ab8fadb8aba9beb7bd2cacaaa69f968b69aa6a
col30:   aa89d59d7acb79c878baa9aa9a988d9e8dec88ffcddbcdcdbe7b9e9adaadacba8b5a7db88c5d5c85
col31:   69c8baba6e9cc7cb9ccbcbcccfedfbce89edfdbec59edcbf97bfeccab8cb899659b799a89c4c8c7b
col32:   772998ca9b8b99bfabadd9accaac9abbdcafdcdabdacbecfbecdb8aa9eecd8cecbe8796a69aa9cc6
col33:   8bacdb9688479ba9bbadab8abc6bcacfdaaeaccdeec9cecaecdca99ec8cebedeabbf88f9fa8a9ab4
col34:   aa88689bb7fb69a9ab6bf95bebcdcc8cfcaffe9fefdfcebcd9aca9bfa9c9b9dac86abcaeba95bc9a
col35:   b747eadab9ccbeab8eb9b8e9bbeacacbfed9accc9cbeb88f9afcfb7cddcc8efadcc56ab67a8a9a75
col36:   d8a7ad6ccdb2dd8e9fa8bca69bbcccec9ed7c9feacbcaf7accdca8adb6b9eb686ddaec8a8ae6a96a
col37:   cb769c6bbc9bca6dcbdedc9afabdaabefdbcadccbadfcc9e6be9eaeda6dbb8bb9ba59a8d98bce9a9
col38:   9c9cb56c5a8abcbe9db9cddcacddecadeecbcfab9dd5eddfc8fcbcbdcdca8e9ed89c7c999d987aa8
col39:   a9aeb99ef9dbacdcdcac6b8fdb9cbaefbecbfedcc9ddbeacbaa8fe9eeaa7ef5a8a99cec4a9ac76b6
col40:   88838ebb9cbaaaba9bbcbabeccccfabbbfccacadfedfbbabfdc9b9bfceddbdf9dd99bc79bb8bb59a
col41:   cb6eca9aca9dccdad9acaeacb8dcacdecddccfc9ebabde9cdbd7c99e9a8bca9c9997aeb9b77aa9ab
col42:   a88bf9cb5da7a8cbe8d9abbbefbdaadafcccc8c96dccafadbabc6cfaadae9d698b76bbe77a9bd899
col43:   a8b5689ac989fbcfe6d8c9ccc9b9eafeabde9bdfdbdbabb7fdadedfdcf7de699cbe6dec698caa48b
col44:   a7b866869e9c89a899daacbbe989dcabdedddf99cfab9bd9aeed9bbafcbc89bccecd8cc99977fa88
col45:   82ba7888cbacd7acda88f9aaffbab9d9cab9cd9efabcecdc8f99dbabcdcbc7aaa6678acceaacbba9
col46:   9867aa887deacac5c8aad98aa89ad8b9eae9c8fbf8eabf9d6cfadadf8edbaa7eddbdd9a9cc668acb
col47:   8aaab97b5caa9dc9b8cbead79c9a8bfabeceebc9abbbdbedabeccade9dcadceaacc6a6bcf88cb6ba
col48:   a6899bac9d8ec7a9c7c88daafadfc98cfebddb8ddbaabd9cbbebca89ddb8dcdcfcdba98a9ed66998
col49:   789b898a9aaac78b9dedbac9ceacdcdbafdd8fddaed8cbcacdd8b9bcbafae8bccc9777aeaa9ca929
col50:   acca959accbcb49cb98999c98ddbdbecbbdbabdda9dedbccccd9799cbced6efadea9abadd86ba7a7
col51:   8975b94aa94a8d5397bd97aa9aba988acdc8cbb8aabc6bbab988737bc584dbb8eb97a9d9a8b66551
ROC:	 BPix_BmI_SEC5_LYR2_LDR9F_MOD1_ROC13
col00:   267243533897733865115495696996633b98468a5866768355ba74489831555856456665a5a54294
col01:   9288647863955573588768b7688a459a78b9a6a19999ab883b9a768a98778947678beab3985a9986
col02:   59365b9797479788375b9896c5ae98676cb8b887944988b6a9b8879889db98ca9636dbaa6a9893b6
col03:   364a54688a88779458778871a8768a6ca6c8aaa7aa76889a979ba74877aa5b899a8a9898d56b98a8
col04:   377786694447546754a556a8e4797ba989a8979bcaaa768685fcca68ab6a7d9adb9499a76a97999a
col05:   3475aa3b5a65946a8595459788b6b6c676a5ca988a786aa8ca38a6569a7a899869b7a8aca8d9c769
col06:   b4686749a8959b685999ca7a9b68cba98a986789bc89947a787899a3488bcb79ab9dac66aa8a9395
col07:   55a67a729b5794656874b887a89cb99b5966969a8ba996a75cea9a468b97d7bab8967ccdd797bba7
col08:   8a6b87a6a7957997b999b39a8a8b8cabbacbb8b7e88d89c979da897c79add687aaa98b96995b9989
col09:   8a596a677473aa67749a468898898ac968899a7ba96968e9b79487976986868a4b68c66899b79888
col10:   8b7295698a89b7b9d7ac6668d9aaba76a998c7c6999a637a4ab979ca78a7eca679d999a7764988b5
col11:   754654a897599699788776898a7b8baa8d86d8989345aba9d5b78b55987897a9a997948c85c886ba
col12:   44969578b568868b77a79559acba88a77bcb9a97a99aaa988a9478997a99575bd978688aaa94e7ba
col13:   8a778449676694999bb9ba7baf8a9998cd6fa8ca87bc99a798acdc89876768bccb8aa9658b9a7657
col14:   96782788a7853b6887886389ac9aaba5f9caba5ab878aa999aa5b9a6a768889a6bdb4aba9ba79776
col15:   579676a9878a6757679b77a8b7cb9d87cc88cc9769b788868b9677dd9a9a788b96bfab78c679d946
col16:   2987883859a74d9294899979a8ba8c7bbb8a9ae968ab9c95b54bba99c8a9b8aa7abbc9c8966775c6
col17:   778496699678799476a7969c75b999c673b79b8b898a8c8a7ca98cbcc68db968db9ba8aab7978a57
col18:   b59885958788a8b9bc8ab697aad985ed8bd99a8988c996dd89598b6a9ac98b64688a959768aba5d4
col19:   88a4976686a679c85769aa669adbea699cc5bc86b48949c687ca9a7ab59c899dc99a6787aa648979
col20:   578a1856baaed45868ba866a8bb7d889598a9baeb8988caf6a97b79b7998779878afb4b7b959a9aa
col21:   978877798a58796a9b8d8879cf799989bc99cacd97aa84d8cac8b989c87ca69a9aaceba775575269
col22:   757681a6767579988bb9888ebbeaa9c8baa7a8ab8986db9cd97686ac995d699ba8caca79b9887c85
col23:   84737b58888879ab99898999aa68ba699646ca698c9a6a6a7baacc67a68bb69957bb2ba587779547
col24:   9568a976a796366898aa69879aa8c9c9bdba7d9c98999996a5a9466589ca8b898ba88bb7cb79ec76
col25:   5888849a8a898877848b9d8945cabbbb87576cccabbbab888969e74987c77b98e89978db97b589b9
col26:   74a668a6858abd8a8ea79f8bc9ba8cf7abcfd9cdcbabbba9ad9f8feadcaeaa89b7bbd889beacccba
col27:   b25ab97ba8a9c7adbcbb4a87ac899bcedaacc9a9cbeca98ebb58b9cacc9c7cbde85a9bb7a78998b9
col28:   59578c7aedb8968bac7a9c8acfb9ddabddd8d7fccbccdcba9bc9aaffd8ccdca9d9cccd8bba68cd9d
col29:   88a9879579be8ac9eadbf47acadbaccbbaeeabbabbbb98cea5bc9b79aafddacb99cb9c898c5aaba8
col30:   c559b99a9c6897bcb8baea98efecbb7accedcb8aa99cacda9ab9baec9da8bbc9acdabb7bc6a8a9b8
col31:   a9ab9bbb69d8bc9cdaabe9acdabecdcdb8ebfffcd9cbbfeedabace96abccec9797ac9bab9cbcbaa9
col32:   78b6b69846dceb8c8bb7dca98fefcfc9c8daaabddc9bbae9db9cec8e8cccedbcebdcfacbced97bae
col33:   7b978a7cbc88a9d989a8bcaabbfefbcdbc9cc8cabcdbcfccb66c7cc98cba9dacbacbcbbc9c7aab7c
col34:   9a7b7cabae99a999baa9a6c7cbfbfdb9fab7ecaccafac9ab5bbdcebafffabdcdead9afbbb99ebadb
col35:   88a9ab9a97a6ac598bfa887aac9fbaddb9b9ddbbdbbeacc4ea8a8abeac9e8adbce7caac7c7e8da9b
col36:   a9889dd89986abb8b9a8bf88ddfcbcabc89accbbcfacdd9ba4d8cdbbcbbdec8e9dadbdcaa8b9ebca
col37:   48c7bc79bc8c999d9bafdccbcf7dcdcecbabdcdafd9bbab8aca7cbaea5cabfcc8fbbbcc99baaabd9
col38:   68baaba578acaebaabaabacffceafabbccfacfcef9dedbcdca9baeaacb8bcfcfccb98a9acacaeb98
col39:   9b9aa7a5bab798a97cd98d9faddcaadcfbbdbb9bbaccdb8bba8eafaadc8fcaccb69af9aadbce7c9a
col40:   599b99987b9dab98abbabce9cbcedcabcaccbddceadcdbdbacdca78dacbaff9acee9abdd68bcbc6a
col41:   6967b957879a786bbd9faaadded9acddaec9f9fcfabcadbcefcbabccadbeabdc9ab9c9a4bed7eec8
col42:   a9869baeab998ecfaebbdbfbdb999ccdbba9dddab9acbcffdaccdbfa9ec9cdefabdc9dccdba9edcd
col43:   879eb779e7abdbcccc8f9ccfeaebee6cdfcdfcdcbcecdfcbbdb7ecfbcddbc9aaafee9ccbddbacddb
col44:   a7cacd987f88f9caaaccbebdad8d7dbba9ca8fdcfedcdbb7a9c8eca79ebdc9e9dbfaacd9abdbd8d9
col45:   b7dca6ba868b8bb7b89afccdbacdccdcbaa9eefbeca7fc8aacec8cab6aebb7adbacbbaa9befccbbc
col46:   cb8a9d98ebbca7ccba6ac99cbfedc9cdaeaefcdedabd9bc98baaaaefeccdddefedcbcadda98fecec
col47:   68579b6bba6aca89bbd5e9caddacde9cecfcb8dbfceabbfbddddbf9bbc98becd7cceefbcfb9ca9df
col48:   96bb9ded799acf8ea9afcebfaceeccffacdbfcceddebcbbbdbe9cc6aeaabbbdbfab9acbcbcdebcea
col49:   68aca7b9ae9688ac89a8aeb998ee8bdc9cda9cdaab8cedab6a9e9aed9ababfeb8cabcedca8c7bbaa
col50:   d7876c879cbadbbb7986dbcbdbebcbcbbaebfc6eeafba9ccfc9d6ad9dbb8abbadbaedbbbaccd9eff
col51:   583658b797caa897ebb57ac6b977bacdacba5ce9ab59389977a5ab89bb9d9c8a8a8788cb9aaad98a
ROC:	 BPix_BmI_SEC5_LYR2_LDR9F_MOD1_ROC14
col00:   223844886b896876286c977a975ea745376a8288cd85c698ca7843a9666668aa29a62649669a4677
col01:   5747319689b7277463c6a549ca889589db5859a767acd76884a897a78895a7756537776768cb87a9
col02:   2645263444989346c775a788fcc76ea779a74a679cfb99a8988a78c966abb86688a95676ba989896
col03:   6453a7b97447a99897454969687cb68477aba89a99dd9a8ae8aaa7a9768b69da48a6849abc9aa9c7
col04:   89666766aa7888a8b5a57aa7777977cb8cbd79c59a9dacdce8d7bac8a87897aa7d78ad9a889acca5
col05:   5648429986697a8a6799587a69d5ac6a8b9a688a96898c969aac8fcab86abb79654a6c57a996a77b
col06:   43673a564a787998a996989c9988a4a6aa7697c78987d69c8777bbaaab95e8aa589a978b77786967
col07:   9764657b9946b65a5696795825a64a7ab88ab9b8a86aa8698caa9a7938a87a65796589b78aab8898
col08:   32a49765879767ca95896c96769ac7e39995dc5c97aa6bb9b75899b9a9967a86a8b885952679a7c7
col09:   3816538b3779a7d79a9a5789baba98a8978ba698fcaca898865bbbbcabcba79995b568877c4a6aaa
col10:   8446739768b877979c8a7558b9dc7a6997aa99488b9ac988679a957ac688c8c8a788bba979b69b76
col11:   445475548aa7669789798a5496a869778459c839a9daba85879ae2b6d6767588999957772a347988
col12:   4541654a9887767a77779678a88b77da788c668a98b6e9a77b66b78998876957799e9687acb6aa78
col13:   6667828699978b89987384cc9ba969c9b6a7caba9688eb9a9b89c5aaaac9995a995898987c6897b7
col14:   468a46258a74a98499a775889a57785d83a58a9b7da897d786c7d67789a9882aa75767488476498b
col15:   7595967a46c96996a8b7a78159868686a768a96aa6a8ac6b6c7c679caaaa4a9787568895769a7588
col16:   4343798188cbd7a6674a5958887289ba989b5b78999d78aa8aaba976b5668ac275a59899b889a869
col17:   56549785b27576bb893787659965a6649887a996bc68bab9b67ab5765a9da99873566a5248bb7985
col18:   166373556484ab767a7a878aaaa86c9aa7a72a89a888599abaa9d9547cb6499c4586a88668ba988a
col19:   555656657688637a84877b5b69cb886937d9abbb89c99998d899c643a95774879788a686b44ab4a8
col20:   743487457886997a4887c7598967b59599478868a8685973c9aadca6b6acb8549a6684549526bab9
col21:   32489539b69668eb96369766a6abbaa86899b57ab9567c8a69eaa676957897a949957bc78a9895b7
col22:   35687575459747a9695b86696c7999b87b9acb8969a5acc98786a8c9989b5a87a887794699976cd9
col23:   48167a39887879c6976c49b8a9a7b98ba67386839a87ac982ab789d7998496a7bb813555398b6ab6
col24:   54659a694666c6b9789da87969698687698798a8b99aa7c7af9a9cb4a699b98b7349a556e8a769c6
col25:   14779686678d4848c696686987b5856a8c95c87b5679abca99b848f7779885889a47878b9998a793
col26:   5179abbc7d6b9aa574a8897997b6caa5cbbb5daafb98bb968a8efaa9bab7bb9997c78a8ba99b68b7
col27:   69a8966b86967b7ac5ac98a86699b987677dc7abec9cb99d9ec9cb84c88a999978ba77cb89b88a87
col28:   76bb488995ea6f9a7a6aa77a9bc8d9a67bbabbba8da69aeeca9a99c8d984a8ebac7a99a79a4a99c9
col29:   6684a57579b8a6ab69aa7778a879aacb9bce8ba9adaaddf4ca57da9e87b787b87977b9a9887bdb65
col30:   44a54a899acbacb8e9c777888adbc977cac9f798a9ab8b9a7bcb7a8aa7cbbd7a8b6cc798abbb9b7b
col31:   98529a8778a9b779adda9869bd88db86b948d89a7cbf559ca79daba9deca876daac8cc99a96caaaa
col32:   6717a4a7bcd689bd9b9bb8f89abdabbfa9add88baaa8db9cbcaabadabbfc9cab89ba9a8aa878bba7
col33:   c8bc67a99dbb9b85baa87b89ef7bb8bcc7ba7dcaccdacc8a8daa9a9b9aaa6d77eab9a88c97b8adab
col34:   583a89949acb8abeba9bfb897cd99d98baadbbceacdba9ce8dcc888ab99aa7799a9daaa6ba99dad8
col35:   4b77895866caaeb7ba79a6897caab9b8cc9e8986b989daa999d79aac996abb667c788b87cb948db6
col36:   97a9a99abb8da9cd6b8bbb968798adcaacdaa6babca7afcbbbfa9dc8b99db58cab7ba6c78a9b73aa
col37:   564a7babda7688b9d8ad9bac9c78cbaafb9cdd6978b869b7beb8ad98aacf77aadaaaac99d9eaa9c9
col38:   37779597ab9ba89aa99e8bdb89c99bc978bccdb89ada89ebedddd79e9ab8feda9aa998dc9bbb989a
col39:   57b8a88ac7a5d9bcb88755b99a89be77aa8cbaababae3c7d89989c9aac9aabbb7a799a88b8b2bbbb
col40:   96468798ab69c79dc8bc9b85cb98cdba9ab8daa9cbdcaabcafdca8afababb98a9c7c89aa69da98ab
col41:   9678977ac6ccd7f88ae6a85c88aaba9bbaaaa97b6ccdacba998abcbcb68caaa876969a998ccb5c98
col42:   784a889978c9adeca4a6ba7eb8cbd99bccbed9ceb7a9d9aef9abb7cb9ab8bbcaa7a9888aba999ca9
col43:   43566aaa898886caad97a99b798a9db7efbcdb8cb9abb9dabbdebccedccc6ba6a8b8db88ab6aab98
col44:   5728a9c8b97bfb988a9d878b86caceadd868aacf8ebad9cc98bae9b78ac97c9ab785cb86cc8cc78c
col45:   2787889899da9b89da95a89ab89dcaa9caab8cb7b8cebcaabcada5bd6c7a7adbba98c7b998b47acb
col46:   c4aa67a996c9dbe967acc6aaaada97f9c7bc8bbaea886b9d98a87c8ac988cbcea7599ab7588ae78b
col47:   6a99899a8aad7abba8bea998baab9e5b89c8aa6cbbcfb98cad98889a8ca69cb995c5f989cca8fa8b
col48:   a7b885a799886b98ceb699779b88fccbcad8a8e8cde9adaad9ccbacf775cb97a7cc8ca7c57b7abb6
col49:   73a777998a7bbab97da9ac9be86aebd6b5a9c8ba987dfc97a9bc79a89aaabad9cc6998a8b9bb9abb
col50:   98b787d69bb88a5c6baf8b788a8c8bcab9abbc7a9da9baa9e8ac56a9bbccb7abc7c979aaccac9fbd
col51:   646585635aa674895669a69ab79aa9596b849977788aab78c598b9c4b96656a996878895a859c996
ROC:	 BPix_BmI_SEC5_LYR2_LDR9F_MOD1_ROC15
col00:   31254432758b13a9215697b84671777197428ab94786965a47a73691816134885388328962517368
col01:   66341678a87a127543cb74bb938abc99b8b667bba74ba997b4957655bb97a6785af45295b9ad47a4
col02:   35a553593aab44bb79698857645a1a77867b866e58827bb8abb9cb9796558e81a1f6bc3716226816
col03:   515a871667296a777696997415986beb9a8b8fabb162885b768649877cbbbb4c696978978896a745
col04:   41365428847653a35a954a987878475ba96b8db5597b99679d8b61785684459867638ae946533453
col05:   53141198793b3655525d551b72ba98cb887b5a997a4bb676aa4a5664ad788aa36578b75777334db3
col06:   8352c885767562367157265b69a85a489bba25ad556babbc9589c77ba678764b9549cba698857983
col07:   6527b2a8d87775694a48715777856629ebbea6da9a6c8259a85ca737369b557ea395688b55975615
col08:   71722c6c785a57b76868b382a5c899ba7ba4ba68695e759889787c693678ab88a852647788676592
col09:   435715545597527986a5895899987a9bacaed9fa4a8a768796e7b5663555ba964542688794782838
col10:   a44653cb2168516a97b8a6792a537646668ab9279599a8689ca9d4374c8b5dc1779793c483687768
col11:   262366338ac92246651a486c86e998a688588e899dd79a888d9ac86e9f957497b95784a927746751
col12:   455837444ab51a5845986585967c8a77b57b4fa5da8bf7acab8bdcb9a5ab36ca49775e466a7a5358
col13:   774429cb79c4c8554569a8bf92a57a89d9853797bcb7b89abb869cb83617ba66c647857735547447
col14:   1554195667697378a793d3b68748c797d86c6b88aa8c9a9d4975394c9a66591a7b6393749d669a6a
col15:   1643633427863456a1b979672497687338a888d4f97a835c246a68d7626b2379c899a83999353751
col16:   55718a9a77aa3a78d97b183a59968edc84acd87c8cea47ab89a98ab5f7a598d8a789c77977a98756
col17:   a24618624b8c64775b9b6958a939397946cb95698b2a7a8bd6a695d4997666677b57bf47516f5568
col18:   6485866238992a768b75368cca6b986a5ca7788754697c6a7a6b4a896746957b8666897679636911
col19:   983468b93457877918869a4db827da8af8d86897b88db8a9b759659d88754798a397d73d858967a1
col20:   57214178546579c49a75835a98583c869a5a6889c8769bdab9586a5c83a3568d4576b77653663784
col21:   6272294b76943778748759b98a6a67cbe8b37cf598d89ba769a88858c8c7576bbb79844976566988
col22:   7417656767743bdca9aa598a7868669a97e7cb56f87499696977884b7c54c462664c72a73d87a733
col23:   5625628aa7a7c89875687855756a26c55ab83c69a8b7b24cbc87a65b9da2bd886976a695275a63c1
col24:   27861b511bb796639a694c55879869ab8979cbaaaa49a8b674dc3ebe34896a987389bab5a7966963
col25:   152267b78844978c4495a76773a898b69c4c9866c8c83bd6c7a8b884b8989c95ba559ce8d48b68a3
col26:   17a699a85a8b3689c6a677b57eeb8aaeabac59fa7eabf9caba5baac9e6b75ba77ae68b9a97894788
col27:   b2648924b88bca8ca689ac977f99d69e99ce589898bacbfbfe16baa8889546589bea97b9b6a589b6
col28:   85a4677a9bba4b96abb66298a876ea7fcdadcd95cc4d9b7cb89b98ab97a7858c5c5838f968b99545
col29:   61888635365ee9dc25868dcaa89edaccea9ed9bb788cddcdadabde4bcddc99b966769863b988a782
col30:   57547572768c87acd6d9c8798e83ab7baabac9a8aec98c7f8ccb9ed7a98c88baba1796ba268d7891
col31:   96a871d947c998b7a8ae98eaedcca578efadcc8ecafccaead5dfb9acbaeb6aa6d88a7e98aaa6e767
col32:   aa48b6b9bfd5576c96986a9a89aaecba8dbdcefb7da9aceaebbd8bcab2abcee9b3cc7d685bc87eb6
col33:   61763a879aaffac3c6bbc88aada9bb8b6cfc997977ecbfda9bfcb889be8cb94bd9ac3ac789cb8bad
col34:   54d9676b4a8c46f8698c9ad896969bd998bbd9fdd9bfcfccc8cef79cde7c7a499e9569688b965bd8
col35:   76965aa497b69c78b8aaa99769cfa482cafbfe9eb88bacc7fab8a77e9c9aae9c9cab8fcc5c7386b2
col36:   87a6a89c41bc8a4f4cb86a9d26b989acaa6c5e9aabf9ae8dcab8fbd888b76e7d86aa979ab9d85288
col37:   a667598989a8abcd1d957b5c88fe96fd7c7eb96bbc77bb9acbbb7d979a9899c9c98bc9cfbbeb7b7c
col38:   5c557b989c9dbabd9bffa2be9fcbcc9f3bc99f9c8dadcdbdefeacdbeead9886e9c77a999a794cb6e
col39:   788539298976857b7b89588d9be69cdbd88dd8cacfddebd7ec99daf9bbf78a775b5d879dcbebaaa1
col40:   33958c7aac8aabf9d9cc988aeac9bd98c686bad679cfececcc8c779fcc899887a6698baadc8b9d94
col41:   76995548a9aabc67b5e8d9ba9c8ddc6afaa9aecb9cdbffdbfd496eebebdbca9b7adcc9968698986a
col42:   8626b83c6afaca9adc96ac8b7999db89bcb89ffcabae9cdf7da9afadebfa868ca86ccbb987847bb5
col43:   34a7bab86f7d8dab78cb6cb7dd38ffcbad87edb9be6eaebfd6cb7cda586da85dabba6c689acc8887
col44:   64978358988a9dbb59cb9bc7baf9b9a49c88e89ebbecebdf88fdfdc79ba9ebb8fe9ab9c498c58d97
col45:   a16575978594bb67677798a49b6edbb899c68aa98d9ddcddd9d9aa7dd96c568948e8ad7ae7b56bda
col46:   a66bcab6aba55d67978f968998be5ad9ac94badc97999ff8cdc89ceacbac8addaf6cdceba5599aa2
col47:   1999be487c2b99bb96ca8a68e78bbdad76f89fbe98bbcbcf9cad7c88dd6afccab7ad9dfa7c7dca93
col48:   c61799849da99988d8baa8ca89a59b9b99cefecfc4e5ffc7cc8cb7acf87ba9a87debcca6ba7c88c7
col49:   a77355ba8895b9afeacb6b66959ffaa9d6db6dde9ee9fceffd677ca885a8c58f8c5a7aa95b9c6c98
col50:   389a45a5876c9749d5a4a9aaaba5b78bf5a6abfdbbc4cf5dbbddecb7cdacc9a9abbbaebe98aba777
col51:   6955a95866b684393e647997469799ba8858a78ac9a5989b8c68776bb68966a9378a944e753aa844
