ROC:	 BPix_BmO_SEC3_LYR1_LDR3H_MOD4_ROC4
col00:   542466687639b637c6a7b3b8d9acc9892a7768597475d7a9b88c8c97878bbc9c678888bbb9d49b74
col01:   6552c586b5699b6c8c88e69b89c777aa6896dbab9bc9e99c5eab8cab5a7aedb8e798e6ad8bb69659
col02:   5746a18666797675898986dc9c49a6a97c9b8669baa877bd9abb89d788557cc99ddd995a9b7c7886
col03:   b6759c597b864b759487a8b9b88866c5dcc87ba87fdbad895aa49b95dfc6c97cc96f8b3bb7979d99
col04:   571876c9761758a93a3997999997baa3b57bb78855a999bca8cb7786bcb76a488988a75988abc279
col05:   6a79598485cb366887b77575a8a859b88b7b777dca8c8ba7c868999fa77998e9b9a846d36c78ad93
col06:   3a468b45878cc5b7784478b96cab9a85569aacd5885dc8798acbb989cb5cd6b686b5b68397987b78
col07:   a86566a9496ba7486676c6ac6bda9c89ccbb968bbdf799bfbbd89488a9ddc88a98ba58868a9bbb44
col08:   a5d7a99788976a49d5686794b5caaa7b99a7a75ebc8c98ba8beba5cbc9cd88a9743887867c78898b
col09:   96979baa87bb6976996ab8b9b8a8c785ba9c8b8afbb99dc9aaa7adfedefacce67b8697bfc9add7b5
col10:   5587a6a5799474b1baac4dabaa687e99edfb7aaa7bf9caa9eeaaced7bdfdc6b98ae92ac5987ca1c8
col11:   5c687b888b456ab89cdb8866aac9aa75ba56dcaad6e5e7b9aac6dbbcacddb7d9d9db8889a79cbbdb
col12:   687a5a75815889c79a7b57dabc49bf88dbbdac599bacb98cdea5b9e79ceaa88dc8a57569b9b9bb99
col13:   759797b979a6599a79758c579cdb8886afb6cd74bb9bfff7aeb7adcd5acbf8bbfac4b7c7eb7adba5
col14:   333664591755abf979898467be982a7a5bb7895788b896ab87bdaeca9bb889a8ba8bb9a87a789499
col15:   7888678575981b889e67aaad8bca8c9bad6ac9addebc96aa4abcbac9dbbafd89a8a8b9a9d587fb87
col16:   395a6786579635b7696676667a5ae69b7837d85a4a7dcba9699dba9989bbab86d8acb99979cba77c
col17:   88479776ba5b99ac776bc6ab9a9cb58acde76a886b9bdcadccdbcbaec7aa88aad99ab945ba79779b
col18:   75664898856b56a676a8a5db7c796f9c9ab697db6b8f9a9bebacd7ab88dd5ea9c918942baca9c4ca
col19:   bb859ab641a68a859d99bbb7ccb777a8a8bbc9a8da8eb7adbccfdaa6eb99b4bcc5ae9b9ccac97679
col20:   88552859568767798966648d78d787a9bc69ca4567b9c8b9c99b99abd58ab9a9abdaaba9af677a8c
col21:   5c6b5a998cc47ce869b5aabb9eaab356accbadf6acccccd9aba9bbbad469bbdab899bbbd8a58aabc
col22:   3997d84357496b7597c9997ee7aa7aa98babbc995a999999c7bdb998769a4c8faa8caa9cc8b8fa36
col23:   77a5867b9579a854a78abf99c6989a9a9aabdbaabd9bd9a89d7be9fccfebb7ecaca1a6bda7aab69d
col24:   7aa6c8bbba59399ad9aa777b9b9d5a67c6885578bdb98a9db889b9ab8cb8ba99cd7b892b5c86cb9b
col25:   77287784897aac8a4c88755a6aba8cbab96c7ba9bda57ddbf9cbedcb98e7bdcc9c7798b8baa6989b
col26:   5797c89a5b1b9b5aa99789b68beaacba9bb9ba9a99c4d9daadeabac988b8ea9bd785bba7bcdc99d9
col27:   76bcd97fa94c5794d4ceb99eebe7badafc8a8a8dbcbeda9accebdaaabda87f9daaa87eaab9ecab7b
col28:   ac58a8a9b5768bb4c3a698a9acb69c58ada97c69877bd67bcd7a96f9afbabaaacbb9ecad7897b788
col29:   774af57a896cd26ab8965d98cbbea9accadab97fcbb989cbebefebdcd7dcca7e7a9b8ac77776ccc8
col30:   688ecbda856c5a99bebb589bbccec79ceaccfad99dbbf6aabaabaec9fbbccaac5cd9dbd8689c8c48
col31:   7994697caa8996a8ba99cbbaabffbddd3f7d98f8abd6cbebbefa98ba4d9ad8e38ebdfecdd8a9df87
col32:   2a9bc97bb995b89c9acdc9f9dbbf87de7dccfb89edcdbdcc9ce8e9ebebadab8aadedc8bd969597db
col33:   c6796da6cda68e878c9bdcbfc8ab8eebce9bdfcebbbbfeaaedfcb9bdc9efc8dcdeebbd9ab89a75ff
col34:   3665987a8627a78b87997bbdc9cda8d9ed8efd9f59fbc9dbbbe9cfe799d8aac5aa9f7f958d7c79a4
col35:   668aab86bb86b9af8b46edbf8db7af9bea7bffbbaebed9ef8b8c9dcedab8da76b9bbf9baa95cbcaa
col36:   5799cc97e8779b9db99ccab89a84897778bcaafeb8ccafccfde7aacdda8d968badc66b696bdde4b8
col37:   7ad6cf1feacaa9a9d9986c9b99ddc8b96bbabdabcedcbab7cfd8eaac6acbcacbcacccabc7f66e7cb
col38:   39779cdc869a99c7b9adfb99bd78ab4a896afd9bcdd9cbdd9afb6eec9a86e988898b669abac5966a
col39:   abc88a69ef7de58a58d79c8a7acad68baba78cacbdcaadaceeff9989ebcbcd7c6ed7ddb9eaff8bcb
col40:   b8a889859aa9c7bbbb89e7a8baacab876c88acc9bceda8c8cbab9c8aab99dbcaadad8abc8bfcb7b5
col41:   7bb85887cc8b68db77978c6ad77dce89cd8abf9abdccfce79fb9dbfc7bda89ae899b74c9ef5ddac8
col42:   b4867a6367dca9abe5a9797b998b49b9dbdb4abd9ccf88dbfdeafab7cebe9d7cc6c6ebadbddbdca9
col43:   58a79cb777189a6a99a778ba899ddf8bcde8ebaf9efdccbdbebbaf6dddbccdbb9c96b67a79eaa789
col44:   6779782398a7987ad9b6885a86b5b988a6b9b9aaddbcebceed9cbfbcb6cfab9fbab98b998b8ca475
col45:   6a4b8687988dab87856d6ba9c4ccd969baec5dad7acbebf9bfcc7bafbde87adc8a6fc996c9c9bd6c
col46:   9a9a5a7ab1cc386cb78f66a9a999a7daddb7bf6ebcadf8a8feeaaba88d878b598956beca9a5978d6
col47:   bb8abc8c87c96c8b686cdcb87e67999bc8ebfbdba989f99dddfcdcc6c979b8dafdcabc99dbdb7b7f
col48:   499d88ce476877a99ba5ceab5977f6f8de5cdec9e97cabcbfedabecb487b9be86ec96958ca8ba7a9
col49:   59956a9b57a7cbc799897a7afb99cabceb7c69ffa7bfbbceba9acbffaccaa8fcca8bbfaca69bca8b
col50:   a49a889bb6a5879348b9568ae67abc69b99fb86aa9dcfff989a8c79d98abbbd2c9c9cfc8d7b988ba
col51:   a99ada7814a6a67776965c7ad58b9adec6db8eecca5b9c49989cedee6ad9bcbcdabbaaddd959fab8
ROC:	 BPix_BmO_SEC3_LYR1_LDR3H_MOD4_ROC5
col00:   5864bbd98353366434211557648686786b7798b5344bb95bb68bd88648d4586cb877948bb8463572
col01:   485a3148b9b6966545277b84ad79c8aa7b6236aa3bdb988c5a7b99b887b6798a9bbac6b874996692
col02:   68699ca6ad6768b6164879646278b75d35a878b9b376858c76b9a89966f6c9848779a67a954856a1
col03:   599b9664888774459665a5bb7886785b5c8988dc8cb59684ccaa7787f87cec7ab878c5b94b775985
col04:   48a887a9838899a7aa975679775795c8996b6bbf8988d7779d7b8bb7cc9689cc9c8996833b26c898
col05:   36c878c85a58997ab79b8689bbb98acaac658a6a98a8c48ca89a98b897c66bbb7bb89b9b8a881d93
col06:   488c597465b69966bbb56785998e948d6adbb87b385b86ba8ca876878675888976777669584b1927
col07:   98c8ad97978869b359b7a799da89967588ac69dbb96989a6b9699dcb6997a6a8bd8c6bb88f852584
col08:   3b69958b895d218c19897796927abb7b5b5b9e78a67a95798889ab69869c69ba8cb9c7564b996cbb
col09:   6a37a9bd77a549ba798a89a976b9ab9db9667bd8899665cc8a999eee6a79b98a999b766c7b8b58b5
col10:   793996c895817776a8852499445bc79a85574cca9cbba8bdbe8cc98b399dada6789d9bb96c8c4777
col11:   77879a99558a879892697a887393bbbb478c7a9ba569ae479c89f6c49c5b786baa6b7ba6cb9a5378
col12:   97c19545b9574996978b5664d9758888788c368795583bbd97f7a977b9be9b58979a858a769a8754
col13:   7c8689976761489b8879b7bb8a4ab5acb8ddb56c86d6a7c74ebbccefeaecb9699bbbb768998bbb95
col14:   466567542487966975a8779d9846b97a6b5a9bb3767bb37ac9a675ed9bdbd97a998bb697b9abb652
col15:   7a9a95a726787967b83aabaca7889b67bcec78bcc5766b9c9ab99c8df6dbb9698969b6b7c5884965
col16:   279795963797746b3b8a8497b7bb9987a59e679c69cc79c89b77ddab8cddcca9b875986c99a78879
col17:   59743474685a9499b798b93a7dd97a88abb6bd9bcbe9b8c98aab97abf79bfc797fc9968454998b97
col18:   945861864a9a6a9995e9ad4778c799ac55a968879f8c6a696ca94aaa9abcb8c5aaa8c5a89d85ca98
col19:   75c767bb6796bb57c88689a5587aca7ac988bac79d9a6bcbc5cbca8abdb9ccd9c5d79be88a996c88
col20:   3956496777493ba79177687ac7ba9aa785b859a95a66965cdb999cee9eca6e49a99ca768b6ace959
col21:   9c84896478aa7759665789687c57997cc6766cab96eca9cba897ecc5ceccc66b886b85b7668bc689
col22:   4686566464b58a779b9686c7ac9778ca4bccbc6c967be8a7df98fbc9edadab8869859acb9b797c99
col23:   a6697a6985da99b9b66d878aa7fbacfdc8eab8ec888889ac6e88ab8bbca88aabac69c7a88879d86d
col24:   667559a8b7475b8629969dc94887b96aab69979b9bc4cb58babcbcbca7ffddc4b9676689789e997c
col25:   59d99bd76b6b9c879d5a65be99e76a779bc8ad9bbc9788b8ebbccbee688c89ab8ecdc6c95cbecb6b
col26:   586a977897a68589b76aaa77a9d89c9d883cba69ceaa8cdc7dbabb9cbcbde7d9ecbcfa87b4c9eb49
col27:   6696a8879bc7965b57da58bc8ebcbb9c69dbc88aa8c7bacd78b79efbef9b6fdbdcba6edee8bfd797
col28:   747893975b6a5a6a9958778ce89ea9cddd98cbcc9b9abb9dbebbbbaffccbd7cc9cbd78bcfbcb76ab
col29:   7b9969baa97b6a77836c7a7cab8ebaba9ed7c9c7dee7a9c9bbee89fcf9eabceaa69ec89ddbabb98a
col30:   79799955b56db39869abd99789d99bacdef99dba9abdcc9cfcd7cbedbcbbacc9cf7bcbbadacbbe77
col31:   87bb99879b6855696ac698ed69ff8fb9cc9cb8eeacba99beb8dcc8ecfb8ca8f9cfd9c9c8fadd9db6
col32:   794973c66768ba7696b78b9d88eaa6ccbb7abdc9bbb98c8cde9eabeeebfcbcb9dcebcbadebbeba8b
col33:   69ac788679a5b995b8b7ebd6bef7dcbadbaaa69d9edd8bde6dddbbdfbb8e8ca9eabcdcc8c85aba9d
col34:   a5786988ac987a46668cd99a8ac8c9a89e99baebcb6bbd9abb8c9aa9cf9dbacdcd9b9e9ccb9bb8fc
col35:   ba6877b676c7999b866cd9a968f8acdddb9dd9cacabfcc9bd8ddeab98cfe9c6fd8bbfee7bd8d7c9b
col36:   3989ba79888977a66695cfe779d8ccb8a7aa4dcc9beffbfde9beeedebdcadcfaac8cbdcdda8ea8dc
col37:   b9967bb96587ab688897dccc8cebc7ba8a7fadffe9adabfbcade8ffecbcdb988bfb9dacedf9cd8b8
col38:   88778799659b979798c8baf7a985b9ab9dfaa9beeb9cbefcbdfdcbec8bbcfbb9fcd7eb9a9f9ab79b
col39:   899999979aaa6cc8a5cba84ebe79aab9fcbdeeabdffd97acbccb9bceed8ec8e7ca9bf9ef9ade8eac
col40:   873476655a6c6b78689c8abbfbbbabadcdbca9bd8bdd9edcefdcbbbaec7c9c679bb7cbbd49cb6bee
col41:   8768a9d96899b5bb6eac9cdcccd7aabbabe8e7dbfbbfcf5dffaeaacdef9dd9cbc78ce9f9b89edcbb
col42:   557bab859c73a4989d45569c797b8e8ce8c9b9889aafcdcbaef6cdbddd848dadf9cbbacd68d9b9cb
col43:   a89837868c8eb73986b9ebd77a76ca9bb8abbb7a7fdc6ebd9aef99dd8eebc9ccd7cdcad6db7ecf8a
col44:   b87ac388ac6956e9564a5ac9cd8b7a9ccbc999ca8cccc9cdecfdd98ce7dbccbcebf9abc9dbdbc8ae
col45:   648896a6969b76db9b9a5cb8b9e9ce9e4bfbff8acbbdbbaedb7e999cca49cbbbcbcde5cadd9f9be9
col46:   9867767ca45b34776a736dacaca8a9a6b8b759cfaadccbbaef9bc9dd78ca9bfd89dbddbfac9efa68
col47:   947cb3368859985946b9d39d797cdb68d6ea8bbddaabeaffcb9ccacebdca9bdb98dbcbadcccdcbaf
col48:   b647abb8b676a3bd9659cba8ccf8badc98ab8ef7ba6dafc9a9bd9e9bdbc6ba8969f9b9db8d8b8ac7
col49:   88778775aa898a76d7a86ca8989fa8ecdaa8b99ab99bcaddacda7afdcfc79c77cc9caabffb88cfda
col50:   6387a7c696a57a55989ddad89a9997cb999fba89bca8ee5edfcb9e999abdc98da5cbb8aba7dfcc69
col51:   a4b89574377b8875bb9c8976b8965be8eb9d9c7bcecabebdf7dbddcdbbabfb9bfa9dbbd99e8ecc58
ROC:	 BPix_BmO_SEC3_LYR1_LDR3H_MOD4_ROC6
col00:   58568255c76594694b4685987a899a8ba9583779a665dc85a749bef879ada9cbb878467c58d5bc78
col01:   a59a997996775549a91a788885bc498da997e8c76c8a85baf8bb4adabc98e8cb5bdd8ec8ccddad9b
col02:   796a9aa58bb93acb5b56163594c6b99a5859b77896b99ad87de7997bbdd7daa8b9b7689a868eb8a7
col03:   7a8b87d89ac697c66b5a94abaa77cbbaa87dc83aa95abbdcbcec9cfda9d867fef8cd9597da78d36a
col04:   a84671496675c7b188a488aaa68db198caa96b94a727c96b6a8798cbceeb9c979ba77c8cb6c8a444
col05:   47a67b958b8a9658567996a7f82cbda8b6acb8a85cb79b7da9ccadab8cddca7ad8d6b58eaae867f4
col06:   5999779938bb858668dc986ab9df817aa5ca9496a89575a8ba89a5a8c948a9bbd4c9d3795d8e8ca9
col07:   3696d8c8ba886a6865997a959b9965ca99decd9a8ba9a77679bdbdadf98adc9a659967ab6c998cd8
col08:   96bb379887475386674b575ddaaa89c889a9b888786a656c368cc968a9989a4a7684b969b9babbab
col09:   134778589887767968a87b7aaae7ccab8b8c7bbabcddab67bc9e9fbbf6addcbcc5bcaaacadcb98ea
col10:   39769ba77558529962a288b4a57c5f97c9bbb79b858a88d899b98867a48f47ed8c9a96a9d7dbda7a
col11:   44ba8b5679a988878969cc9c8757db9b98adcc8b7888d8e6baccfb988bc8d9bc9c56bdcd8bc783a9
col12:   6133658738b95798447a875857c6abd86d6adab9b9ecab3e78d7878cc9c677bd98b8c3d9547cf78b
col13:   a6b33351b7996a3d4926679da8aca8d5e7acddaaeae7ebc8a7c99cabb89bcc97977eb89beade7a9c
col14:   97378868449a344858a9cac8aa7b79c8b9866a887fbac982acb99abaaf9cca99be86daaae9b8ba8c
col15:   465577a37b79798b5a6c8ad995cab998697c7939bbaa57c68a9e99daca8699bc8aaa7bac687c7bdb
col16:   333878a385678a79a886a98479669a87afa887a85a8998cc7e6a7d9fdfdba7cab7ab94986ba9d739
col17:   876a898965c47a567589bca778848ab5c9dbfaa989a95b8a94ccebbd698b8c5a69c4b7eb39dab3ba
col18:   46374867a7a8a9396b877a896f7a96ab776a4cfb7bb889cd7ab87ad7897e889af9f8e8f399d6b9b8
col19:   753b6946895f7af6b9a889b7a69ba479adba7aeb7a7c9a8ad49abcdaccbb869b7adcb98dd7cd66f7
col20:   33c56a95a7c8a6864aec688b964b9ade75a9a8e9b79b7a9a796cd7aabfc99e9b657c74c4c98ca9aa
col21:   955c7b67a9889d8987aa8986b8c8ea9e9b687cb95cec98b89a8ebbc6e7b7ae99c9cda8acbaa7977a
col22:   482458835596c648745aa555b9c866789cb9d755accc7aaa899aeadaed9add97877b96a7b5a6c98b
col23:   55a45787867888ca797486ca48a88bb7b7b8b8c8acbb9c79adee9e98cde9a9bd8378bad88a8ba969
col24:   5487489867a5784b776786647a8aabca6a5cb29baaabd999adcd8abdb9c9d9bd78b7cd46e8e9d7ca
col25:   89b888baa986aae8a79aa79b79d888aa88dec89789a89ecbab9bccc78acb7988abac99cbacc979c9
col26:   3569696c5469c8858a856bdc89c99cf88a6eadd79919aaddddaafebfec8ce6ca7ba999ca8d99a8ba
col27:   662babc9a54bb8b7bd62a7d8e8bab8cbcfcb9a6a985c8dacdbcbcaf7a7b697bbdb9b8ad6dd89b5c6
col28:   6e7a7a957bcb978945a65adc89caa9ba86937bf49cb99adddcbba8dadcafacc9aaabf9badbde7bba
col29:   968bb66998edb6865567b6ec7abef7aca7ac79877f989cacb6befaadecc8dc5cbbbebfc59dbadcba
col30:   7a4ba6a597a358875b79ba658c95ea888ab987acab9ad9ab9c9d8ffeddbbbbdbaeffc8d9bba87b39
col31:   8ca7677d6b9b6a7958895aa9aa9e9bcdb8a89afbb9d9bcb9586effff9fedfbbbbeaeba9aca6dc7a6
col32:   9cc97a6baaba84c8286ec99c8b9acbc9ebeec68bdb9faa6ac88dcdbde9ddbcccd8e8bac8a6899a6a
col33:   6468988a7c87cac85795ab89abac6dabea9deadb7c9cb9dbf9a9dcdd9aebaadbdbc8869dc9cd68a7
col34:   434b69577b8b8a7ba5479979dcbfddaf8cb9cce99f99ca6cabb9bdcdedfabbbcbd6cbaccbecca78a
col35:   946a589a6999da79898594579986dbaca7cddd9cc9bbcc95d9cfdbbfaae7bbd9cf89fbdb68bca8b9
col36:   68797568b68cb9babbc9499bce85acbe95bdbcf9baa9edcae9cafdc99bb9bda8dcdbbbfcba96898c
col37:   5aa8496a7989697a6e7b796b99dd6fa9edbe5ccfbb77bcffdbcadbfadccadcba9ad88abbc997a9bf
col38:   b7a91787a5aa9a8ababa9ebcab6accb7bb9bfb9ebc56fcdcdbc88ecc9ffdfcfea7baf8c7c7cfdf7a
col39:   5a59a499698a41b96a7a6dcb99cdab5becb678da9fbccfdba9df8b9d7da9a99df96dbaa9d87aed96
col40:   66977698da97947b5bb777ca75b6889caab87d8abbcfdbbcdecc8cd7baceb76db7d7edfb7cbcaead
col41:   85bba6d8797c88b795ae99cbaac9989ad99b96a9cccdbbbdddedbdfbdafcaccab9bad5c9be6dbaba
col42:   459b51c8b93787ea8c87792a79a8c96b9bbeaa89ad9cdceffdb54dbfbbd7c99bbaa9accf6bdab79c
col43:   98b9a9bbba9a8bb975c9a7d9d8bd5cfb8e8bbefc7badcceafdcbcdd9edbbdbccd8d788caabccb997
col44:   93869995acdb918e689a6779c87dcaabb7a7ebc88c78db7ecbbbd9cbcc999b9aca8dcb98afdd98cb
col45:   2e56872a98856c5da8ef9a68985ed9b9cbabb8ddaa99bbccedcbfdad7f8d7bedcac8cbed986cdc77
col46:   46cb91986949789857bd8e89bb98cacb8cabbceab98cb7ccca6979d7ac8a9dbc85c6dad99aea898c
col47:   b6ba69f7889c65973a599aac685a8a9ea69da8bdfc9ffcedafca3aaf9a78aacee89ceeed8b9bfaca
col48:   a836ab679458a685acd9958c86ac58998767da98c6bce8c9cda9ae8fa8abc7bae97b8b687e98ab6e
col49:   6577a569b88b899c89f6c9ac956cd8dadd8d6beb99dbd9fbeceebaa9acedcdbb8abebfdabeddcace
col50:   78476b9a68364c9776c37bb994b699cb79aeabcb98a79cabc9b97b9e6b9bebd9ddb5d4a9cbdbcbdc
col51:   526665987827aa865789db498a9aa8a63bbaa38d9ad7997dcb9c7bb9bdbc86bcabbbeaeb57ad98ad
ROC:	 BPix_BmO_SEC3_LYR1_LDR3H_MOD4_ROC7
col00:   8967175646ab5667578687899ac9bb68aaba884777986c69aae79a7d6bf997a7aab9c9c7697b6678
col01:   33494ac9aa8888d779b73b7ca79b96a889acbb86b9e9cbcba9f7aeca7e9eaba795fcd9aeba66cae9
col02:   3194776779a56868687b87678c9ca5a88a46b86c7a7face96bbadb9aeaaed8cd9d8d98a9898dcc96
col03:   276958a64869749365c8ae697bbbb9795b9478a877b7ced69f9edbdab9baf77af98bbcaeb75797b7
col04:   76a596b69b59a99497cb59cf199989bb996a7abafcadebf68c8adb9cab67cabaeee7c9e7d8acd947
col05:   2745896999cabba6bca589abf94ba79b889c9accbcadad7779da97ebc997d89bfaacc7d6cb96a883
col06:   5945a86747a9527798b8a878a77e92c8b778899baba9aa48d7bbdbb76a58e4bc9ad89898b8b57998
col07:   576a635678b68b485a99d9289aca88ccbcb7cbc8ccaa67dabbcea8cd8aa6ba8cbf997d86ad9d89a9
col08:   7a8657628b8877a3994b9c7b7bc6b6869a68cacf7598aaf7c79aaaa979dabb4ce8aca87947aa9374
col09:   a65665388693bc8685bc76b5869b8888ca9ab8acaaa895aeafdccadacc9fb8a9a8999ab6a8aca5c7
col10:   4668663ab66a59597a995889baa879c6697abb9fa799e6ee88ced9ca5b7ad5a6797be7469dbba958
col11:   8469576b3bab36797b59a676757a6698a59ab48767f475bdbc969d889aba966b97a8b68878846596
col12:   913a37955c788769aaa68c9cbba8447db5bb877a978bc6387aaaf77cd99c996da9bcb799b8ab5897
col13:   78365685958779a7b7889854ab66a9c7e9cacbcca9aad7baacbca97a6779899aa7799b88c7c595ad
col14:   85889417477598854b87dc78985d899ab976a5898bb9a9b438799a875abb58dab7a9a7abaa8cb697
col15:   765268469668d99a8b967994995d857daed986c87dca6aaed9acb98a87ddce8bbdacd99999ce999a
col16:   748275778478bb858ea7da75aa9bb7bdb9b9bcbb9ba988a8ba77acb78ab87a98b8dbc5b7c96473b6
col17:   875569287557687797ab6c888b8b886a5ecdeabb689ba8d6bacabdb9b6e6aba869c9cbbaa5c8a75a
col18:   182377786a7777bb76851779299c7a7dbacccc8a63b799ab9ab98a88785a998bbbcce78897b66866
col19:   4757a47c84798a6976769a8a7b89a8a89878c6a877d9ea8b8bbabca6a7c6bbbcdb7cad9bbe78159a
col20:   3656656555b8194569685658bb8c8a9a9688b9888ba87bc9c9a7c59b797ba846a8c69b77d767bab5
col21:   2694433666a676a9959ac85aabda99592fa6899b97c78b7ccffbc5b89aa587caac8874bb7cb96a6b
col22:   7578c96759a5b596a998659a87a75b88b84c79d94c88c7bd789b97a767abafb55769a8acb65793a9
col23:   a8a68899885976a86ca98895a7aa6aacb75ea8687979eda89ba4cc7b975a8a78caa7a899a6c9a6ab
col24:   85758b88568a995ca7c6bd6747e8c79a797498a86dcb35b9cb9a9acaa8f999b97c8a8a9ad7a9c89c
col25:   8466a8c635b656bb7997eaaea7d78b95c19aa9c8a98d78ec9d5bcaefdbc9f99bb99bcca886ccbba4
col26:   46548667886b339daa896b7b96a6669c78aa77a9baa98999b8a9be8db97ba9a7a6abdccab58acb87
col27:   9666a9aaaa75bc6baab7a9968acd93cdaa79b8ca69bc958a7bcdeefa9dbbeb99c3dbfdb6db798ac6
col28:   44a899c866bc79977bab6479a9da56859b79867b9b4a9ab99a9bfbcab48b898a9d89cb98c8a899b9
col29:   5a895ec97a9fcb9fcacca8eab469b8dbba97cbe8c78bf6b5ab7acbddebbfb55bc68dab99c89daeaa
col30:   879a7a9a888cbdbc956ba8ca7bbda886a5cba9aac499b7adb8f9da7d99d7aba6bab98989cbb7d95a
col31:   ab5b59acc779aaf94cab8babcbde5679bcad5b6da86aaaebddb9dcbb6eaf9bdeecb9dca79f7bd9f7
col32:   57929694bebc7999b989998c968a98bd879c9d9a67cadaaaaea9addd5dd7a9aba9cdbdcb95bbac9a
col33:   8b37a87aba59aaaad6aa6bb69bb7b89acb67ba9b686cba8b98dc7b9dcb7ae4bab9cca96bceaba6fd
col34:   9a3a765a88599ec649bb89694c9d8a9bcccce8b9aaac9a9ec69888acabd87adcbabafba88ad9e7cb
col35:   7a898858eb6b7b698ea9f9387ea675caa7cdbdb6dbb9a9cba7eab969ac99b9d7aabcb6cdcb5ff9c9
col36:   3ea3a8b3a7a58c44bae66a7aa88ab89ad7989c9acb8abccea8b9ecaabab9c8ffbabb87e9efe9ba8b
col37:   588eab97936bb7a9b9d88facbc4d7a6ccab6c7ba9ae79dcfcb9aefc8dbec9be9fce98f9aeedac9e9
col38:   b68a9d67a6a6765b89b99679b9bd6b98a6accb8faca67bbd9bcebafa67bbc69ba79baa9babbceacf
col39:   476889a5a75da898ca7f6b9ba858b6abcfcaac8c9d9caaaecfececaac7cba9dd8cfcb7adadf8ead8
col40:   7b87beaaa69889b9eabcb87998a5dabb98eaaebb86a79fbbccddcac89eedc9accc8beb99c7bed996
col41:   89cacb4a89b4ce7ba45b9b4e78bbaa9b99ddae989b9a8fccc7df9fb8cc9bfb89acbcefcacb7dcae6
col42:   985abb9899a896a65dabb6a8c989ba779ae7a8cabc9869bdbdbdabd7dbada8af9afccdaebc97dbb9
col43:   bfe7b8969bbfcb76bd6798ad6a7dba9c6cbbbe9bfcfbabfe87bcb9ceb9cbdfddb9ffdbedbebabe98
col44:   bda6ad77c9d9d83ca8bc9b9e8986abbc6abdbb79cdb8cdfbd99789cfddebca7cbbecbdcbab999eb9
col45:   76a76b7b9ac8aaa989c6cbac9dba67b9c8bdcbbbaddfd99b98eccca9ccecbb7abd9bc9d6fca9b894
col46:   bbba7caadaebb44cdbcbb8dbdecadbabccfba8ecabcfebaafbcdf8eb6cab8cc86dcb6caabaa9c79a
col47:   7946b9b7993bccacb89edc8aa69b5a87cdde998beddafb9ebafbdbfdcfdaaba9b999a8eb8868c9ac
col48:   653b8a7699658b9a9adcba9d879d77e8aaca9c89e9ecebfb97bcabca77bfcbaabbbd989aadbe89ba
col49:   59579c987cbbd694b9fbaca86ab98b8fbace9bbfb99aa8bdfbbfbbbdcf5eccb9f99adcc4debddb9b
col50:   9a46996acb9cc7b9a98e8ba799bb7689a999e99b98ddac899cdc7cbd89bad8897b6c9d5fccbc9d74
col51:   7795978b66a6fa78a6ac77b67d8b75bad9a5bcaa89c89a99b998acc8ba89a9acd6868aa7489bc7a7
ROC:	 BPix_BmO_SEC3_LYR1_LDR3H_MOD4_ROC8
col00:   d4163479485747853554998488bccb88b88888b748bb987b77bb97bb761bb9d7c7bb5b598656bbbd
col01:   5663756b875877529978574764599898947ddb68cb6e47bcbb8efb58fc88ccbc7664a6fbb4bb9bbd
col02:   5668997a658677786258487847b899b9bb7bb5bbebb989c9c6bbbb7bb5c7a6bfbbc4b7bb9b658b7b
col03:   53884876b4775858783b5548b99772874477d786b8468b867cabb8c9bdcbb98a756b9b78b7bcb38b
col04:   368938856b94673686757a79685bcb9b795b756b7c98b7799c6c7cbbb85b7b99bc9a96cbb7b98d84
col05:   988626bbb7b8573288b385779ca9ab889779e6b978a7699676c629a588ca998bcbcab5956866977b
col06:   26d658967969665776637b7c8749bcbb8959887a58456694821c85c7b89c988ca85a76b5cb6cde6b
col07:   a6b945b3769664877886566b789ec8c6896c783c8968759d87ab99b8b64bbcb7486ab456b98b6d9c
col08:   5389c8888957752398869756ab87d9695da8c9cc65899748979c565887ed8bb9b9968b96ccbb7b9b
col09:   4968a94857595764385978977b86ccb79c7675b94699b59899be8eb5b89abeb99bd98bcdbbbb7b9b
col10:   66b7582857bcd46a666599b88bb5abbcbb49b9bbd8a8d4899c5d8b889598b9c7bb9db3bc8ac8f8bb
col11:   271857ba3457bbb69ba9ab787b87bdf69a9f9b86a65c6a689ab9bba7d66778cba99678bd567cb69b
col12:   8676169867879496bc555a3bab688cc737baa668779788a699698db8bb69b7a78aebcb9b9558b8c5
col13:   c5884b8544875795b87678977beb759dba5a8c738c94c95a779bc7c8bcbadacb969c68bbe9c6bb6b
col14:   9794766a3897c9bb77bbbb9b98da8599b99a9ace879b75db799dcb8cb79ce9b8b9b5ccbcbb9d763b
col15:   83c96b63b9b39678886b6398879b68a858bb58bc587ec78c857cb7a99edd8acbbb767b97a868ba5d
col16:   995475437a96c64758759c98bb6b99a8b97bb6b748b99b69bbbdd97ccccdbcb78e8755ccb99ebb6e
col17:   474855836739875c848b68a9978bb97e699b97ce939bb599b59ea7db9de7bb99c9cbb8c9cb7b7db9
col18:   744366a7946567a6b589b7cb8bc8bcb5b76859c7cda989d5b19bbdbcebeab4cc88b9b76cccd7c8a8
col19:   7353a6aa5b689aa968ac5c9b876d879958b7b5b98a89949a9b8bafbd9be9bbbbbabb89e6c9bb5bc9
col20:   573887967973944cb889bbdb9a767cbb7b656759a9b8997b88a8d9b8bbcbbadbbb5ab8b889daa88a
col21:   75558967559977556885b99876d78c88ba78879bc6c8ba99b9c8dff895c9d8c38a78a96c86c8bbbb
col22:   74598777295b9b9b6bb799ba76ab9baaa8bcd88a9bbce9b7bcb7fdfbbbb9ab9db977796bdbb7a8fb
col23:   53b7a5896877babb9697bca6cc997a9898898b99b99b99c9bb89b98bbb99bb9a8be79cc6757bcbcb
col24:   1bb58d6b7a72788769bbba4a7998d85b89b9d7bcbc975bbb8b8abbccec8bc8d9b7bb8bcf7b784cbd
col25:   7896b87a75a596cbcb8aa898dea9b9b6dbcc57c87c7a779cfbdbd9d56d9dc9c69c9f9ddacab9e8bc
col26:   5869cb975b888988b78b897acbbcd9fdb4abc7e878c8d8b978ea9abebb9bcd6b76c9b88bdb6b7bab
col27:   96b9986bbbb8888688acab6ecd9bbab47b8bb8bb7bc89c9abdadbbd99bbbd8b8beb99bbbcacb8577
col28:   549bbbb98bc8baab674b7c8cb7cbcc79bcab8dbc9c87bfbbf8abecfcb96b9c69b9db9bb9eb6e89ab
col29:   886a8aabb99b9c7986bcb97ddc8b97a8acadab9ba79c7a89db9b9bafb9bcceebdbbb9bebb98dbdc9
col30:   7dca666a688566a866699889aabd7789cbfbbbbcbcb99fb9dbf9bbced79a788ccfbcc9bccfd9a7eb
col31:   4563379aab478969a7bbaccfdeddd78f9ab8cbcafbbadbcbbedcfaddfbfbc8c89bbdbebbd8d8dabd
col32:   4ba92d598aab75a99d8c788cfcb7a9ff8d8ab99cbbd9c8b9dbcc9fbcbbdbc75bcccbcbbbb9bb689b
col33:   9b7e8699689ad6c896dbaba8cccd98bd8b7b8bacbccdeb78bbe9ffebdd8cb8ddb9cacbad87ccc9ba
col34:   87ba89b9897a8b6b885bdcaad5edae7dcceb9e9c8a9addcbaa9bbbececcdecccbcdef9bbeb479bcc
col35:   44b876bc39b9769b4abacc78aba998cfd97b7baac99cfbbbcbebfbfe9dac8bdbbdcbcbebbbf9cbbb
col36:   686bad998cab8d5897ba8f878baca9ecdabdccb7978dbdbbdcddb8cb9fcbaabfdc7cbdbf76d9bccd
col37:   99995ba99e75b889bbaa97ddaa9bbacdbebada9baed9bbae98debdacedbdb9acccdbbbebfbc58d97
col38:   bbb8aa999787ba955b8b67cb9cac5eadb7faf88ddb8ebbe8a9ddefccfbffaed88bbb9eb9abbc99cb
col39:   4a989bcac8c8c5ac9bbc88b8cab68abd9ad8c9db88b8c8bac8fbbcabfeebaaaacbaba9a97cbdb9b9
col40:   9b8895b68a6a99898ea768bdcdfecaebfbdcbd7a9cbbcbceeefeebbefc8cbcdecedae9efb997bbdd
col41:   7bbb79d98958b98c996a8885eecbb8bbcbeecbcacdba8bbdecaffbcfdc9bcdfbd8d979bfc6db9acd
col42:   7769b799beabbaaabb696bcacfcd9cbdad79babcfb6abceb7af9ddcfbb5d9c9abcbcbdebcbdfbedc
col43:   a8bbeba6e9b88888b89bbdba8ebbb87bcbcb6d8cbdfdbcbdbdbcedcfdbd8cbed9ed9eaffdea9cebd
col44:   b8e9c89baab9b7ecbc9a9bc96bcbcad39bb9a96fcb89dcbccfd9cfe9dccdbdeddbdbbbdbdfbfcac9
col45:   94697866999a9158976a8ac898fc9ebfc8a9db9dc7babcabeeabcee7dccd9bbcbbabcaa9dc87c7db
col46:   6c38b558986884d68d9b899cacbda8cdfdcfdbcec9efcedcfbcdcbbdbcb59edfedcbc8bbbdb6daf7
col47:   74c65837b9baa7c5bdab8a889c7bbaebb8aecbccb7bacbdaefcd9a8dc7ca9bf9caebd8cbbdb9cdc5
col48:   788696c8549b989dcdabaae3ab99facbceeaaacccdbb9fe9eccbfbdcfc8a99cbcbb889ccb77eecb9
col49:   56796187a8b98da997a879dd8dd9f6cebc8cccabfd8fbbccdfadf8b9cae9cbdffcbeaddb7cbb99d7
col50:   96a899882a898a7ba8bb77fdcb99baff8b8ccabcccabcfbbcbeadacdbeb8bdcd89bbcbaddbebb99f
col51:   678b6656b7b9b99c7c6b5b6b69776cbb5bbab89bbcb6bbbc9bc9b6faedb7db7cb9bc6bbb986ebc78
ROC:	 BPix_BmO_SEC3_LYR1_LDR3H_MOD4_ROC9
col00:   2448b6772665527b3877b777746768689b93986cd667965b87bcb8bc78d7b89b3976bb7b98bc899b
col01:   76958b4578764175797696938a9bbac68bc58bd987bbb6bbbc88b97ac9a88eca988b29bb78bcb3b7
col02:   74594646618886786bc975487b9a6bae7999d9838b75c7afa9bb98b8bbcbecb96986bbb89bca6938
col03:   86b7797881ab8d4788785a5888aa99d882ac6b6b596969c97b7b98b99cb948b58db78b987b88b9b7
col04:   b58864587874eb86879869a959788dab9bc7aabb88d87c9c997b7b9bedf973b98bbd9b98d875a755
col05:   b9b98989978768738745b8c75cba9bdc98cd97ad5c77c85cb59c9988bbc89b7bb7b984dab85b9bc5
col06:   3182562b8bbb958a68a9188fe8bdbce5cbaccb61758bc76976eb65b76aed6c8a788b77887958837b
col07:   788a84697974498888686ba96b77d5b96bb8bbdbbb35ab9ab764c7b78958abdec4686b76f9a9a79b
col08:   268a7994b8b6a5548795b9997884c8beb888c75a8a8a9bc8c9bdd59abfc7ceab5becdcdbb9bfc9bb
col09:   98665876b6586966899738b93b89adea77a9885b86b7da8b4babdb6bb6dab7acdcc8b677c988869b
col10:   48a93abb6c59acbb997989476d9d7b9a97d686aaaaf79a518846da6cd7fdf9bfbbbec97bbe99948e
col11:   3513686847b7bb768867877f97879de8b8b97aca9c7bbae8d4b77bbc7bbbb959798c8db9788b9bdb
col12:   945654a1843788867ab874ba9997bc5a66c6abbab688d7bb89aa8d7ea9dbcc7db84c4a7cc8bb9b77
col13:   45a76849577b46797bb877cb5b889bb99c96fb69a7ab9669db39bbb9dfbcc79b89736c8ccb9baa7b
col14:   7969566717585899a64856b87467e9cb786bc7cbaaaba9a8d9bd99e8dd99847767c5b99aaeb99bab
col15:   645a884b688857bb898b9dabbc69bd889cd7bbc969ab489b6a5b9599bb99e9b7bb5c6bbab8b99c69
col16:   9569b9b9592c85b97758d88b889ca8cbc8c5aba7997acabbb888b5eacdefbad948deca7db7c979bb
col17:   82a8547489a66867a8ccdbd9988776d87a888c9778896e8bc8c9b966fdd9868b9a4bf856bd96b95b
col18:   786562778a5597768baba7b8cbaa8c7aa8cbc98858baba79aabb997d779abd8d6da79b977cbb99bb
col19:   956986b8535436b9acb7c487858c997aae59449b5d8b6c997995bbbb799cc8c998857b98d98bd96b
col20:   69679a755b86986d89ceb27566f967aaa886993bba8b8b7b78c6aebcb9eb7b7bb6685b86c8bd989b
col21:   58a58b4973acac79b785c67ba4926bbc889989a8c67b9c59b7bcb6fb898dbddb7b7ec99888d94687
col22:   b46186ac7bacab49b85b678b978bca886aa7cad8598bd6d9c8bdfddbbd6febad87c9bf7d9ba5b6b8
col23:   97a4b26b586876996688986c7b8afb7b89698c5a959669d49cbcc75acbad68aab8b89b9668aa79b9
col24:   3379a7668b58cbd7b4a9be8cb896ac99b68bca998c7d78aba99a8eacadab8b97768aa69e768b8b94
col25:   877799659a87bd79abb75b4b9ddee877499bba9988b7ba9898a9996bcc9bd98b888c7d8d767b67a4
col26:   33aba8f488d789889dcbeab899b78d99a96ce9f795d7b87f9988afdadfddd99c7eacd97ed69b9c99
col27:   888b4c7769968aab68994abbc8b8aa8b968fdbaabbeb75d99b9cc6bd98bb9f799889b589a9bebcc6
col28:   697ce9a9cba67898895a69ad8fc9aba8a9adb9c668d8acb8bbda8eceaebca8b78bc79bb9ccbbd869
col29:   c678a395a6cca868549c97abc9bdb6c8dcddb2bba66b98ddbcdcdbdfda869b79c88a9959a87a7d7b
col30:   68aab98aaab989766588bdbce9cc8a6dd4bccbcf9b799d8ebbb8abbbcc9ac7988bb9bccbbdabacfb
col31:   82aaa8b665db7838397a6bbcbabedcbcac89dcbdddb995bd9799a6ccbbca9c9a8e8d99fdab9ddccc
col32:   a68894aaa989888bbbbf878fba9ce9bcb9cca7eacba6bceabccbeaebcd8a869d68dfddfb9cbda6eb
col33:   3b768677899ba6e56c9e9db8ecb79ddcb9aab999c98a7c6aecdbc9bec77c9dfa6bb7cdbd9b56b9bb
col34:   798d9d696b9837abb78ec8b98ab7acdcc9abe8c7c786abcbbedfa795ee99b7a8789abab8cba96969
col35:   677a8786a62a889bb7ba66a975dcac889ab968dbbdec9cdc7dab6ebd9e9fabddcd74cc9c8cd9c883
col36:   65d688cee579849aa7bbc67f9b6dcbcb9b795ca8688bac7dce8ccaac78bbabac8bcb89986b79d7bc
col37:   66b999a984b9a7baba8daab9c678898cbcb98c8a9c9ce6c98dcc6c9bbc5cc9ebaccf988c99c876db
col38:   9b8998cd89987b57aa99cbac99998ca7babcac7b9ecccacde9fb9afd7d8dfccce8dbbc74e87d7c8b
col39:   44eec85aa7836adcb7aa7aa77bb7dacc777b7bbdd66fe9ddafddaecbccabf8c9eab999faaafa9979
col40:   5a579ac9c7657ab384a98ccb85cb895dbddbabbb9eefb798ba9ebad89dbcebfaad8ba6cabc8bbde6
col41:   75597778c488988399d6bd998ad467959bababa86bd9badbefcc9ce6c7afc68bacbfeabcbbcccbfb
col42:   787566a779dd5b95c97b799b8afacdacb9a7c5a9ebcaeabdc9ea8c9acdbbcc77c9cfa3687869dd7b
col43:   749bca79b97776776a48bb8689a7b798aca759cbb9b6b8afbeb8a88aaca9ddb89c9bf8bacb9cab9e
col44:   6989f7ae2c8c76bbc7d6acb97b8977cdfb9855e7cbc6de99fcefcaccac9bbff989b9e99cafbfb8ca
col45:   69879ab99ccb8d89396bdb9969aab9b6a75cdded9caebbdbb9fedbccab9c4e9b8bda6486cc1dbcb2
col46:   3766958888b6b59bb88ba995cbd98d87cc69e5ca9dcbdafeabcbdeeb9adc9bcd5fb58cbdfbb7a7f8
col47:   7746b4888a88c796b6a7caaa3ad7cca8a89a8cb9ca56dc6e8aacdbb98b9f7c9dcbdbdbbdd8c9895a
col48:   99797daacdb82c78968ca89ac79bbea69cdafceaadccebdd8bdc7bc8eb2cbeac8aaead79db6d9f98
col49:   657a9a7a67a7dd68747a6685abbbd8da968feabebceaebfdcefdb5dbdbf86fa8b8cc7ac9db7bb677
col50:   8a6876a87cb8989996987b6db596cb6ac8f89cc898989acbddbe9e9b9bbad7bbd7abccc96cc7cdbb
col51:   55776326789b28c2bb595679847c966dbbb697aa9c6b6cb87ecbd8b7bcf53bb999c79b65b686a9c6
ROC:	 BPix_BmO_SEC3_LYR1_LDR3H_MOD4_ROC10
col00:   8388554986656d7848978a669b57b4bbdb3947aad97d9baa9ab8c6a5876abd955a6bbbbbb9b6b8a7
col01:   56297955b693887a5a7579bca715969ac479abfc597daba9d9986a7a77969b8597899b897bb8b7ab
col02:   61655aea386797a468796adc97b977dca9789b4b6986b9bdd3bcd8bc69c47b7b6ab8d4aa8aa8b8b6
col03:   b647748a896dc966877673b6ab9a688727c9955d8eba87976beda9b6a7946787ca7a88c7756caca8
col04:   7447c78586558a87937cb769bb99a6797965bacb9acad8db86b989d7969a59ba5aac7c496987c77b
col05:   9746455395865aa8c8e4c939eb2686959d5998bbb9b95878b8b8b4b48377a6b8a5b8b84bca597596
col06:   bb9784876a79aca72566866bbc57ae878796a6a7bc9c9abd64b9979c8abc9baa8bbbbad877c9ba9a
col07:   478717c55a965589664546a7cccbb67b5ac5b968b8b669a6cbcd6bd9bafa87dabc7bdcbc85e9188b
col08:   817b57a7c5b58754c28966858d6aababc5aabbbbbabd47968eddbce898b9be773a7aa698d79a69a6
col09:   97773c4b78d358a9b415b97b9a9a9b8866ea8bb8dac989a9a79c76ffa9d6ad9cca84a778a78ad6b9
col10:   48aa8a9c72b989c9a85c9cc8a777bd8ca67c56ba9cdf7b8db68aaa79989c89ca9aad8788d67598da
col11:   5288768a95b86a9799ba599b4a6ea68947986894a86b68eb9bbdb85af8acfbbc98896a86999ba7e7
col12:   aa6bb678774898a859b9989687ab97789b6d99a9499b6d799c878babfd9d87ac98997898dbab8bc6
col13:   5a853caa489299ab67b9bafb8956976a6b7c69ad65bf8c5989979feb9cb74aaa899e6ca6b759cab8
col14:   43517cb7a9c874497c87783d7ab599679979889a6a98c97cc797edabba92b99ea977cd87689ab9bc
col15:   b9855898851776da994afebd86568ab6ae89aa7bad8facadc7fac99b8ba6b89aaac95a6893ab588e
col16:   78158666846813968883749a59c7ac9954986b7b8bbb9bb7978a8dcabaade885b7b6d6984c78762a
col17:   b8a9244376b635597969a597b4679696ac8bb95b9ebabb999cdba7bd99f498dcc79896cd8a5be666
col18:   45754ab636c8864d876658a97db69bc99f967fcddadecffdceb9be987cf9bd99febcca6ed7c65a7c
col19:   548868c7862867c7588d8579a8eed7cdcb6a8c8b5397bdb9ca8e87b6c89ccf9cb99877868dc794ab
col20:   44685986396684899db54c746967878bc598a54cbb9aa7ca9bd998d9949a89a8b77ba9aa895a5448
col21:   8697b55a67b8855c54a93686da8baa6b8a798a9b98cb7acfdb8fdebabaca9eafa858c7c5ce8987b8
col22:   87797893bdb88a65a68b4ba88a8a49bda988ba9ca8a77a99aaafa998ccc7b9aa6a7f967a89d7bdba
col23:   448a79b943ab68a752cc9c567a54ae8bb7acaebfcfd4a8aaea8db8dba6bcb4dc688ea69bbdd7cecc
col24:   9a88587763b8763966b789dc99b88c67bb9a6ba9aad6b99b9eb8cac77dc8f92cd997acdacd5caa78
col25:   a95a9adb886d689988bfa58849968c67cbb7eb7aeaeb94aa388888da8abcded9cb7c6dcc8979d896
col26:   795aa79676796a4aa389cb7fca8acf7b98c979cc784e9bfc7d7ba8ba99cad7a8bcade985c9a7bfa6
col27:   986899a79cb5a96cafe99afdc7aaccd8b59aba879c9798cac6cb967adcec878cae89d9b97acd869c
col28:   b8988c97acca68d988edf79f896ccbcbada8b78e9ae8abc8cc9ed79bcdd9ebaf88aeb5ccddabacc9
col29:   cbb97b697b8a98d79ad7c498c789bbba88b9bcf9accfbac57afb8c8a8adcdbb5fbbddbccd9bf8788
col30:   6a5cbbb7bb97f47a8cabbeaf9acdcbcd99aab89c8cffeafcba8b78a8c7cc8fb59af9ad8b86f77af5
col31:   788977a669f98a56acb96ffe77dc8ecabc8edb9bb7dbbdea67da9c8cabc6adbff6eeba9d7d9698eb
col32:   b89b77a9a889885f9aefb9cfbdc889b7ce86de9ae7b8abbacdc9fbd98db9bb9cda47dc88b9c8b97b
col33:   b8a9a69eb9dcca7abb868ddbd9cd5eacdc8ecebee89bffdf8ccccbd8efabcd6fbaeac7ab98e7b9ac
col34:   3aa9d9bbaa9bcaaa99c7d89ef8aebc99cebb7bcb7af86eeeacfdbabbc9bacbcba98cab2c9bb9aacc
col35:   38aaab7c2db9bf3acbcbda6abfaa8d9aac9cba9ba98aaffbbd99ffcfacb8d9bbf89afac8ba6ca269
col36:   4a87dc9437ba8b8d86cdce969bbdbad9dabfedfafd9e7eeacde6caebceabbeed7aba9aaa5b9998d9
col37:   85a6a9ab658b89da8ecd89c8d69aac7e9e98f6db8cffd9ddafa9fdd9a9bdc985cbcbabcba89a7ec7
col38:   c5b5a997a9aafdbd8ed9a7fc78d9f9b9bc899d9dc6bebfcbbc98bda899999ba7de9b8b96cbb6caa7
col39:   c8da999da7dead89d8aa9bdefecd8e7bad99aac8dbfad9faeb58dbafddfbbac9ad7b9cfbb8de99c9
col40:   98e75bb979aebb9eb9abec89f9c9abfeb8ea9fedab9cbbcfefa8cfbb9dfbbf8ca7b8dbe9a74aca89
col41:   59bcd97c9ac658d7b99a9bedecbabcefbabdffededbbcb9b9fffdbcddce7c9ecbc879aaefa7ac8cb
col42:   9c799cb98976ee8b6a9b879cbcc89edb78aa99fbceeb7dc9cfb8ca9e9cafbcebde99c8cdcbbcc699
col43:   9bb9b69ccaeb89cab68bbbfbb9bbdabbebfab9babbbdaabbbbe9e8e9dcafdcadbdcde7fb98aea9a6
col44:   6c88bb7be6a9ca96afdc9bb896a7ca6b99ebc9c95bcbaecf7bacb9b7f7ade8bede6add98bebf25b4
col45:   466966829a498c94b97b9d9d99cdcdbb9ca8bbfdef9ceac9dece8eabc47abbfeacac6bdcbac9a89c
col46:   8e9a9c8da76c858569a9fabba4b8adc9de7aadeefdcecfadffbcdefacaa7eccabecbe6cb9eb8cbd7
col47:   8a84ae89b89adc6c6f9ae8be8b9d8bb78b8abbcaefddeffff9c9abec9cd7ca8a9fd78ef987599afc
col48:   8c9caa67639a9cda97cfab898c89ebcbbb9bbfbc6e9fdefefeebb9cddeeabac99bca9d8aca5ddccb
col49:   7baacadb87977969ab9978ab9bbdcfffac9bbbfbdcfbdeffb6acdafbebeb7cbd96b8fcae7ecabba8
col50:   a8aa88e876858fcdaa667ccd768d9cb9c8bcabad8acedacecbe979bbadcbbc999a97bc99bdedb7ac
col51:   d8ba8ab8bcb88eb6ec7d7adbaab599acb6e9ac9ccccebaeec9ddc8bd8dca7a8aadccb9878dacfecc
ROC:	 BPix_BmO_SEC3_LYR1_LDR3H_MOD4_ROC11
col00:   53636766175857435891594b79968883b67b955999b7bb76488b785889b7889bbcbbbb885bbb8974
col01:   435426b5329877586966778b97979876879a9d6b668b78bbb969b6877bbb9bb8c84768b798867b98
col02:   1753854248378345b565755864853995b7b779467897b8bbc6656878ca9ac9797567765b9669b479
col03:   57186288c6645356a39849ab2798bc8959b9a9b7b76886889b668bb999cbbbdc575bcb75788bb9b9
col04:   69aa8676556665b7899b9c9687575b99478464959b68c5b859b9b8ac986a668b8bba77755596b877
col05:   6674884b98a5665b88675b5456c9b7784b8b96b888b9cbcfb4b7bcb96b65ab7b9cbbf8b99688b8b7
col06:   47563766656676b88789a88889994586a86bba7b846a698768a7495685989455bca8949986387877
col07:   7b68768879638789646783793587b57d876a38abb697c49b7b898bb8c7bb9b88998b9587b786bb79
col08:   6657a624565b85785767875a4679b7b894ba88b6424795576b9997968998789d848c898282689577
col09:   678a86a3779776bba974844665ba977b357a4665b78b667a88876bb775b67988b8bb449676b59699
col10:   b9359985a895986a6a4a966768ab6a678b58ab9275b6a69677979889757a765c9578625999489994
col11:   615414648864a9698d6655cb988b87969b86baa7753b5a78a89b577887b888688995887458658896
col12:   55543676497525666979766c689a354787a86576b647457846777b575377466889986589b6875253
col13:   556684983a57386a65a484798b779677bb9a67b979b9a8388a5986767bb48776876b67b2b6755b78
col14:   6775647a9766675794cb8a999876a9959bab3d58597cad57859878c64a787239b689479446662577
col15:   49447a1955546b966b889ba699766ebbd89acc7c768e985549d6997967695448bcb97a7466697668
col16:   54567568974458b659777b688b999d7b62aa6b855899627c656877688b14863788a588289b478a35
col17:   9575767837989c7867a78a557688ce7797bc5994b8986bc9a77a8398a9687877aa7768c6576436a3
col18:   9a427996567477b96565787645bd7dbcac7897c98697b3a395a787526b49a884655664875685361b
col19:   4a663c4693577988759749d8889dada6977b46abaa7b85c689895a7769886398677bdb7989a967a7
col20:   95355987569799a8975b874877a879b96b7596798b7acb79968638a9675546893668865669627438
col21:   3478856988485ab98897586665698b8b868a56aa9ebb757759667638869b57a996a74667d6639451
col22:   87647768468679b998a8a46969769abd8ab677b7a9acaa9885a7b896a354567c77668997b8594391
col23:   666824bbaac698a5ba99a6b877abb6c867b69c98899a17a97d996a768a87c68b959a8896863c7a45
col24:   774b76787a695b888a6c88a7b6b77487864a799a8356aaa79cc59c696767b8b567874b74c4b5b168
col25:   9699547baa778a7d77c997487a969b878b989b89976899ba698a9bacb78db58589787c85a55497b9
col26:   9b76788aa77b98ababb5a987aa9989b79887469976557a95289a958cbb97bc64a969835c58772665
col27:   99acb6c9ca9abacccbbab85b7bba89799a87a5a99a899867a9975a8cd9b9aab88b8c89b777845796
col28:   95b786a9989daa8acaa893db988c8596b897878aaad8aa87acc9aa8d856b9ad9a99cbb8ae38bb893
col29:   b6b4aa99b9cb8aa99b5a9cca6aa98985b8ceb7899c7b88b98589c9aaa8897b977aacda92766886a7
col30:   979bb877ba8c8bbaba6ccb8c7989868798b737576865eaaabd6997676b66c79978a99a9cba445776
col31:   77ba9b8e988a9caecda7ca997daab894b858aa974a9c57cdbab9798c9dab8aabcdcb9bab9a79c69a
col32:   eb6a7ab88ba7cca9bb8d8abcf98b9d9ada8689a7997aa9c9a845cd98d7fb6ab6e879629a6b64c977
col33:   aad9b6a9c97776a8c4b9a8f87a9aea87a4d9aa97cbd78c9a699cab99797c9a5b9dc9898947d9c569
col34:   ab798688aaac7969dbeab995bbcd9acb9ba9ca99a8ca8baad8997674c68ab98c3cb9b89398bd859c
col35:   b9995d786ae6ab8879acc76cbabd789997ae9789d9778c9a8aa9a99bcb896a8b989bdc77ded78ad6
col36:   de7989b7999c8aaaa798c9cbb9bea7ade99a978a9aa7ab9cf7a698bdbbb5a98779da7bb4cbea767b
col37:   b8aacdb9da8ac798caab7bcbe99b66acd8ba85bdb79ccaebdbdfc9aaca99da7aa9c9acbcce96aa8b
col38:   8cc9aa4d9c9688c99aacb9688bb89d6c87bd65b986b99a7fb79ac9ca8df6797a96ab6a98d9ab5bc7
col39:   5aa8bbdd67a9c6b8ba8babc6bc98db658b9ab899e9bdbdbfcfc9edae89a6bba9b96ecc9aaa8cc899
col40:   a7867a8a78aac9aabdcceb8ca7b7c88b79bb7cfbba97abfaa88ebaaaaca7a88b9d98cbd9a877a9a5
col41:   eac57acd99abbcabab9cd6c979b99aaaaeccb9d5babbaa58cbacc9abad6d7abdebacdc9c8caebb6b
col42:   78978795aabbccbaac9dba9979cbafdbabbea97b99bb9ddbaadbbafcdaca9a8797ab79a6a8a8dab9
col43:   b9aaccfbdfaebcbdbacccdc7ceddafec8beda899cfee7da99cdb9a9fcafadba9adabecafbc86b699
col44:   cbbc988b8bcbabb7badb8ccaa9897d9da9ccacbabbcba8b8ccaaaacefd96a7bdb96b96b98c979c67
col45:   dbc9accacceffacda9fcacacdbdacccbbebbbbfcdee9cbb89bcecb9badbdccda99c79abcafa87884
col46:   abe95e8a98bdbcebbedac9b9aaec7876c9bcdadbd8badcdcb8fabdaf8ba6cd7b98bbbea8bb8e99b6
col47:   8c8dddb7ac99adc99ce8fcae8abc8ec7fcacbbbcecddc9dcc9cdbbadad9db8d74a8cb7ac9a88c8b7
col48:   499accecccdeca9a98d96ebbbdd99798ba7cfeaabec9adafcadadb9baddab9bb8dca6968d99baa43
col49:   67ba7aac8ecdde7beddd9eccbcabc7dcccbabdccaacfbe9cfcddbdeefbefb9b9a9c96b7a8aaa9b57
col50:   6a9ad98edbcc988a7fbcbdbba98acb8a8ead9ae9bbdc9cf7bcedcabdcc788a99b97cca9acbcb83a7
col51:   a38aab99e8ccd89bbbbfcc88b9bb8c999becabce7bbaee8ddedfcbcdfb8bb8889877578ba698cb76
