ROC:	 BPix_BpO_SEC2_LYR4_LDR7F_MOD4_ROC0
col00:   7929318637725351648856389838889bb841c68978887d8b68b541a7776697caa36722a556579594
col01:   46c567269876c6752a78867788668daba9c95a7c8ab576b77a7a876cca9794a559896b3c9665c534
col02:   8c88856968a549946898979a59167a869a8be946989c95c8cb8c7988b88cccaad8ab9575798b4576
col03:   788764763895c6748655765776b9aec9967c73997487c3997bb7a669b9676bca778b5687896959b7
col04:   a169523197a4675b74776668784699c9ab896dc8646aaa78899667a9a969475b7998975697945977
col05:   47455a8475485aa55989a6a2998c699a5569ac6bab7a673aa77de466a569479663768567ab874a67
col06:   da674b4768a8785682a85686367ba65db437ca9a8bac687987899c79c56979687a757e7b9bc78676
col07:   277695c986a36368d39b28b8697997b79bd86b6969ec8d7aecea9c98c7bbc9abab9b565a8c5797bb
col08:   559777147849a85766c6ba369958b39998968a755b87889aa856bb678b8a5957ab88524999797c55
col09:   394558894a54747a978a596aae67acac5ad7bdd9da7c7a97a7a85a8aadaa79b8a5787989858955a8
col10:   74265a7534644c7745485529499b55bb7ba9776a7e9ab5c9c96c3b8b9d9c95779797a588bd48a947
col11:   9473bb5d77aa5887ae59876559868b9889e69c584a9b7879ba7b997b9baba69937a586d896637999
col12:   8757655461af7588884656899ac98fb79f8869bca9dca77aa7c9ca3c88baa76b9b78cc8ba8576c86
col13:   954143742868539447699b8819c3d79bdca77a98b76584b897e9fe8d7a898bc76a9bad8567a538c7
col14:   288979567b755b58868488786968439bcaba8bab7a89ba87c68aa78bb75a7bcceb9c7a9baaae6998
col15:   bb6667e2984395487769a6d995c79879976867ca97b93c7c9a7d593b7bc77ba8c3bab88ac99a8a8a
col16:   8378794a558938776a3688a56753a979cdba8b7cb99e689ade6b76cc968a88a99a5a8aa67bb96985
col17:   a467497699a388355747ba79343b99aaa9b86a86cd6baaab93887bc99b5c9c88c895b7a985979794
col18:   7735576895667574715686597d9ad688bc6b78aa7ba69bb87699a9ab9aa4ab96a6837e86a8689455
col19:   869477894567682d67dba4d795bc9a9b9976bda875a999b8abcac66e76d9884a875a9b77abad8b64
col20:   759a5984979a956b69357678acbaa776caa88bab9b79a98a6b96ac78a985ba8abb988c8b7a9ac5d6
col21:   861157496344a586c687da9d886686c788b677bb9b899f576f9cb98bbba9ad79d9a5abbab5bb9a71
col22:   776551546426a9c7767857949267769ce9abcd499aba38c878b8ac8c96aa6ab8d88799879784b766
col23:   4688a49645b669854869a78b98e595976db3da588b9b9adb78bba7a72c8a19bcb8aa694e8dab9976
col24:   5d6417848368657f8c967697439d77b5a967b97a66999999ad989877cdba9c9b6c879b65b9788a77
col25:   7a4576aa45984aa59976b998a87c6a6a779ad8d9a99789ba9cbc9c999dc4897a88bf7899ba5596b8
col26:   76a99b88ca77a96b9b78ad9c79c896a94aaacbe77cdb8b9ebcaad9b9cadb8d69867a9958c9c98aa9
col27:   6757845685bba56796bb4a878979a8d9aabdb9bc8b7ec68dab999adda9bb6ac9aca9a88aa8c66295
col28:   b7d887aeb7aaa9a85952b878ab7c7d78a97daee5bb79bac9d9cd9cbe8ba7a9baa8a7a58c9b9976db
col29:   865c89c746b8e9a99898da7baf6b7695cacd8dbcf9bbdaa8a9accc89cbd987eca9bfaa38e757ad78
col30:   a6f7a85b67884b9ba988a8e9997acacaa99bdace7897b8afbaccd8c79d9ccaa7a86c6d8c99aacc4a
col31:   986a6899a7a96eae9ac9acdbaa9c9bdbdb9ab5bbdba5c98d9cbbda6cbc8b9dbdbbedcbaccdaaaa96
col32:   74798385c9a9abc985b877a96aacdc9d8ddfbd98cb9edcf99ddbccdbbc9bfa8acccc6debdc69a989
col33:   b7a9f8ccba897c8adab56aeaac9c5cb8babdcd9dafc9d89e8da9aabac9ab9dbab6baba769dc9b8b7
col34:   745c7ac695ca6a77acccacaa9aaaf9aca9dcdd9caac9f8fb9bcbcdd9bbab8bcdacbdac8ef7a9b8cd
col35:   8ba467dc3ab9aa987fa7b7ad97ad9bbd7db9ccaedcbcb8bbd88dc7ceccbaaa89aa9c798896ab9d89
col36:   5598688c78c7b77abdcb9ad78dbda7d9aaf9cbbc9dbfbdc8dadcabd99bf7aeada7cbcddc97b6d493
col37:   bba8ace893ba697889dc9abacd6cd689aca9bbc9ad99daccedaaadabebaacac9ac8c79d86b89bdb8
col38:   f8b8b8dbc879dc9978cecbfbbbde9fd9ebefbb9feed9dcbcfadbd8aeadd8cbfcc98bdebb8abadea6
col39:   5577aa67c9999d9eb879eb9dbcbbbaa9aac76cc6f9fdbdbccafabd9ac8abf89c7caca99ac9b95993
col40:   988adbda9ab6dbbb775bc8b8ccdbedbfcbfaaffabadbadcd9fcdabfe7a96bba9ddd8baeb9fb867db
col41:   87a6ba979aac999cdd876cb7ad9bbbdbbcbcbbcbdbd9ebabfdddcdbbccb98cadaacaa98eaa58d796
col42:   98ad6984cba899aa79a7bbe7dbaaab8bcabbf9beabdfbfebbb9fcceab8deb8c9fdbbb8bdbb4caaaa
col43:   aaa8a9bf6bccaad9c99c8ea7ab9c9db7ffcedefdfdfdfd7deaeebbcdbc87cbcbacaaaaceb889b8b5
col44:   7b4c9cc8a8667ca88bcdecd8cebdfcbb8c869bbcfdfb9caebcedbbb8fe7ccddfefcad879cbbad7c6
col45:   a6798f8669659b63b6cfaa9bb98cd7cfaabbc9dadd8eba8cb88aabbcefebf7eb9c98bb79947ab2d5
col46:   5dc8cb7ab98a8b9999a9ccbca9ecdaaccbaccb9ac9dcecb9b9bdbcdc7ac7ffbb8d8fbacdcdb8beb9
col47:   adc6c9c8d87ad8d778bc7ad8cafecd9ace9fdfbeafae9fc8f9ed7cdecefbcae8add7bab7da9a89b9
col48:   7cb7c7b98bd5c6be8abaaab8aabe8ac8b89fb9ccbdb9e87abdc9eedaadbbeaab8d9bccbcc8c5aac9
col49:   77b787bcbcb47ce28aacadca8adbcf9bcaefdcfeda7ecdbefcaacdfcbefb9acadadecdb9ae89aa9b
col50:   98ccbaafbd28c97caa9aba9babe9dff8cdaa5bdbeedebecb8d9d9dbbb9cdfcaabb7dbde5d6bbabdb
col51:   879987a87a8a67ad3b7a6aaca84babd99aaae59de4adbc8b8b9f6aade7feccf79cbcd985a7c978ba
ROC:	 BPix_BpO_SEC2_LYR4_LDR7F_MOD4_ROC1
col00:   8889887256939787aa697d6a8895a89556997a866bb8a5a786a849a6bab78b96baa66aa798789675
col01:   559b9aa67668588abba98a88d979eb9cc8499ae8cab5b99949a299597b8cd877a996978b7845bb52
col02:   8abb6866aa94c83a6998968969a86c7aab999d9bbdba7cd76cdaa8a79ada9a8ab9a6789db887a785
col03:   938a86abab89779b8939558ac9b96cccca9a879b8ddaba6b9e99dd99b9a8bac5bc6287778869678c
col04:   8938a8975893d859a679aa79b9aba7ccd7ca9b897be8c978cca97b6a8eac7dabe68c5a5b8d8c6996
col05:   876a977d6377899979a9893cb89a388a99ceca97bbe79be7a898abcb59ace8aa9bba989893496966
col06:   a8598a8ba687a57a75bba7b57898ac88aaf8a9cad888bd989cd88cb7a8bebb6e97a89b9968869b69
col07:   a8b946578a9475887897a8965bd7d987caa9ac8965ba659bbcdd9bacbea9799aaa7bb8aa76358861
col08:   6b87b586727578687a86b56bd5999b65d9ac9dea79cf56cbaaa9b997b8a78cba9776aaba9a964976
col09:   7c6a987487ab9a9897897c99c7a9babeaca8dbb79cccabdabd99bd8cbba839bba596a996765854bc
col10:   66caa76b87a6475e98676ba9a9c9cb8a998ba8bba9cb9abc9bbcccccaaacb99ab9d699a88a6a7886
col11:   895367749568976aa596a99ca9cb7868aa8b9a997cbcac7bdc6acbabaf8e69d9b8b78c9b968a3789
col12:   a5aa976786775a5b6aa899bca88bcccddbbbaf6ac78ba87898b98abecbba6cadeb6c568c6b989956
col13:   8888968758487578859a7976dacc6f9fdf789dc9aaab8cfbcacabaa5aa9896dbb89778a68878a798
col14:   737549b6b8858798789a5878ba58a9c8bb8c8fbb749dce2e47acc5dc9b9caa7b69cca9b876885745
col15:   986419d3a675718b5a45657c6c7bad858aaac9aba9c9aabdaad98cda9d9999c99a699867a7875675
col16:   7676a956468698766ada88b8d8b4e79ba9bcdbc8baad898b7d9a6aaa99dd9ca9998db6a84b8a8783
col17:   7552658c88a986999865b99c8ccdabb88dbbf9a87a9b9ab9b76cd89a79a879ac8b999c4a6ab6b747
col18:   7491b88998b79a6699699ba9cb99b8d7ce88a8adcd8cafbbbd87897a9f898d77bb969bb898a8a878
col19:   76697569676677556a487aaadabb569b7bb9a589cc49b788758bece8b97ccdc785aabb899a85aa97
col20:   46796b86a839a9ab7879eaa677bebbca997adc98abdc6b575a96b89b97d698c78b96a65749847a9a
col21:   a492798a5778b75b8bab7cab57ab87ba6998ca97a6aacbadeacb8ce8bf9bdb8b97c7ca997a75855a
col22:   79668847987b98867aaa68a9a89d87b6b989a7cb8baa8b8e86aa6a8bccde8b9db87a9599a48b7776
col23:   a965689897559a3a8667a8687bb67ac987a787979b9e6cebd9eab9d6efacb98a889c7aa687a563b6
col24:   9e645a7c69795a8997a88c6997c66a98ccca99ccaba9bfbaad8b9b8d58a97799a9b96387aad85994
col25:   8646759439777697a68a9a699cd8a99995aadbbabccac7beb75c8daeeaa5877bbdb776892669aa98
col26:   737b7aa9956b8a5c6b678acbab7abcef897efb76abdbacbdaddd7dde9b99ae9b99b8cac888ba9777
col27:   7d96b9c97189688cc978a698aac9abdc8bcdbabbebe8bccbaaebad7cabaada9aabaac88a585e7699
col28:   b98596b72a878c7aaaaefabb8eab7dcaa8ba9c8d9cd9bdbaccedbdbaac989cb89abdc7fac8b58d87
col29:   5978ba99a648c999aa98d88baa99ee9caabc8c9dec8bbebcad76d95abbcb9c8a976be7aae9ac8c87
col30:   89966b8b78a98bb89a98b7babba7edacbdba8cc8cda9ea7dfccfacb9cccbe8cbda97ec7b86be7678
col31:   866c7a6aba7b7a98b8d9ca89ae79bc8cbd8ca9baadacad9adbafcdcaca8af5b8bacacb7f977c68a7
col32:   79996dab7b7cd97897dcbefac7897cabc7edc9c9dbfeeebcacdc8fc8d978aea9c9799d89a9b47c87
col33:   7785d8516898b9896bbabbe9cccdc7aaeaaedd9cdacbddbdbccba99cecaaa78fba98bc979bcbaa8b
col34:   aa516b9a677adbc8a5dbb9c8a8bbddba9d9acedbcbedcbc8cbdffcfebfaa7ced9eb9a5d8ac997b78
col35:   9c8a668ca8a8b8b8c89ccaa98ab99bcc9fbbb9aac7ddbfdabaebab79b89b88cea7baabba9a7997b8
col36:   795a9798ab8489e8a98b8c6d7ddaa8bab7dbbace9cdcfffaabbbdb9df8acf5eacccbca8b8ab9cbca
col37:   5d7c9819699c868ab7dbedcbaa8babffdaa7ffbaaecaebbcfaf9ca998d9beffa999ecabd9b8879ba
col38:   458c699987b9ac9897ee8fcbaabdcde9bcbffdcbd9bacacecbbcbcddeeaaecccacb89cb9ad559b78
col39:   96c7a97a9899bbab9c88bdd6caba89bbeaebcbcf7bf88a6cbdacef9ead9ddcabcdbca9bca879bc88
col40:   7ca6aa7aed9abb9ace9aa96ead9bc8bafefdc9bfd9aaeafcaaccbb8df98affbd9c689dcc8e6ac7c7
col41:   b659785488ac6969b94daabbca77d9bdc9d8ccaa8ceffcdbbfceee999aadfbb89f6bcbebb7cab7ac
col42:   b8b97ba5b5ceb588868ccaaeabf99a5ea9ea7cae8bcdbccdbbdacdcfa97bb7bcbdcba8ac8b99a9d9
col43:   a34687799a9c69698dbbacc8aadfebd89cbbcca7badc9bdb9bcbaecedbffccba59ddaa896e9a957b
col44:   986a8dc7cb7ca94cecd89c9b5ab7cbcffbfaeebfbccbbbacbabfafdfdacfdaecdaecb9ba7a9bb996
col45:   a8ac866dcacabc7b79a9d98c8b9be7acadbaa9b9bddb8ed9edebeaabfaec9ccccc8c9bcde859abc9
col46:   9988a978bd798ba99e88abcc9baaaaec9eaa9acafcbc8fcefbccadaaf9e8d9c9abdb8d9a66b89c96
col47:   959969e9bc8d9887887b9ac89edab99aaecbde98bfbda9bcdc6bccbcacaad9a87da8ebbccb6da885
col48:   7c99b98bdb9aeaaaf8a98ecad9b9ccc9abb8bbdecc7d88bdd7acbbcacec8fbbd785cac99eb8b4eaa
col49:   69b6c8a9cb7a5bbb8ab9cacfbacec8aedbb97dcd986bc7cc99bcb9bb7ace88b99b6d7aa98a8ccddb
col50:   87ad8aaa99da8fa66beccdcaabbd89eccccfac7cbd9cdb75b4e9cb7abc9acbfaadbecc9cb9ccaaa8
col51:   95189884997a6aaac8978887c978cc9ba9ca9ad4b8a788a785ca4baba88b2889b7958c8a78976578
ROC:	 BPix_BpO_SEC2_LYR4_LDR7F_MOD4_ROC2
col00:   15653587525767b631957776576685991565796554b957668448746676584194956455832a538b62
col01:   4448146b693736a745a8489789379b8599858659ba7c87a986c7bbc96969a8b9769b579a99487b65
col02:   572153769855799478397a4848b68b857997b7ac686a3ba6756b99a8a56937958b6a98e8566cbab7
col03:   82524359b98b78568a658b8a649b9d847cab77d76958ba7b873a89be77b8639954989589786aa766
col04:   87664458845599778a7659777669f8885ab9b7ab65bccab6a679bcca4848aacdad69a97778879a76
col05:   6516686536828359568964687b486799d859ae69b677a96688e896c6ab8d6739762c76648ebc7892
col06:   4331563957c594a579498953c898489888b55b75895a99b29fb9b9999aaf877a6c977978c9868687
col07:   8877898a5343d9a87654aa37729b8974aaa97666a7c877c79877acb7f867887b88a7c868b5a97c62
col08:   68754915467a95849594a454a9589aca6ba998b8abdabcaa9a57498bc6c83768cd499a99b58b88b2
col09:   26544467169489757b7b7b95a64ae657c896a48b7d7557a69879a988984888d8574d8589b59a8996
col10:   9739556756485975aa886583c8b76676885ae68ab86a89af8a99e78899877aa899b8a7aa86a76987
col11:   41124177568883789895ab957ac49a8a88aa858cac6e4377869978abda798a856858aa5986857658
col12:   737551646554a7631249696b6aca9a63ba49c86a6b679989cd9c69ac6dbabd97997b7a7b66897b86
col13:   756a57b96862679678c8599485bb986f6849685c6698a99d769a4a8a9a99788986558aa679675d98
col14:   62a8776585467724b68974652987888b2b3a99b9d9d89bcdfccc8b8b998b6bc468b577a88a855956
col15:   283475a965749699896477c798776798a488ca196c4fb7a9b688af46c54ac9a868ba8872598676a6
col16:   46817799726996b7459676949aa6978a8c48a8bd99c6d8d589aa77838cba27b7ab777975c7977975
col17:   58683368916478985f5999669488a96a858b79ae95b79b9b9d56878955b8b58ac52ab7b786b96786
col18:   82445766aa8696879355459867c6997579c534baacb53b56aa6b7998a6a7989b6b68669868985343
col19:   96726623786734aa6a84db59879a6c869a99c7bab74a89b798a7979858aa7899a5f9958888c84875
col20:   8836665b5458778a644aaa197989b5767ad86b976b6c9abc898d9668a3aa999b7c5bb8cc6ab36658
col21:   469613747974886896aaa5688797667bbf6ab687fd7698bc8985a998b87977b946897978957979b1
col22:   329ba379678889585953bab76966d6a77987b69797aaaaa9a6b937a7ac78c9b99a88b99c597658a4
col23:   375b47523788a3b6976796895746a6777799b588aab6a6964eba96587b9a8b7666a5b89ca53a6567
col24:   6283672888ab7566796bcbc5987598c899b89b796c6965989c6bb86a7788c96d679978b655447885
col25:   6866766556d45caab3a876a8bdbcba79ada7d6c96b9e9477c5a9988b9ab6a899b4a96e7696774696
col26:   58a65aba7cd4d7cab6c786d66abbb67cab9ad8da8e98aa6bbb9d9b9b6d793c5b7abdd8878b777b77
col27:   757364a5532aa97979b8dab8a4bc9b6bab9bccbaaab4aa985a996b9eda7a96aab5a985b978889a9a
col28:   566778a9a7457698bbb7acc6d9bb8ca79dcbcf7896ac9abda99c788d798adada94b87d8779c897a5
col29:   5386857879b7ab7a99d8f6a87a86ecffdc8bbacfc9b9abbbccc7bb766f9ca7aabb9c6879a9488dc6
col30:   759857699a5aa8ab57a7daacbaac9a6b9a8998fb6a7bb878dda9ef8baaccb7bf9caccab58e8b498a
col31:   66668b723bb697cca6add7996a88a9d989dab9779a8c8dbcc88af8dcbae7eda9999fdd8bab9cab67
col32:   aaa59a98675e95a6679d8c9adbc6bcb6ca8ba88bef9bab5efd8bc9ce9abdcca9ca6d9daa5a8cbdab
col33:   98498979a67779c8995586caeb9c98decb9cad9eebb9bc9a7cdac9aa7ac899afca88c587a6ac9ad6
col34:   949aaaa9b98556988c86da6bb97b7acc86a8ceaaadaec8a99fa8cfc9ddbab7aaba8aaaccab85a97c
col35:   a8957785acac6959ea9b8b997cebabdbdda97abfda8dbc9bdfac89eb99dbaa86c799b587ba899a77
col36:   8a79cb8ba678a788bb9b89b9baa9ab7cbcf6dc9b8bd7acbf9db99e8cedbce9c3c9d6c878ad8e9cba
col37:   8889c4d7656968b658a9abbd9ce98ab9b8f7ad7ab9fc8bdbca9cde6bac9d7d9ab8baca9bce779b76
col38:   9a57877a9b9bb9de9b8ebfc799aabcdbce8a7d9cfed99faadcacdaa7e9ccf99cbb78d8b9ecb9e886
col39:   8b8967279c588b7dbd6d89bcb8bbc7befcaa9d9ac9be9cfe787c6c9cc8ddebbaa77a98bcb9c7bb6a
col40:   7ab7aaa87b8c9b98b689b89a9abea99abe8c9fa9c8ebdbc9cda8efc7fafbee9eda9dfc887bf99c9a
col41:   886a55cbb999b5ca98abdeacc99c97ccaafccdbebcfebeabc99cd95c8cbdb8a6acaaecb9999b8cca
col42:   a8b99b8db7766b9e78989fa9cb99cb99caadaca89badedccd6bcc4ceeb7dfef6ca8ecc8b98d964ad
col43:   aa87a99cb73affb98ccacddc959dddfbebbcd99dedae7baaaf99ac9befd9cabcddfcecbd7d7bbec5
col44:   c76ecb7977cce8a7ca7b57a396acccd9ac79bbac7cfcc9dcc7abceba9d7ffbcacbbaaedb9cbb6c6b
col45:   fa67a97ab83a9a79a976ab77ddbdbbb9ae9e8c9acda8aad7bba9ddec9fa8abb99caa8be98ae9cab7
col46:   7adadcc9bc298b8c8b98b8d89c79cbaaccbcbcdceb8a9dc99abc6cccb988e9bffebc9a86bac668a6
col47:   ca8fa8ce3c9cf7dbf9ce368fb8b9dba7cc868ea9ad8f8cfcdaecccc8ae8e8bdbbba8e7ab6caa8acc
col48:   69b79bacaa8dc76779bd99ebabdfa76affcabcaac998cf9b9bed9bbccbcbcdbc59a9bb8afc98ab69
col49:   677b9baa67dc9a998adaa9bcfbfb9ac9fdee9b9de99eb89ddcaa8cd9e9dcdbbaacabbb9cbcdb8a98
col50:   a99b987ba99a9a799deebdacbb7debc8d9bcbafcdbdfdccfabbfeb9bfcbead99cbdf97a899bbfe6c
col51:   4845966993885c9ab9a82c48259aec86bbacabe9ac79a9cb8d6a96eb96dab96678ada9b988767b77
ROC:	 BPix_BpO_SEC2_LYR4_LDR7F_MOD4_ROC3
col00:   86668468956a694a3aab8a24b8d7ac579b78779c89a78b79c9867a49cc976779d97c9a714986b5a9
col01:   895c3a57887598a46d79aa69cd6cc496a89b97aad5989bc8b7ae8d9bbb8a7b9f9c7789b8a8fa6a84
col02:   7a338767f689a8784a876ec7ba4a9bcaaa98969b6c8ba7cb6be88b99cabf9a8cacd7c9694b869b95
col03:   67576aa95bcca9d9ba589a8a7b8984b6a9d59ecb88feca79bba8ba997ca5fdacbd5a7b9cd99c8ce5
col04:   78b9893c96c5da797a9dc7bbb9b797cd68dca8e9ad8b989dc8ccaab8abdabc8aaafa8567b98c94a9
col05:   68583b578d9b5b8687a96a34b9979bbeb782cccc7ba9b89997b7aadeb988aa78774b76a9e845a968
col06:   846a8847596598128e6a99589e88a966876d8ab886999dae7babac899978ce976f598d78a8689556
col07:   c6ca95c675b69789b7a9a4aba9a956798779549db8d7a7ad5bbd7548b7879db9a9689779c72a8987
col08:   aa58aa6786a7aa78ab55db4bcc8aa8c9ac7cada7d5db8eabbb9ac88e8b7accbba7d7c47a7aa8a884
col09:   b6644c956877675695a789a99a98877b96acca987abd9bef9fccbdbbb6efb947c79da8a88a96bbc6
col10:   78894716797a25994a975abaaabb949c9cf88d8ea77fcfc7c8cec67de9ca99bcbaccdaa9ac5b8658
col11:   9358b97498d75b566695a8798a7a9675ca693a876b99eaa6bbcaa7adabccda47b8e8b88b7b89a5c7
col12:   3b739a9584767c5389979b784aacc969c9aa767ecdeb8a4d959b9abfcbb8a9898b5bc69bcb8799d8
col13:   5b74885754775bb727897c867cba7aabbbb9c9a6acbd8f9995acb8b55ae9bbce9d77a3cb9889a799
col14:   48319954978869749689c7469b979b9a7a6a7d789aea6aaaac86cabba7ccaaa9acc8aa7d6aacb676
col15:   655666967a86498d586a9a88968a8999a69b9b6787cca4ba9777cb8e7976b7aab89a7a6ad9b89567
col16:   757465a88a526a6b6b85469997e9c989daba68b8c8cc7d8cbba9989c788be857ba88abda79989789
col17:   453586778366a268765592395db98b6a8a98ae6885665ae879ca7d5de9c78bb99767b961a78e8a56
col18:   4a4d58476369989a7db49b698956aa9b775eac89b55ac8f7bcebcd7a9ced97eaafa78b98c7aad757
col19:   ea938a557c527989775d8568a58a8a79b5b95ecaaba9a894a8c789bcf8a97caaad79998966a88893
col20:   6a969696d74832b5a8467a96b977c99bfeb9f9baaa7a8a995daafaba89f94499e7967a48b7ab79a4
col21:   738e3a4736593c6c75977a68ac6aabd89fb9b6a898aa7dc9eeb9e8c5adddda16b4bc64988a87ac98
col22:   7775b97563778994799c49a8fb389779baa9b999caa9bea9c976abced98778aaaacbaa9a7c885983
col23:   849b84956786c35c478a9888bb8cca89b999e7ac66c8ab7dbeabb8aa6b596a9e828d987e56767895
col24:   47a868a7646768679d447a99e8879999dbfe99ba9acbb78bcaac9c9bbe96a8b9a9ab9b689727a627
col25:   8684645965aa6ab87aaaa86adb699cabccdcb9bbb78adebac5a9b8ae6daab9a6bbb777bc7979ab19
col26:   5b798377ccaa5dcc88cabdbb7acc97ecb9bd79c9abab69c99a79debceccd8dab9b78eeb9c9c6baba
col27:   768958c965ba587bb97ae89c9fbeb6cbdd7c77ceed8ba8d9abed8bfd9c9cddad4b778ca86a88ab99
col28:   986a886b99ad9dcb768cc869ba9b9aebbdeccdeb5e7d8cbbadbfd9dbbddcbcebdc7ba87c79aaa9a9
col29:   59a7899b8778b999db95adeae96be7dcbf8dbceb9cdddaaabcc7dac97cfda96979a9789a898b9a99
col30:   688b876983bc78c89a9acbbe79dbbc9aacadebebbbfedc8db9aedfceaecbbabedc897c8daa8ab8ab
col31:   9b9d589c97bbad5abcd96ec7cac8bdbcceafacfcfadabaaffedbbcfdbebabbf98a9cc79898da7adc
col32:   b7649cb6999eab969a77898fc56aacb8c99d6bafe6fdc9cbabbaca9bebabfbacc9a9bac97c99bd9a
col33:   8baa794cc99cc999da6c8ecdab8cd99cca9fffbefcbbeebe58dfcddfddabdfa8ad9bc888b5ba7997
col34:   39599af4abdcfa788d9acecb69ab49dc9bbaceadcecddb8cfb98eadacabcbfbbe6a6b7a6a7ba7889
col35:   a89989a8ab678d8c9c8b888bdd7e8cebccaccaeb7ee8ffecdce8d8eacccad788a5aac59ab9879ca4
col36:   eb5677a9bd998aa567a9ba87bbdcdbacabcabbffecebe9cdc5c8c6dc8dacdebd9a7aa8aa7aaba7a9
col37:   99cb8697b5a7dc9fad5b9bcda76b9ddedd8f8fdf9daa9dadddcdf8cfdeadcebcd9affcc978af99a9
col38:   b789a99fceb6c8ecaefec9ddacddcdcbfabffccae98daefca9bfeebbcbbbfca9e7ba8b9c898a9ccb
col39:   8c5bcdc8994b889acac9c574cbab9d7bc9baffdbccdd8bdff9feaddcaccccdcfe89889a98d8d5b6c
col40:   699b79c5c7a57b8ccc98cb6dcd9aefccbbaccaccbacabfddfb9e9dbedfb9ccbabcacdb9ad8cbbcc6
col41:   caa9acaadadaba5caab897aad5bc98eaefdd9efcddadf6fceaeeaebdadeedcc9eacfca9abe976b97
col42:   7acd7a8bb8dbcaa9599acc9cdcbadacaecddeb8bedc9fdbcf9dfdecbeaa8dcbbeabb9c798e9c696b
col43:   b6aaa5b977b8d9b7c898cb9c99eb9aeeaebcccd7dcdbfeabd9eacca6a9bcca989ccebc7877997869
col44:   a868c99b9bb696d8b3b868cdebdddeac9cbbbfeedf9fcafefcffcbeade8fcbc886e85d8e9dbeaba9
col45:   9abb99994739b7caa97b88a7dbc8fc9aceeff59bbcdefef5c9eaac8fd7efdcbdd9bab6dcfbb894c8
col46:   5b9694acb8c9a9fb888bb9ddb9a8abc9ccfdfbcbb89efcdcfbbcafcbebc89fdae7bcd9aab4cac797
col47:   a7a8abc7bc739ba6aaeaaca9bb9da99baa9edbbcad6fcfcab86ceeadbcbfcb8c7968faaecda7b78a
col48:   5b949c9cd9abadb68bbaaeaaca5dddaaa9edd5789efbbba9bacdf7ddafdfade4acdeabba6adbaa86
col49:   c658778b7689c78b8fcbd9bcebccabafae678aebaee9efbd6a98cbfdb999fc8cbabcc97c78969778
col50:   9b9e7fabd5d8aac68cbf7b9dccafc7dc7bcc9bfcddbb9ec6bafefafbbcbfbabddaafcaddebba9bc5
col51:   2bb37c987b629b4767a8bcbca7c6ca8bb998ab87d9c8a7ea9883bbb9abaa957995b87884877b7353
ROC:	 BPix_BpO_SEC2_LYR4_LDR7F_MOD4_ROC4
col00:   45935526623594359785a26588c5477688bb6a8867a968675988a9895777579296d5c6b753595446
col01:   966867984a84758b7c899bb79b9986b6aab8eaabac9bfbba98b7c9d67a4b795969a9547497a37837
col02:   7864665a8a6787ca8d68e89d5779c9989c589b98ca798adbaa89c5b99bbaa6589567759494d79898
col03:   846486674548c76a48aa75795ab6a89cab878a7dc85ab94e74ca8aa997599984e8ba897676376926
col04:   e95575d1558c6689769a56b7ab89aa8e99aaacbaab8cb98ec5a959d9aaa95aba9bc446b597766689
col05:   9989783a99c88b97696ac895866ba6dcd77da8ab6aaa8dc96bbec97ccb69689284857794a7344978
col06:   47a18774585889a874c59997746376aa998f7aa9ac9a8b68ab796ed8779c9a878996a47976276575
col07:   98379754669796b6bca799a7c6d9a6db868c8ac6c8bbbca957cb6a7879a52d9c6abb64d576c7c695
col08:   7d8a39ba79a7a3c8d36786bd7a492d8998acab88e8a998a4c88b63685cb6c77a86998a8ca65786a6
col09:   6a8b7744378986b949bc99a8c548a99cbaba8a7bdd7a78a8889c889cbab669b3b9ba877673287a68
col10:   9928577d3646877b99899abbacbbb99aac9f76aa7aa98c95a9a6bb5ccdabbc69b93666676a388665
col11:   a77a56577f7a6c574879cb7b98c669b989bd7acc99daa9caadcc96a8999974696744ad1779599653
col12:   4687696b579a74848699c797665a96d7dcac86cab8a76cc88894ab989aa877b869475976497766ab
col13:   46c9484896697aba7a897a987baaacbc8abc79ea8c978d96ab9ad7d67ebac4cc958b97657824a589
col14:   83bba97a675a6b75bd7a6797aaaa988bdd89c9adcd67aabb88799ca9ad9868ac7d65574385666985
col15:   375897847657287c99a9997a589c9a7cac67adaa6abbf9b87849a9a7499d996979577798ab737675
col16:   3b9b445b87a76c89b94c7c7aaa9b8daaccecb9cc7a5e88cc8ad669b44c98a4ba846b6969a7a85865
col17:   b9963f59b7797999b55599b976bcd6be8dd986a868ad7a75b979bb688887b768a4687868469976a6
col18:   7548389ab57793688358b858839adb88aacba69f9a88aa878b8d928b6c99a7c747c97ca6985ca589
col19:   b97a86a8a66ad9b8ccaada998c59699d5ba9ceaa88bc9ab6ad89a79aba9a799b9a675b8677798463
col20:   5568c968478aca856ada9bab978998bdaca889cd88a869ba798a68b868a9767a8cbbb7566643852a
col21:   335a87ba87796ca988ab6a96b97bdaccbbbfce786caaaf9b88a6a96a889a679997c6958875519766
col22:   47a786868ab74b889ccbabb9b78a67c9b5c8ceaab9bbc746b8a4bbab98b58a9a663688876369c818
col23:   76a385a87469abc887b8a958dc8ab99cbca9abaadbab48caa9aa6b6c8c4a5bbc55768b86a8569466
col24:   84a457c8799a6577b8a8b97b8a7bc978ab995a8aa995d9b9cd9c9baed98ac93a79b896987c585768
col25:   9657a6a49659b8c97ba89bb99aabc9ba9c9b67db6b78dd9d7ceea99d8aeac864bca98979987748a5
col26:   ba8a783aa996aa8c59aa966a9babeae9cc998cfadcccbd8ca8bfc9bbdcbeaed9cbb78c68796ab9a9
col27:   a7987c8688a67bc8ab78a79d9a9c8c8e67f9fbbca7cac7bacb9ef9bf888f8cbcc9798b7998848585
col28:   a8ba6897dab86da8ca9aac9ad9daccad8debacad9dd96aeaba6eaccbeac8b56a697999c9499c3ca8
col29:   b55d94bb7c85bc978dd9cbb9d9ccb9ddbccbdcdcadb8bafedda9da9cbabbbb8a9cabc6975e988897
col30:   79759a9999c9cbb798dcdbaabd6ddecabc7b8cca87eebddaaf8bb98db8c4cc9acdbe76da9b9a8584
col31:   597baabd899aaca99dceaca9afb9bbaeeffc9ebaedbffee9bc7aaaaeeaaaba88ab6898cac677936b
col32:   98bc88989b89aeb987d689ef9cb9daceee9acaddd9bfbdbadcbabccbebcbdd847a98ab9c9bf7bb65
col33:   99e97cd75aa69adadaabaed6cba9b9aeaccbabbc9dd6aeacdcbcba8db9b89975bbdaaec95b986977
col34:   dbbae996849cb96becedfdeda6cdabbdde7dc9bdcacd5efd78c89aaaaccfbab5a99bc8899a8b47b7
col35:   987babb88c97a99cfa9bceb9b9cbe8feca7dbbc7bbbadb6aa8a5bdc8d9aad9cea87aa94949986a3a
col36:   6afad9b966acaac9a9fccaadaba8cbffdecb9feea98fdacb9acacbab9ebccb99adaa8bc327ba6ae8
col37:   d86ba99dc87dabd8dcaacbaabdfbaaffff9bde8bcae9defcdacfbd7dafacaacbe99ba79a668965a6
col38:   97a7cd9cb5dadc7ab85dabcdbdbbcccae8aceaeb6cedefc898acacabfbbba968cb97cd6669ccbab3
col39:   5d659548c79b67f98eb9aac9eabc8cbc9ecccdcd99ecbc9c9becac7bdcda9cbc6a8bb789cc6a9599
col40:   c97ba7accc7fdcb7bdadf9dbfeccd9dd8facfcabac97cebcee9dddace9cc79acbe9a7f8d98aaa856
col41:   bf98b8a9989c7bda79dbcafca9cccbcbdcb99ceddb99def9bccdcb8bbaabacb8cfca99bbbb88b98c
col42:   97cb9a954796a7ac8bcbda9babb9acee9cd8aedbdbda9acbe9de99ab8dbbabb678b7d9879c699998
col43:   6c9ddd9c889778badcacbbcdebadcd7dfbdbdcafcccaeddd9c8b9accfccadb7fcaa7acecd689c688
col44:   afec9889979bbf8e6cffbd9c9bebc86c7ade6ddfcacadffcbe9badeab9eb9aacddac975bb78bb998
col45:   ad6baaa9dca59cb5be9bcef7a99bcabbe7eab579eedd8e9b9bfc9cdaabc998acbbaad9af99abb6b2
col46:   69c79d7999acc7adc97bbda98a9ade9cd8beaecacadacceefdcdecde9adbad9b8bdbccaae699b5a5
col47:   a99e9a94ace98cddaafacaa5ccabe9daddafdbccedccf89baabbf9dbcdae8dccc8ce8a6a5ca58696
col48:   7799876aec56cea97ed9dcb89bdbcf8defadbf9c9aa7cccdcaededccfadc8eb5979aa67a87b7d697
col49:   d8a7c7deeb7acbad9cbbac99afcfccabcfcca8fef9aeb6defabdbb8ffca9bc69c69ebcabf99a8cb6
col50:   babc69886fcd97cacc9ccdbdddce9fdbafcbbbb8dfaac9bcaa8bbadfcebcc977bcd9ad99fb34a7a6
col51:   9b55bb7767dadc6aaa95873acccf957bb89dc67b8da99c86678cc66a8bc8d87a579abc5879548687
ROC:	 BPix_BpO_SEC2_LYR4_LDR7F_MOD4_ROC5
col00:   1314445757a9175bdf7215765a7965a6198696b877734da756187a61356b14248514786767363695
col01:   c6a89848b6a87bb257a73a7cd9c597a1d58c6ab6aaa99de8c6875c978bb991a9868ba4447a91c651
col02:   586d89488c5e5a496ed856b675c8ebbe1c3c89cf7558997d5cba9a3796b66674acb4653825667557
col03:   98199c46a927aa8987bbd6aa899974ec8989474bcdcd87ba99b7eb9dac8c8b824564a3565591b241
col04:   a5a4676aa86c68169484cc6bea7b3a58798fbcbb5a7cac8beacc88a88979bd9c6c4a4862f2455267
col05:   759857ba673d676b795987e4bb69c6a6d9ae96977bd7eca4a8baa787577d69694914599481443756
col06:   752c569759fd7b744dcda9754845c89bc498ab9cca98a1fb69cbdc9c7688b488bb451a5568876781
col07:   a7b658a25677b967a894bc66466586de8d85ebb3483cbbb3e79d74dbb464538985b854ab79121113
col08:   79792aa38743449639aa35596ed969bb84da974ebfd98c6886b74699d78c56898629645451254889
col09:   6723b35dcba8c65c97a69b9868df9cb9b8bea895b976aea6b859b86fb9a87ab576a5a94b43b27336
col10:   3aa852778995d74566675eb8734998c95ab844d59d7cba4a59e969699d76998ca9789766d7698371
col11:   4a37578bac7ab3778a79476558887d6d83a848c796c99c455489674bd6baf8b575874aa7d4b41642
col12:   185535855c515742eca9a8ed78b9c99ad84a9855d4e6f59975b785a92c974b99443a159435455581
col13:   9b58dd76956963b15839b68ba57ccb989d9aa868b6a78781ab8b669779671e235a48597367661813
col14:   383465867a4b87c78f8956a5bc67c64afe87ddb7c97b9b7485a7b2f71ab478d24968718947165373
col15:   61399b475788737d99564acc98a489aaabd759599de96ab5f764cd84ca78b1955837a68924745161
col16:   33a2ab66736648539839c689bb7a5cba496bd9aba7b8b1ddc87a6d5b69ba8cb668ba69a32647a494
col17:   b7647a443776857674468545bcafa7618888ac5f65773b956858d3523599c69636af788552659121
col18:   81888a3a7b13a979749988b6394b957bb8915bc7f4ad7abf5db995fc86396748a8c8892598779721
col19:   7b783468748aa78858667cd9ea5ed5b58975989c8299e8b8669b8a87aa13aa86fa4173a6a9714845
col20:   162925726566688ab85294babc7d97a375999f77d6c45a96976699dd5a596b3366354357115a3611
col21:   a39223165bd9979ab7ba862da95fa6e768868c99a2bcbbda65882db26c73a647884372b396b41161
col22:   775677646859769853957463c7adb96b4afe86d9ab9978cbad8926855b87b35949a2727551653a51
col23:   68488342985657746cf46872458a6ac93c8b5ebd35d9b4b5b99c7858e567769766576b1718568864
col24:   383627a161b786899da8648277978e57b7c86848baa7de77983c78a76a95546746ab3777566a2531
col25:   5459a24547555ca67d43a9d67b585824c98be65336b4a696d289aac9a97a6bd15631624253732161
col26:   32656b45698ac9d99d4acbfabc7acdc6d6ea68cb7c85a5dc9b7ab8999a99c7f8b6956c679bba6612
col27:   245b67b6a67ad98a4bae98cb9acaab9ab6d8f8c8eb9d7eea7b7989ea85e9b8783477a6b749695972
col28:   696593b97a885b9656d7cee77979ebfab3e899fcbdb8bcdd998bdebeebba4c4edccc67ab92647144
col29:   67282898c75878c1f6d9b9bcba9ba996e8bbae9ac6e7a8789ea777b8ae7affa967b695a6763c1941
col30:   9a86a9a75ba6daa8bae8e74fbdb9cdcceb9acb5bcb4a8fc988eb9c9bccc689b6ab5b46a662656955
col31:   c9ba79447bded48c98caf8c469cacdbd85cbbbba6da8cead99a9f89deea9c7b598a7ca4679815355
col32:   bb68a39ca6ebad9bcaedadaba6cd9ccaea9a6fcd678bdeedae5af98ddb6d957c89b983c969715733
col33:   8c57797b5d558b9a9d45cba6ccb968dccb8eed87e88acfb7868c4a4c8ea8c1b7c4585aa8a63d9681
col34:   dc17d8baba9e495b58a96a8ccbd8e7cab9eaa89ba77dd99ded8d9a5dbf9b927cadcb384ad7668526
col35:   33667a97457879ea88e999afb76d78db5bc9e158789bcaaae9fa9aacdd888a9e86eb885194346275
col36:   98b877b7868aa8de48859faebdf8da6b87eccaabe8df5dc9f5bac9796c77999cba86511773447176
col37:   667598ae88e71a894dfdbccfa6c97aab7987edf9e6878ddbdaa8d9cfda7ebd65b64da724ab394168
col38:   679a56c9ae79ab948dcabbe69b4dc99bbccff9cdbfbc97eacdcdade8eb79d5eab49a6dc5a98a6645
col39:   c98913e8a8c87ba57c9bb589facfdbdec97c9cecbdfa7bf8cb78dfaab9fe79992c7868a757164214
col40:   78956869877bcabc8c68cab78dae6fbbdfe8d8dedb78f9da79da8cebf8eca8dca9a5b976183b9b83
col41:   b4668cd49a8b8a9ba829a5cba9df9aabac7d9dfc8db4eaaa9b97c7b58c9ba9ba5b69a982b39f53a2
col42:   92bc7c83cc6a6762599cd7ecfaaf9b95a887e948fea78fad99ecea9ca9a5538877a92c1297493b46
col43:   ab6a8ce58fac71489659a9b9b9bde6bb8a693bcbfa8beadb9dba94c997b67f6996aaa95671786831
col44:   5589657b9daf386eb9cb89c7a79c788bb85a988dcacb57ad979fa87d6c477a5b9b57aa9198459142
col45:   7dc6a779a9b9ab7899fe85c8ba5cbd49dafccfdacdfa9a9a9edd7bccbad996b77a887a687618a911
col46:   67aba76b9adb487ed8aa6ac3aaa8fca976b6bbfe89a8f97fb8ec38ab4b9f4497cada65baa6753193
col47:   cb6aa96c8ab748868b6bc5e5efddad79a9a7e9b4bdfaed9faafaa9a98a8bb9b39796cb357a968289
col48:   bbdd7c9819ba49c8565995d698ba9bbaafa998cb99ec9ebbeaaaaccc9dcc8a696a5c655573453551
col49:   5789d88bb9699b9f8a89c866b98b8d4cdacfac6aebc786ca989f9e6cb4e5e84bc9358b5299753915
col50:   78a86787c99875d998b47aa7c8a958cc16daabbbd7b9ab7b6c764b5757b9cc5a956aa59183a849c4
col51:   858587568555584558d76457684788b97975969297da9587356b215745855539bb52356156111212
ROC:	 BPix_BpO_SEC2_LYR4_LDR7F_MOD4_ROC6
col00:   67556745c65647a4b4aa44c899b397869275a877448a7787b797a656aa6868668786899875458977
col01:   84716ab59d958769a89cbb99793d989996c5996aaaa9998b6998b99caa9ca998a458a7a9689b989a
col02:   77b877449b88677b889b67776885bd76967c76886fb864a569bab6e6776b79b96a9969978679987a
col03:   858786572896c989799a97ac96bbea677b6486daaa7d8a9588979baa7ac959967bdd969c7997bb6a
col04:   8167974986725574b6d7b7c98986b78aaa848c98c6a8799a564bac29b8e8767958b99b889996ba8c
col05:   9865429978561b179b9aa8a98758a89a59999966a88d92886a6b954a7a7735766995797aab6bbc48
col06:   868738897478cc979a8ba98aaabb6e9bb8b95797b87b7a59a86ba9bab9da96a8bd69a7a78a79dac8
col07:   885b754a78ca7d545a8948eab8b58a575b8ae8bcb8a8d89aa98da9a7a7bc9ac88788ae75a6867c76
col08:   267259847865cbb8b77b9388948aa75aa99877b57848a9bb5969abe8cb7ac99ca5786ba996cb756a
col09:   36898a66a5697668c97668b9b668499787a56985978b9b79876a977bb99648abac79ab56a66767a6
col10:   418a959987a498b958b5999989a97d8598b795db63a8dba867a4ad7c989a6abbcc88988b79c77bb5
col11:   9546569995785c6a7b7a65b7996569b9abc78cb8a58859b799ccd5a8578577659b97859d68698a58
col12:   642955a389a6b92788a6a7847a76fa76988aa68babaa9852b4aab9ba799b8c7a9cdbdaa97898a987
col13:   444144797a865589a986b6785a87aaca989aaaa9b75aba9973b6a387987797ba7596ba6a77996676
col14:   4665757a95a8ca7478ba9768b66887ca9ac9a79c8758ab98869ddac9889cbb88b7e5865797d699c8
col15:   3361846a67998a796689c9759b86a848a5b7daa9bd68a949869c7779b688aaabb9467cca687c7788
col16:   886473974a58999b7658aaabab949aada79847a65a498a96a589c36778c87a96ac49bd66a8677877
col17:   117842953ba8737a995985a77b9c79c59bca679b953a79b4aaa7899bb6659887988eaaa979c6bac7
col18:   86a764446486696aa678a8c7836a797995587697ac989a77a89b77a988a78878aa78a6b97cdab7a9
col19:   6347972a7aaa5a69767b69889985aa99aaac9baa7a7a938aaa5789898c7b89a69aeaaa75ab858c58
col20:   7664983a576d669ab597999bbb4968786617a8b697c898bb99747c8abb8dc655a778ac6887868a99
col21:   7565666788595874569866a78bb9a577a87d3a77a999896a8b9899666587a8778736669ab999a584
col22:   588a794756978868acac85699697a4475b77a4c97488a8969a669899ad5687c996896988995cdb7a
col23:   8867b3845a8976867497a769c8ab8796289cea6a8d7c4b9877687798988c8687b8897835a9a5ad98
col24:   8412a9958597b6c876c99c95776789895b87a7b859c9899b8885767889c66a8a875aa475865a8994
col25:   77367ab6da6885895b69cbbb7998ab99aa445c997a4988cc886888899a7b8869b8b89aa9698a7ba9
col26:   565a689469bbdb6879a69449a9c9a9bb8aaa9b8dcc867ba6d8a889a5abdae8888ac996bbcdca7da9
col27:   756989895aababba89978a8a866966764869fb8a7998a9967ab5dbb79b8a67bab95d6599a6b5bb67
col28:   887a469a77e79ab67ab89c69a7b7aabbbc9c77da94ce8a7a97b896b5b89ac75a887cbca9b97cdcd9
col29:   8853376875785889b595b995899c7bba89a8e9a5a899dbb9abc68a8a898cbb8a4a9db788979b8c8d
col30:   8a75977876aaca66c865b5bb9be98fcddba8bbaac99dabc8a7ca5c988689c8a7abc96aac3c99a859
col31:   8757a77caed8a87aa8aeaa79d7a5b858c668d7af7b999bccc8797abbbaab8c8accc9b89b9a7ebaec
col32:   87b8a99748bab67b8a98aab7a87957ad7db6bae9bcaf9c788e987adaa8d99f76c96a6b9abaaadcca
col33:   448784836d669d4689a9ba9b8caa8aaccbac7bbaf2cbacbba7bcbd7b8bda9a7cba8aaaaa99776ba7
col34:   18a9ab7aabbaaab8a899ca869a9ddccaf9ccd8ab8ba9adc8998abdc6abb8ca9889abe99bdbc8bcb6
col35:   377a88787878dd79a9ba98c97abcdc9c9b97fcda9c899efc69abeeb8add6d9a99da99ad9aa8885da
col36:   762666ab9b98baa99a8cbabc99cd77676cdbbbcacfac7daf6b69cbdd68dcd8abc7aba8c8a9be99cb
col37:   b658d5cb38cc8abad7c7badfcbaac9cfaa9bbbcebb8cb9e69b8cac6ba9b988aeb9ec6a9c68aa79bd
col38:   9b78d978a8b49ada7cb8aaa8caf8a8dc988aacc88cdf98b8ebd99e87de9a7ad8dfb9a6ba9bdccadd
col39:   b577c7a99a7a9c8876cb7a8dd488b54cb8c97bbfd8888698acacc8ba899bb8dbba7aacc9afc9ca7b
col40:   467a479cb5968dbbdac7adc99bcaba9dbbccbcbb8c9cb7abd988868ec9dbd99d8baac8a9b89bcaaa
col41:   bd869a6a7d99bea8aadbcb899977ec7babccdcdce9bbbbcd9fbddb69a9c8f9a9aceeb79baaa9bbc7
col42:   7946796e8b68d9a9aaab8da899ad9babdb7bc9dcca77abaabbabb9cbbc99c7fb9eb9adda9a9ab8b6
col43:   8bb899a7ab97a77a8bba68edfacabafdbed89a999b9caac7cac9aba7ccca59bcbde99fcfc88e9b9b
col44:   969aae59aaaccbbecbdb8d8bbbbef9aac998989ecbecbcac9c48bac98ebbb9cb89abfdb6fae9ca8a
col45:   6787796db6b89886c7a97ade98ac96adbec9c9989abbad9bacc6dba6dabbc7cb7ccd8d89f9dbcaba
col46:   668c7a79c7dc698e679abbcb89c9d8adaacdecbadbbdba8afcc7bc9b698ae97cf9bbb8bfce8ced89
col47:   6eeca79c8d775b86a6a79cbb9ecaccbc6da8becccaf96a9aca9e89eee9a99f9b5a9c88fbba8dcbac
col48:   5788bb99755a6cc688bb9c999bc9f8ccb99dbd78c79c97bb9dbecacb6acde899ebfba9cdbbae58e9
col49:   97baac7fca9689b8acb8abd98ac89c8abb89bbadc9a9aca6ccbab7cba8c98adbdb78dcf7bab7aaaa
col50:   87c9cb7989b8caca89c7aba9ccbef7cb88ecaeba9fbbbaa9dca4c9da8bc5cac8f8ba998dea9e9cec
col51:   658a7548ba778d7966ca648c778a599c9b788c98db7bbf75bba8e97ca98899888a99aab787a7a6b6
ROC:	 BPix_BpO_SEC2_LYR4_LDR7F_MOD4_ROC7
col00:   8a748aa9787b588685496a968876aac97cd6c7c69896b99dc5dcb6668898cba9e9baac89eabd9989
col01:   b4839668d49b9989b6c9884abb779cb8c9c69ac6ba879b8b7a9bea74fdadb9a9a5acb9dc8d8b78c8
col02:   73815ca8789a7a4a98b958a9aac9bfe537be9cb6c8aa796a77a8bcfcba9b9babb98f9bddaeda8997
col03:   99577758966598acbb89aa5b856b864ada9eaac798adc5eab8bcecacb7ac96797b9cab57a99bcab5
col04:   c6da8978b68579b76a49848cb7ab949a8a8ba9779b8cad99c9ac9d89bbc8cca7cadadab8bd8bcb6a
col05:   865655877a978789c87999ca7a9a87abce7ab79b9989d8aec599b9aaabd7b6dd9ad9d78d9bccc7ec
col06:   963687687887857888ac99cd87bb9aa89ba67abbbc98bbcba78acd7bca7c8ba3da999c7d9ab9dc89
col07:   8736992aa41989c96aab967b7bacbd8b99b9cabd756c8989bb7a94679a7bced99da7448997b66aa9
col08:   a878a88376c9ca6d675aa677a899d899bbae898ae7c9aa856c6cc7e96be7a999daa6a6a89d79b5a5
col09:   8979789785b6aa9b6ac8ba98b8c7bc8ca5cc9b9ba8ad8ac9aacac985aaaa6d9dc6acbe78bbc978dc
col10:   a8889578586677a777999c687b8999fb997ba9c8aaaac89968a7eaac9fc9bcda8b6c77dcb7cbacc9
col11:   89938579ac18996a879b9c8699aa9bb66d989bba9e8aa7a88aa9b7cac8b9e9a8aa889ae8c6896ab3
col12:   7a788a7cbab688784978b77dac9999d9ab8bdbbbdf9ab889aecd78dbfbcbabbb6999b786a99b9aec
col13:   d558467859a659bc7b7679d7a8ba9889bca8c89bbb4acdb988f687acb9c7999b9cc786aaa86b5aa5
col14:   5785b395a6ca8a6997a8688bc8ab89aab988bbaa9896b9a96968699cfb9789899a7bdc8b69a9aa98
col15:   8476c79567468cb8758384cb6ba8baba7b969cb5b8b8989b997969cb895aa89a5b9987d865b6999a
col16:   d515957b86d77a4d796dababc98aab9c96a9aa8ab7d7cbb84bc8bc877ac8babbbdc7abaa8bb78fbb
col17:   74cb8bb8374668962974947b6988aa9a58cca6c6f577bc69679a797ac6da686c98877ca6c9977185
col18:   58b859259844926979b6865ba8ad4cbabca8cb5b9eca5699899c999b99989badb988baa8b8da8898
col19:   a849ba776676a86988a9bca9a479c72b86cdb8b5c89dc37d9a89ad9d8b8a9b99b8cc8b6ce9ab9863
col20:   7665726895896644577a74b7857ae8897ad9a89b7669898abdb9a7dacc5ce9eba7d89a9598adcc67
col21:   66977876a78985998a7696bda878ab87399cbc99b879f7aa77cabca7d7dd6a999bbb8798aca6abb6
col22:   9689a579bb3bc9796b8349a7b98baabcb685869b89bcba89798c7ab776887dd9c989a5889797d9a4
col23:   78a8a69a674479b99859baacd979467d8695c58aea84777579877866899b9b7a8dc7ba899cd77479
col24:   d975763b6b755b9b96b5b97b598a796bcb888b9af9a9a9aa466c87d879997a78a8ab93686a6c4ac7
col25:   95a499a98964759c98768999ccbbbab2778797bb859ad8b997998ab8799ab88792a99bcb87a7c994
col26:   78681a9a9999ac985a69cab8ccae8697d9788aba69add9bf4cd598b898bcb99bc9fec99adabc9b7a
col27:   89577995698dda99b899b99bf9cae9cc9ad9aad6bcaabb8dacba5b8ab78ab895a75b9daab9bbbcb7
col28:   9a72a79978658d77598ae8bab89799d9acaa77cb8aa9cdabcdfccbc6adcccbb8e9bcc9aafbc8add8
col29:   a84875a9d5788ee885dbba9dbc9cbadb89a9a6aadac8c8a9fa68c88aa7ddada9ca79b9bac98d7ba5
col30:   76a887aa764a6ab8abc8ba9af989e7e3bba6b9da8986e9c7abddfd8c979babdcbbb69ec99adadbd9
col31:   8ba595657c99a6878a948b9bccdabe9ccbcfd99eaa7f9babda9acaead46cabceccd7ca7cccc9cb97
col32:   7986bbbbac79a9869ca8d8efe6eb7a9b9ac8afcfddc7deb8bbbddcabbb9fa9eaa9ebc9aa889cbdda
col33:   8799b7dbafbac783aacab7cd9b9ac5b7cb7debbd7bb8a8cabbe98aacaab9ddd78bdffb999dc8acda
col34:   53867a778c67b789999bc9bd6d9cec8cbdc7cbccb8dae9dcd97acb7a5dcc7acfabc9a9bf8dcbacfb
col35:   aa97d9eccab88988798aa9ea8789f9bbcb9a7adfdccadaaa8db8f9bad9ebc7fabac8cbaf996bcffa
col36:   ba98d7ed6bbaab9ba8cd797ccbdbdc99c897ccca5c9dbc6cdb9d9aaaebccc9cebc69dacbab9ddace
col37:   766d6672599bbd9bc7787a8dedaabb9e9d995d9b9ace8ba7faeb8deede99eecf9cceffcdaa9bbeac
col38:   a979847f93bfc99c7bccbec9a8faabca9dadc8989cf999bdcb7decaafbbbcbacaccdbab68fb7e9ac
col39:   7b8cd9bad99adcaa7bced6bdaebdb9f9baac97bb8fcbbaabacebecbddbed8bacb8d788fb6adc6998
col40:   8a979b6ca8598a95bf97aaaca98c99899dbdfbcb9b8bcdfabcfeafcddaf9a7be8bbabcb9bceeb9ca
col41:   868b6a9aa9be98a5bdeabdbb76b5ca77c9979cbcf78cace9cc9b9ba779cc9becca8996be9aabec9b
col42:   c8cca97cb8acd5c89b9dee8c9e79d89ccda8abdfbac9bfc998a97c95c6ebefca89bab8cdc46cec9b
col43:   949aa57bba99888ac98a89de7adbaca8cd9b7d8edbbe9efcdb974ccfdbe8a9dbf88a9ac9acfccc5b
col44:   798887a787bbb88a8ccb977e9cbbfe8edb7ad99ccbc88afca97b9baae886bcecabfcbaae88eab8e8
col45:   869aecbde999d89b9dc6bf86bb787acabd8b8cba9ab5ea9c8cfab98a89abb8acb9fbfdddaddcabaa
col46:   67ab9a78cb77979577c59bb7aabcadaccbcb8cb8cbdcccbceabaadb88b8bdcbf9aeccb7adaa8fdc9
col47:   bb879ad95f99daeeb9e9ca5eb9fa5a7aaeeabbd8cebcb8e8fcecd9cc7dc869ed9bbbfb7caddadaa5
col48:   79b9c696bb967998ccb98b7ba8ce8cbe9ebadcccc9c9dfdcedf8a7cebbbab9eabcabbeaab8cebedb
col49:   b948a98986bc699c7ba97ba8fc46ccc8979cbbc7ebacdfbc9eb8eaadd9be8dc9eadf7969aabd9a6b
col50:   a9ab99aada77d9b7acebb96aacccba8a8d9facb8a7d6aa89e9cedfcbb898bf999ebbbd9ddadecee9
col51:   cb99b6665b2667e8778596958b8848ada87778a656e9ef79bba877a9ed68d6c868886ac78a9ab8a8
ROC:	 BPix_BpO_SEC2_LYR4_LDR7F_MOD4_ROC8
col00:   26877779547681a888664697379a58ea9946a98a37aac87a67abb3b58475a4979f785ca854648987
col01:   68b9c26ac3769874b6a49979a3336a885a6898989b9a6779887865987754aa7b87b87a9cb3c8558a
col02:   79a39a687655b6b767b8a7995c76c789999b97487b88e67749879ab8c9aa9579b9abcab796b86687
col03:   887db257398a97854789c7a6cac9963b6ada973bab987cbbb67c888a5c3999567abaa7fc7787b9b7
col04:   74a963b678b5585b7dba79876589cbb87aca959799ba9a7a67e9b95c6c3cb8d8f867b8d8b89887a7
col05:   4679a97a66ab46b8bba378855b856ea75886e8779a6a6a9997a6c7d8a78ab597a6579b88a987a7aa
col06:   b5a559b757a78dba7596947757a7875a9997ad9a77e88689695fe5a7caaaa8ab98959db8ad7998a9
col07:   754868ba7746797c99a98b69a9caa9aaabcd86b9a799b7a9cc7ba6887b6ac6cc691686ab977288b9
col08:   2a5a84756aa87a665899b6cb78a8c78c5abdd8aa975a79b67aa79ac96a8b6ba8c9d9698c84bb9bc9
col09:   657b63ab866797987849894aa69689b8c6c78b78c866b8dabbec588b948b96caa589b9877c7b8b86
col10:   4b9668391ac33755679b858a96baaa8b9b837678aba9bd59a7669858aa9c699999d7aa4c8677baa9
col11:   aa686b779c77685675a5a4968a99896cba7a7bbc7b775495ba678979778176768cdb8b8b46a8b97a
col12:   687768bba9b968749855a98ba79ba789da8cc788a675bb4b6ba75ab8dc9ac92694c8a9dc9bbadaba
col13:   484aa97b98bb968b66625967d579a8a99a8a8c998678c988499a5ab8dab8baa7babac8b9a977fca5
col14:   33773b85788479848978a679a9ab7aa9b57899b688a989a8b6bdb9886c87dc49aa9b6b9da988f6b7
col15:   465674aa386883b792ba8a76695978a687b9376798667b9969c7b99ba72767a698ba65a886769599
col16:   7699669855695797c45a72b5aab9898bc87a8984dd8a89b986c5a9ba9b7a85c98e86ac7799788998
col17:   38868aa877777b638894b989789aaa75c98466ca97c62878689a63e68cb7867ac4a8b9465a557866
col18:   7667a696866c6577855c9a98b565bb99778a8e28737adc89968588ba96a966979ab6b8a8698acba3
col19:   965666756b9699476246a5aba978dbc94bc499ceaa8487b888c7a8cd577893b989ac888b7ae7cab8
col20:   588677786758597689a8a3a678869589794a6a8c9b599aa98a95988886a7b7a8a8bb98a9ca794978
col21:   536796768957b8b84c7bb897c6bb989b99b779c6a878a89a8aa88883b9da779c6998788aaa5a7bc9
col22:   6578b765862588a8b88d9a744a446999a87ca8998ac98a7a69b6aae96a7aac99a4967967777aa797
col23:   459276899969a586b899889777b8983c7549a89898c5bba88a888fca88b87dcab8a87abb84668897
col24:   ab78778a69687787ab7969a8a95aa578b57b7694b7a7aaa9a78889869b79f878bab5a85aaba988bc
col25:   4792858279968978c896c49b9b697ab989a6c89b9baade8d998b59b6588789cb98c9c74b836ac7a9
col26:   6879b9cb95546ab9cce9aa99bbaba8598e9dbaceeadb877bbd869b699c986aac88f7ccac778c7c8a
col27:   9556a6c88b95ba5aa8a89c9aa9aacbb7d2597aacab888878da9ba6baa4baaaa5c8b7a5d6ba99998b
col28:   89aa697f9987bc9595a87bba69ae8ac7bcbcbca97bba6abb79d9caaeaea9babcaaba959689bb8b99
col29:   789897768a84898adb87a48bddbaebbaab99a9abd69baa97bbabcabc5ad9b9aa776c6ab97daab997
col30:   967687898386da7b5d99885bec8977ea9c96b7aa8776fadbadeacbcdfe8cbf8ceabaab7d9cd7d6ec
col31:   9aacd8abfbc689b6ca89dddcca6b966de9889dda9afd9abadfaced9faaaebabed77ab9dcc9b8b6b8
col32:   6a96cbcbbacc8b9ab9abe999cd9ad998beedca7ebec8a799869dacb9adbfb9a97ebbc9d9caccba8a
col33:   877c9c688b95c8a78a989dcdcdab7a8cba89abb9cdc9fbdabf7d8dcc98badb9b97bb77aaa6b9dc5d
col34:   8786968c5b9aa8ac8998acbccba99bd7ba8b9edaabda9ccbddca9bdcddcda8adbe8bbbfccdd9c6ac
col35:   889b6dbac6a9b8bba86ebb9979babacacaa9b8dabdbba88bd6c7cab9cda99b6ab8c9edc8bfca7abb
col36:   55ab79a9b7c97998b57ba3cc89bdbaa9aa99a677addbdadeafcdddbba9d5daba9dfef7db69a6b8bb
col37:   7aa9c87e789bc9de9899cb8accbcbab9c5accbbb6b9d9f9c6a997c8cfbdc8afaa7aabdb9dbac97bb
col38:   658dac6878b5bb9b8a9ccac76f8a9dd8dffebfbfc9bbbbdbbadbcbedbed9acc9c8eb9dcb89a6eada
col39:   ca6989b97b68afb7c87599ddebac98abc6c87c8eabe8f99baba96ccada9ab9ddb8d9e8ebb9b8abbb
col40:   a99b899c89c3b7d7a9a9a7abcab9beccbdeea69a7acb97dadbaecdcedb9bbdc7bceabaa8ccdc9dda
col41:   799cc9babbbfad9cbaacc68bba7bab8aeda8ccabfdaecfcbfb9be9f8ebda8aeaceddc9bd8ccecefd
col42:   e97baa88c9b9cc8dab95bdc8bebacb9bdbde8bcaae9aedc9ddbcdbd89cbacacdcc5c8bbbed77a97f
col43:   6cababbdbad8dbcb8ba8ab79ac9ecaceb7aacbd9cde9fbeceeabbbdabcbcddd9dcaddd9e9eaafab8
col44:   9cdae8995aa6aad6fbb9beabdfaabebabd8ccafdcedcaadc6afcabcffa8cdfadcc8fddfccbdceddc
col45:   b8a8b8a9b8bc99aab7dbdcad9b9ace9bcedecaead5b7abbda9b7dea6ba89dad8dadcd99aae87f9ab
col46:   9789ab65aa9bba78d96ccedbaafacaddabc9b7ddcfbdbab9cabdcbcb98ebde99d9bdffbc9ebedec9
col47:   ba9abb9a8ada99b9dc9ba8cccafcccba9fdbbaebcfddadabcc9f9cb9dcd7eedc8dcfb9aacb9fb9db
col48:   eaa4b6cbc7ca9c9cdbaaabff9fedb8eafff8aebecbfe8ce7fbe8e9a5ccccec9dcccbbdeecaba9999
col49:   b97b85d9e9b9ffb88dc7bdadcbcceabbba8ecaaddaadecfedbcbafecc9adfbadbfdced9decaa7ecc
col50:   abb7c96f8cfaade9ea9aacbccb8edbcccacdcebfbaadfaddbbfbfcceccc79cbcefbed9c89ef9dcd8
col51:   6a9866789a76a6a6c794e8996d9c8bb8bbb8baa8bcba9da9cbadceb8cb5accb4bcb6af8c8eb8c847
ROC:	 BPix_BpO_SEC2_LYR4_LDR7F_MOD4_ROC9
col00:   415572b655755ac565579b658b867575ba9759b57b6a68a7b6d9a8979637a89c66bb7586666a7854
col01:   44567675999968657a7a39848c8999e87cb8b9cbaaada798abcac966d7aab887989a947b69cb96a9
col02:   463499799625888896c73885993589577a6abc899a6bb7b99ab9b9aabcbc698e6b7a8a5bcc86a767
col03:   486ba7a85799c399e8597989a7d789d898c89d66a8b76b8ac5aab85ac9a775da7ea8bc9a87917799
col04:   677576572b74a79a95579821acf88bbad9a8adc99bd8b9ac966dc76ba9bedeb9aa8ba7c7c89bca84
col05:   2927538a7ab846639576a57798c9ca675b46a7aa99bac8ac6bcc6aaa898999e7ab9aaa6a68a79994
col06:   a5559768697a98da9669698989bbaaba77c5888559d79cd5bac78aaab8a7a7d7bb7e4de3c93b78aa
col07:   89a9a66a96998a75957a79ba58492aac67a96a789bcaccbbb7fc9cd779a9cd7cc8d9acad899788b2
col08:   76288556b858665215b58b97b6a85ba896798b98a988b998b88aa8ac889bceea9898789aaa6bb7c9
col09:   99643a389835a99a78a773956a6bbbac9b5ab8a9a976ea9ae7b78ab68ab89779a78ad88a9887ce99
col10:   5495668925b73968996cba86495878a9b98dcc7999ba7ca6d98bbabcb8e8c9aababd99b875eb9a46
col11:   a66787546626979d88b89a68989adb78a978cb6dc89a98be97a85a9a86b698799ba8987694a7bb69
col12:   28996256546676897831a7a89b68a9a6bb9b979ccc8978aaaac88a7996da9bcd88bca79b88c57869
col13:   648479a659a897b859999a7899a4c95b89a968da69baa83ad987bbac6996987d6697acb58687a98b
col14:   8626465682355b859587849767c5b99bb97cbab955ac8bab8cc99acda8b4899ba86bfd9774988797
col15:   74984a81584a9764789b87aa678aa86cb8e89b9abbb7ea9e9898aaa9a99b7a986a798c7b8559986c
col16:   6685c5a7968676a8688999b697a88b9e7ac9aba7b9bab68accf9447dd66b8b8ac879bc98aaa88bad
col17:   56176866664428b94db88346427b688a6b8ba8a669a68e989aa8977a58afacb7c78977c5b938cbc6
col18:   346476476a485973a6358b867ac68a9585c9787c589badba78fcc877868ae99a89797b98974988b9
col19:   854388951455b8b7f78c779a466cedaa99c635c86aadab5b65c69c8bab89ba8799dbc997b9b99bb8
col20:   673644688669436846bab89598686afa69a7974ba9bf785a9b75cb998a9758885969898b96778fa2
col21:   34756426a898b99c248687b76849a747a96779bb98d4aab9bc6898989cc8adc398a9ca97b888c586
col22:   748344661888796b966987749789b9a998a8933589baaacd79ad96c996bb9a99ac6ca3a8b699c5ca
col23:   679781784575654b697986b885ac98a759cdb9a77ba8bab9d7aa658b9c98a99897bbac4a97993889
col24:   76817b4b8695c85848898576868748898a8ca7788878a7cbcaabb6877aa886a36a769a98779ba8a8
col25:   667266a96a1a83669a6b5c89a774b7d7a8b79a9b5a6cabca4bb78a9c7db99c9796a75d87c7836869
col26:   64a797a9ab79999996bc7afa9cd59e6b8caec9cbc99bca9b9b9ebb88cba796dccb95899dca98cce9
col27:   b75844758778d7aa8989869999b9b9a6dbecdba98cede89ad8abc9bc7a9aacb74bad4a7bc889ba9b
col28:   575695db846bcbcb86789bbc9babcf89659debdbbfbcaabdbcd696bb88acb9ae9cebebbaaaa6e486
col29:   57a87b8994a4e6a6a8a7a699cbacbb8996c7caaad9a9b9fbb98ebacb9a9b8bf99bacd49bc799da86
col30:   386a66978aa8667a8b779a9abc69ea9eba4c8c99abd87accb7ba8aa9987edaabebbbad9ca866b69c
col31:   64a9885ec2996b6b7dcb699eb9afdd96eacbcb899c99bcfdaaabcaa8b7cdabc9bd6c8ca9b979cdaa
col32:   67c695ca21898ccd6cbdcb87bbcb9bbed9b5bc9a5baab8bfdbaecaad9bd7d8dad9a9a7babe77ec9a
col33:   8b7b6d76aaacc7658999bacac9b9badbb6bae8baccdcfacccfbc8e9bdcbe8ad7bb6afaa9d9aab8cb
col34:   78884a8b99a6a77988ba89ef988cc9aecee8acffe9cc9ccdaa9a99aa8acccaca5d68ae8a57a8b5ee
col35:   c7793486c97a9b79a894b9b7ebdcaa5bbbadc9baaa8dcaaacbd99af88f9b7bcaa8d98b9bbb9eccb4
col36:   58c69b2bb987a47d69cc99a7b6fbcc8aad9a9acca7bcbeac9efacbc9abba9adaebd8c7a98979baca
col37:   9998e696cab798c7889c8ccd69d5aaccbaaacebdac9cfadfaaafacbcbdaaacbdb8abab9cdec6b7c7
col38:   973ab59ac8a9958a979b87b987c67aaaacabcbdccdddecacabaaa9c8dadddf8eacaaccc6d8cceb89
col39:   b9a8b2867bbd88caa9ba9a9aebbdab7ed9dca9d78cbabcdbdfcce8dbae9adcbabad9db88a9cbcaea
col40:   685a5888957aa6cc89bbbbcaec6ba6afd8accfdcedcb8996da8bfedabbabecc9cdc9bbecbbabcb89
col41:   3c589767979a8dab87dbaacbe6eaa896d6ddcd998bbdbcd8a9bbba9a9e9bfab79bd8de8daabaddad
col42:   b758997598678cbcaf9cd977b8bad9cbdeb9bba8a799beaeaaba8abaacedebdb57cef8aaacbacda4
col43:   93ac5778b9788e7797aac99db87ab9bc9ec9abbd6eb8cc8bbdb9b9abbdebd9aaabdbe6e9b9ababdc
col44:   4c6b6b6549999c99cc8bca9ad7c9778ba9dbccdddcfdbfcbbf9bdabdabcecc897cbac8899abd9ab9
col45:   958974a869cb7979ad98a5bff89bcc98cdcbdb7cbbccbbbaa8bdb9be9aafc9dac696bcccc6aee886
col46:   a786998a74b8799e4a9b69a579bbb9bbb89ba4baf9cc99fcca9bbbec86b9fbabdacb8db97c9bdd77
col47:   65575975aa8a7999cca89daf9cc8cdaac8fcac88be9baac889cccecbaaacccc5cd887adcbf9b6c87
col48:   4a6589b5965985877b7b5abba9c9acbbabc8daab99abf8b99aaa7a89f8ccbefcda87d9dcb5b8bcda
col49:   768978b887acaca7abb8e979badbebcc8d9d97facbb79fbc9d8dfda8ecdbafd9b7ab9978ca7d9ac7
col50:   499a8169b98d3f83af6a88aca9d8e9aacf8cc8bbacb7e8dbdfbecdb9c78cca9aa979b69dbc8e88da
col51:   5b5976555879554c9958ad986eb7aa9968849cb8e8a9a9a8aaabab7bba4e8986bd58bafc77878b8a
ROC:	 BPix_BpO_SEC2_LYR4_LDR7F_MOD4_ROC10
col00:   4176a6467a567985768c746a864b64bc68b83ba677c989cb4b478a899c7a487879775aa76ad4a7a9
col01:   14a786a983588b6ba856c69b8a69b8b95aa448a95d9ddcca8bbabab88a7aa889cbaaba8768b55669
col02:   94d589caa6a479997484878797aca69a7c7c5aa98adabbcb9b779adba8acc7867bba88b745b87a92
col03:   a76a766aa89463b9c9458ab78c279b8398a9a9a9679c4a79857978688b985a648ba9a752b8769986
col04:   5977659a4699a5a8b67a5ac778a99989ebdc9af69c94c69ba8a8899878a887b6b9bb7b78a998caca
col05:   a26887758b8b997932679779849def9968e899cc98fb8be86a9387c69aaa589677988a9ba686a569
col06:   596596886575b33b67a9939876488a89ad9794db87bbb9a89a9abc988eb9c96969b79a6ada876b97
col07:   8369a46a47a86757a8a778b749a87887ca9ba588ad8a9bb8eb956b7a8889a699b7bb97abdb996ac4
col08:   896984aa97abb675496aa9488b599999b9abfbf68b8689a7b98d97babbadcc7a87488776a74ca6aa
col09:   7652a27a758a668837bab598ba7a5ca7babb9b9a9578bae9c9996a98568bc77bc89b587b3688a6a9
col10:   575669aa879779f976a8b89a78b7a577c6a89d8db78a78d7aa98b7b7a77a888ccb9568b999aca6a6
col11:   56748c347aa8b687585a84684ab5997b9b9e97787978acd89cc6caaaa65aca9acb8a98985798a879
col12:   88876887b668bb5caa68b3abcbcbc7cc8ec578eb78c988cc6bba8ba9878997895b9bb9d98b8586a8
col13:   67769778a68c6c59866868db78a879c59ddabfdb7c7acfb8b3ba9bf66a88869977c599ab6a849bb9
col14:   9658988cb8a6869a79775abbcaadc878999accb9c8aca9aa659cdababcb8f979888947796a99bd99
col15:   59b55a6a7a794885d6a68b9cb7ebdd888c8878896cba8a7d658b8b97d8a88377896a678b649a56ca
col16:   4886787486748788c7da99b9c9bb88c8598a8aa889c89678db98cabca6ca68aaa9a7b99ab57878ba
col17:   51768c79abb78a645c8777958bb8768bbba9a878bbb5bbb6a9d889e9a58b7b7988766966b7ea999a
col18:   69967a396aa4779ab8a99685b64bbaca898dacbeb788756bc9b5779b68b9aadbdaacbbb998779a7a
col19:   8355977bb65b63b7897878a9ada9fc7ba959976cc6a68ca889ababa9ab6bc5a99cbcabaa597a9968
col20:   b8754a97968a6969c4969b9b8bcada588d78767bc978b7d9d797a8cd96777ca98587ac8bab96b9a6
col21:   98666bb779696874b957936c9bb7ccba979eabea7e89b978cd7ac9c8ab89b77697abb687bb678776
col22:   6384d87869957969ac99759a7c69c99b88a7a9b9aa88c8e58abaa8ba88d9ba7c5aabb5b8693a77a1
col23:   53695969796667b89ba9a978b6897a77b898c896a4b89bb8ba884798989bba85ada89698b36a765b
col24:   8c567b86972b5a79b6798b8b6abaab9daa6a9b8bdbb65776dbadcba86babda999aa8a977d6779988
col25:   8aaaab85576ce666ba58d8a98aaacba9cb87d9b7b89ba9c79c9984d76d6a9ce775985be963d7a6bb
col26:   a79c856aa8bcc57adda799b9a8acf8c978bcb96bbd6da9ccb5da9b7dfe9a7aa89aa7ccb8db9a93b7
col27:   94776c5997aba7879967aa8b5ad9a9acadcc999a996da688c9cc9b8c7e6ba9a9e6a9a7b8fa7a9bd5
col28:   a998c7abd987a999ebdad9aa88ca9cac98cb9ecba9bd6aba89c8cbca4ad9abdc89dadbac88babbd8
col29:   7c9ab889c9e7899c89b8acab9cab9aab7ba99caada8eb6cebae98d9b8c996a8b869d9d89baccd6d8
col30:   76a8aab6aaddabbac8e9bea9c6ae9a7cc9cb99cadbf7dc99f8a8cbbcedba9669a9a6c8aa8baab8d9
col31:   7a958b9bab8abbb7b9ac8bb9bd96ad89aa7bbbbada9ddcdbdcdbaeebdaac97b9b999c8ba7a99aa97
col32:   bb9cd88c7bdc57c8cabc8cc9b98abfbc9cbeea7db9bcadbb8dceeaaafadecd9dad7d9d9cbfdb7bbb
col33:   796b8ba99967976acabadb8d88fbbbcabce9cc7c76cbdbcd8d8ceccababd8aaadca9d8babcabc9bd
col34:   997b99fae6baa9b7bc4f89b9c9c7dad8edadfdb9c7accbaddbccacca9af77bfa9ab9cafaaac8cbdb
col35:   87959cacc89aa879a898b9ba898abebbf9caa7d8dadcb99daca9b97ba9d9aad5cbbbadcfa7e989c7
col36:   ac8b99977cdb8dc9c9bda966999d9df9deaa77dbd7bbbdabeffbbd89ab9c99c9c89abab868bd8bb8
col37:   b9bab9c72869baba8979cc67dbcaeaac99c9dacfbddbbebada7a9c9ba9ebd88bcbbd9ccb9cbbd9cd
col38:   adcb9bd859baadaefb96abc8dcfcc9d8abbcfe9aa9e9cbbcaeebdacaf9f9a9eacdfb9dcc8efcacf9
col39:   a8c85abcc785978b9bd9bcccb9bcdceaabbadf9b89cefcedb5ccfbad9ce7ca9adab8aba9ca9ac8a9
col40:   8cba9be77a79c4a97ada998afccdebcdbcacaeda9cccdbc8c8ec9b9b9a9bccd9995cbbdef7cb9adc
col41:   cbdac89da7b8bcca7b89cbcdcaabd7fbfcbaddbdfdad8b8aa9dadbdfbde8beabbbb9d9fbbaccdb8c
col42:   ad87b779c779cbcadaaccbdb8d9dcebfcbeeafa9d7fbecfaebb9aecc96efaabafa9ab9cda9fcbdc9
col43:   97a7ac88becdcabae8cbbb89ddcbadcbcdfebbfecdcddfbaa7d9ffc9d9cfecebbacc8ca8aae8cd9c
col44:   a9abcad7bb9e7aa9adebeceaa8cbcaedefade9fbdbdffedaadbbddefe9bdafaf9bec8beba6edf9fe
col45:   59a7c9b8caac9587da8a8fbd67bedcb8fdabaada99bfdabdd8dacd9cadbbbe8aadd9dba9dcbbadcb
col46:   9997a8e9aada9adbf679ec9c99cbdcbeedcade6f88cb7cdfecdbcdca8ecb97fb9cdddccccdc9ceca
col47:   aac88c78ba8e8afaac4c9a99aaddefbaad8dcdb9adbcfd9cafdcdbfd99fbca9cfdbbfc9cedfcdcbd
col48:   999a886b88aa9bbbccabaabcdadda9dfd9fccdb9eebfcdfcdcdddcebbdddcdabacefcc8bcfaadca6
col49:   9dc59896b88787e8cadf6bbcc89bddedbcbecebfbc99cff9daadbbbbdfd99be87eeeabda8dcee9d9
col50:   c894cc999dfbc69abd9a9a7baebbbbcdbcaccafdcadabdafdacceffdeecaddcfbdcd7afdb8cebbbd
col51:   587a9b6a86a7a4c7b9a5babcabdddbecc87bb78a79cbb888d78a7e945baa8cb88cc6cbcdbb8bcaa7
ROC:	 BPix_BpO_SEC2_LYR4_LDR7F_MOD4_ROC11
col00:   4256749935451376554689ab557a8386a7ab899bca87a96d9ac5546895567ab5b9aa68a9a4c8c8c8
col01:   167425643718a6b5a67739648b785b888a56b8b96694d698b5665ab6bf76f9a59aa77b65dc9a9ad7
col02:   53546a516a85a9774878769779c7524596ba8ab948bb94c5967899b94bcc74998b9c79b59e54e5dc
col03:   765845b4468678875d485aa88a9475a889b9da89b6657a88b65bdf779aa96aa6ac98598f8b588ea6
col04:   4586698997886725cb3b995f49a6689b3ba9695898ad3a7ca9a8e7a5ac55aacaba989abb9d454c98
col05:   841586685645c4859ca87aba7bdaa74a7a3998abb8b4ba7daa97899bcaab949dd1a7a75526b65ca7
col06:   7135a673899ba6a17559976da88c96abba68b7aea479c3c95c5dacab7a9642979d9c7a9d9c97b9d6
col07:   4a678a551564478a76766788894789587b897a9576f59ad8a57437588cbb4ab6c97a699f88ca3af8
col08:   534193b56778688c89879679a7597774699b69b4ba56a6389ad9b57b68baaa9d75db89f85aa88688
col09:   45aa898856489494a5897c5a661839979e99d76896645a3679c4fc9a9b769b8fac9cad9688b9a6ab
col10:   5834745494986488b95b84898484fa838b4495aaaab438bb9899bb895979c9ab89a8b86397a88c95
col11:   564352341595463b738ba95479a69cc6f9c29c75bf6a9384fa6cc69c9a97898a799b779f94987768
col12:   62719756977669b46779898d9f77b86de4b99bc9c99ca98c8786ca73a57db6865b9bcb5afad8d893
col13:   5431736272689767b9966757998cc935a7dd77879ceab9ab669aa898cbdb9ecbbcdabba7929abaab
col14:   6515316616ab61b871b7469da77888d99c989cc54d77a3a9988898c3ba98b7caabb7696f79ead7bb
col15:   55717568658879a7b7547456d6b87397d7e777bc781b86a9899a7bbaaacdb44c9997d77898aa7863
col16:   52675978711b288565e599caea6bcd8ad9887d9cb8ba8eba4babb9ba54b6ab97ed8ac9988ac5987c
col17:   3456e359781388967b967897a517b9dcc9c3a99abb5ab9c73a87a79aa9b8be88d7aa69c6b8a699b4
col18:   744878916a1434a4b3977699ccd7497776ba8cc6caa488aaa766869a99ada889d8b7499668ab1782
col19:   5826b481374f45967646a651aa967991a94da8a7c858c65d7cccb9bba8abd977ab759d7969e68b76
col20:   26494368513465877698cb67689ba767e8c879a7a8a9a77889c965abc8caa67797b977b96745b8b9
col21:   55778a2444729669487374bb95919d69a85cac888ccad417b9a57c78956d94879c68779956844ba2
col22:   7656464716751646699a79aa89557eea7ab9586a7bc5c9688dbe8dbdaad9b7cb89b7ae6b6c7958b8
col23:   3726387376362b8bb49a5686898498757b59a9865a4898c7b53b4b8889e8873a96da68a59dd795ab
col24:   45595756583153965558378759b8958b87a9b45cdb9679c7a6b6bb7b65cb79da7acbb9b5ec496584
col25:   773ab5834894469889c2da748a37bc81dd858dbdbdbcb36c9a6b6ab7baa967e6aab89cb49df8ab9a
col26:   887476487a7451dba8f9c4a6b7899a98a886ea6dd9b8bdbcc57adcdcf9b88cb97ca98ee75799a9a7
col27:   866ab4b7799956bb7559db3daabba659c59d96be7db9a79bc97af6985e74a8dc8aaab97897feb7cb
col28:   8e389678788788a9979d9989abc9f59baeddb6bd8ea89b86b6d7d2f68be9cabb8eb97ddaeb5b97bd
col29:   a782428a5826689ba98d6aae8887edc9b9e9fac6aff8e7bad89ae8991ae9689ebaa886b9ba99aa84
col30:   3997a686db848ae76a767ec4a9c868fe9d68da9c88cbbeb8a896cebaedabc9ba5f8587c9cc8abbe8
col31:   9c85a2a964f68baac9aa57589ababc9bcebdfabbade5cc9bcecbbbdbbc88dbccdd665bd8fba8aaba
col32:   84574bd6967696d98c7de8988bcdbcaaeeefc9dfbefeb6c9dbb69ecc7fba78a6baea7bab9d9bce9c
col33:   a7c7783ba7b8a4b9c85896bb9dbafa7ee99edbafaddff6bdb6867b69cbcafea9a8cdc4c48acabe6a
col34:   6888b5898a9aaa9469793b8acdc7888bbcadc9c6e679ac8cdcfae9a49afafea4ae9de8ccdc9f8993
col35:   c58295bbd58ab7989ab8699a9bdacaabebd9aadb8b8ddcbbcc7ffda69d7ba6e8cafa978c87caabec
col36:   89886e578da896566a779d96fa9a6ebcfe98adadbbbf98ecc7e79acc9dbac9dddabbeecafacb6ac7
col37:   7722985b8af3878c86d7accecd98b98ac9aaebbce9bfaad9bbc9dace5db9ef8a8cdaabddaa68ddb6
col38:   788946a6b9776ca4afab7ad59dce8caaaec8ddfce8e9abdacac9d96a99ead9b9b98bfceaaefca8e9
col39:   ba5c7669778b998a567dc9d59b97fcdbacababa76ecbcac9ec7bcfaadde7bc96bd8a79e9978c9f98
col40:   67c7b53de8a6e9db6c79c95d7dbcdc9da4f9afd6a979f9887bcddace8acacaf9d87e8fbcbfbbca99
col41:   315ac8668669787a29ebac6a8ac9bbaccfa9967bbbb9c8eace8ae89a9c96aaeb97bbd7e5a7acddef
col42:   87137baac865c87859c8cda8abd7a9fda78dacade9b7a897cd9ea89dbbb8c88af6cc69bcebdbaeea
col43:   846a7ba8983b7577b6d98bc778bd9bb7c97e97b99cdabdddfeede9dbec78b9cbbae79ae7daf9aea6
col44:   44d787ca74bbaa57aaa8edbd9669bd9fdd9d6e9a8cabccdf76dbeaacfd9f79ec9cdaacfa87daada8
col45:   622971788652875896c97a8988dbbeda979dbbaaaabadaaacf98bffceca9dbbc9addcabab79ab6ac
col46:   a579998ba69b7da95e98c8caa98bcceab5dfd7cc8589caefb68bc7caaba969b9acd5cbc7f5babfb5
col47:   76c77896a6985a77a296a8eceab968ceabcbdae8d9ec97877c8cbbd9bbdbc899cdacdc9c9efadbba
col48:   9c8be465bbc938d7c2eac9b9da7cbb99efb8caecad8cce989df8f9d9cfbfbbc4cadba9c99deadb95
col49:   6a6517b6a5ca59a96bb66ee889b5af99c99aaa5bd58689adaa87eb57b97cc787bbeaab559eb9e6ff
col50:   98a9b9bac8ca7d59c67eb9bb7e7d877fc8abde9bcd49bc744fc5aae8a7dced899cbacbffed9bb9e8
col51:   97677573446438a77758755898691c6bc3e58a2c5745c9aa8774a54bba69a97689568b958da7cc89
ROC:	 BPix_BpO_SEC2_LYR4_LDR7F_MOD4_ROC12
col00:   226487646495343744a1667357736833641767957734572777453666657843566435777645656675
col01:   25753396337359754455556744844849556488c9946785173758957648388758876679847a893673
col02:   18556446652559885774577588569545479658858556659a5966767287779766855978695674b875
col03:   26455386857553627579456466683462535484946564877652557676653658758468594754667558
col04:   8516764656698585565589687776785869756458696b9784a8749664587589868988789357374787
col05:   572679658866586a75586398455796684669a7725586466667365878556258957566554623569884
col06:   45374678656b6862557367487a485999875148758398737656865767665775875755565497986567
col07:   654877252785646556896796947574777975675b77955836586768755187556868839a496a788c51
col08:   797874718374455535455687477a89947679859666787866548795a8757975599679757588884854
col09:   12557443876356a53676756554598557395769696875567434653668956655677386768785556682
col10:   4468856556735758757556597695788977749a9975766785884964785a75686648848778848b5857
col11:   6175617588245654957a478666829676954467436977566889658978684777878498667466567566
col12:   5264a647464786547a956574449685775957796766b6767a768885756965887865676b555373a756
col13:   57359a47665548556967858699879377557b778655436784956a4377577368977673999995768778
col14:   746787524966875299669558a97694857765756a667a748688889789479877374176777699958795
col15:   3845465575625775576646755897844666a777867986974473a65564767878949557858467662688
col16:   566695a7256768394685578684a789677b68968956964695665697856576b8a486987875657637a6
col17:   54527449243555484755546454785766a784796378388a96669858795396456744818367a4472558
col18:   4255365569774669575459856758479495a7889887798b56892566675a7d47689847794a75558587
col19:   657471367279385877578a6a786488475747a779775887a786967646676798563776866a88769656
col20:   5454616488879b568496697898794a8558754486ba83a9639775895985678ab797a7855989745787
col21:   5673766543453654c9786764668557786758383647858575a9878997886b98485957547667869857
col22:   587445a97788846793694756468697aa76388658896687b53788b98a863888877968975686788456
col23:   64367865766755386758465677679868946a757a39777477664555a96bb6874476477a8947767696
col24:   354566935a8748687676b6757a8a669754878669938768776aa877999975948867568858a7686466
col25:   986656a65367757656859795a67786796a7a96c77685879377557778a65877897679889967874789
col26:   88868686857858879b78977c899776988b7a6aa79a9a9a99a9969a668a699977b84a9b9987987b8a
col27:   5474334766979b698868678a776a8757988589a9676d8859a88967ba978674979874695767caa897
col28:   6578958777a8a95567c9589a56b68778aaa9bc696588a9669898a9a989888ab8968a88a9679b9988
col29:   927a769897668783b77857a9949bc879a6b9a57997aa9b96a688977a976a9697b8ab667796687967
col30:   a5a56895b9b467897a4c878b7cba6ba8999c89995a8a9797a99a9b987b97b99ab567aac7b9796999
col31:   79798798788997599a69875a499a988789ab8776788bb998bb889889968c99aab8d889898b8ab3a8
col32:   559765a79875a9468cba799588aac79aa575b77979bc9999a889b9a9a8a89799a6c99c8b78bba877
col33:   584783946877a8653a7899697a9a78789c589a86ba98a5b698aab9a6897c98b79989878b8a9787a9
col34:   6467769668ac95a97ab869aaabab969886c88b9898cb9cb8777b9b89b97a979aaa68a8b7ab69a87a
col35:   a7649aa638a789a6b787ab78779c7b8c89bbb6aa8876c898b8a979a88b8a89ca979897bbbca4a866
col36:   8a97a7579476d898baa7c679b89a9db8a9a999c9c7ba8989a7ababbf7899a987b9a9a8b59979a7a7
col37:   76a57869569985a98988a8c99a98bab8aa9a9c7aaa9a99b89ca88bbc76bbaca7699a75a98a9b6aa8
col38:   98a8aa878a979a7b7969b89a9c99b99ab87686a9ca9cc5db69b98cb897bbcb79cbba998b9bbaaa89
col39:   8997a677885897969ab89aa79b99799886999acab9c9cc479687579aaa78969cc897788779a9a6aa
col40:   77796888a9bda79a98886879abbaab6aa7bc9ba9daaaaa9b7eb78b9ac899a9ac99aecab76aa8aaca
col41:   aa6b7878988a689aa8a99ab99a89a9bbb67dbca9b7b7a8a8aadcab9ab97ab9987b6cc79887999987
col42:   858aa76989987a888a69859a87abac9abbb979a6bc69d8b8acb6b8a99999ababccaab99ba9cb9a9d
col43:   765877a8a79b9b879a99bae6a8868baaabb7a97cab88d8baa9a7a8897dbbc8a68ca898b9abc9c9b6
col44:   5997b896a984877a8b9a88ba878b8db9bab99ab8b9da9957bca9aa9a7caab9ab99aed998a7a889aa
col45:   7a397a7758887ab98bdb7abaa9a89bb7bbba97a8adb88a5bb97a877a6898a99a886967cb997aaaa7
col46:   b6a888a887a7779bb98a8b9b988a9ab889aaabccb889bbbc8d99aab8acaba9aab79db99b87bcc9a6
col47:   96b69a77e97768b9a9adb4c79aadcb9b9a8bba799a8bbcaa9abdc8caa9b9a98bccc8baabba6999d9
col48:   a89ab7b8979c58b8c9b7a9b9abccacbb998a979caba98b7999b987e8caadda65bbaa8b99c98ab9c9
col49:   59998896b8a6e787998abaaaa7979c8899e9b97a79b9aa7b99a7879babc895aadbab97ab9a89b999
col50:   a9aa7cab98799aa6a997abb9c8b9bcbb9797c8cb9dab8cc899aad6b6989bc8a7cb7cba8ca7c8aa98
col51:   5575566473557497896998785889a6ab488998997559bab979bc98b9776d7999878a8ad8b88869da
ROC:	 BPix_BpO_SEC2_LYR4_LDR7F_MOD4_ROC13
col00:   355236344894936373847757746779948718b5b97887495749575734b56542694678859548628395
col01:   587583883b2895a977786778a7bbb78c95aaa5c38c499a99959787c894a975937775998b75978b83
col02:   46488877757a68d58b127a9b9994aab58a94725ba6a9a768c589a9c7a358a99594adaa56b65b8847
col03:   6686a75a5b3468749c36889789b795899967576779b5ac478b9b9b898493a54798ccb843aa877b68
col04:   489687b7766456866b95359477bb89b7bba588a7967bba98ab689d819789779a77847557a4685b36
col05:   3457735679698a9ce54757aca9a8857a9c7477879c6a51a689b8d95aa77ba77457549496a6769727
col06:   677436a65c968788ad8655c869878da88b69a7949ba8c56958ad96ba87a86cc7634567548956a6b6
col07:   73979872b7b68569967bb797968c98a788b99b86a988977b9449c977515898a6a486b8aa59842596
col08:   57196ca697d33845b8867b47558b699389a9567a4a779a5dd9b7a486a67555924b7766b348773499
col09:   649566a8768a9846747a9b95db696cb7ed7a758987945bc54b8a698ca6956986869aaa8275b88718
col10:   6576878877289686a977ab9757a76b87a8a87b88697b5877b9495b69ac979c488a8a268a878899b7
col11:   a65967372a994472bc7a7a5baa777ac79987a7c776655a67793959aa79ac53879ba88c7897598697
col12:   7546d537778578b74858ca9aba49b3b98aa788d6c6f8b688676c9596957ba98a55b76998aa94677c
col13:   2499865875612697a865c78c77cad95b989a99acc7aa7896ba54397962c5689477a5997687686974
col14:   9a7a95799b5557a66a66b8c8dca6367975567fbdd7989a5636aa68b5597895aaaa9a7b7889ab1676
col15:   7686637866958675878ba7a96976e9879e89a537b7e63578966b667bd8785c66978754556f5549a7
col16:   76a2999686a1a49ab548765bcc8a77b7aabb97c88d7a99897a75a68b99959377799887c414c85977
col17:   5393b8634b362279988965ca978e8987acb966586899c6997b6d657768999a9699b8c668c4464544
col18:   b69696966573ab7849798577998697987c979a7bb7bc5bbaa777e95a63a38b696758846757a6a987
col19:   6a75475aa57958a697567499aa89498b95fbcba9a8b9b7a77aa8986a89e549b679688a878b7d7555
col20:   7896a37bb33b8597a3462e8aa6bbb69a89ba97bbaa59787a885c7698a6bab67aa7b6587559aa7866
col21:   6638279666597287596568a769aaab798ac6568a979d53867856c9aaaae8967b6a87a3b886b49973
col22:   49b95964a8857866b99987a99a85877c359798b57cddb6a5c9b9c897bab659996d6b2486ba97e665
col23:   363655a62756899a67c75a7749a859b6d78489b789688766c99ab685867729878898686b3c78a834
col24:   85149b849aaa64679c69aa7bbcb8ac987769b6989497876677984dbb8887a59685975941a6926a75
col25:   c4144596756af8beb9ba5a9b98cb8c978a88b77cc86dd7b998987e47aa37a89b978977838b4a79d8
col26:   539aa5786bc98ab77a9ad9cd9aca87bcaa6bab69add9faac9aa999966bbb8dab8ac96a96abc88e88
col27:   78689949aca78867d6bc68ae9eb8fb968bbeb9aa7beab9898ad9a89ba9a7b9596779bb976ba9a976
col28:   b8999baa75aa893959b6bcb8c6aaae979f9ccadd9d9c9dcbab7adc8bdd8c988fcacb7ba65a778af7
col29:   9988c9bc85a7996b6ac7a9edd989aaaabf95cce9ab99ebbbcdb88ef76ba9cfea9a878a9c957ba898
col30:   9992b98799a87b9baac96798acd7a9bddfbbc9ac997ba8aaff8bdbeba988cbaeca84cb97ba5966c6
col31:   81a9c7b58997d98cc8dbd99ceff97cadbee9cbabdddbbbabda9d9fccb8bc6baab7b7a967869aa799
col32:   78f97cce65be9a9fb5caabccc988c68c7cbbecbdbbbabbaccbbdcb9a89a9bebda5adb8db6aa68986
col33:   78b7b6698b5977bc8ac88bd98bdacfd7aaa9bbdfec9ca9d98bc7cdb8ca79b8bb968acc688db8b5a9
col34:   aa8b9e98aca67a76ebc8cbfc5abddcadbcebebeced7bebd99ebccb7dc8bafcab9cbcdabb4b9cd69c
col35:   8ba68dc9d95a9f799999cbda9c96d7ba7ea9bbb88eccebca7baac9898cc98e97999aba7dca7dabaa
col36:   5aa9978baca78ce68bbae9b9c9cbbbbdde9b99c9eefa7c87ce9a7cdcffa8beb999cdc9a86cbaeacc
col37:   ba56a94ac9bc9e87abf69e89bdddbff9bcac8acedfaa8cee9acba9eadaaaacf8a9abc7ac97989899
col38:   ab8bc8deb9ddc9aaaae9cbddbacddcdddeebecedf9fedc6abb79fbfecb989bfbaabd8968cb7d9cab
col39:   e799698a97cb9c8caaa9aa9eb8d9fbb8dfaab7ad98baeabaaccb9fb8b8e769dab75a995cdca7e79a
col40:   977ab8acbcb9bbbedadad8abeecbab8bbbbfabbbbb89aa9bbabfce9bdbcbacdabcab9acabb5adcba
col41:   7ac6bd79bcc8d9fbedaaeaacdfaed9c9bdbcdc9bad78fcb9abe6bcd8ea5a9c9da9b8ca778a7e9978
col42:   b52c7bcce9facaa9cbdbd9ec7e8ccfffbbaef97daafde9b8ebadeabaebc9dca9fad9a8edfe9a7983
col43:   c9c8cb99baa99bbbe9ad9a9c7ddbddbddcdd9bcffcbbdbecd99cb9cfe6aec85cc9aebd9b97ba9aa9
col44:   788ba8cdbacaef98dbd8befbac69abbdcceaccdeeece7b588faeebc7b9dcacf7cbab9cad8caafad7
col45:   b899988c7abaf9786aeecc8b8bcbcc9cdaacfdb99cbb9eae8d7cadcba9aba9aa6d7ba68a9a7a6b96
col46:   ddaaee7cdb8abeda99dbeb8cdcfbaac9aff8dbadaeadace6ecc7cdefabbcccd9deb8897b9bcc6ea9
col47:   aa9acb96ac8bdc7cebdda9ebacdfdbacabffdddfb9ffe6adacaf9fadeeaeecd6afb8b7c98adb89ab
col48:   d6bb9bcadb5d8bbbdc8d7effcded7de9dbdddedddbdeeadbacdd9a99cedefdbac8bba9cbdad98dfc
col49:   88a9b9bcdfe7d9dbadabebcbb9cdcdcecddbf9fbacbbe9abeba9accb9abbfbecbc8db9de8fb9dcb4
col50:   ab6eb9abddcfe8bbccadcd9dfccbfdabccfbacccdacddbecbd87dddcaabaaba9fdbdcfdd977dcac8
col51:   7c98688aa4a4a7ab7a88cdaa95b8b4a989dbbfccba89a93c9e489b9dbada15aa895365a4678698d3
ROC:	 BPix_BpO_SEC2_LYR4_LDR7F_MOD4_ROC14
col00:   6975a49aaea386b99a894959d85bb77abdb68c76538749bbab7ba6689689a8a5a385699a784e24b8
col01:   6458a3697857a55977c8469899b7b99e54caccca8bc74b8c8db4bc78d89d71b4887673b68a566946
col02:   8a55477798966b7c95a7c47ac9ded9957c94b69bfb7e88a9995ca983a7b9698c6db9b9c565ba6771
col03:   761685baaa59577ed466da7ba5a29aabaed9a88aa6ac4bdc8c51aaa9597acbd5bbbb8a8939353695
col04:   685ab6ba6d84a895e68b6c8e8669dbec9d7afb979cc9cdaa9c567abb7ebecdcb9f768a99944b5ad3
col05:   96a696b78ab7a19a381d99ddc4389aaa8f996986a8a4896d89acbbc78c7b79aa549936d74195a79b
col06:   5896957496989ab66d87889887f6f98adc9faae9799c89aedcf7dca8baaacbb3a2aab48b6dcc6897
col07:   4974b676283b87b7789aaa99c87a6cca99c4abbd958889d88aa79ca68d977a8b79c85985c8caa985
col08:   499755b68bc946669c466b77abbab6c969884668b86d7b9bac9d999a8eb8ab776858c78569874648
col09:   7647655976b5a5ae999a79cc99a8b6dacbc77aaecadf88d9a599ab6ba4bab7ac94a785d8758865b7
col10:   4698998b94897878aaa7589c97fd95b75ae6466996b9f8a79bccc8ad1ecd9ba9887677877364d294
col11:   57a2abd7cad97646b498a7eaafb99baaa7dec757ca896c8ab598da9b65784878486d998299756ba9
col12:   32d481b955ba899c8896e99896da99b6656a9bca67678d45ab7894b7d7aa8aa4a9c9a75798787198
col13:   451389c74b4989985a63899dca9bf9bba58cdcbba5c7da879969a5cb7a998b673774977b9a8b69d9
col14:   945b699866bbb849a7559a9dc7948e99b78885bb9ba5a85cd8b7888d48cdb99986c497ac86637a52
col15:   9e74ca86688b49996cc6cd97a878b9bccb898dc37cb69cb549b7ab94998e39684f58698467b59973
col16:   8369a6a5697699a9e5a8a99e8a6fd898a6aaa79a797c93ae9aac6c4c9786abe9a99b5516286674a6
col17:   655b77964264658ab8a494cc758779dac9a978a185776667998aaab3477e9b545458638778a72546
col18:   7478554677b37bd6649774a986fcb6a8cf6265c97a9ad88db99b7e858cc6d9c7b7b8b76956a9c669
col19:   734a35963944a3679afa759a7778a85a967ad89bc8586eb8ba8aa9b9a76629bb668a46879aa3b819
col20:   73343a5726a689896755b7c888b7758b877bd4b6acfccdeec9895b86c79a67a8fbd576b87a566968
col21:   946667c78498a66b7798698bbb967b76baa8f6cc86ac8c9b79b85d487748f7a9687937995499978c
col22:   16b18645b9689d859ab93b76a4999dcab8acffff6b7966b65a978a869653bb8b97569467ba2abcc5
col23:   28175251378b98875cb771952c97c8b9bd9996a8c87b8859b5dcab69898a894c5a58969a8948d738
col24:   887a5b56a9987678646b859fab98bfc9e696aa3cdbc9bbab5a8685d7876a6c4bc47577b5a55973e4
col25:   393955bad6a5646576c4b8db939acf538cd8a99ad9648eadab7cec5a9a8f674b768595b6b6986574
col26:   9b8cca7ae76a9c8afa89aadedbaebdbc88adcb97ad9ba99a85cbd7678d9de9bcb59cb89adbb89547
col27:   a778d849bae7a7cbcb9fd789a8ccb8e8daa79ec769eba49d89ab97db789789a9ab4ac94798a69aa8
col28:   6a4d6fe9f6ca7c5bdbcf786dbdeb89eaacfbdde97eddff9a8aad8eeb9dedc89a93b9fa6ac9d99a76
col29:   98183c7c9948a6d65c89c7abfc66aa8af9e9dccc78bac9d86a7798bacaab5af77a8dbb7cbe967769
col30:   5a77c7debb7d988ac6dcbaddedbcdbbffaacfffbdfabbd8beea99ccdc6ebdedad8ca8c6d86caa9af
col31:   4a64a677d9a7767cccc9fc7b9cfbfad9cec97b7abcaabea86dafcdee9ebbabc7cdeb86a4ae788982
col32:   585a8dabdcbda7bb9bccccae75c89cdededcdfeba4ec89bec7eacaccabeabcba99588aa9e778967a
col33:   35b88535a7cb9c944c98fd9aafb58a6bfcbedb8f8e9dbea8af9cdc7accdc9abaab889c9da947bb65
col34:   9a9cdabd6ce64856dceccafbaa3dd9a6c9d7cc98babbcfe67d8acbddcf7ad7dc8c6ccb8c75b759a5
col35:   7bb7544c59b659d488f98b6c9ccfaed9cfabae8f9998cbdacbba77dd84edbe9bcb7c3bd948aca8c6
col36:   aaebaabade7baa9ba8f8cabe8aeabe6e7dabadfaae7b9bcbde9fbbdb9eabab9b59c9989a77de878c
col37:   69a77f999c2accc9b7f99cc6baeac9cfabc99bebdcb6cdfe9c9face89cfcabccdaa7a9c68a8a65c6
col38:   9abaf99d6faab9adabfcadffdbfd7eafd8ce9aebcdaeefccdeacabe9e6dcedeb56bab9d7d8ac6d9a
col39:   263e9a87977ac9c9cad9cac7b9ddeffbadea9da8bbbda99f99f9caf9accd99ac969aa9b89bca99bb
col40:   b87b9aa9b7a898d6a9dbceddccac9dc9bfcce7efcb9eb9d8ebbaddbaeccbca9eddbbda8f9cabac8c
col41:   29a66b986cbd99fd46ad74886fabdafafd9daf966cae87ddeaa977a9e7dcaadbad7da779abc6b666
col42:   676b9acb88d9dec8cc9dfab9b9faddbf8ea9cbbfeacc6beccfc9b97bbb6c998ae7cb95bb896eabc7
col43:   68adc879aadab5b43dea98abbfbe8cecdcd9de69c9eee78f8dcb6ab89ea9a8aebdbc86da58ab79e8
col44:   b9d8faeaa9bbb8ba8a5f9a68c98daace9caa8cdfcbdad97a9b78aeda89ebccdc479aab8dd6fc4aab
col45:   a7bba8ac88aacc5ba9af5dfbaebccc9be7fff7af9aeab97aae8aa89fccacc7e7a87c7cf6b75b8ca7
col46:   3c59becedfaef77eb8b68b8c9fffdbff9b86ccafcabdcdbebdeacdbcbbcdfacb9ba58cd7d86d4b69
col47:   a695a697c79a99caadbd8a868d595ab85bbece899dec798edccacc9a99edb8aa8aca99c9a9579ad5
col48:   caa597aca7749aa3ad9aabdc8f8ac6c9ebcaadc6caccfc9ee7ca9b9bacadc8bccb68886a9b486787
col49:   79ab59976aad4e7ca87b6cb8aa2debdeaaaccc9fcacf89faba9dbbedaedad98c999c8d497a99b769
col50:   d3995999b9abaab95ad9abc8dcddebb8dbbfdc9ddfb7fdbcbdfaaccefb8fad9fbba8cb8cac9b7ae9
col51:   87c681a757b6688776a7c7ca7b75dbccaa5a6aa889d36996a99877b4b9784c4889a567a991388b84
ROC:	 BPix_BpO_SEC2_LYR4_LDR7F_MOD4_ROC15
col00:   75599779655131786486687715668437c5b19ab64656aab575548687947a36666561383541781521
col01:   5867949788a9aa83ba8777499969a63b4767b6bad6b8777688879b7668887597898384649a55b461
col02:   6aeb798856a9a9b28aa77968778b8b6d9c798976a77875d9ba55968887879ab4877936656357b837
col03:   5853b974a67789a28a6ab8d9aeb69878b9b49e69cd8c8c588569856677b5a19a8747b35417457316
col04:   9aa59b8467b84684757bb89cd5266da879ccaaa586b76d7a66799a8b696ab976778c54976a927251
col05:   7889871a76c83d358a7b5b77596489d89686896698b6f6745a6889849977a755671a8ab388182592
col06:   a678658819886a999877b989f5963da78589cc6dab9a998838976b97b7647a7953353776669257b4
col07:   988be67799a6b8b759aea698bba658ca8979cc89b79a79aa94898786c5a579969a69997664486367
col08:   8a877b89a99477bba5a96849b94bbb796cb9b7b687879aa767da978c88675b54879976b498891169
col09:   a54759a7abe8bb6a9c8a977695a9dd9993bd985948757fb97887837989ac7688a39587a495774646
col10:   495987836b9987b7b96b78797b87d8887877bb48aa68988a977a7957977b631987897a87a5635753
col11:   8a76457b88ca75b2857789a77eaac9b7ac56889a9c9a6a69b697648bc988792676c9673644659883
col12:   9a8897987aa74a998598966ab9897599ed877c7a99abc977996a6b689a87967aa68587595493a776
col13:   b79ba18c7995168e7a9b65abbc791b8969a94d99a884b9a495697b57a56b686997889a7787573338
col14:   889d9988b9897ddbb9985a6d98bba684d9a6979bba9bbd7994978c886acb67796c89477953179645
col15:   9885c43b444bb79b37acad9fb97b6a7a8a996ce8d999548b986b669a7874c57a4877497974685595
col16:   79516a75669a9b9a6a8cb98ba99543a6c997a9a967f8a56aa5b64ba689776864a858676856852b63
col17:   7aaa7d989887b667a5c7a6abc79c7b579bdb5c6b965a79a76a59aa338a884768738598b6c77a5744
col18:   87a58ab8a899b6869c869a8a488597c49a758da8699a8a959627968fedab6d8b9444978279956551
col19:   9c8778267ad83b8d597aa867ab868e75aa689a5959c85b89cd8eb8c9ac8a8b878848465455873667
col20:   2776777697a584bb9c75aa64a95ababc7896c87a759bd76a6b76999a9a9377a4677162865a998766
col21:   679735995b56776768cc6d6bbaa8af78d9d9b5be6aba9bcbab9b8ca88e6999db7795396359465568
col22:   b666944ba8784c8a6875889797a9677a9fbf8b9a7b566b7b58a9b77cb9889558ac65379869179555
col23:   bb69c894ab79398596ab8579c7b96887dad67b8a8a4a893779bc78b568899697678b77873765a152
col24:   9678a8869c5a97689bd4619b688a7797f9aac8ea7aaacb89a8868a8b669a98187752b9486a756653
col25:   5b6767966b67958c28887a96b8baaabfd889ba98bcec79c6eaa8a7a9bc7a8887c67868758767a9a6
col26:   94888aa96a88689c99a6ab7b66aa7b8adaebdd997c8cad8ced8ca5cba9dfb9cb898a9789bb743981
col27:   78b8ab87aca88d5bd87caa949a684bc7e78aa96a85b9b9aa7ded98a5bba4baa68ba89a77b98ac968
col28:   bb9cbdca9886b7ac7d8cfaae77a65dbabb9aa9aeba9989fecbfca7cbdb9caac78c869c69d8788786
col29:   868d8b6bc78a7f96898ba8abd9a8daedbbe98cccacae6acbb88f58e8cae8b9898988a5a8c991b4bc
col30:   a8b96b8c76aab8aa8dbbadaaeca8dd93dbafb9babcadc9d9d99b898cbacc7a77ba98579c89b5677a
col31:   47b9b8adb94cdbaaf85daccea5acbebb8ab7bd8acbaada8e98bbb97a9ab9947d8ad86c97799baa8b
col32:   89be9bbbbcb9889ceb6aa9bd978df9a89ccbbdcab6ac8cbdbc9dcce7fa8caf9b5ab87a87b5c885b6
col33:   988aa9788a99c7ba9abacaac7cc8aabbcabb9aac9cab8bfacae46d89bbbbb897ec7878aadbb78744
col34:   fa688bc97bc89a87ac88aabcc9abafbfdb9d9ba86efdbdddab99abb886889de898938a9565851989
col35:   c7a889cbeabaf9ab9aa9c789bfacaacfadcbbc97bdedabbbb99cccdcccb788d86867854c7576ab76
col36:   77a8bb59ddd97a9899cf869bacbadefcccdcbab8caed6cbcccdd99cba9adb8cac6acac877a85ac7c
col37:   c6cbb78889e9b8c9adbd8caf9ceb8edf8fc9ecdfdaffbdbdf99caf9fcdc88cb99bb7a4b8b7a967c7
col38:   db98abaa9afdcafbaf96adacc9be89abdb7adccccbcdbdbfdccadfecfa798c9dbd8b8efc5a87b657
col39:   ad7ab9bba77cdf9baaba78a97f7ababebd98cdbb9caebbccaacd9caadcdacaa8b99aab7cda897596
col40:   78bd9bdeeb98adeae9cc8bbdbafeac8add6dbddbaa9ecfdacddbebbdff98bcc99cba7c6acb6ba686
col41:   9e7dda7b9b9c8d88cbbabaaf8bedcfdfaef6bcde6dbbbf9dba9fdf9eeace999969da7a887b76a8a9
col42:   8bb9cb797f898c9fb886f99bb789acffddb8abcce7a8fc6fbcdbbcbccfabbacbacb9aa5cb8bbba8a
col43:   cfcb7a8cc8ff9bcfeccbed9ccc5ebfadafaadfcdceba8fefedc8ebadd8d7bcd99cfebda78c8abb9a
col44:   b9bac58b8aaf9dbcbcacbbccbcacfb7bdfdfbedeccbff9dbd89bfb8cd988d99daaa968abda8c9bca
col45:   b88adc8f6bbb6c9b9fddeb988dc9cbaa7aeecaeba8cbbbccdfbbb6ecf9ddcceb7b8ecba5cab59377
col46:   974cc9b86a79de9badd8dbbbcecb8a9d988badc8ddcbdbbdacdedccbcb9fe9c5cbdbba39c897c8a7
col47:   69abdbcabb7958ccdcb7c9cdcdf8fcbdefacbef8efeda9acdbb9ccdefbad8cccbad89efca7c9acaa
col48:   ab7ac8669b9eea5e9bbcc8bedeadcb7ccea9c9bbb7cd8fbaefb9c89ed9afbcdcba7c99af8475a746
col49:   7eb789cbeadcbcca7bffbbf96eb89becfdcaeceecbc8b9bbc99dddfdbcbdaadddad4d77a99c8c976
col50:   aa9bbbbadf9ced8ed9c99af9deadadaaeddff87a9d9ebcdacbdacebab9c9fb789aacacbbe67896a6
col51:   a778985ac888c9889fb7b865afa7ba7ba9badaabdaac8896bca89cc8a8aa9b5b7baab97988676a57
