ROC:	 BPix_BpI_SEC8_LYR3_LDR22F_MOD2_ROC0
col00:   5619768966964991b86666998b7b9587b7da7c7c86f4a86a498866686a83997698b86655ab189755
col01:   fd76376c85aa968c8a887a69aa897a8bba77c895588cb8a7796cd8b999b8b9b6c97f7a6865c8957b
col02:   699887a6888b6c5577b898c86d577ac4b733a967ddb69cbb6f87879d89b9b69a84a66ab777887a8a
col03:   689767d7ba99b7f68bd95bb889c87e78a9cac88b899caca2967b6cbbb4b999b99bb79a9bb877a667
col04:   4389975959c996e4bccaa5b95aad6a86bba5699a6bab9b48aec6b9cabbac6dbc579a86ab788e5da4
col05:   7a972a775a8899784788b99b67d86678a97bca99afab53c9a863e899997c95bac79999d738795995
col06:   95a6a97a9498878f874b5c8b966877979b9ab65c78a9c898e688cabcaa87cdb7797cde88788a9c87
col07:   8899ba729b86caab7ab86ae82ac88aa999cb8658bc99b983e9bfc7869a8aab1c97a98b88be77754d
col08:   358a749759978974b6daea55b876c8696a777ab98986a75986a696dab9ea799867679c88c957bcb8
col09:   78a84b8b9877a5ea78899b9a8ac96d9bb6a95bcce689db7c9b9ecc9caa5bacaa7bbbaa9bd7978b95
col10:   795859ac89689898a8958c959ca7985a8aabc7ab767787a89cb8a68b8a98687b8a97bb947666a864
col11:   56c6b865986867665759855bbafa6a68b9b977daaa79bc9a988999dc85dc8b8588a957797838ca87
col12:   86a99997897797776a2a7b9da698a6f966cbbe7ade78e9db89bda8abb36ac5a88caaa8aaaab3a9b7
col13:   48839b8b87a7b79ba7bafb9c9db9cb38798388ad99d69cbc6ab7857dad8ab8b9c7d9967e678aa778
col14:   83a887199aa178687ab8bcea496dd8a8b7d5c69686a577878a8c9888cb9897bbab98ab847a7a85b4
col15:   ab53c97ba833346aa797a8988e6866b4676c6c8a987c8a98cbac8e6b97a7dba866987a5a7ac886d9
col16:   54475baa43aa999a8d8b7a9c6ca6dab8af6ad7b87a8caa8abbdbab749b7c8c98abcb6744caa43c5b
col17:   b534644a88857a568677c997aba9d9aab8679b5d9acb9d79dc66b9679d899d4a8a8c86c7a49487c8
col18:   79387796986789ceb59a95a988bbabb7b99a8b5ca8a6795cb999898c8797b79db5ca9846959588a9
col19:   7696baca99a697a8987dd9798a99a7cba79bbaaa8caaaceee68d4987b79b88aa9c77ad7f77a7ba8b
col20:   b84947bcb9867777694d897a898467b7b9c7838b566bd95ba99aa97a8a88c599d775a79696b68461
col21:   8829ba5765b57a7a5eb8889c8a96bdbb5aab86b863cdbb9c7a86ab8ad697a75e98979987b94a7897
col22:   c558da6a79a88a8ed7a8b98a7cc8b4b79cde87d9768679a4a76bded7b878ad6b6a6cc5a87666e876
col23:   72b86695c75b93b7b59a898697cab768b9bba99d7da9aa5ad799bb9bba97a7786b9586aa755ab988
col24:   87787d4ca7c8a678ab86acaa9c83ba8acaadb7b655459a86c888f97c9a8ac998a9a48dc7878b6598
col25:   7659a5896758cb6a885bc66ab98aaa9cc7c9937da77cbda9d8a8abcc99b78ab6d897bbbc9a9a9882
col26:   9c583c9acbbbb7bd89a8d8bad9c7cc9a9b8a68dac59dbd647c699bb97c9ecaa8ac99a8ae6d998597
col27:   88b4968ba9668593b49d8adba9bd8a78b889a9c78ecec9ad7aadab8ad59cb7988abb8689799b6999
col28:   945b89b96ab9b9b8a89dabca7a6a9ceedcacacaa9c46bc7eabb9bed9978bebb98beb9a89c99946b8
col29:   8b7679a874ad77b8ba88abaacad9febbb9ccb9bd9a68dbbab8bcdab899b5adbc9bfaab879ec6b927
col30:   3684895997aeadbfba79acda5aa5b7c7a89bbc8c8a9aaddca5bdadbb9aaba8fcc88ccc9cb9559a85
col31:   a6b5a9accbb6ae9fcacbbaacbabcb99b9daacacb9c9cca9bbba9e7cbababc8f9d988c7dc69ca6a87
col32:   a9bacb9ae499db9b9dbb8aae8e9feadca7aa8b8deccba8daaaa9cedca89b8daa56ea6c8d8e8587cb
col33:   c8c78bb98d9bdabc979bae9bcbcffad9afcca9da6e9cdcaa9cdeeeb7ac9cca8bbdac998d9baaadd7
col34:   aa8589a8dcabb9c7c9ca67dce5bbcbfbfb97aac8baaadbfcde99bcdcadab8acb8bc5ba6a3b9cac78
col35:   ba97bbcbda9dcb99bf8abcda87bfeb8b68abba9b98abba7a9ce8dcae9cabc96dcbd6a687db7a8dbc
col36:   e998ba79fab9bad8c8c9c7fba9b9ef99dca9cafbbbc8adaafaede99fb6c8fc9fba7bca77b9c9aba8
col37:   d8afbdabecb8f79ad8addbfdfff96d8aab98b9accbacbc77bfdddccaecdcbc989a77ea9c9acbaba8
col38:   e699bda899abdcbbcbccaebdedfffbecbbbcbdeeb9ebdb8dceeec9cbdca999c8bb9bdf7dc9abbbda
col39:   97dea8fcac9d8b9caba8ab9abd9cebdcc77b8bd99bbcf9ef87ddecceabbf79cbbab8aaba9b8ac8ca
col40:   9bd989dcc88c9bdc7bddd8b9b8acfbbac7bffbdbe88a9b67ababdddcbbb6bcbe499aabdbcca9deb9
col41:   a9ab88ad9aebcc788ce6cbbcefabf89b89aaab97dbbbbac7caacebdd9baf9bcaad4aa89acbdabef8
col42:   9bda8c8db899b8effb9c8aa9ab7c6cbcba9aeadfedae7dda9bc8c9eefb8e9d9a8ac8caca9fecabec
col43:   a9ad7a8cb88a9d9daabccd8ab9cdaadf6aedbffdc7cadecebabdda7cf5896cacb89dba9dda89978a
col44:   989b8babbc8cbbbb9b789c9dbebaebfdcbcbdcecda97cbccbbcbdddea8bdaab988db99ccc8dd99a5
col45:   dbbbc9a67c68abae99aa87bdbadaecacbfabb9dc8da7dfccd9dbeba8c8eaeb9ccc9b8cccfc9a869a
col46:   aa6c9da9bacbab99d9cbb7cab8aced8aa7cbdbab9eedbaaacbdfb8eebb8adab99b7ae7eaaad8aa89
col47:   c8abea9ad7ac8dcbda8bb8ac8e9c88adcbccda99daaaa8cabcd8eabddeb9fa9ccbd7b6aac99e9b5c
col48:   8cc899b979d8a9ad89cc9c8cefbbc7ddee7acbdc76bc9cafbdfced9be78d98baefbabdd9d86bbfc3
col49:   789ae98b8bfdaaaeabcdabcfde6bbfdda6ac997daacbed8e878dcebba9cabd998a8bcb5e8b8adb88
col50:   94bcac8d98d8bfbd9efecd87ddda57a88daacaddcd89a9d8ccfcffbbbbbdccaaadaaa8c8baccdcf6
col51:   4829a98a9d86d6677d757a66cb4888d5a6869ce96ca8ab88969b6b65bb7bdaa8886e98bc8a546694
ROC:	 BPix_BpI_SEC8_LYR3_LDR22F_MOD2_ROC1
col00:   548627355864d482588519a878a6c8369769ab478a786586ca38698ab53a35d68524475354476396
col01:   48487a75787769cb58bba8d7899a79baebd7ab99ba8a8bb9aa867a7bab69aaad6779915557876773
col02:   5a6a6a97775577bb89ca7a87999a7b98a7dcfdad88d8a6ab6b75ac799b87a979a57a5978577652b9
col03:   a659a88788dbc789ab59aa2997c8baa5659bb9b99cc7588ac3c8999cab6a6b79777a778781a48586
col04:   678375a6caa6c7add79958a8b87858bad99d8a9a97aaaaabbcbdaba699a7598ab8778385779b7b44
col05:   766469a8a497b6789786a9bc7a887b89a9c89cac889ab88af85877a7a679955a97c24a89964b5867
col06:   a5a74658576999a98697b95989c799c77b6ab8a79c789689b6aba697d6a97a98987974cb7b548878
col07:   775cc5c5569ca6778bca79c877c9b8699cb6a89db887cad9a8b89ab9d9889d39b9c89871c5a87e94
col08:   8986c5c87787a78ac96679a9687caa77babaa55798d99acc7b888a8b866c8b344ad526ac79748783
col09:   68657966bc9a85b9875865cb7aa9a9c6c976cbbeb89bc798aa8a7e82a6b899a79868c67a83587565
col10:   a9a386bb8c3b47966857c9757919c98e65aab889cb8af799a889d9bb789858876aa8b89a5588e243
col11:   8a7a7a88b5b967a9836dbbbfa99c8aa986ab7ad8a967cb9a7a686bc986866b6988675c6977743937
col12:   ab6b879b6564a87a94798ca4b9488989669a8a999bb68c59b88e9a977a48c979a75e8bb75868663a
col13:   98aab796677959a99788aca389899b987caa7a999a8d76ab9b987a8b8ea8555668879977b979a579
col14:   7a99777b88a98c8895ca8b696cd899b8cea7ba98ab89a897c88cbfd9c7ba77757b37a9679587c765
col15:   93b6b449796487a89b7b9cacaedb988bee8dd8bb87f8aa997bca8897779d769aa6a8a768b2c67782
col16:   5869986777a859b97bd69ccca9c7a9b96d9bc9cacc9e8789cd597a77a6bc9c797b678827ab2a4856
col17:   57ab57ab68b798c49c589979baad9c6aa89aac85679af8a996a8b778997b47cb6878979baa593633
col18:   a658673758797adc8993759b6c77e98dfa8aa5d58a9acbadf99a7c987eb78b76993886ab566798a4
col19:   84cb9cc879bb97996aaa7a8a8bbca9897bd8bb9b6a95bbb89abaafe6c88877a576a697a359959385
col20:   c72a779cab9a57d7dc5c65b9c6568a6a9b8badba7b9a99bbabba875cb999ab366389a894c8746957
col21:   799987cb5988b9988788799cb98ecdbd89a9bba977a9b99e7983697f9b66ab7675698986a86967a5
col22:   9559a997a87d77ac6a259a8cbbb87889b9ba8ad9ead97aa88baea8847a58737757757b897b88a673
col23:   67656d4aa7968aaa98957a9bad96a998bbc97982ce78b6cbc7d8878785e6aac59697483aa87a59a6
col24:   7658ccac7a6769757ab8aa7b5a79bb9d6e7b9bc9baa9989b766a967b89abac9776765788863d3825
col25:   7c9878a6b895bc89a8aba659b9aac9a8c7d9a7986ccbe95dca7997c9d98b6ac746946b974ba57623
col26:   6eabaaab99a8aebfcd9e9b799b68ddc89cc9b9bdb8aaecbc7bc9cad8d9d77abb8977a99b4a85c6b4
col27:   8afbb597859bbabf7baa8ce7ac88a8dc7accb8cf9ecccacacadd78b9b77e9c9985c8a599976a77a7
col28:   59a9bddba878badbd8d9b9dac8ac9cf9accc98cdcceefaaca8cebeedc7aa988c997bcb889a89bc66
col29:   c676c8cb9da64869889c8d9cb9ba7d5accecebadaaabb8cbcc9cfc79ccaabe7a97da8b5a86996755
col30:   68ac64ac7bbb9cbcefb8aeaab9ca9bca87bbbadc9bebed9daecedcdadadc8ca79a6cb6cac85ca7a6
col31:   c99fbb6c79ff6dcaabcbcc7c6abcabdce78dfbefacf9bebc9faafd9cb9dc6c86b6b6aa898c9bb6c5
col32:   d89a6adbb8b8dd99dbafeb99cdac9fed9fea9fcbcccefffa8dddabcc888bc97a978a7797baa7cb9a
col33:   aa79cb7be98faad7bcc6bdcccac96dc99dccad9bbbafdffcbc8baacf9f7cc9989a8a6cd87c889878
col34:   bcaccbce8c6ccd8cc9ebc9cb7b9ebc7ddbbddb7c7ecbadaccbfeceadaa9eab9a7b9a7ca9f98a5a66
col35:   9ccb6f5ae8bd8bb9bcbaeddc8dcca9cbbdbec9b9a9bf69fdbfdcb9fbab7dcebacbeab8bc9dba777c
col36:   6bc9ab8c8aac9cbd7f99d7ae9cddcbdb98feafe998beefcfcd9c8d9a8da8cc9bd8b969abbb9a86a6
col37:   bbaa6cdb8afeaeeebcdc9ddddbabbaacfbebadb9bca9bab9b989ac99e9ebabc9ad9bf66abc7b8cb7
col38:   d9aa996aea7be6fdcccccbbbcdbfbbbfadfabfcdaabdeaf9c7aa9dccfbc8bbbbbd7ab86dba9baa9b
col39:   a89c8b8bb99adabfccba9dca96abccedbbf88ebc8facfdb89acb89f8bbaddc8ead498d798b8b88a7
col40:   aa89da8dcdccbafcabab9fcee8cbdee9fadfcd7feffafbdbb8cdabceccc9cecefdb9ca9bb697a966
col41:   88a5bab977daae9edadcffffc9dbf9d9ecfebea8cfcacacdcbb8dccca9bcec8acac988d6bb8a8c86
col42:   8878e9bd9ccd7b9ce9dd9e9cc9cdccafbebeedb9dbbeddbffca99dc9ab8576a8a9b8a4cbaa4c847b
col43:   beb8a7bbcfdbbddfac8bfddaccafddcdbbcfdbaffdab6edbbcd9fdfb8ceccdbbede9cb9dfcb6b9c4
col44:   9b9cb9cbdabbeccaeacddac99afccccceeacdfefcbfacec9cadda9a9bcdfe9bbbdcab9f9b698adb9
col45:   99d6ec8cbdacbead8abbbcc79dbbfaea89fbbcbafcbacbabafac9dfedacaca7c759baaa9a7ab9998
col46:   797abccbfdd9db6eda8bddaccccbdbcdeaffdfaacebfdeabe9acabbbbadcea8eecab8cb8bc8a97c6
col47:   a8cba7e9b9be9bbdbddcbfcccceedacbefd9cecbdf87cfbddcbbabfe9eea77c79c99b8bb7aabb898
col48:   abb9e8b7aa6bedbbecdabccde9896fcddcb9bfeeabc9aa9ae9beddedddbce7bbacac7b9cabb7b695
col49:   bb9badfceb8abcaaac7baab8bacddacec9dfbedcccafccacda8aaeebaadede7abba9c7cecbba9e76
col50:   bbe9a8c99acdcecbcba9fbefdcbcaabfde8adceffdbfcfcffeda797abcbc6a9caaba7cbb8bd959cc
col51:   4a5aa8779cf8a8ad899b79bcc9bda8a9abcabca99daab8aa9688a6acc6eab5769b9aa9878a847588
ROC:	 BPix_BpI_SEC8_LYR3_LDR22F_MOD2_ROC2
col00:   95876757879c6b9967b6898ba7897a75a7cab89bb6c9c798a65967487d5866869675985878154534
col01:   665a4aa5a9979db85c7c699e9899a9ecaabaa9ccdcc999cbb8ba98b77799a88ac397896794973288
col02:   589c96799a5b791c75897bcad5b79bb7b88a887cba8b7a6856aa989c77588ada8a59967a7a9a7767
col03:   9c97949ba748a87499b886ba8798aaa9d8abdee9b98bd8abad74caa88cc84888bb88a8747a888876
col04:   49bb5de7aaa5aa8bbdbb69e9a8a987a9bcd9feeb9bdc6aa7bb89aa989ab47bb9ab9a97a7b78aaaf5
col05:   b678b85997c7b8d9aab997ba6d66da87b9978cbaccaaaa6ccbb78898b758bf6aa42a575ba7355593
col06:   d9a8995bc77ae9c99668cda8d698a889b9a78fea7b9879a96abbacc9b86a86bab6b88798c65a8453
col07:   346888599f6adb78dda9ca76baaa9daaa78cfd8a2ba8e588a9889bbca6bab9b5d455786878726655
col08:   679a7999bcc996c7587c897ca7fa8ab98caaa8a8ba89b8a9a6ab5ab8987b8a79ab987d986853a964
col09:   969ba778dbccab7bb578aacadb9acbcca9c76bacd8bcafacba9878f949cb6cbaea76ab675c9b98a5
col10:   8c7857bceb7bab677898b9c9db955bbb997c96ba9d998998c89b9b859998b857ea9b758898a87b64
col11:   7a53a888acb678a9bcab77a88a97cc9bbb9a99ab98bea69cab8bd79aca8a6745b8489596456543a7
col12:   985a468c8969b9989a8ad9969a88a9eccc86bbacb79b968da9879f9697c7e7b6797cb599b6b47b57
col13:   89aeb8aaaacacc7ad83a97aba99acda5cda648d4ba999cccd89899a89c89949698ab49986976b9b8
col14:   9967d87797975b9a5d697aab99899ca36a8ad495e7a9779baedba87788ba6bca8a774b7876a36768
col15:   a877d47ac675bcaa69b76c9686aca88798bcc88ba9c6c9baa9ba88baa898a4a787627b897c874924
col16:   78cc75c8897777b8ba9c89e86a9bab9dbcca7e9989cccabb7bd98ab5b877a888658c787a78a5bbe9
col17:   a8786466585bba697776adab8d9499acaa7d6989bc8f7aab8caa8858af877aaa8887a8647a685573
col18:   74768c5b778baba5a8877a9b9aa8ca9789a9ed7a899cbb899dd2ab7adb989a5a9899659aa9a87473
col19:   6a787767857798879987a8b67a69babb7c99e79abb8d495d4979cdc8c7b878a9c68c979c96a9b664
col20:   77b78783569767a7766b78ca9ab878a989d9aea797ddc7ca997cb7ac99bbbbb984997a68a7684584
col21:   689a46569aa97c79988887cc9c9cbacabab9c87bb8a8998d9a9b7c8986a7aa8999b6887798b99944
col22:   b996a89a59a78b9a97aa889768b88a8a8bdadcccb7babdbaad588aaa8aeb76955897a8ac96595787
col23:   96d6a94b6b69a856558a8b75b89daacba8969989ccc78aa897a586bb8aca8bb75969286569775347
col24:   579ba8886887a965a8788978baf78aadcaaccdb8ac867b7a7aca94bbaa87b8a7acb8aa9545676495
col25:   9bbbb75c878abbc88ba8b988baabc9e87cbdcb77babbcc99aa9b8c9aaab7a9a85a98574829ab9881
col26:   99888bc96999ecbc89a7b9deb9ea8beabebbadca8cdb9cbeba9da9acbe8ac6bbb9cd5c6eac8daa76
col27:   9cb77b998a798adbca889ccbbbaad7abead5dadaba6caced89bfb8bae8a67ccaaecbcac9989a7868
col28:   7f9dcccad87bc5787a99dd9a99aeba96cccd8bb8c88eecbefbcc9bcac6bc9e786aa9cd799a6598b9
col29:   78c9c699ebdaabbaae28aaa6c7a9a8adfc9c66faac8deaccecbab976f88b9ecd4b89c8599bd8ca86
col30:   bd7898bd9bb76babdfbd9ddbd8a9da87acfe97cbcd98cb58acdd8aaa8aadcb6bb8998c76798c6c86
col31:   8aa9acad9988d8bca5a98b9aadc9afd6cccdddacd7ab9bbbbbabcba6e86bd9cba879ab9b9b5b9852
col32:   3cdaccddddac9797b99777da7cb7dd8b9bbdecaadf6cacbbbb9991aaccbb9778ca8c67bab96d875a
col33:   fdca6ab88dbcdcfd97d8cba9aacbddaccbcccb9bac9d9adbe9e9a9ca7db7c9a7e6aca6aa99e69c79
col34:   8cfeccbecc99c97bb77b967aa84dacbeadebda9bba94cc99cc9fbe8caaceb7a793847ba7bba96476
col35:   aa8a8aaadcc7a8b898e78bcba8bb8dcf9ffdeaaa8bcfcbad9c99cedebb7d8aca89b6d967679a9c79
col36:   99a9869bf9e6d5ba9a9dca9bdbd9ffefedbcbfdaebd8a9ddcddcda9be9dac8adcb8ccb47c66a8783
col37:   c76adb9fb3abc9a6bd8c7c9bedbb9dbfeeba9dfca8eefedeb8aaaaa7ef789bcfe899b66b9aa8bb75
col38:   9aacdeacacd4afbfbaebcbcab99ef9f8acbdaddcfcc9baa9bbb899dd6bbdccaabda87b9d9cceaaa8
col39:   9db38bc8cc9c9d9ca8ba8a9bcccfcbdfc8debbb9f7ccbdd8db989a7efccda99aadb87bc9f78988ba
col40:   968c9ac9998abcbd8d8e7adaddbceadedce9bbdc9aeabbcbabcc7dbfdcfacbeb6c9a998a9b88acb8
col41:   c6acbab7dfb9aaacbbbad9b9fbeadbd9bc8fcbaeaccadce9a8eecbdcaaa99bead8ea8da996b9ab74
col42:   addbbb6a9bdcc7acccba9cabcb9daabbaaacabb8efaabaabeedd78ac8ccb787b5eab4c7aaa98b5a6
col43:   d7a9ca79fc79abc9fc9dcbbeb89bd95c6dbbddededbebb89bf9d9cfdafdbd77b99bd779a9cbb87a8
col44:   aba8fbb7bcb99dd8994dbdecabac9caadc3cbddc8bfdceaacbec9d9fd9bcbaca9d8a57b8cab9a6b6
col45:   b9a99adbe9e99dad7dcac7ccba8eefc9a9dcacda9eaac9acba97debadabb8b9a8b9a987c99b88886
col46:   9ababbc89d99d8bc9bacebadae99becdaddfbcb9eccefebaacecbc7ab88ccfaacdb98c68859a8a87
col47:   dacac6d68afaea8f6789ebcbcecbdfebbdcdcdbcccacbbbbcbea9dfd9bd9d9b9c9bcbc9ca577aa56
col48:   cdca77c7af7aa8beccbbacbaabb9ccdec9bbdbb87bcdbba7bb8d9eaab6aadae99a65cbc99bbd99aa
col49:   8cb878b7edcc7cbac99bab8ebbcbf5fbadbeffd8addbed9baabbaedb96a9dbcbcacaaba8ba55a78a
col50:   b79bfc99b8dca9ca9bb79ccbb5daabec8aadcdcc8d7bdababda4afb99ccc8e99adc9adc6a67b9977
col51:   b6865f649a8996997849b9ac8a7a8cb5ac69aaeb798999b799aba958a997b85d596589776baa7595
ROC:	 BPix_BpI_SEC8_LYR3_LDR22F_MOD2_ROC3
col00:   66576587a698867b956a899765b8b4799c9a77162867a467776cda9a8577a7578a93c668a6564687
col01:   57648863a7b86baa76a66899aaa77c76b7b7a7bb9a7999a9b7c689e7bae98987bbb799f67896c68a
col02:   b26968c96c8a879aa3e7ccabc7aa98498566a9d98b7c57ebc7bd5979ca97677a6aa77a35aa58aa68
col03:   8b9588978a7787c99fc977fa98a979a4977bc6ea88699db8d5aa9baaca9b8897a8b7779967c6caa7
col04:   89a5b6796945bb8babaab97799c8797aacb7c9abceacd7b6a7bcb9bb99aaab7ac97737bba948697b
col05:   49b878a5b87857b58aa867cb9a797e5babd98acaca9cbc9b6a94bbadabc9a7aa9998588755778b5a
col06:   95896b9866ab5c986b748c9969a7a87a86acb76ca899afb89a578da5ba68a65a9c69a7a879b945ba
col07:   75869aa58bc6c98878a7aa9a667bb89bcbb6e9aa5b9c89cad9ebc8ac88a9c5ac76c89a776a798aa7
col08:   6768bab5d8d94aab7ba778a5a59b8aa8a98ab7984779ba3bad9cba98bb8997fbb2ba85b7b486badc
col09:   97a875b8588b89a9bb7877d78ac8ba8dc99bbea6aa46ba9dd9d9d8abc5abb9966d88a6a7b8899586
col10:   a64928af998888ab8868a7a89ac6bbab47768a6d79596b98a7cd5c783aa9bc6a5aba74a68a749966
col11:   47828948c8aa997cab5bbb987ba9849bab5b369ba9688798c45578aaa97989a688ab7759a7c7b8a5
col12:   96876968bc9898ab98cd8ddd7c8b9a8a68b979798e8767ab8aba7cb7bb7cbaab7b986b868692c657
col13:   666a85a58aa7d9999c8ba86887bc9bbbc8abba7689fa896b9abe6fb5caa8ac99b4a98777954bc688
col14:   15b55a99a679b98a869abda6aca98abc7c9dca999bd98a877867d9b8abe9a88889c7ad967974a59a
col15:   43659b73a53ba799a76a984aa6997a6aa799badaa997769ad699ba689b496977579958886ab5ad76
col16:   88766a68258d78b8b8aa9b99ca8cba894a86bc899b9a6cf9c98b9aaa8b98ca73b69ba96386cc8874
col17:   7668886dd9a46685ba7ab578869a7d9b8ca9bb8d79aa9c6c5a984c9c6ba8bc89c297869a76748b88
col18:   4a4787bb7b9779a6cbaba8dbb7ad87aaaeb68a9578a8ba8d9b7779b7a67a99c8ca87989a88aaca68
col19:   5764a984c898aa8b8ac979a7a8b7ca4bc9e9a9ba9ac9d9a8f98aa9aab589abb7aa88b79d89987889
col20:   7798ab779b987988a95a79377a97c6a78dace4b89898baa6789ddd97859ad8995b869a99b778b6a8
col21:   c6658c8999a7ab548c48c596487a7885bcb9989975ba67abb9c958acd885a8b6aa6b5a4957a6aa47
col22:   a68379778da78bc4b79b8c9997aa9b98b9c98aa7a9c99887888ab99b69998989a8caba8b86b99398
col23:   6475568bbd7c988698a6daab88abacdbaa88699cad888aaaaa97da88d944599a6a9788597b8799b8
col24:   87a7849a678b567248b7aa8ba6baa96ba98d8a9997c4b99d9988a9a99a5986c8a4875bba8476c8b7
col25:   76775a66ba7998d7b99586779cb9b95bb9bd889ab777eaa89d8664cb8acbaaa873a8bb96a9a846d5
col26:   999aa6b36a79bbd9b88b9cf6c89d99d88bc8b9c75adbbdeba5aaa8c87bea9dbbc9abcadcacaa9496
col27:   46876886ba9998c9897e9b99a997de989be8ac6d9e7ca8ac77a997bc9cc94c96979988abc99bbbb8
col28:   ba8bc5d88ca9cb6999ba889cdeaeaacbacbee9bc9bbcabdddedabeec6f59aa7e8995beae86a79a98
col29:   8ab9b8abb9ca678b9caeb98bc96996d7c7ed9cac7cc97aa7ac9adb9c9baac7cbaaa785cab88abb9a
col30:   9b39abaaa8989aae9c8dcc97aa989a9cc98c569daa8abdb86888fabbfbccab887c85899b48cb7b89
col31:   74ab8dba68c9cb7cbadadcdac7addacb9acb9baabcac8dbbfae6a999babcba899b799a5998aba8b9
col32:   efcbac7a3878aac7dc7aadebcbbc9a9697db9bbeeccfacb8bcebebc8c9bdb9bcdccdb9bcbd9babd7
col33:   99a968a9bc68e9ab88ed9efababaa89ada7e6c6bd8bb7c7b995b978de7c76ca9a9e87ac848bba5ad
col34:   76da9a8da7aedcab9ccbabdbcfab8eadbccdca9adaaaa9dddddcbebfbcf7bd98fcb8f99aeab99969
col35:   96b99bc68bd88babbcbac6cab9aa6bbec9bbcbaddc8eaba9a9bed9cbab9c898a7a7bab9c8c97cc9e
col36:   b999b689caccbca6abcabbbcc9d9cbbacdcbbbd899eafcfc7b8baadaab97f78ccabdbbfbb57ac59a
col37:   f7438bcb8bc7a9eac9bbdfbb8a6fbd9b9ddcdfcaeddba9abd9bbfbaca9fb7dd9dabba9cfdac8aaac
col38:   aa899cbcfceabaceb8caffbddbecdd8b7cdb8a7dc9fbcc6b9cb9a8cbacee9bcc87ea89e7b8ebcdcd
col39:   8a99ab87eddbbc98dcdd97d9cbd98cbca9acdf7dea967cde669dbdbfe9ae99d6c7bb9ad9bc8987cc
col40:   e876aa97bc7bb977dc97bcadcdbbebcaedcaf8bdc7b9dcddacbbdeea8bcbe8ee9bdbaaeddc7db99d
col41:   977667bcb7afdebcdea7eaabcbdebff9acdaaa9adddccd98aa9fdcbccad99c6cbeabcdbdcdcbcab7
col42:   78b79db9cc998ab8aa9dcacccbf97bbbcaa8eb9bc9abacfb8aebcdfabcbd7fab9dc7eaa9bfbb77b5
col43:   84a5fadabe88fdbdbe9adcce8cddade9cdccbc9ed88b8feabdeeffebbadbefe9fbadaa9bc8becdba
col44:   689699d9ba7d6cc7fd9e9fccec7baaddffecfdcceccecacbafedf79afbcbbbb9cfe9b8deaebc9f8c
col45:   8aba7ac9a8b7ac8cbbafccca8abcad9fa8cac8c99efaccbccfc998ad8babb8aaf96bebb98dcd88a8
col46:   85999b8e9b9a9a9ad9adbeaedb9dccdd8dadcbcbfcfee9bcbbdba9dfdfd8fcfbaadcc9dc9d4d7bbe
col47:   a8a8ecdbaba8acabaacdbb8cdce8bfbcacacd7ecedbf79bb9cbfeeaaeedabeebaaa89ac8aec8babb
col48:   ba9e9e87e8addcbbaabcaddcdacbb89d8ecc81ddecf8dedbbcc9eacacdcabbafecaac7afc99abebd
col49:   89987d5bdedcb9af99bc8bfaaccb59bf9edfebbe9ddcfcae8bbb7cbc799ce96ac99cc7aedecbdcb8
col50:   a48cbdaacb8de88dfdeaaf9edbb8ddbcfadbbed8edffbbfcfcaebaceeacb97dacabcc89bccbebb9b
col51:   996697e97a979b87a8d59ba89cc7bc89c98ce98b7aaa7bb9ad9d9b9d5a89cba9b59b89c568b8a6a8
ROC:	 BPix_BpI_SEC8_LYR3_LDR22F_MOD2_ROC4
col00:   6583794948685b999958c95a7bb675a88aaadbc7778b49b997cb5cb876bb6899db548ab736547cba
col01:   57ab78586a587c89a9b6c9877b6a6abfdfb8ab7d8d6aa86b86ae8a99dcabbcdaa89baabaaab89c68
col02:   35a86868599a69657578998c86779e9989a9dca7aaec578d79c9a78c6bc8b7b67ea98ccad8ac9bf4
col03:   4867a65993a6a6c8a8b8b88a99ca98896cbdccdad99b5baa7bbcbd99b9ba9daba84c776976b8b9ba
col04:   a66a8777c9967aaa7b787997b9f7ac9ada8d98a6f5afc6abdad5bd7c9977dbcdd8bc6ecaabc8a49b
col05:   86868bbb7aba6895a67c88a9c5a8dda7b8989ab77d9baf8888aa887a9998af997a93abda9eebac86
col06:   9b87b8a7b9ab89948ba6ab89779b87aaa8aabead7acaca5bca979bb5eb6799acd96fbbc7b8bba9a7
col07:   b9599aa96a4679a5878a9a67ab6d5dbcdacc5c858c9aba7b8a89adbabaabbd8ba86ac72aaa89ccae
col08:   75876955a78676a3c7a19799a99aaa968978dd9aa5ac8dab9ebccb98a985a88ab68cca9a79bcbcca
col09:   498a88c9689cb59abb795b5b9bba84c696aa89cbbdbfae7cac99b8a9d9ca99dac88a768acb7dccab
col10:   5678bdb78b9b88b98accb888a97acbcf79a99aaac9bab6f7ad9dbdbed9a4777bcb7886c9c6a9a8b9
col11:   8954a79a6a86977988757586798798a798babb975a97978a7bb5ccbc689abadd878a6a98a668a78e
col12:   ba479653a39a87bbab9d8ed785acab8d98cad9aa7ebaba88cad8959bd87dbdd799da98cac7bab68c
col13:   645b7aa489a967aba5bb5bb98568c98bab8889bcc8b7c66a67a8da8ca8bb99ab69b9ea7a68ba9ca6
col14:   9a99975537b988987f883577995a98aa9bb8aa9faabc8b6c9b769787aa97766a97aa9aac6b8994e9
col15:   758377a68794c88bdcb869ad7ca4a87b99abac6acc66b8fca7886ba7da8bb5a97dc66f99c78597e9
col16:   789c99585788689a47e8895a7f9ca8b6dacaa7aadd6a89697b987da7cb9ab6aaca99aac6a9aa95aa
col17:   7b8868576976aa5767948bae7ab9aa8488cac7cc8a78cd98b9997a1871885c9ba9b68d58b9b997a8
col18:   7546a494698ab5789c7e8986b9a9d88c977abdb9b99999cbf9aab87b78d97cacb2bb7a9c9a77a87a
col19:   67257898c259a9b999779a6988a5a86aeba899ca7b9cb9c9699aa85cdb9ba9e6aa86a9ab9ddaa979
col20:   886a69568b885b153ca939c7a88ac85b698d969799b8b87aab9a889a6a7be87ba98abb86caa7a5b8
col21:   b7ac94c789aab89488ba7a58b2a87aba8989bbcbadaaad6aba79ca99e8dc9bd8a67b68b88cb8d727
col22:   8995db856ac89778b89859ac878bbb9df79bc9ab7ab998b8b99cbba7b9bc8a9ad885a89bb9779926
col23:   679a7c2b769a7a6bc9478a799aa587887fa6c8cb8bb685db9cba78748cc8ca999b7667bc98899db8
col24:   97566469acc97a7687b56b9c96f6ba99e85b9a9bba98da9aa89aebe87799e49baaa94cd6ba8ab88a
col25:   96656b677a5787c899a999ac8a79c7ca7a6998c88768e9a88b987bd877ab78a6fbc8c766ac7ac97a
col26:   996bad8cfd558d9bac9cccb9eb8ebbcb9a78d99aafaabcba7b9ca89bbacc9c67dabca8baa9ad9cc9
col27:   b5a67acac8c9c887d97d87c7cdccceabfc8acbcabc9ec99cd89bbd9bbc75aed85a6de7997cab9ab9
col28:   8d87caa8d8ab8aa8a9ea4d8dc1bac8db5b9abdd78ccfb8aac8eda7cb28d9888a89b99ea3f99d8e99
col29:   88e66cc969ab8ec798aa8ccbcbabce9bca9dfda8ba78fafa8af6ca7dbcb9bcaa76afa5af78cccb9a
col30:   abb87bc9dab7b9bdd749ba9bbdb9eaabe9cbcccaaa9ea9bcdabaaaac6a6aaa6c5adba8ca68cbde89
col31:   658a986abbb875b6e797bb788f9cd7bbb987cdcbfadcec4e9da9ab5799cad97bab7debdacbb99979
col32:   b676b6eb8aa8ccc86eaa8dfbb5bddb9bf68ecd7db989aab9976777aaaaaacf9f99976ad85ca99a9b
col33:   987cdaa98878bbc99daafcdc9dbd89b5b7d9ab56d8b7bdbbacd8a8b7b9ebceeccfbdcadfac8cf5e7
col34:   958cdba9a87b8dbaa8cb9bbfb9cbc989bbb79beacaa9fcfa99da9ca7d8898ac7798ca99fac98cb98
col35:   576b97eac7abb898d7f6caac8b9dadabecafb9b799bcc6b8e8eb8bc89db8cdcb9aaec9d7dc8ddb89
col36:   5979babadba68b88bdeae8ba89aab9bbaafc9eeaad9ccababcc9dfd9bb6cecb9bf99aa7bfcac9957
col37:   4abaea9d6d99d88cd9939bba9be9ad9cdbac8adda6abba69aca96db6b87a98dbacabffbed8aabec7
col38:   8c893a88b8dca7c8abbd79aaceebdbdfbd8ceabafabbbdcfadbc9afacccdecbfbe9ba78eed88cffa
col39:   cab9e6d7ca9dedc7adaac9b8cab68f8b9adaaecabbb99ada99d9bbe9db888799badbcd89cf6acc7b
col40:   a57779ebb89ca6c858dbad8cbcea9adeebdbb7b6cfdeadbcfcd69d9bdbaadbef9a9a9d9bcaa99acd
col41:   83a9aa7baaabcb79a89dcba8aaccbfcbbcfdabfafdbabcc9bf8cd99cb99ab9bbbb98caaddabc778a
col42:   97bef6ac796dbcacd8a99adbcccccae9ecdaacdbda9cadd7889a7bda8dcdaa99dddadda8ec9cd999
col43:   bc6cba9ba6cbf663bbdcaa9b7bf9cfcbeca8dbfbccddeccc6d9baaa6b7acc897b7dc88ba8b9b89bc
col44:   b69aa8bbfeddb5abbaa98aafcdfbfdae98de7fbdabeb9ccca99be6ecc8f999c9fb8b9b9e9dc9b9af
col45:   be47cb9baf8adad7c9c8989eccbfcb8cf6ab9dabf9febbcaff8c5da88abbabf97dabaac9aacc9b88
col46:   b7cdb9b99c8aeab89ebabca8d9dddef9bbdbb69aea9c6cebccdbdcebb7fda8a85be9c8bacacca9b7
col47:   cb57cbadaa797f97ab96ba6ec9d8bfd79aaa9bc9a9dbac769db98abbab7a8ee8b7dbdacb8c8ab997
col48:   85d66768ab89f885bbc89bfcbfbcc87bae8a9cec9bbbabbeb7aaac9aa7ccdbd8ccb89cc9baaa7fb9
col49:   898c655ba9c48db8c598c57edbaa9ca8fbdbcd8fa9a9baadb9aeadabbdaddcc7b2c78a77b86c9aca
col50:   68a6baaa67bbdc97667f6888ebf7a6a8bbeabb8bdaccbc9ff88dfbcdf9ce8dab9cbada6bbd7aaae5
col51:   b598a8b79db358984498aa89b7879865c3a9bcb9c99b69a918968a46b7aab5aaa7aa9ae95aaaac89
ROC:	 BPix_BpI_SEC8_LYR3_LDR22F_MOD2_ROC5
col00:   c72674489667414655664a676d727287a5489c91978949978a878a699555996a94892a4253815724
col01:   154a9465a8676a979a875d98b6ba879bbc777a9959b968baa877a9a698bb77b78676347876633279
col02:   6586465898a9c6a866a799d777ba986849747c8796998edc97db69599fb69aa5c97876648a449585
col03:   8988899a9a84a8a83baa64cdac97cc58696689a55babba3c9a98e8a99a776a5666b5aa572585a566
col04:   8876667b5b5688da87959b9388c88b687b6aab79a7b978868b8ba77aad9579a87ab9ba4874a9539b
col05:   78277748aaa2c7ce9a6674d9faaa98889db61a7aa787aa37d98a998aa67a962725645675376c5744
col06:   8828786539467d88659497b68fab8ca9b956cba44968978b865775b79a8785a9468a84a9c5959aa6
col07:   6779a5a6767857a8885cb677bb9888a99ea79b987a685bd9baac8b75a99b537b8aa3798b657586c6
col08:   8757288b68d78e868a88996799aab899fb77ac9db49579a8c66569885c8798797859589684359726
col09:   9678996dcb578675a7b6418a88976b78aa736a5869d7686a98b9abbbaa9589a79957b837664ab7a4
col10:   aa96615749789b97bbd997bb8b8a7978bca9a89a98ab9dbbabaa2aa898db589759a4644c98865664
col11:   88656768835ba887499b7b9997c969a8ad8997eaa27ad7553e98a4c6a8acaab695793666b9848875
col12:   57973a58748c4977597a9cc988a5a58bb75a7aa86977b945b78d9b9dd6b8ba82c9476979857a9676
col13:   b2b5978778b6657789737d7ba69e9a8cac6ad8a89d9b79285aba7c9ab1cb54758a4d5d6d2a8b7594
col14:   85b56a96b76b699c76b788c696bbb5889c89898895a9e88aa5bddc8abbca588959a896954c6954b4
col15:   649b669ad7b9b897b798f7ca9c7779875927a7d687e9b67ac969cdaa8a3893599774b88596858769
col16:   6a48ba75a87977855b88898ccb99d77daa7977bcabda9b9696aa8ad6ccc788989867b9a36a7356a1
col17:   abdc799319b68ab9968acba797ab8b897ba99eb496ab7f8ac8965c998a6ab757a454571436967763
col18:   7794696a74a979579a5868678babd888887848c97bbdb9ce7a9159ab8899b985656669586b461284
col19:   8aab3a9a9899ac7a9bacaa8da98aa9acabbdbb97cca9a9beaeea8cbbb88c9978da6c7a6747676865
col20:   d565a75595778d69429a789b9998deaa68678cabc7ea75b7598ae9988a9da9b96398879386568681
col21:   a77565998ba58a8aa8abceabc7a788c89c7e8a97ce6655ccb8b8ba7aa9a8c498c87acb6667979867
col22:   58859b789aba46784a4a68abba97d7e78cb9f99a488a879ca37bb8ab7888aa596977586745933681
col23:   4447c598767522a9dc98ab8d9aa36aeaa6ad8da99979998ca6b7788aa99bb567a6784a68a66586c7
col24:   b5a7464781a488c55799cd6aba9866aada9c887acd67888aa669b95aa88774b8856a989bb6659838
col25:   986887bd819aa59cbca88aabbb8cb9abaddb9aded7abba8a8aa7c78cb9cbc85a9998ba364955b474
col26:   c588ba5ac97a9bcd7bacaebbecbafa7ba8d8adbea9cad9acaf99b6dbafbaa97da755987a9b569765
col27:   8c59797667a59b9e9e9adaa7ea9b98caea8ba58aa59afc79a78bbabcdc99dabb868796aa993796b6
col28:   874cd88988aab8a8bca6bcadaedb9cdfbb79cabac989de99cd8ccdcd7bfacb6ae7a64a8aae975876
col29:   a9ba979868a999baacd9cd8ddd4bbccbcc9a9bc8c99e958ac9bf6eebba996ced6aa8689b8ba657a9
col30:   97bba57c876899b8c8a99da6b7aac88aba9cabbaabf8ed8eddedda9cabb8c6e8dd669b9774873b74
col31:   ec988ec998ccb9f9fcdaaaacec7ffddadafb8dcbbbadc8aacaab8adacad9b6c88ad9aa8afa9a955c
col32:   b87f89b899d9afbcb99cabbf9f8bab99cfacd9fabbceaaccaabccfba89cbba7aacc668ac78a6b598
col33:   e789a7de493b9b9da7d9ccdfb9d9b9eb8cddeccaebadc8bda67bb6bff8cc8ea87b9b9a7c4cb35399
col34:   a99e889587d7c7b77acfcc8f999e9cfeccd99eabbfbfbbd9edc7bdbbbedba9998b9cbeb866a7baa6
col35:   9a596ccad7c8cc7babc6cb8ddceadcebdabb8acbbbfadfbadcbfeaeca8cc8e3a48b9bad5a848c64a
col36:   b9aa8b7785ddbceabaeba9aba78acc997a9cd9bbefaeac9badbae9ba7bb9c8d8c9aaa66aa8749b59
col37:   ba8bda99bb9bacae7dc6bebcbfc7bcdabdcc9df9feccbf99f8adbe9adeedbcf7abaacad6b9987c8b
col38:   66abbbdabaabc9b8dbde9bdeebaedebcefcbb8ebfdaddafdeeeda9facf97bb9aac79d9988ca8cb73
col39:   9c7cacd8599a9bceab9abcbeda99eeabde8deea7befffdccba7acc79d7bcd9a6dcbaa989a98684c5
col40:   aa67d5895b7b7bb9ae7cccccabbbdbdd9c9dbdce9eed9fbabcfeb9bec8cbaabd8b6f9996ad9a6895
col41:   9ac9af49cee999ceb9cafdfbab9adcdbaccbee9aeeceebfdfbddca9e9cadc89d99f89abb7cb5b5b6
col42:   abbefaa7b99ac7b9edab9dbcd9d9bdbccddefc9eecb9fcc9bbe8fade89eb9cc89dbbab7bbc7c699b
col43:   aabde7dcdbdcccbcadbf7bb8ccfcffcdecebdbecbbdbc6bcececdbfdd7bad9cdbe8fdccbcc9a9ac6
col44:   db9bba6e7d4ba6b8dbbc98ccfadaedc6cd9ab9cbbccdfbc879cce9fa8adab7fcdbaab6e6d8757767
col45:   779ba8d66ba9b9e5b98cb9c9ccddddbcd9b9cea9efba6eaaadbdbaabd3bbeaaadab8898986778795
col46:   b87bbaaf6cabaec9d7dbcdabdeadc7fe7acececbfd9bcf8ebcb99d9beaa5baafaa8e9ba8e8a7c776
col47:   ac8597eeabb97cbdc8feddedcfd9dbbc8cfbda8edcbffdda9a7ffddfbdebbac999beba7aa7979b72
col48:   c9c98acbfa9a7bbaa9b7aa8d98aeebbcbddbcacdbeb8abf9fcdd9ec7f7eeadbcb8a6ac69b6ad5a57
col49:   fddd7998bfdabdcdd9cadba9cadcfaeafcdffedfeafdffaeddeabbbeba5c88bd7d9d8ba796778a5a
col50:   f79bbac8bcac8be8ad9fd99beffdfbfabbfebbbddcaced9aeb8cb9fcceebcc799a9bab99dda99787
col51:   fcd78b68cb7a7d99aab67a698f9c9babbe9b7bb88bb8b9dada59ea76fe9c7ba7a788987a58883189
ROC:	 BPix_BpI_SEC8_LYR3_LDR22F_MOD2_ROC6
col00:   88797697286579598784978675bc9abda9d947a9c59c96bb8778798bb99b68578968755a67668454
col01:   8569a8b9688aa5b67cabab8c889cd87ca8866ccd9886b9b97b9b8aaa988d8bc868793b5788445771
col02:   8b37578aa7aaba897eb8a9c77b989f758b9ca898cacaadda888779a778a6856456197b8864687758
col03:   6c977da9bc5a83ebc98ea7a78ce8978a98769cb7f9a99689cccab79c877b66d98b7844b6ba796976
col04:   b7b89b675a8baab7b99aa4e8c5b9d8cb7db9acd5bf79b99c9cd8cc68dca9a89b8ab9895544b58743
col05:   777666793789986f98be6bbca98c98eca8cba98bc9dbaaa8a4c8bc9b79647938d78585a763556941
col06:   ba896a9baac9a4e66b8bd87acaad89db5f9a7b5c6bab8ac87b9a9ab8bb9587a8997886a789a97784
col07:   9867a8c8abb6c79d9ac9dc969cfabc59f5c96c998bebcab89a587ebb6cb74ac796689758b3965745
col08:   89b791aa679a89a4b878a7a88abdb9c738a886a98c8b9995eaa6adb8a9dae8d96b956b7365886673
col09:   268799954696a88c9cbaabba8aac87bcaeccacba87bad7a9bdbba5a688b69679c9867aab7468d788
col10:   7778989da7d9a879bca8c99abbcb89b8799dbac75accac96978a89879a8cba76683c9b58b5673b59
col11:   bbc499788c678ba9daaaab9976a8aab6896dbb9b9ab8ac84aa67b69999aab87659888a6487346444
col12:   454997a6aa78aa6758c97ea8cad745aad89badb8c9e8999cb696ad8948a8a66b7588697749a69825
col13:   4a99a696985a97b88bbb7ba68de949f8cd7bd6bab9d9adacaa85789ca96d689ab64b86b976678543
col14:   7475d498597675da9a7bf8b767b9b989c8a788ab7ba7b65899aaacbb67969668ac46d878aa69586a
col15:   5a4bb8c98b68c778abbabdbacbb988eab879979b897869aabdc9998876b8c5713a374662aa789671
col16:   6aa676978a9a745e799c897daefadacfbfa68adfcbaa868a7ccbcbca59778bc978a5b75768563d35
col17:   3d99478dc8aa9fbc7b89a9aeba9b6a9b99dfa8bac5a7c9a7a98abaa7bc8387858636885562551731
col18:   17e87988d58ecc95b8a9a3be99a697d9eab8a8ea9ac7a49b667a9a8a97974a6598769a646a246784
col19:   89a799a9749f9a8aac99bbc96699a87aa7b9ddeabbcd9887cbdb596a9b759347b59a6899595aa561
col20:   a366b83598749b6a7899aa9b96b998bcaed6ac8ae8a8a77584b68869aca795a77864a57745127883
col21:   57ae7b6ab7a39664badd8bbbcb9ed8bddbc9d999b9a8788c8cc5938abb67676a585695ba9a8934a6
col22:   fa8558997b9a9bbcab889b8b999d8dbdc8bb9ba9cbb999bfa757878479ce4954b76b644451585a56
col23:   b9389976b88b869abb7bbab679f6cea989adba79aa887a6b4c98a854187628897857c56724764435
col24:   a6975778a79d9bdbcaacb879ba6bb8a7bdbbab8afd6d66c8d7aa778545796646734863a866775356
col25:   b8658a8979ca98aa8a798c9b6adab8adbcba9bcaa6c799996a965aca268d8897899c9776a3586574
col26:   faa895a9b7797e6edb389bddca879aaba899baadcadbdcafb9de9b67899d99bcaab6d6995567699b
col27:   57baa7b897dda8da5aa7ac6aacd88aaeeeb996c87bfccd98ae8a77c96675aab78784d848a9a74a77
col28:   f98aaaaa9c4b79ab9b964eacbbcbbb9becabbcacbdc8a8c8ac5a78aaa687aa77699698bfd6a48b78
col29:   9b9859898cb9ac9abc998c96baa9adb68cbbccfb7a7ad7d9859cccbba9988957781a858956a85998
col30:   fb7a98759a7caceabcb97cb98dbe8e9da7dcbcb8dfa8ebacb5bbbbba9ba89aca8778858983593ab7
col31:   dba78a76b8bacccba8e8a7c9caa79c8dafbd7ea9fc9baba8bcc9b69e68cc98c88a896b4567c6a656
col32:   dba9a99a5acdbc6785dbc8aeadcabdabdcccdbcb989cbb79a5a874989b7cb867359896cb8976c779
col33:   cac8eb7bb98e9cc8a6acc8caea5bbfdbbaccecabb8eccba9a7c78f8aab9bfd99a7dea8b8a8ac9877
col34:   f47a8bcc6b9ccc88b99a9cbefddadbcc96c8d9b9b77bbcacb6be9bdc7a5fd66b7a8a899c7989db65
col35:   d9989aa5a99ce5aad4abab7c9b8afcfd9dde8accdbbad9bbe7c9eb9d8dfabaca9a879a5a5a798689
col36:   9c59a8bcc9b9b9e9c89bccbde7d9efc9cabdc8aebc9cbac8babcdce9bd6cd69a9a8b6867e8769b44
col37:   9ad8ada5adbbcbb67bbdab9aadeadcfdbcfccc99cccaafcfcc9cacb8b9c9bcabba9d6da7a2a94998
col38:   6869a9e89ed9bcbc99efaeaec8ebe8cded86b8deadabdbacab8cddbb8dd998bbcba8abbcbf98b89c
col39:   9d888ba9ab7acdacbdaa9becaaccbcdebda99dadacbaba7ddb7bcdcab69aa9cdadb96a5bacb849b9
col40:   a7d8dcaba9bbcebc9bb9f8bacbb9bbfcbc88d6c7a9de6afcbd8aceecd7aaab9cdb6ead88b5b685a9
col41:   9896e49889cbbaaefae8acbfbadb78b9e5ffebb8a789d9eaabb9e87d9d99ccb9bcab8bbab79aa982
col42:   a78bbcb8dabc9eba799badadfb8ba7ecce9dedafcabd8cbcb96fc9acbc58aa97cdaac8876baa8955
col43:   79b8bac7998b9cbcd7e9bb9cddfabdc8f7c97d8bfa9b9bcae9febf8ac9eabbbbe888da97b5b768a4
col44:   a79acaa9e9cb9b8c8bcfcacbeacdb5cfaefcefcbff9dccebaffbf7aea9ceccbeefbfdb9cab8bfab9
col45:   eb9ab99abc4eeabdd9e8cecaad9aabce9bbdbd7acfbaecc98dbec9dc89cca79ee9ab8cbac8e59767
col46:   9adce7cc999c7b899dd6be9aaaa9bb9cdecbeca9bfadbcbae9bdf8bea8b6bbc9bc78b5b89bba7635
col47:   a94afec98eda9b9bcabd89bfaeab9c59cdbacbd6c9a88dcdccbafba879cdbd86bfd7afc7b86b9a72
col48:   6d9c6db8b7bddab7de9a89cbbd889c9dc9ffa9ab9d7debdbac897facdc98acd9989cc9abc78dd95c
col49:   57b5998b9cfa97bdfaa5b98aaae99aafceec8a97dca9cbcf9e8979ddbb7cfdebb778f98d9538819b
col50:   c58dbc898998c997bbaedbad78cedaeaacadbab98cec9ddfcdd9bbaba4b8c97babdab88ba8999ba7
col51:   937c54859cb944d69997ab67acb7a696c8a79dc9b5bc56c8798c779b69ca5a98a9758498a8a759b7
ROC:	 BPix_BpI_SEC8_LYR3_LDR22F_MOD2_ROC7
col00:   736785745589a54989ab97987a8a78bc699857796677446169465673667566565554956aa4947b97
col01:   93449639796c6aa4ab89b89c8beaadd6a89badcb769b895977669481a999a8bab69678c5698c7a67
col02:   a53292648884ed7ad964b9b9ed69bae999dbf778787e8bb5964698677c6989a58567799d8bb9eb79
col03:   736577786b94aa8b73ea7c7aecae79a4bd86a597bc568886769a9795a888aa86984a9a7679699977
col04:   457665957bba8abc558a9bc989c7ac8ceaa58fa78765c78d6957c67788889e7cb79a75a85a779ba6
col05:   5454b9989b8a9a78989cab89979998a47eb88598ba9c9986577197663857788cb99878b67988a977
col06:   8175b79b5dc679a74877b86c96d9879bca9babdc97667a9c78898889987a788c8a86c6887a969b7c
col07:   7a578af485b3978e9784a95a7c677a9a5c5999a4dec95a6a8ba898c56a5676b77cba9b39b5bc69da
col08:   9566aa69578753a2a693888977888799e97d976ba9b9968b569975599877b5558bb8c797966a6ba8
col09:   58646747b96aaa67aad8e75836b9589ab7a8a6b98ac8b9849885655a59d6863b88ed8958abc84754
col10:   739aad676798859a7aa7a7b7a57bacadaac697a8c3af97a357a844899b69a4b867aaa59989c9d65b
col11:   96969a67a8ac7a89aea7999cb996b7899a77b898367a776487a79a697795659cb85767a9b9aa3857
col12:   463aa9877775a7678b99b585aaaaa8a89ac7a9673b8b86654a866997836a64998966ab9674aa9649
col13:   6655cb77877baab9977bb7797c89988aacb99be9ba698bb668b57a777475d9968577598789a8aac6
col14:   5b73bb687ca5d3586a777789cc9aa8c8d8acbab9ab96f8a5d69634aa79ca89589798946879847c9b
col15:   a2c5974765aba846a9c656658c8d8ba8aaa7787b4cc8d86948799779666c76999978665956768567
col16:   53d78979cbb399acc787ca7a99a9a9ba8bf7a84cacd67a89a5589b5a375737a42485a99c69a7a899
col17:   5b5c5968695d9c57a8aba8aa786dacfb8ad695a986546a66577aaa88568b86427794645a769d9878
col18:   537ae7586789a9cb9789a7c8b6cbcbdfd8bb6eba997b977b93787b983279669664787c9458ab9455
col19:   487865b989889cdf9affbbaeaddf798afaccbac888b997977a96896788d997778488869689e656a4
col20:   866788487ba689b6d6a8ab79ac99e9ec8e789967b798baa4da67a4c8b5557486363a4657784597a8
col21:   4778995ac788dda99bac9ddd7cadc85c7aadcdcbc68ac888a67749d2a66a48595665497baa9aa689
col22:   87998ab7b7b8adb8abd77dbccdaaaa8dc898eabcbca5b968576a8686c5a9a6985686ca2a6684668a
col23:   167a17787b788dbc9ab8bbf769b6dfecba5caaa4896564db88794998b778498694978576469598a8
col24:   688b9a68eb8c87bcaba778cac9cbc9a8a9c9a7ce696986567ca6a996482185b6764478546c66279a
col25:   7888c9867547aba3cb89cba7eb9bdf8ccbbccc8b7ecbdc97a8ac9b79b7abaa7596624688768ba974
col26:   6bb756b479acfbe9abddeabcacafa9ba7acddac9d99b9bccb7a867bab468997986a775866a88cbab
col27:   76b669a87a97787a76dbd6ed9a9deecbc8cac9da9bcd776abbd87b9ef9bea7a8a96784977b5aa789
col28:   fc98bbd88a7acca8a9aa69daefab9dfbc9cdabdb8e8cedcbda98f7ca88dad9bbb86877ac88bba988
col29:   289669a899b798ac9a8afbdabcd989bbebab8ab889caa7b9bda8aeb7aab4cd8988eb878b697ca689
col30:   fa779b8b897898b79d99cab96bc9bdbd9ba9db759cb98d95b9cbbebd8dbbdaba98c598b9bba48baa
col31:   c98b9dbe9b5a8c5d6b7cd8d9ac9ee9da8fcadeccdcdaedca49a9bd49885db996b7a9ab99cab9977a
col32:   f788ca87e995aaacc9bdeccbdd7aecdfc8bcf99dcb9cefbddcdebeab9bc7aa989a7afc9bbb96a9ca
col33:   57a7886ab8c7995d8b8bfbdfbaafbbebabecec7b9cc9c89cba89aac99b79ad8776b9a7b96a9c796b
col34:   fac796ca8969bc99ba95cdbbacedb9bfe9d7fdbabdcbd999e8abc9c89dfefcebe9c98d969fdcd9a7
col35:   a934cba97ab99ca5a4bfd77cc7bcbaceefceed8aaaccbb88dab8d9e7b8eac5bcc87bb789aa677dba
col36:   f7a7b4779d9caaea979abbbd8dc99cc8bdcdcc9bccc9dda996ccc88a94bffcc9cb9886b8dab55b9b
col37:   d6aa8dbc7a78cbb8bda8acaccc8acbdb9d8dacc88b8bfb9bdcb7b7887cc9bdb5ba7baf8d8a99acbb
col38:   fa4aad88ac4bacbc9aeccbbbab99cfadcafdfacadbebc9d98afcbbca5bba9cc9e99a58d97ccabba7
col39:   d4ccc498b798889b8df89d87bcbac893ca9dbbbe7aba869facb6b9a96b9a59ec57e86ba79caa69ca
col40:   f6caaafa8ada7ca99bdc7eb788cd9fdccda8b9a8aad8d9acdbca7d8c99bb9aa58dbdf59aabcdcdba
col41:   ca79a9faa8eedcdbcadb77adeeacfcdfeddbbc7c97df9a85bc8bb87997a7ca6bbb88e897899649ca
col42:   fb8887aba7dacaccdccfcaccc8cc9dc8beccd98aabcd8bcbba8b9bc7898dc898a8c9dbbb9bcf9be7
col43:   f4977c8baedb8ccafcb9adbdebcbcbbcccdc8ad9dcda9ddc7eef88acad7fa9aaa9cadba999ea9abd
col44:   f62f989ead9b79d98ecbdbbceacb5efc9bdceae8e5d87899bc8be9a78b89eaaf9bc987bb97897fdd
col45:   f746c7a9ad78ab7cdaccbdae9eecfcebeaa7a5a9be7eacbca889b9a7bdcfbbbadbadc9dbb8dbd8cb
col46:   fc68b7baa9b9ab9897eebc9f8edbcadddaba98b8af8dbaa87d79a58dc7da9ceb8cabbcd6cac6f8c8
col47:   aa86aab87c8bfc99b8c89a9ebccafcc99bbaa59bbba957886a89aa9c99b99d9bbcaaa98ba8ae8aa9
col48:   ff9899b9f8bb9cacabeac8dbbc9bb9ec978eaa98aab9a9cac89b8aab78b9c7a9c7c976ccdfabaa89
col49:   78b8b97da989c8ea99fefaad9ddad9ecbab799a7dc99ac78e9afcb9af8bb8c9ecaabcfa7eecd6ccc
col50:   ff6adaa8cdfead889ec9afaca8bc9cdbecba9ac7a8c6bba8a696ddc7bc9697baadaedecabd9bbecd
col51:   f4739daa887aaa97b979aab9ca88c66a3677c686c96899aba8b689962a97c7a7ac9877e7856d86bb
ROC:	 BPix_BpI_SEC8_LYR3_LDR22F_MOD2_ROC8
col00:   366678847bc6874753856591b836465388481658599756743ab9829897763394967997a71b9a7772
col01:   8ca694997849a7a979938767a686995778c78c77b9b8a786685388b7a39b4a89b5794b9cc7969575
col02:   9a5ab85888498777c5978a474865757a648879bebb87897a75a49ab897869629736b762774639a88
col03:   6492a63b642339817655d77975a38a847ae7aa7794a65ab5678bb5a88968c3595679c2d2acb4b5b1
col04:   678777a85ba37b965a564679938694b67b69ab77d497aa48d8a696877985598c93767ac8971caba7
col05:   5277a6a4996575883396667676a55677878cc5aa679a8ac88c84da95b89a9381617a6c765ab6f678
col06:   46664c57a867b45978ab79874357b95799697ba6b8bb8abc67a69b45a28569797979a68956869846
col07:   378b7898a148b6965ab676665b8a777bba9cedb69c77689aa9b6a971b7ab667ba73796aa36a88465
col08:   5697b9668c899675c8db98b8dcc986c96a85aebcc8cb9a58899595a569875a6563caa8899ad6d894
col09:   66558987588d86448d9786c5998798825b99c6a84aa9469778b9699aa74995a9a4d544e479da89b8
col10:   65847778b6b967a6b8635782b9b56a668b68c58ba96a98a398d8849a69b73467889da99a998c65ab
col11:   55a855867336636518851a8956bc874a548a9ca5a996b86934a9c466456963b57ba7fb84798b7ba8
col12:   339a586885a68789978953ba95aa759b939ac8879aa5b87bb66a83779668666674adcc94796699ab
col13:   377879598a5a69558889944b9769678694557868a879bd66a65568b3445b8ae57577f47692a89cc6
col14:   699197b857758716a57c7b77489a7878987d988b889b7c79dbb86ccaa877889ab8aa84abbc796898
col15:   5955a788885a5b44b798c9945c448243bb8ab8c44998c89ca367c7ab8965895ba9598b9baa8b5781
col16:   a187a8975555a84a653b478797c77793a7cdd459e99849bb87a57568989b969ca6b89d678959c7a5
col17:   6c575491877862964a65576a4b668957c898ab54587a97ccabd558457b5958579a7bb97b35865b83
col18:   56a7a73579b167a73999b767d7a89a76b638a86a95a86a9a7789bb74a77fa782759766469839b562
col19:   82a6654754ba999946876869a7767a6b98ad99da87b4baca8a87acad98688697988b98c9dd778574
col20:   9775a87a4887937989b8a597788769886b5ba561a879989caaea71bac4ca779496775b896cb4ab94
col21:   7474b6896a79666b587a47cac65a799797be78d5a9a2a99789758595b54a88bca799791a79d37895
col22:   4877787867885893a7567a9b4a7e54a576dacadeaac9c977bac9c94d99788b9579897a67794a8586
col23:   976581377956766997977756a9a75a88a7a77c9b8589ce585a6a69d43941a95a58b5b76a58b15776
col24:   5a7764556a4c9a9569674757a97898a7cd998945964a496b77a578b87a63a476c888bd5a88939b82
col25:   965b76aa74a726885779c69b7848789798e8a9795d9d98c9879985cabba67799a876f465b8bcac47
col26:   689c8d5ba798a99838a7b6bca79894cc8cccaa9abfb7ba9bac7ac8cbabed99ab7da9acc8e871db98
col27:   b476685b7bd578ab88cd89a765b797a6aac5ddc797bbde7cf78a9ca99884b58c99da9cd6a998897a
col28:   988977dfeaba8a7846bbda9a8977dbdabadaabd6ea8c96a7c7c8c989dbbac9898abac9b888ca6bf9
col29:   79b95bc97ac4799ba99798aa9a79ea8a8aa7976caa89b9bba8caba86bbb99979aa85a8b9bc996891
col30:   43aab36b68a89788a7aa86b6b8b8baa8b7aabf6bdac58bb65d89aa79b684a9aba8cbe79996757399
col31:   8797a9ae99cd8abafe787b98aa957da6cbbfca9bb9db9ac6eedb85ac9aca9ecbacaf99ad7aac7a6e
col32:   778e876989a9a79778babaa84ab77addcbb8edc9baca67e8cccc9abea878aa97996badc89eb85f89
col33:   7795838785a97e7aab8679a9c8ba87a8d7b8bcbbccd6a7d4eb887c99bc787e9cd5f9ab8aacb9fc99
col34:   79767599ac4a47a86ebe7979af6b7aae7f96ccd78ace6ad98df9c9aacfbebe9af9aaa986ba9b86bc
col35:   9b49b95a8d66b439ed896b6dc8babacdf86bab9cb88cabf99e9dcaca7ac99fc6b5dcdb95bb9ad957
col36:   9958877c476a59ba9ca9aa68be79e7ac9cdcbc7b9b8acdcd3f78b6ca98b99a979bb9a9b8ab97b886
col37:   64bba5adaaaa8ab7eacdba9ca8bcbcfb9bdbddecbd97bca86abeaaccc8b987bdbcb9adbbedc9c85b
col38:   9b9d5498f9cdc788c9b898fa9bcbaeccdcad8bda9cecedf99a9ace8b9cde9bfb8cfbc8fd7cb78e87
col39:   6877946ac58789ce98e8bc9cae8e8e8ada89cba78ecadaa6867afcce9abbbdcbbaa989bbca89cbe5
col40:   84c9776b48dab77a9ad9fdddab9b9bc8c99c89dcda9dbc78abdced9eda8ccced9a9cad85ecc5baa9
col41:   786d899fd9db3ca9dbc6bb8bfe89beadc7cebcf8bba9b8aaaa8aadcb6dbccdbba9c999bccae899ed
col42:   53b643ba9fdbbbccac7d9b978cc8eacbdff9b8acaa7bffcacfb9ccac8ace98aaadb9fababdadfcb7
col43:   c6eb9b9abadbab98baa7acccfc9ddbcccfba8dfcdcba6e7cdbb9c6d78a9ccddfbcfdc9ddcb9b9bc8
col44:   aba5dda1b8a7b9a9be98bfbc8fe6efdacbdde9dccee789fc9dce96afbbfb68fcd9afcc9cdf9aece7
col45:   98ab8accd8adcbb7b979976c899b5899accad9bbbabd9b7ae9988aba997b99dddabdbcda89adec9a
col46:   4c76aaec3ac86c6afaec69ac8d8ca9dfebdba9becdfd7bdcad9db8dcca7ebc88dcbbdacdb8e7b7a7
col47:   a8858b68976dbaebabd99a7babf88f9bcc9ffbfcdafcfdbdaef99ce69e9d5ed8bbbd9dfceff79aa9
col48:   ac99975a6bc8a8c8c9ab7dadd9ecfcddbbaaba9edbb9e8bc9cda6ccead9eaafddedbdecceca9bb9b
col49:   b44879cbdcca9cac7aaacdb8b9edbc9ebbeadee7ddab78abfbba8eabeecccfcabccabac8adaadc87
col50:   57899abbacec6db9dc9d77cfaaeeb7a9dbcdb8aafe9effbf8eaefdceadaafea87fdcccb48bdadcc6
col51:   19556684a988599494b7ba66cb79a79895bdcb9c59a98a98ba9677c6aa67a996b9a79989a98976dd
ROC:	 BPix_BpI_SEC8_LYR3_LDR22F_MOD2_ROC9
col00:   9e679793ae588685781b79c89889dac97a7679ab8a9977567a7aa6ac7ccc3a946687757899465765
col01:   6a7897776c667abb7bbda97bbba9ab8eafa89cbcc9cb9b9c9b889a68aaa6b47c8a848a57a85789a8
col02:   68bc8ba86897c74677a7587b8c798a9e89abc9794b676868a84797a98bb5c8e87496895485949676
col03:   cbd9ac67b4a88979b9b7ad8ccb7dbaa7957b8c8e7a8bbd9ce8db9ab7a654a88a599877a568759536
col04:   d8b889aa55576a8889b7f8a9898ca987b7cd6c86b7abcdecdb5c978698b6aaadc3897b6a89998875
col05:   88b37a4385a557976ca89476aa68da898db8a9b89a7a898c951dbba78ddad79f78b6577a7b778544
col06:   7776a5a5c878957bba884a9cddd8acbcc7ea98a8dc759cc8baabcabd7da99a99b88b57baa896879a
col07:   7888689a3558b57ab9a9b8caa9988a8b9a98ceaa44833b87a8b7fdec983b8a877a96b6a891778695
col08:   9aaa4548b878b89a498cbaca78b7aac7bb589a93ab9664c68c565aeb96858bd8a46e7b4577d83336
col09:   a7a9799988b8b579cbbacbc97afacbd77bb89d9eb8956989cb969c9aeb6dd88cbbb7ad888768a949
col10:   96834978bab79abaa9676d9882cfdcaab8fa9aaa995dad75978a98cd9a97a759b53784a644785587
col11:   895a7ab64776c976999b58d9afa98d797ae6bcbce9da7879baa986b6468ad979b4d399866a566864
col12:   bb7a56cab67a877997c9aec999a7bd99eb7fa9bff79bcefbb995b827af586d7ac7cb48821a6aa689
col13:   49e67c9b465c57874aabb39cbbbcafaeac9ba9897ac9adccabcad7a8aec893a67717b7ba7747598b
col14:   b768965a6b87d97a6877769776c5c87aa7aa9899abac7cdd79b9ddcece7ba65a68ac5f7a7ba88d93
col15:   88b9c878eb6e9899ad969d78a896be9acb94caca9866aa9cb88baad6fbaa9aab987b969ca8a18685
col16:   9991ab798576bbb9c3b6ad95ecdb967d8bb9a8e9ad9d9ac8b9ba98cbd9aca994d96789988636d8a9
col17:   9a779584875c745cba767948aca9a8abc796879dd969abb86779b4978bebccb79694795c5d977743
col18:   a9b87ab68979cac98559a799978bacb59cddcabcf68d99c6baeb686ba777aa67a8998b93a574b7b2
col19:   6b57486756ca69952cacbb88a96b6a7eec8a6a9b8d9ba7ad98bfe9b99b4ea88ba6ca966954843975
col20:   9847aa9766b98a83668aa6a58b9a96dc99b8a6a8db14dfc6c899b9a98caa4b6b9a88557955986c77
col21:   7876cb1cb9abb9aa8b8b9dba9abfac97dcab7999b69ad64b878ab9cd9e7ac87883a36b9868b66b56
col22:   9454c8b76688699a7ab83daa9999be9aacdba7aab8a9ac7983a78a9b7aad969aa7877585258183d5
col23:   a59893b8767755378b797995cc6c5b8ac77a887cca97a97b8988cabb68d79a689827a7b669aa9a64
col24:   a6a29977b757a776895b94a6c9aa995a767bbdaa6989a9b7e7ccaad8a8aa956877aa967c66581785
col25:   7668b89a98b96ab99966ca9ab79887db89b98cb959a999ccdb677a6b8c5ac89688696a7195a5a648
col26:   7a799b8796a77d8cac99d7d9e9efacc98c8bceaaabba9a9beed6dffbbd8c9b9d7aa9959779b9bd66
col27:   ac7589777869d7a8bc797bd9bbafb9acd7eabcbcbaad99caa8bb9ab8b9a899a98ea8cb89a5688762
col28:   b9bab8c579b89eb7fa7babc9c88fbbab8bb7c9e99acbbee6ab59a9c9cfcc9888a79a6c7e4d87abc1
col29:   837776ba8979799a7ac99bfb6b7ab7fbd78ccbacaa885bd9b9d8a96bddcaaf4a857783979a499655
col30:   7ac777a9e9abab84dfb9bf9bdaadeadcccb99ae6eccac9ba8b9cbdcc8dbb7ab99b7aa599766cb787
col31:   b868adaa6d7a98da9cc896bba99d9bccb9da99dc9ba9ab9ceccbebcb7c983ced788a9c48993658a9
col32:   a7bc9acd98b9b9e7da876ca9bacce8faa6bb9d9fddccc979dbbcbecb987caaaabe849679b9987878
col33:   c995c8b56b8a89ccbfacb9caabcdd89c87cfb98a8ad7b8de9eacacdcfe9b79dbc557a6ad89a8a789
col34:   866a9aa77bae9ba8cfa8cbceabc999bcf8bbb9ab6d8badcdaab7bf9addcbaa8e98cb59bbbb676ac7
col35:   f8d59a7b5b68bd9bdda6acbb9ccc9bbffbcbf7bcbbcbcac8db76dce9b9ca8b8bf799c865aa869a96
col36:   999d79a8bb77a9c8c96a8bede7a7eec8b9fe98a9c9dbdcbdcab9ae9aeadfdbc9dc8a5c987a7bcac4
col37:   ba678bb7ea4d73fe88cdcacbfaccdccbdbab7dabffaaddbeeb8cada8cd9edff9b89b79a69da56678
col38:   9ca889bcd6ddab798a8c7cacebcdcddb9bed9ccb58c97b89eecc8bb99ae99dbc987aab86c78bdb79
col39:   676abb88b7d869b9dcabeddcdab5babf99d889beb9cca8eba9ecf88debfddc9d894dc96e588a8d54
col40:   8abda9dc8ab98dc9acabaf9deeb9bb9dc99c9bc9f7bbface9b9eada8dbb9e6af2aaa9b76c99a3795
col41:   3998b886ba87788c9badd9abd9babf8a7dbcbefed9daedd8aefcb96ca8cdb5d9bdacbadbddd89c96
col42:   9b9b5aba96d6da9b6778beac9daa8db7dba827bcabcb9dc9bdcdad6bb8bcd99fbe6896dacdb97c53
col43:   47d5779b8cf5baeace9eb999bccfcbbdc8befdfe99bbd9dcccebfacafadb4ac9fd8d8aecb49b7b79
col44:   a9b7bca8aa95ab9caedc99aecd9ceecfeddb8aa88ead9b9caddf89a97bfccda7bcb5a8ce4aa8cdac
col45:   88acca9647c6acaddcaae989cc9cbcc8cddba6acdbddaac9fccc988ddf7c9baebb9abb979a86ab58
col46:   88baab6c898828c7a9cceabbca98cacccead8cba8e77d9c798d7b9aa9dccf6c4bc5c7ac7aaaf8b99
col47:   576995e5c56afdcbabe9ace9dd79b8f9dcbcddfca9ebaa9a9cbcb7becbf8cbbd8e9c9c897877b9d9
col48:   7b7a6ba9aaccbdb9a98ca997fba9aa8eefcbaa8adb9ffb9b8fbb9fc7dfbaba67e8bb84b69a9ab888
col49:   79bca8ea7abc598bcac7987d58baaecbddce7efbd979b8b8c9cdc9ccbceaad9aba68a58b9bc899d5
col50:   717a7f98aca9aa7caa57a5ee7fafcabdefcdaebffddaccdf6abcb9ccbc9ddb8c9a89c448896bc958
col51:   862abb6b5b98b8a9b9d975a9784cb9d8d986ac9cabb94779b6d75c6969ad8cb99a8994666a458981
ROC:	 BPix_BpI_SEC8_LYR3_LDR22F_MOD2_ROC10
col00:   899e652668d866765477267a77997a6cd788ab94535aaa96b6b66875886a74352656836346963432
col01:   767b6969a888b7c459fdfb7aca779b89ba969a5c97a9dabaabab799ac7cdca99aa8b975747a45812
col02:   8657768796b8777b79789aabbda78abbbb689b9bb7d8bbb49a9c9dbba9a6af88c6b6994aa49b4a58
col03:   879a36371679a8b9d85676bc9a9a8979a68ea66bac9a9d9b7899aaa96aad8b9a9789a58ab5215643
col04:   2425976a789583976587a6479d9fcab77c78bda7a9a9c9d6a7aa9cce86686fa6c87567a989669995
col05:   5a87a99648bd73da7b8ab868a8c6ccb7d7abaaac98969b8b9c9a76e959797c77977ba7b5a8726635
col06:   98aa74d867748a894798cc4db8da8cbada898e6cfcc89e9b98df89baf84bb978756586676d877885
col07:   499b583ac86959b79a6c576ab8ee99d7c7ccc9bb7a978a9689ca9aa9aaabbcaa43cbcbaa7a486855
col08:   4c767ba26b7a889898ab98999c7469aa9999aba9baf98959ab9d7aa6bbcbda879665c7b8c77a6954
col09:   a4b685c5ac9699899a6aaaaa9c9dafd7b9ba8a8b67aead5d7ba5a69baaaf9988a9bb659776989bb6
col10:   778aca7648ab71a756be5c7c9dac98db7bda6bb9ba79964a778a7a999dac85be688687975a5697b9
col11:   588aa585a786979b8899b8749799ac4c999897a9e89ba9ba6a99b5799b9ac5b9f7b88a49cb787728
col12:   a4aa78a483b899796884af974c8588aa8ccba9c6c955a77abb6c79cd6289eb577988ba765a586736
col13:   86b899bc9aab59546999d79f6ac889bd9a698fdcba98bcaa8a7b9aae6b467dba946b88a876b5b883
col14:   8a876b59bca4f4d7dda97af6ba9bfaaaecabcd77a9b899889a9aa86aaa9baa7889c6995db5763957
col15:   47467479b73cba7b79e7baf7cc8a7caca66eadaaaa7db8bc6c8a9ab9caaa9aef9955953589577566
col16:   67934a868c596b99893683878dd8bdddaea97c988d989597a796ebdeacb8d88a6bc648a884a86782
col17:   4b6788da9b785698a8dc29ab87abfdafb69cb6dc99b57ac67a869b88986adc9abb66887978858775
col18:   93363b55aabe673b8a89ca8cbbc9cc7c998cacda9a698796cc9aa595a9bbc85978a7b78b98b77356
col19:   adb7b9598a99589ae58869a8e99caa9ac9ab8accdab7685b57888bcad698975cbb7c54846a698966
col20:   b89658a5aa9c668eaa4947a8ebd99b79cc799a86bbc3edd8d5b9972a89a9ebd867b6a88a8b559469
col21:   98c7a6b965c458a7669b898ca8dbbccee8c99c9b5cbcb5789c8ab9acbc7c8c78987c67b789755261
col22:   866867bac5b9a877db9b9597bb94a7a8ac9cc78979978ba8bc998678eb876a9cab6944d869594788
col23:   8496566a68655259a992aa895a87ccebcb798ecd8cad876c677c9589bbbc6866d957d6b797556566
col24:   b65ae46b2897899acb88b88b6658bd98898bbaa8daf89b8b58bb86ba9db889678b78ac8b78898964
col25:   7ac989695b98dbbab867be7ca98989b85caa8c988e993698788baaa367b8daca8a98aa88ab55a273
col26:   b86b98477aabc6badb8c9eb99eeadbedc8bcfead9dabbacbcafbab889eb99cadd99a369ba56789a8
col27:   c98bb6b8859e99b7af93cc7d8eb9c7ddcdedcb9bacd7aa8c7e8aaa9cdd8bacbaa868a98aaa887a72
col28:   8bac995ad48acdb9cebbd99bddcacab9d687b9acfedbdbefcd7cbb8f97d9abacc987b78cc5867a5a
col29:   e788c3b789a9dbbcba79ecbcc99fbc9cbb9eebbae7c89bac8d9af8aacddda9699a79acaa96486973
col30:   d68b837b9a7b6989cac87ca89ca9bcbcafda99ae83ce98b8a98bbaccfdbf8ac9aa9abaaca67c9895
col31:   aa9c757b78ccaedcdbbebabaacc9d9aeddc9dfc9bcfadeedbdbdacbbafaa6df79acdb6b6a6a6e47b
col32:   da857ab987b88aaabbbab38bdbeaddc98bebacaf78babeabbbcdae9dce7bbfcb95c3ab89c8786934
col33:   7a984556aa88a797e79b99a89ad8edce9e8abc79abcafb9a8bd9fcfab8c9c97988b568ab8ba99cb9
col34:   b9b9ba9dd8b7ad77cc9aaacfecbabdcdcbdafbec9caf9e7aacdcaeccbcacaabbcaf9899caa8b9987
col35:   9989988b9dac5ab88bbbc9d999adebcfa9eaaa9fbcfbfcad8abacce7bcacebaabb888aac79a76c88
col36:   36a5ab6cf7c88aa8ccb75db6f6edc9bcfe9ade7daeb8668e9ab9a8abdcdba7d9c887a9599b98b547
col37:   b7cac87a7baade9b9d4ce88eececabcfadcbbcaa7ecebcddddc9c9bed98bef8acdbbcb899cb68a8a
col38:   abcbbba7abefd6999ba8aacbdedbecefbbcecdceaccecdddc5a5ebcbb9b7cbfdc9c8baba4ca8b8b8
col39:   9a5874d68afaa6999687ad97afccdc9cceddabc8eba9b9abb89cbbdac8ccda9688c88aa8886ac686
col40:   96a999879b7a8aabca8cbb8c9cbbddccfccbd6bdbceb9bdaeaacda8abac8abd9dacb77d88a88b886
col41:   d9ebbaa96baabacc8db7bcbcdfac9fdbc7fddad88fbdbcaae8aefabbcecebdecdfa7bbe6e179da9a
col42:   bb59bbbdaa97f79c6b88dbcbdedbdcadafbfd7ca9ecacd6ddafa9badadf9a959d8bc9cac8dbab796
col43:   8b7b9abc8b9a7edae7abaaed89bedeba87dcddc8cf6fdd9edbbcfecbccfbed7e9ededd9aa9cf5a3a
col44:   caa866acac8aacccadfcedccebc99e9b9accddbebdac8bdcabdfdc7eebeeadad99aea6aaacd95c73
col45:   7b8a978ac7ba5a9dbdbabacdababae9fccd9cabdbdad9cb99eba98dacddabdba59a66aac7a888c8b
col46:   cbdb9c9aafd9378bac9bb999ccfcbafbcdbcfedf9db9cddaeb7ccfccbdeafd8d9d8cda7e8685aa96
col47:   8aae8d89ee6eca6adaccce8e9feddbda9aedacca4e7bdbab8dcad8dabaffceb88cb5caab7cd74c9a
col48:   d97978aa595a89d7dacbbcd9e968ebccdbacfd78beedb89d6dbaeaabbc9dcac99aebbec8f6a98a87
col49:   e797a9eba9a7998cba9a9ed8ec9ac9aedcbbcdddf9cadcaecedd9f9dedf89bcb7abfabcdbb39bd65
col50:   bad9ce687bb7aabbab8b88bacbcadabacca8bdabacbfebbdca5dafcacacacc7c9899bdaaea888aa4
col51:   ab879967a6ba874a6668ab87b6d7a9ab697a8dea99ca9b6c98cc9dabd7bcbed9a67a49a757446a27
ROC:	 BPix_BpI_SEC8_LYR3_LDR22F_MOD2_ROC11
col00:   956787989a9777988b78939b79aaf7a89baeaca8aac9a9daa976b984d7aaca8daa7957a8e9b96b88
col01:   666798b995c9ab87bfac78dad77a7aa8ab6bb99cc9cb87ddfcdcaeaa9cd9ad8cc8aaa8c9ba9be89a
col02:   879bc66c7ae89c7bb799a999ba98ec9aa96a6da55bdf9bbab7dd6c867a7c8cbc98b999959cc9c9d9
col03:   b6a4c8b8b78ddaf697badcdfdba9dcaa9aa9b8ac9c88bbabbec9ba89cddcc97999b9df98aa95d9c8
col04:   9d5a79dcbba8c6cc77a8bbb7ca9babbac9cab989bebd9cdbb8aeec9f7a9a9d89d69a969bac9cab98
col05:   5755aa96b7a8c7c6899ebacdac85da99bcbba99b8c9ac879febaabec6dd9c9bbc6b9a978ebba9979
col06:   7a5898a989c959998fd8aa7d9adba9bc989cdc96ac99ab9ccade8c997b9cb89bf2fcb8cae7adacca
col07:   47b879858b9aaa7697ab9a787bb99acdcbd8cbcc59a9899beaaacadb7fd998ea9acfcbccbbac8dc8
col08:   58b975796b8997aaabdec88a9b9bbcccbb9ea8dae3acb8e7a8cafcaa8c99dc8b28ca88bb8b8c99a4
col09:   b87a69aa9b6abad9d8fadb9dcdcb8abc9bc8d7dbdaa5bceeaab8ba98dacfd9a56b7cbebceaaba8a6
col10:   28b7b76da8aa9ecbcba49987aca78a9fe96bd7cccc788d9ba8d98af9ab7d598c698cad98c6abcb96
col11:   679a4998cb8598958d69aa7babbbaba978d89c7a9b9b9c8b9a8cc7b8dad6b97baa6ba696eac6ca99
col12:   5898c969d4a8fa789998eab9b8fabbac8b9cbecfd8dadaadb99eaa7addca88a76e9baabbaabb9c9c
col13:   9894eb76cca8c6ccb56acaa7e9bddce9cdbacea99a6a8cfcdcbadfa6d9aca899a87989cee58ca885
col14:   a87968787a98acd9dd9bbc989b8add8bbd1bb97f9b9ca9d9d9c9bc8ac7bfbeac96988b9a9a89efdb
col15:   b68886ba84bc8a9bb9ca8b9ac96c8aa8dbaccbb9a9b6ccce99bb9bbd8cad9cb9cb88b875b9c99989
col16:   88aae8c887a9bb8997baa97d89abbcc68adadb9a8dcdeeacb8babd66ca979a56899cbc998577da97
col17:   a7b786b7c78b9bdcc6699aaa9a97caabba8bbabda999bcdcc3e9cdada9daeac87c6b788d8a4698e6
col18:   4d287a89bbba98388bd758da7a8babad88979e99faa8ccc979bbad6c8bd6e9aba6b7aba98a97baa8
col19:   a89579bbb8699deab7b7c98898b77cfdaa888ac7a9cbbab9dcf7ce8bfae99da8a99b586ba7c5a888
col20:   697ab7abababbcacc8aad9a89ac7ab9dcac8a9fa797b9dabadddcb9aaae8b9ccbb568aa788d979a8
col21:   77aa789bc879b96eba797c8ba6abedcbc989baa6acbecacdbfe89a9d9b77aab9ab9cac797bb995ba
col22:   9b5b5d6c99a79d9ba8697ac879a99ab8bfcdccf8ca88df8bbcda8c96a8ba76cb899aa97ba9db9c5c
col23:   b756b8a67ba4bb9b878a75bce69c9c8d78afbbcbc8998aa8a69bea778eccc96cc75799c58757998c
col24:   779a5d85aadab9e9a9bb7baf789586b668a8ea9eac999eddca7977b9dc78b9a99d97786aabb7afc6
col25:   7875c8ac768a7a8b99dc7cc5f8c6499c69fcbb7adb8adcaf7ba9bf6b8bcbaabb89899ba7bae5879a
col26:   c89795aa8cdba6ca7b89c9db8bdbeddbfacebbfd9f8abcaafbbbedde9aebcbc888ccc889ba8c8ce6
col27:   b7ab8ddacaa87aca7ca886aab9abbebebc88dcbb6b8dcf8dacb9ebca9c9dcbbaaac8ecb9bb978a76
col28:   aaa77bcabbd898b8abcec76a9bcb99fc9cc8abfeeede99cd8ebceb9bcb9cacb989b7babbca99abc7
col29:   8c84aa9b79be8bab9eadac8bbccbbcbe9cd8be8acbbcbddcbd7ddbdfcafcb8bbcea8cac5bacb99b8
col30:   6ba8babcabaca77d7aaaaaacbedacefac8feae997bab98eeaa8e8dcccdeceddc78bceaa8ad75dbbb
col31:   98aa8ea89bedc89badbbc9edcd9bbdfdacfabfbdd9abba9bff8ce9a6bbb9bd9dad87d8bcfdbbea8a
col32:   5a9ab885995abebcbba9a7fcddf8dadcaae9dedbcfa9dcecdecbdded9be89bfadad9e9998a98e8b8
col33:   965c8899a9cbcb89eaad7bb8ebcc8ad9e998dbcbfeccbacbeeaacbabe8ecd8ebccabaabaacbf9858
col34:   85999cc488a9caafa9dec9aeadddabddd9bdbddfbdd8e3daadfaceaaabc9dcaac9becbc8d67ce9ec
col35:   7888cc8acbbebb99c8abcbac8b96ccba8caa9aabdbaaddadff9caeb9ab98fb79aa8fbdaddd9bba99
col36:   b6ac9ab8cd8b7cbbcdccfae79df9f9ddbf99b8bcbe8bbbebbdcefc9c99be9b88bcb99ded99ba9aa6
col37:   a87eadf8bdf7b8bcac9f6bbecbdbbacacaed9b79df9dade89dbbaabcdabbfcadcdbcbbc8bdeccdcb
col38:   958be69bcbaaba89bbecafcfe99f7ccf9dcbac3dcb9cfabbb9deccceeadd9ebccbccbba99bdfbbab
col39:   b79ab98aadca56cbccddbacddb9dbdcd8dbacebdcdaaccc89dcb9b9bcaeccaccbd78bedeecc6dbfd
col40:   bba59ceeacea5fabacbbfdaaeaab999cd8df9cadf8eebccfcfcdada8ccbbbbbcdfacfc9ace8efaca
col41:   c899689edcb7d8dbbbbeabbbb9dcb9799bccfedf8cafdedabcbcdbddacbbbcba97abbcbcce8dbbb7
col42:   ba9aa5bb87bdbbaba5ccfea9e7cceab9cfadabdebcbdaa8ccc9abfe99bdbdc6dadcb9c7aca9dcdf9
col43:   898a89bdbcbbc6bc7dd9cdccba89bb8cd7cbaabae99adcddaecbebaebddedcdcfa9bd7adcb77dbcf
col44:   ab88bacabbcaace8eadbeb7ba8bacacb9ad9ddbdafcccf989dcdc9ceba9b9acabc9dced79acf9aea
col45:   ec68daabedadaeedfb778ecc9d979acdafbeaeb8cdc7febebaffebbcecfb688ccca8af7dedecdcdd
col46:   c5ca78cdb8bb8d9797ac9baabd9ba5c6fcaef8aefcfabfceebdacacebdadb7a989cd99b98bf9bcd9
col47:   86d5acb8adbcb9bcb9d9fb888bdbabfffad8aabebbcf8c9caabdc8acc9abdfcbccc9ba9cd8ebbcbd
col48:   98a7a8aaa9af9bccdadbdb9bcddaffbd9deeaba9d9c6ca8cfffa9bbecbb8adc9ddabbbacecf9fd89
col49:   a6a95ab8bc869a99bddab8bbbbb87bba8bacbd5ecbecdedcabcb7de9b9cd98c8cbdcb7b679baec9b
col50:   6b998bb9bba8ecdda9eac89bcfffd9ca9dfbb9afccccabbd9bdaec8bacfc8cdbaaeb8dbdac7cecd7
col51:   5546c89717b688a898687aab8a668997c878ba896dc899b786b7c887cbc6ab67666cd79988a5b876
ROC:	 BPix_BpI_SEC8_LYR3_LDR22F_MOD2_ROC12
col00:   d58a776496c75537499c4884a4589c789373836577ba36775877997a799869b89293a39667796878
col01:   7768898ad79b7a8a885aa9986a4945777aa9577c67ab57966db9a9db9a888c49b76668879899a999
col02:   b76ad985a726a899a9c67aa965b8a8c7b877da7865c69ba887b788a8a9889a775ca8879567689ab3
col03:   957778aac478beab6518856979bcbbaa669a6a7ac8aaa989984a9a9b9b8f9bebaa897845997785ab
col04:   988598a7beaa5963994862876ab999c87ab868cb89dba8a9ca9c9a6d7be987aaaaaa6aac978fca78
col05:   657ba9887aadb5bdb98aa8877779ab7c8b968baba7867a9ba387aa7a8ac7c97cc86abb67576b8686
col06:   59975955a7b9858e9b7858a666a9b73b97ecb8de97a8788a969dbca799abab968b675a46a75b8566
col07:   a895b996997159b9c798a88abaab7ca8c88b8ba86abcc7a7899896acd8aaca9866d68ab7d5877a78
col08:   6a8ba6989a996a78b4848878859a98a9f6baa78b77d98dab8aca895bc6da89db97a97779687ba7a8
col09:   aab89aa5ab79d3a688988c6a9ad9ac8c97d7b7aaa8aa87c5b87abaab989ab987aaa5c85453b78971
col10:   b99b5b979a857acce9697ad5b4bc8bb7997b8e8689dcab89cbc8b9ba6cf9894889cb8977996969b1
col11:   363c9867cc8794aacba67a8c858e5bba79bbacbcb8a7bdad87b8c78a967a99b6ae7799ca7b594a86
col12:   546a7379a94a94799ac89b8ba897b987aa758b969978ac9999aacabb88789b69b79765d8b9599968
col13:   65946caa8a638b7985b89a9b988cdb99b8c956a9b8d8aa7bfb9e8baba8944aab8b69a5db86276898
col14:   46a6ac2c7ac7ca99689a69898aaa7a9bbba99a87f78db98abc9aaa876b786aab9bb88ab6bbb7aa66
col15:   cb85669a6889ca88ba98cb9787a79ec89adaa5a5b8a8d6dcb5c8e88688a6bbb7969989c67967a796
col16:   b475ab87868abb8686b9a5a979b8aacadb789ba868a8aa69ba98d5cbabba6c8b6d6ca9974be89b76
col17:   7768bb4788a382c984a7a8b595a7aed868989588bd97869b8b8d99b896b487da88a9859d8897ba58
col18:   8858886bb738a77b9685568bbb577e948ab75b8c8999aa9adaeba99a8db9adc579897a7c6798b395
col19:   45685a876a88867b8c77e5aa89698ca898dbcc67c78986bcb989e98d8786aa9a97acd7a75ac97796
col20:   487686997b16888976979bc668cfabf8a8bb7bb98a5bd67a9a7689b9ca769a8ab9a985d7859773a6
col21:   3549776b9aa998579bcaa9b7497ce9ba8c68aceb7888868ba6b89b8769a95a9ae48d94a7b9a789b9
col22:   a78a9999979c98eb79b977b53bbbca858adab7ab4a7b9b87e8bc8586c97777b9a6994bb9999491a4
col23:   5767585d6b6783a74988a88a89ba9bd99d47ab8959ac9c78bbb8d7a9eaa6c896ba8d9866b99a8ab9
col24:   9666959a9ad6996aabbaba86fbbcadc7be878979bb9ac7b97b988bbbda9d6bc977abbc99977a979b
col25:   977979786796a4a8995aa92dad48a78add889e99d9bda9dde8cbcaab86a67b79897cc8bd698986a9
col26:   7897a669cc7999a7bb8b88bbbaececb9bde7d8bc8a89accdbbbba5bab879a89cd9bb967b57bc887a
col27:   755676779b78b8ccc8a9bcaba799b86d9db8b8ac9fd8aa9b99888ae8ebeabca7b87899cc7999bb9f
col28:   a5aab9759e92cb898696d9faab99bef6beddbeb9bca9b9bdeb8acbbda9a9bdbaddc6debf7ca989d6
col29:   86b794989cc79bbb9dbccca9eb8f7ddcbad8baafc9c9abddad9bdfec9bbcbbcbc8cbd9988d998cb9
col30:   98c7599acbbbc8bbb7ca88ab769cceaacccbab8aa8dbcaea67c7be9c79dac88b69bd48c79b6abf9b
col31:   86a8ccae48ad6bacc97bdd9feb9cbcabfeb9b8b8b8caabedeb8de9bbdd967c88ddcabc7b9db9bfcb
col32:   76a7c8cb9b798cc9cb8a57feaabccdb5facaadbcdadeec9cbad9efc9aba99ccaccca9abbd4abbb97
col33:   b999a76ab99cba89c7ddb5bbddabfdcaaeab8bbad9cc9bcadceda8b9beec8d78cbcda9b99867af99
col34:   7ba7c99aaa466d8798efaacacabdf7ccef977aece979baeeba9eb8cbdcb98cae8d9fc7e8c7ba9bd9
col35:   c99aa877998b5a8dcfb7cdcabaace888bacdbfbff9caccfaebbcca7edacebdaba7bab87bac97fbe7
col36:   78aca7bb7a87dd5bb8cbebcc99acb98acccdd9aacaaaaba9bca9b9bd8d9ddd8b9abd6daceb999997
col37:   bacecaed997b99fa9dadd9ecda76dddfea98fcdbc9dfc7ba99efdcbdb98caca9dab9faa88cdfcaba
col38:   cc59bbb8c7999ccbdbbbecdfaab9d9cbbaddedcbdec9cbeccfdbad99e8eaabecc9cd7bbbbee98bbb
col39:   abab9a8bc7dccac9acaa6bb8ceded97ebceefac9cdb59b9bcacdbd9bc6edcc6898b88dbb7bbd9ac9
col40:   cb6b8d8cbbaaccf9a86a9c9bdbdcdd7bbb7adcafffcdcaaabcbaadaffdabbedcbce68a8baedbf7bb
col41:   bbaabbcbddcdc7b9ca7e8d98a5daf9aafdedabbb6ecbccedddce99ebacacdcbdfefceebbb6dc9a78
col42:   9d59a97eb9cc67869dba89dbccb8bfbcbcecd8cf9cbcccbd8ceecdeadcb996dda9c98aca96cabcc6
col43:   75a5ccda99a9ab8afbb9beccbccabce8cf9cfaeccfbcbeb6ebbffcfce9ffb6fabdcfcfe9de9c9ac7
col44:   acfcb65dd89abdbcbcbc9be8dd98dbccbebeeddfbab9bdd9bdacbbdbc9eabcbbfaecfbc9fd8bbbcc
col45:   a8b9bba98accbbb9b9ccfa5ddfddabcc8bafdfcece59ccccb8edbaeb9beebe99ab99cb8dadaccad6
col46:   bd87acaafcd9eadbbfa9adcadddcdfce9fdeddcffdc9b8cdcbdcc9eacfbbbcddbcd9cbc89ae8cfdb
col47:   7978adbabd6fd79a9becfadcccfbefe7dcaadcefa9aacabafdfcceddefbcfcceebcdeb9969c9ddde
col48:   59aa7dc9ccdca8dc9babb9cd8afccafcfbdebcce8cfcebbac9eadfdacb7dc79be9ebabbaadaa8b89
col49:   eca8b9b8889dfa7cbdebd8cdfa889cffdebdbcccadfcccdefebbcf98f9eb8abea9c8bcb9ca89fa7a
col50:   87bcc86a8bc9c9bdd99b8ecedad98bdeaba8ccebcbbccbccedfaacea9abfedddfbbd99bdda9eae9a
col51:   9678b8a85d8bd987bb9b9ccab98aa9caaa4a7a95b8baa9478c84dfb88ca7abc8f8ada5a976786a38
ROC:	 BPix_BpI_SEC8_LYR3_LDR22F_MOD2_ROC13
col00:   5749565bbc958867945976869c7888a49ac959c586999aabbc9887596b6d7966b659851aa9459434
col01:   9678d6da995b7c369ba9796bcfb98c9996dbfaddadc99eb9c8b9e7e5c88c7978563a55678ab7a765
col02:   96be6bbb3b98b885c86bbacbc8969b798ab87ca9bcaddbce965adc79b49a899877865789489b6a85
col03:   7976a757978c98989978f9bb7acc7dbca8a8f6fbbbcbdba8c999b8979a59c9d958937ba6b7a27972
col04:   aaaad5a99b889c789999a8aaecba9789e7dccc8db6aeb88daab9cacb79b8c7976b567c899a78669a
col05:   7c5caa998c8967a7dbd9bdc7b8b9ada9bdeec7cc99caabb5cd8a9cab7b77a8a7b47867896898bb66
col06:   5886829a886a8dba5b6aacd8cdabaadfb37bb7bc9c9cdb9d8d9aacd88aba8a7c478988b86676b575
col07:   99ba6aaada97a788abacada9bacbbb6d7b6ceccdcb8b9db999caabf96697887e7ba99679a486a539
col08:   5aa889a88979b7a8aba7da78a9979a8aa9fcb9ab9bacca8c99b9a69a9cabb5bb55b6358876545a36
col09:   749a9978d779a7d8889b9a9699cd9689f8be9b8a96abe97ebbaab5cbc9b7ba9a89876aa5c9c8a9a8
col10:   7a8ab9d5abd88b9ca8c9b8e79ccbac8d398ebe6a9cab9ddcddda88bba7979b879a6aaa56a6689a55
col11:   d988aa564a8db7988c88b9a96adcac7c8bcb8cba9dd9cbc7bd7fc7cacc79ea98877c64338b7a56a2
col12:   7b5a679c8bac9a79ba978a8b9c9cc4a88ad6bbbc88ebb8bccb9b6d8b88cb9a687a56b85aa7476765
col13:   9bbc9aacc99aaaaa8a9e7b99ab96ab9bad7c8a99a7bfda9bb9c99a7ea767c7b7b5999b78dc4a96a8
col14:   99678978e9e4ab798b96b998ac9ac67b7b9b776c79c6afbaabb78c99a9799b7b7ac8786a59b5ad72
col15:   b7774ab8db85aaac57a9dbdbbeb979ebbea8accaae9b8dba9c879c8cbbab78699b7356868b347985
col16:   88979aa794888c86db97b8ca9abbb9fbd9dacdcdaaa7b9b6bac899accc835ac75797aa6448686a85
col17:   5668965b7bb95c5ccaabc88b9a6cc9aabadcb9d9787c7a9acd99e99aa869d778976a775789644224
col18:   9a57a6a5ba55c8c68b8c98ac888a6b9dc6918bd8ccab59c95cbe7ec79789a7398886b7868577a797
col19:   bcb77a98c9a9aaa778cb8b99d99aaaaacbba6ab9fbc7b9aacc88896ddb78579999598993b76666a8
col20:   59a49a675c9aa97ca97a868ada9adfaf9baa9ba7bb9b7ad88ba96d9caac788b977ba6958b6645688
col21:   b8b85d9a96b7b91b7a9ababb8b9bcbcb7b8ec9ae99e69adeabb77ac8c9aa8aad884b66a99aca4481
col22:   68968a978898a99b7a7a6ba6f789cb8d7baab89d9979bcaab87a99bc897eaa97b7bab89658588597
col23:   9a87c57589c8696b5d5b9d4dad9abe9bcfcbbb8a4dd77b6bbab9ec99d9aa587a7a55755a7a7b7769
col24:   99abb9cbbb3cc89998baa8acbbad7bc8ac89a8989dbac6a8cd9bb6ca95c9aa7897769689c5689592
col25:   3999a6cba679caafadc6c9a67b7dc8cd9aca9bcba7beda7fe5ddcbca6b7a5b7dc7cba6569a9c7752
col26:   7bdcc7c8febd9f9abdad8c699acdd8bebeaceabcbcfbdbb6dcf9dcbffcb9bbaab9d97b6998aa5187
col27:   c8d79ea988aa99ba8c8aaac9acccae79cec8bbacdcfde9eefccbbfda89aceb86e7979a8778867897
col28:   77aeb98baaebdcf97babbccfb8bcc8dccbfccccbed7bcfecc8aabfddf7999cb99bb5dcabb7b9a977
col29:   d4c9bcc9ac7abcaa7aabdad8ebb9bf7ffcefadb89cccfecbaacfcbbacac9bac89ca9d9aa498a976a
col30:   9a685bbeaca6b6fce8ecc9a8cccaacbffdecbaca9da8ca6cdfad7c8faeee97db9a86bacbaabaaa97
col31:   8b7a69cb5cbb9bcbda57baaadd9ec7cba7aec78bbcd9debd98dbdfdbfa6bab8d9c98a798a6bc6987
col32:   99bdc84ec9d699cc9bdabaad9c79d89daebeceaabc9bfc9dabdc9d8bafadda99a9596aaab6a77924
col33:   9aa8eab9dab9baabafbcc88becbfacbaddcaa989ebddfddcebcdb9b9accfba7ab7aacbc97b9e89b3
col34:   77bdc9eab5eac9abcdcdcccee9bddbedafbcbdcbbb9debf9ceccbeaaaba7abab8798eb8cb8cbaab7
col35:   5599996dc9aebccbae8c7bba5ebab8aeceedeebbeeabebabcdbe9ccbb99e9eabbadbbb9ceb9c95ba
col36:   ba6cab9b8abab9988bcabfccfcdb6cbcbbfb8bbeda8ea9cdfaaeaddaab8d78e9b989586bbaacbbd6
col37:   ac8c98ae8aeb7baec7a8a99dfcaaaf9d9cbca7ddcdcbdfae7fcaab9ccdcbbf999bb67cb9bcb6ca66
col38:   bebbbebd99adadcdfff9fb8dedc9e67aacfecedccbfdabfcbebedefa9a79c848bcb689d5d88bb6ba
col39:   9a79daac7acbb8ed88ccdba9f6ddcefb9d8dbddcd98dbeaacbebcdcbbeabdcaccbb69ca6f9a8bca6
col40:   ec77b9ccbbfcab8adcd6dadea89ccfb9badbbedececbfe47aaaf8c69eb9898bb996cf8d99c6ab9b9
col41:   9a9bab56cd9c9eda6bccbbafc7efafcbcaccef9bffb9ceccafeadabe9cac8e8f5dccca98888ab856
col42:   9bb7daee4cbeacdcaaeae9befacefacbcfcecbfcedcbb4caeedbdeaacebbd89c8cca9cb96a889aa9
col43:   9bc8dab88ada9f6bfce8edebbdfeeaeced9eccededcdd8d9ca9bfdfdeedbb98dfdaa98bb8ccb58e5
col44:   77ecdadaa9a9ccd9ecbc59cecbedbfdecedcd8cb6eccdbabdaadfedce99ec8d7dad8897af78b39c6
col45:   c98cbba9bcbebcfbbfc99bdce7bebfccdabfedebcbfceff7cb7ebfafcb8bbbba8b9ea9cbc89b8cc9
col46:   96aa9a98a97aacbd989abcb9b8fedaceedbebb84cabeeb9accdaaecfb7e8abbaa9baaa48baa988aa
col47:   cd9bc9db9facbaaeef8bdcbaec98bab9aefccd7edeb8ecccbcfdfbadbfddeb8eca9c88cb99bcf786
col48:   8aaad98dac7aabdbdab8cefbac7ade9cb9cedabdbd9cadceabca9bca9c8ef8ccb879c89cc66d8ec9
col49:   ab879bd8bedb7a9cb8b8bd78f7d9cc8fddc8c9eff7beabbebbfccecb9ad99a89a9db5b99bfcd9da6
col50:   988f9b868a7eadbebceabbfb98bbb8bfdf99c9affaedcccca9cdfbc9fcbafddec8b69a9778bb9c8a
col51:   a699796cbb778bdbd98ceaab9bc968786ddb989b6a85acbacf79ba98bb95643c7568764899a55591
ROC:	 BPix_BpI_SEC8_LYR3_LDR22F_MOD2_ROC14
col00:   9834696546679997966599a4bcbb8988a9b7a9959bd56869567654878c846a785986769587787884
col01:   877a98ba9b8a8baabab77aac6ad8bb9b8ebcdbdc6877bcbbba7c5b8cc46bab6e6abf987ab7987da7
col02:   ab77879ccba8787aaaaccd7bb9b8b8ced7acc9c7ab9bdbcfa9dab9cb27aaa699aa7977755ab6cdb4
col03:   b6ba8b8ac9cb8c8baa49caaa9bbc9abfd9c9d79cacd99d9caabbbbc98a8db899888758c754588967
col04:   4786b7868aaabb9566b899a8b89abb798abcabfcaacaacbfbb88a8cabab948a8abcb6689566a8576
col05:   89c7388747cba8a968a86c6bba8b88a9dcbacb9da98a8a68df9cca7779bac9849b1b998959769794
col06:   58795c59c9799c897cabc69c67ba869abc67bc896a66c6ccea8bbaada998aa9a7379a369485ab8aa
col07:   9a87887aacdaaabc996bc78ecdd9c896abaadfcaa6ac9ab8ad8aacc8a5abaa9b585a9b98539a6675
col08:   667ac8b68998895c8986b9ee899cdc6dddbbbc5abaceed7987bebb8b9b98d79778c97cb69a4e6649
col09:   a8ab2c9ab8783d7ba85fbbad9b88dd5bbbc88ccba6abc9fd777aca8b8abd6a9de936947b78685a86
col10:   978c877767c96caa586bccd8acdb6abbb7df89899a9b9a7aec9eabac6ba9969b8698a98989867868
col11:   c99976cd99c6c9a998998ceaeaf6ca86cda989abacc95b89c78ec7dab9b9aba8797894878a1853a8
col12:   45696a87ac77967ba8dcb8ba9b98876b9fcaa9d89ab7de99aaacaac88ab3c8bc6a87778ac7869869
col13:   959b698b7a8ab94cb9b9ceaccc99bce9bcdcdb9cdbac8aae93999cb9cc9b86b8be7d7988865696c8
col14:   886668949b784a9b7bcdba98bcd99bdafd98db8bbcfaac99b889d6ad7febb8a77b86a768987a891b
col15:   8a86bb89bcca7899a9b9abfabbab9b99bdd7acd6899bada89cacb957a67a5787f7c99b954aa67968
col16:   6aa9ad57ba8a8898accc7a8ba88dadadbdcc999d98b9c77cdaab8bc7ab87baab59987d78a76a97b8
col17:   96678987b99b78b69b8a8b9c7cbde9acacada9cbbcb8bc797bcbba9b989498a8a7ac568378578846
col18:   83587b8a69898ca6a9b9c57aa977adcccdccdaa8d798bbda999cc679ca8d8b88869b895288565676
col19:   964a7b458b9c98aa99cb79789aa8fbc87bdde79ddccae9a999ca9a78e9bcb7c6b9c988ca9b29a7a8
col20:   e9397a86896c998879857999bcca737dfadac87cf99b79bbc99cc89acceaa98997599876a5779575
col21:   6587cb73768cbbc8b9b6b966b99bfcba5cccca8aaceaabbac98d798fb5f7aaa58a99a763a9b589ba
col22:   699aa77a786d9885a67a6b888998bc9ddbafbad9fc68aa6bdf7877cc958a5685827976ba46588358
col23:   a787e2b9bb99f7c6eeab87aacb8cd79b8bac997ca9aa6a8adfbcbb859b8a76a66aab687738867364
col24:   9b8878679a98cab8bb7bccbaa899ab9ccd6b9daba7af8ab8969daac87978a7beea6baa6a75478685
col25:   788ca879a9abbb99977d68e7bcbaebdee9bc98c4bacbb568ea8c8888b7bbbe7587d999b39ba79a55
col26:   abb989b9cacfaccbbbdcdc8cdf8ddaaa9acebb79daab89cafecf9d8dcaaab666caaba8bccaaca79a
col27:   ac96989b699798a9ea9ca99adebdbfebccaceceace9cbaccabcc9e6eaab97b8c6869eb986ac568c2
col28:   ab997878c9a8abccb9dcce9bcdc9bafa67baf7cccbebe78dd8cc6cdd8c8c779bbca99a9abbc77c98
col29:   7b4a98eeacfbaf7fb9d5edcccbbec9cc8aaedcb9a9c5bbbcca88da8a969cae8a9981b9bbdaf59464
col30:   95b7cd4fce9e4db9aaef9cabcbbbdb98cdfdcbacbfabcb59ff8c8eabc9cb5eb7d999648c9cb5b857
col31:   6c9bc7c9dccd5beebcbecdcbfcb7cbeacecbbedac9ac6fcbaecc8babadb9edbbdf87a7e89e898a8b
col32:   789abaf9a9bebc68e9cacdccdaaaab9cdce7aacac88aafdbdbdccadcfc8f86ebeb89a9a4c56b8987
col33:   9fa88aa9abc9caeb7ab8ccccdceebcdd9afdcdabccbaccd9dacc78e9bd5fbc7968a6aacbbc6487c9
col34:   bc6db89dcea94deadbacd9cfedfb9fb8ecaad87d8aea8c8dbbcddfbb6beec99c7acdeba97abca897
col35:   bb7878cc895b9eca6dca9aacabadf9dacc99cecabbcffbd99cf9cdadba8baed867aaacb8d7998ab7
col36:   ba8d9cefcdc9bbd9b9dd9cadafbaac868e87cd9bda9b789ad99bdccae98bbbbbcb9a89b798a7acb7
col37:   9cb9a757cdaaabdbaecf7c9da9c7cb97abbb9adbaaacea8bd9d7d6b8bdeb8ca8a4989b75cbb5c669
col38:   ab8b9bcdcbfac6eac9bebc78ae98d9b68acb9ececbababdd99bbcaa8cdd7c879db667ad7aabac49b
col39:   9b89accfb7bcdcceabaccafdedebbde8b8ed9cdfabedbafd98cfe5c79ee4aac88895ca9887c85978
col40:   e97899b98ec9ad6cbdbfa9b8cfdececabe5d7d9dcacee9fbfceccafbcbe98b9895b888499858a788
col41:   7d9ea9cea96ffaae79ed8ad9dbadbcbfacfeebdeebc8ec9dc9dccfacbbeb9e9aabb89bcbd7abbba8
col42:   ccb78b7a9a9f9d7c88befcbee7cbdbadbbaeeae6cbfaecbdbacc8fcceababdc8f977797da786a665
col43:   b98dddddcadcbdca9dcbc8efdfbb9febdcbbaeccc9bdde989abeaccabbadcaacabd8ac7aa866ab83
col44:   69cbddbfbabbbb7bcefbb6bcabc9fabbbdbdbd8bfbccabbabd8cebecdca96b78acd98b9bda799478
col45:   7e78da899ba7afa7b9dbbecbd8a9dcadeefbeb9c7c9fd9cdfccc9bcccea7caad989cacaa888ba8a7
col46:   9a7c7cccd8b98aada8aa7f89d8a8dbcbcffbbd7aaeecaeb998cacccaab96b9aca89baba8959cc7a9
col47:   b98cc89bfeebd8f6b8bcbebcefebebd9a9edcefbdb8b8bafca799befbf998ea9b56997b78a768899
col48:   bdbb79cbadbd7fcd9dcadaaecba9cc9f98cdbeeadabecddde99cab9cacba67e9d9bb99c79bb99888
col49:   dac89d9fbeb99becc989bcfa7eacaaeacebed9fede9bc9ddedce9abbcdeabaab9ad87a7ee8aa9bc7
col50:   7d8c7ca9ccbabacabfda89ca7ed9bedfcbdcdeafccce8cabc9ccaeceadab9abeb6893bcad688e587
col51:   ab6a98499c69a8579c9a7e8a6a989bc78b7a9bd996e888ef8a92877a8d7b47aaa88b9ca968638a77
ROC:	 BPix_BpI_SEC8_LYR3_LDR22F_MOD2_ROC15
col00:   485658966697ad867749a54757679733aa8688a7999966688855478a892577246865372554515321
col01:   c98b699779bb9bac8bc899a98aa98dbb998989d9aaaaaa9cac7597acda484a589b7669576b829124
col02:   5469c995c8a5a7589689b8caa898a8b96d8a66b7aba98996baa55b5b7397b48585766325a7453352
col03:   88a7966349ab8777baa9998a6ecfb89aaac988bab99a67a999aed7b67aaa5a576545569556664714
col04:   75979776ac78965aa7ca9787a889c99887aa9db99ad96a49bcaabb68d49ba9998783457b74933534
col05:   5a5c958998b7ca7eadc9a7daba7a55d8a8bca98b96cb886a79a5b989567bb99757861948376657a3
col06:   6b35b79a789c77ab6a9ac78d879abe969a8ab7baacbac698accb9b7ab77975838785544a67866536
col07:   76a9ca497967a9a9cbbfc867879bdb6ad89da89bcb88dc6ea89b4a98b7a788a769787956a8583a31
col08:   b7a8a158c986bb7b968a88abd9cab7d5dba7cb999bb7a6a6bd959966b7b898bbaa777794a5663235
col09:   4b689cb965a896a8a9bad9b97bbd9b6a989b8aac9dab8ba89bb9b8b972db866a954845655a944181
col10:   784a688c97893b69cb7bba7bb9c8799a99b86acacaca76b8b8a78877a7897826777669656a726445
col11:   ac9aa9a26987ba7a7d96d688a89a9bba89979db99a6bb995c8798dcc8775b97c4647898373533842
col12:   88646989a5977a9a59686babb98a97c7a99a858aa6cda97d66c86a99796797ac8863674642568653
col13:   87899b9886a8acaaaa7cac7baabbbcbbcd79999798587789b6ab5aad9778b8a65584471885843447
col14:   49885a476a99989c8b989c9cb9cdeb7d98b9dbe88a9b985cda8abb89b8a78a767666aa982b53a288
col15:   77a877a7b9a979a6a8bb7d8999deaababba9bc79c8bcccc6bc6ada798aa76768b634769a34a28453
col16:   579986a969878898b97c8a8aa8aa9acbbbbbccd5aadbdbacac8a99ba8baa9978da894888636a6286
col17:   789757b77968939ab999aebaa756c9aabbacba9be9ba98bcd6ba6cb97a9889a69a58875675857685
col18:   58186c997b975a4a87c9789aaccd88aaa77a8abb896846b987b8a98a7ba58779989369776a754844
col19:   999e7a7ccc8d8a87c8abad9bbabd98979bcabdd8acac86b78ba89898d899cc8b8696886547796413
col20:   33986969ca97ba8cb7db98888c79bbadcb9b7aaabc8ab978bc8abb6abbd957a5788b983569487867
col21:   b8daaa9ba7b888996ccbebbc79898dcdaccaabaecbae8a9ba9898c7cc9686987885897461445b543
col22:   8a87ba89a87da7a98a8a799e8db8ba9abab799b8a9a9aaadbcad97b94aba87c89a9a199676887458
col23:   77678897b979bdab8baccaabd7cd9abc8c8a8d867cb8baacb7aa9a9b9aa779a867969a79654a5562
col24:   a788ebbc74bca8ce9b6ac99aa89a8f7caacedb89dabcbbd787bbbcc66a4bb6666b75869665365256
col25:   9b67587c9dcad8a9dbca8a7cac7a9bc9887baca8bbae7e9a9acda8bb69a8a9ca9699638598439756
col26:   b67ebc8a7cbad9abedabb9beb8e9abfabdbb9c7fcab7d9e998caac79b7cb8a7899a7499757a9d775
col27:   a8fa8ab98aab9abbe88a9acacba7e8accaadaaededd9aabccc9ba9bbb7ab98bab496b97ac85da965
col28:   cdbbab898b98cc9ceed7e6edeaccadbda9eccbadbae99a8ccabbc8bbb8a86aa9767aa7aa9646b877
col29:   8adc99bcab6cbccdae9babdeacdbccdb9aaedcb9aebec9a7ebbf979caba998b9a8a9a8c686b96661
col30:   78baa8a99b79c99d8bcabcccaebdcbc7dcaaddaecabcacaacbcbbbf9db99ca8bd897cc99a6976854
col31:   cb9bad9a9bbedabfcddbcebcdbcbe9cbcebbaacbcedbcccbd6abaaabaaaabb9a9abc93bb89a96895
col32:   8e6e9ccaccccbc8facedaccadbb7dbbccacfdfc8caccabbcbca8aebebccad785b8c5ab9b94869985
col33:   9aca76ecba9aa9cb9d9cbaaaca9a9bcbdbbdfaa9fd8fdd9bf9ba8dacb99bbb7ba8d776868a9b7a87
col34:   e9e9ad98d997bdd9bbe99dbd9fdacfbab9dce899abddbacd9ebabaab9cda8dc8b698a9877a969a64
col35:   abad98ab9bdabcccaabcdbb9e99eeb9eccbbcbccacecfcfcaf9eadda8c7abb99abec8bbb7b9a4aa9
col36:   797aecba9badabdbbd8fcadcbdbcac9cdbacefaadc9dbbae8adc8bdb9adb8ab9aa9459c6b6c88c38
col37:   8cdabbddaedda7c9adeedfdee98edbdccabfdccdebbc9dcbe6bcbcfaabfcdb997a89c99d8866c768
col38:   cbbbecdcca9ddacbadda9fcc99cbbaeababeacacdcdcccdccd5cbbce8cdbbbabbc9c58bccab68978
col39:   bbbb988fbabcdde9eafccdebaaabecbadecbce9cbabcbdeecfbeab8ba99bdb8a686ab9a88acbc7d4
col40:   aab9abcdccacbaefccbbbbc9bddfc9bacfbeffccbcaf9ac9fecccbdecacca88bdeabbc9979765756
col41:   aebeadd9cfd8dabbdcaaddefa9bbdedceebea8eb8cdcbadecacfcbedd9ddcdbb9cbc8bac8b98aac6
col42:   acaacdceac9f98babbdba8bbbabcbc7aedbbcffca9bccb9bd9daad8aabddcabab69b8a895c68aac9
col43:   d9fadaffbdadcccedccdec6bddcebaceffedefccbdd8abfcedbbdb9d9cddfba8ea8dde9b969adaa8
col44:   aa6dcdfcedbacecedbeddd8edaed8adddbcececcdffcaea9cfbeaccea9d9dbdacabdccaabde9ac49
col45:   ea9cca9ceeafcbaabcdfcbe9dccadaecdcdeeaabddbfccb9ccbdacaacbcde88ab97aadacba996a88
col46:   caabbcbdcedaaadbdbc9de9dddbcefbeabaeefeccfacdbdbdfaadaab7aad8bbbaaba978ac56a9a69
col47:   abbbccbdebebcdcbcdcec9bced9dada8fccdfedbcdefccbcba9acaaadabbabe8d9bfdbcd97cb9758
col48:   aabebdfbefbedc9becdb9a9cedbbbcdcecfdcbcafbfaba9bab8efaccb8ba99beb9dabb78ca4aaca7
col49:   bc8ffbc9dbebaeffcacecbdbffdccfdbcfbecdeefc9cddcfccd8debbde988edbb8bca8a9caaba989
col50:   cdffffbed9bfcefeddebaccbcec9fdffffecccbbf7eecdbdcccbdac8fccaa999cca6cecb998c78a9
col51:   87caacb9ba698acdbcbbccabcdbdda8df8bcbeacbaaa7989a7999aaac9b99b6b8a79b48a98567499
