ROC:	 BPix_BpI_SEC6_LYR4_LDR24F_MOD1_ROC0
col00:   645a3b5789a96b77966b1a968a799c9d9bca9d89ab7589a8becac9782b4dc8767769a69aca4995b4
col01:   a7cbd859677c3d67a9addbcdbfa7d8b9bba8bca99c49a99d8b7cc8bba8c68a58ba7989abcdb89aae
col02:   199bb97879ccad6ca6997a8aa9c79a87aa5a8e9a99887a7aecb7bb899ac8b4bbc77369b5aa7a768b
col03:   b677c9976b57787c98ce897a677777c4ba873baa8a8759a9889b99bccbccd8be9bbedc74efb45b49
col04:   d67b9a486c57ab9caa6aa7bb98bc9a4798a99a6b66b798dcbdad9d5abc8aa8b99bdc598d7ab69d6b
col05:   8b78fa77abbaaa858aa7c7baacbe959b9958ac7db6c7acafedebddda8b79b97c9896b98bc5b8e7ba
col06:   748bb8e96c9aced9bab86bcd98cbc8b89c6accb9b9b9feeb8c797c8cdb99c579bea9cbca9b949cde
col07:   d98787298baaa9977cf899a9bf8acc8be6b9c9899b8b68b9d8ccafba7baac9d767796cc9db9daaac
col08:   8556aeb97ca98849879abb6b9779dbade7d63a79ac7b8aaa9dbc8b9b979bb8c9ac7a9bb9a3b7eb7a
col09:   6958c988a88b5ccc6aafadbba887b8b97a988becee9a996ba899b989e5bcc6c9b8eadbc8addbbbb9
col10:   d987a8b9c9da988ca857aa7bd95989b8ccb97bb679b9c886ae8c79eaabb9aca9b97f99bd9ceb889b
col11:   a86798ad587894b9a688797a6967bab5a9b6996dc699bacdc68883e8abac96b89aec89ae79b78489
col12:   6783887dacb7beb779f9abd8997aca8babb59c7d9ada9b2c89cad9ccbd85ab99bb786977a89bcc77
col13:   89b571aa9887b9b6af93a788aac9a8c798b6ca999d877aabdda5bc8aba67acabbc8bd3dd9775b9ab
col14:   7987196669aa3aaa6c99bb74ba8bbca78bdead89976aaac8ba6cdc867cab7b9ad7ce58b9c597cbd5
col15:   b4869697b8aac8a7b978a764c99ababd8d9cb5aaa579d9cb89ce698678aa68cabd79ac9d6b99bcbc
col16:   5679a775b55686aa884997555abb9b87de9af8e5bbabcbabeac6a8da57eb4b79e853a9976586cc4d
col17:   19278466c7879a86c3489887976aeba9d95cbacbbac8ebaa7999bcba66a9acb75aa77ab6b7878996
col18:   84789887c8ab89796bbb78898bab9bd8aa77a89b7aa9a5bbb9b7ba6abdea79bcbc6b769e89babb67
col19:   58665e9ac59bb97a6896a59889a9d9b8999968aaca898b99a8bad6a997ac8bac8633999a6acd8cbc
col20:   885797386775978f476ca8d89a2687ba8a59cb7e9a7b8ca6abc8a869bb99bae99b7797d329a67b86
col21:   9c5a95d997667b6679775899bc9d9bb8a9a998c96abec9a66badc5bdb98b86c958a6988879c7d7c5
col22:   789893874993796acaaa9a9677bcb59aba8a8779deb98bab97eac979ad9c379aba9aa8b88a888ba7
col23:   787a96787879935d48a867987abc78458588b88ab8caf9abbae89cb7899b7976a9a7c88ad9b4c779
col24:   97ac6c8aa779797789dbaeb95ca98ba665778c9888c8fea8959879b689bc9a9ca9abbafca9aadccd
col25:   a385599c78a676cc48c899c9f786fb969ca6a9cb6a8cca6ba9a8a89b7bfb497a7a89ab9dabaa7ceb
col26:   966ababca6ac99798fcad8b8db77a8ea7b8aa6bc877e7da8b78ebedb96bcecbfa9abcca9caba9c97
col27:   a69bc5a88bcc8ac7b9958d89edb8dfaecbc9cb9a8b9c6adbbcbdccdfbbbadab7cfccadd8ab78e9a8
col28:   a988caa3d9b8d7ccb69b69f888ababf8aa79d8abb899b8dfeceadecdbcddb7b5ccc9acdfbbeaedaa
col29:   c98868c587777a96879a7bca78eb9b9a9aeb6d9dceaddcccb8cb68d7fab9dbcee88bcb9a8bb9cba9
col30:   763dacc7a6e9aac7cbd9dc9abcb96a7a9abba9baae78beaaa7bd78bcab86c9f9cabbc9a9dc996caa
col31:   dfc5b6bbbbbdcc9a97a597baabdacc59cc9c6dcad9cbff97ce7adcbcbaedcbcbabadaba7b99bebed
col32:   a6ce879c9c9cfcc98bd4aa96cba9bb87adacdaea8b78dbbbb98e8dab7bcaeae8eda7fc9aa97acae8
col33:   7958b679b8abbdcbc9c58c99ccebcb8b9bebbab6bdbcc9daedbcfa9aeb9e9cf8a7acdfdbc9b9ace8
col34:   bc579ed9a7e8d4dac5b99e4a78add9dca9aaa899cb9ba8edadcf9e6ebdbabfeb8ebbaba9cbcbaaac
col35:   8d9aaba989ae79c9b9aab856fbdca8cdaf6dbd98af7e99c9ddede89c9cdfb7cabc8a99c7ccbbace7
col36:   a789a5d8dcab9daa8969d99bb699b8dbac9aec8dfbeebbeffaaca8bc7bcbf98cbad9eecbbbaecdbf
col37:   8a9c95884998d7bcccba9dca59fbddd6cddbca9eecaafaa8aec6dcef9ab99a8bab997f9fcacdc7fd
col38:   ecacdd6acab8cb8b9aec9c9bd7b777cacbd78ebdde9a9b8eeeaceaddabedc99fafaace9f8cdebaab
col39:   7e99b89bcdaadcccdadbcabbdbccbdeda9eedabcdbcae9bbadcabbd7bbdcafa9c9edabcbb9b9bcba
col40:   468ddce9a8aaebed6fcbebfbcdc8cc9adccc6e8afcdb9989c7cc6b9afdd9babdadbecccaaedad8ec
col41:   cafbdbdf789989aab6b9adca6db96d8b9c8c5ceecd8a8e79abadbeaabbedd7bdcbb78cceccddc7ab
col42:   cda98aaf97d6a79acbb8abcbffbcc78aaa7ecba8cfd8aedbadbfcbdd8bb9ecddbad7b8f898cacdbb
col43:   a6ac49acaa9cd97e9e9c8ce6cfceb9bcad7dcdd9bb8ad6f8decea9badcecabcdcaa8a9cdbda9fdb7
col44:   98bcab9cada9bca9cbbccbdaebab9fa9cacd9dcce9aae9c97ddddacdaa8aadefbadbcbceccdb8bd8
col45:   eb86cbc8a9899d4bc88e8fb9d899fcb7acdacbdafbaade8ab9addd998cd9dad8c9bc989b9bb8cac9
col46:   a4e55b8896ccbadeaa9bb8ab9adbb9ab6cdaceecdcdcb8ab9bacedfbbaf9bccbbb9ca79cf5dacdca
col47:   a89c99bc8bbc8bb7aafbecbfec89cbcefcaacdaebccb9ad9c9d9dbbbaca89fcbb7cfaf9abccaaecb
col48:   97968dabaaab9bd8deb8a97e99ccbdebe9a8789a8af7daecaea9bc9cdaba8addacca9ca86b99bca7
col49:   ba9acb997db67ba7eb9cc9fb9fbb8badeba8b8a7bccfacf9796acae8cad9cd6a7ba7b9dadc6aac9b
col50:   bbc784cb89bdc9866cd9a79af9ccca9cebab7bbd8ff8cca59fd9ca9b5d8daea8ddbaccbcc9bbace9
col51:   8576a396a2576965976aab6a98ac899f4a8b89ca9c9cc788bc8997ba9cbe7d7b7c9a87c9a59cc9b9
ROC:	 BPix_BpI_SEC6_LYR4_LDR24F_MOD1_ROC1
col00:   68877757464366333598a596a95babb9b589b4773b1a589699838649578a986789d74a5968a6a6b9
col01:   48539776b69675a18b6458b9a654869a96788b96a8b77a8688ecfb87a9cd999acdc6ac98ba87bcb6
col02:   5359554635577b79c8794575758a85db9aabbcaea9877ea9a8db9979ba689ce7be849cae64ac76a6
col03:   386667846694ba467d8a6cc9593b4e97688de9f6baca7998baaba976bc5ab9998d86c8bb883bccdb
col04:   68498957a5b4a86aa7b9587a7d669569aa6498b989b9b9d9aa79447a7a8a769abb989b9d8988ba49
col05:   7355a6777497478a74a46a83a89a8a9b89c78779d76699aba3697594976cc1779b79799c699789b8
col06:   46624589967578b876a85c57a8b89bababc9b8989f598b796b9cb7877bac9979988e86daa87aa998
col07:   63566696496a8c869baa866e778ac5695a8c897a6b9d7b56b9ba9dbac899abcab8999986b9b999ca
col08:   55288366b5797856775659baa7ba3accb8b979a785aac75c558d98b97bc5b9598a68c779567a96db
col09:   69896777ab99416389ab74cba4baa8b9aebfb87a9cbcd8b7b79bcaaaea8da7ac6e97db6b96a76cb7
col10:   4653738a89987665837b7d86979ac57798976b46ad7b599cb8aa8aca7b9b89b27d98759bda8b98a9
col11:   237396139485c8956a577a196b466a3b969baa914a7a8acb87b79b7bb8aabc78979a8676b69c399f
col12:   774976555739a8d98599ba8778c997a8c5ba7697c8b7caf97988d9b78ab97a9ad89a9598aa5a89cc
col13:   9685765a99a4a86993a769a9b868dc4d7896f97b79b7c8b88795b7a8b8a8a86aaa78e9b6abaca898
col14:   2567238857683a989b676958aa8a8879bc7b597e5998a8d778cbb9e9969db6c5b8f4ae87ba18d9a2
col15:   93b3957658b866b3b858b8b5b847adc7c847baa89b68b889b2a8badab298aca4679a9a56b6789ab7
col16:   76b376698a499a7644987a6d977ab9c7bd7e98c97aa9788c86995aad756a889aac7599ab69b35bb9
col17:   72573248874762b93774989959b8c197aa8a759aa7aaab994a8a8d69a46c68aab765858ba8787866
col18:   34758a88863b7a958c8c9726798b7cbaa86794bc9ac9e989cacd689986bb6ac64595baa74d9789c6
col19:   844775789577849a8b8cd8aa68987ca7799fbb85cd96ceb6aa9daa4a5f988898aacda58978eb7595
col20:   48746c868bd9572768b7896bb9985a7b6b67886c9877e8aab29bbac8887899799ada85ab78688e96
col21:   6668a897767743a76a78d68a89cacab587a8ba8878897378b6899ea988a88aa7a8a9bb98b5b5b7d5
col22:   7723a7585b819a867b8a685398b7765d79ec8cb8497dce7b7aaac95caa6859aadcb699a6a766da8b
col23:   5566856675b52589993766498839c98a8ba87b96a8645a9997bcbb7be97797d857178cb994a59534
col24:   8676675847673b68a77b88698988a85da6ac9ac887a576a688876a8696bc698689b44968b5867b7a
col25:   9a94796969719492a9b7d5a5c82999a9748bd7c8bb86acd69adcbab9ecede84cda45576a99dac896
col26:   598864758a989bad9c8abd967899bcba8b878cc9aed9ec9c9ba97d5ecc9c8ba9b9b8adcc776aabb8
col27:   575ab9886cb8bcaca994ddc7bca6c7c5ca8bb9acdc8b7a57babb7ddbbefd6bcbbb67dd9cd6bdcb68
col28:   666a678b9ba7a7e6eaadaccd6bc98cbafb9b7eb997bd6aafc9c9cddd8cbb97cbad9bc88cbb988d87
col29:   846798895bfa8baabb9979b8886a8a88affb9a7f7c89a8aacacacd7b9aa9bc9a89d9abb7c9ba8a92
col30:   d68885a89baab99887b7d8b88e99e89a7cd99adbbcec979babbaadbbd7adec69877ba6ab9c9c9bb9
col31:   8857b6bcab89ab9a95cc8acafadcbbcbbbb896dd9bededea8a9cab98b9fb97ffa99a97decbacbda9
col32:   c866a97d9bb9ccfa6c9c9a7bbad9abca899eaaa788e77cba9dcefaba8e5abc2a9bdcada97989ad6a
col33:   5687ebeacb8da4abc17b86c8aaa9698bcffe9b9a9bcbdbdec8e8ccafc9ab9a9c88c86b8aa8d7f8b8
col34:   47a6a9dace8bd9bca7b85bbba8cbdc8ce999cdabfea98afadfceecdaecfbaeae79ebf89bd9ad8cf8
col35:   8a6d595998997dfddb9ebaaceacbcceaabccaddaab9b67bf9bc99adcad67cc899ca9bccdcaaaaafa
col36:   b797b58baca8a989b8cdb96bdbdbfc7bed8baad99afecbdcbcdf7cc9fddab7c9adabbcc6ba9abbac
col37:   795ed9b8c899acabea9acac9b9ef8e979baacce8ddaa79dabdbacb7cec9a8ddca9d8ffdab7a9cacb
col38:   d88d8aad89acafcce9ba8bd878ffadcbaeedce9dceeebcdcbfbdfcbbcfa6bffbbdfebfb98cbcceda
col39:   a78a87a99ba87987a89bc9e86e9baef5caacfa9ca7bbf9bbcbbcdcddaeb8ab8cbc7f9dcacc9fdaa8
col40:   98556779bccae7998cebf9a9dbcafceaaadd8aaae9bbbc9d79adacbebf77cebcd9bfba99e888ccbb
col41:   a78979aa99e9dea799abcdbab9accbfbaeb7a9ca97faf7bbcde9dbb9bdbdb9de89dafdc9ddd9ce9d
col42:   8987698f68b8b99dc88baa77d8dfcdcbd6caafd9bbfbcfefdc98abcccc8db8bddaba9da8aafa9cad
col43:   ba97b679bdce69a9999fccfdaca79e6baf99dccbcbcbb9b69dfbddfbcc7cbbacccd6cbbbb99dfa99
col44:   5399a79aaa988ee8ca8ccc9b9d99fcaf9bdacdaef9d8ccadcfcdbeddcfabaccd7f6dab9fee9af79a
col45:   7a89a94ad7c9fa9a789abbdacd9aebaaaca8cd5bdcfce98ccdfbfaecdef8de9b69dda79dfeeda6a8
col46:   9487b6f7acb9abbc9b7db9c985d87ad9a9abc5a9eaaaebdddcbcaedabac9cdbabe897bdcdabafdab
col47:   a78b59c8ca6789e5c987eaca6bcacdda99c97c9abc9cdaacbaceafded99debfbc9acdccbbf8cdeaa
col48:   978c82b687b9cf99bcbbefeaac9efcbc9dbaabfbebedacb9fada9b9dbcd9eda99af98a9acea7a9c9
col49:   bb8aa8bb79bb8868878c7aaa9e79acadadbfcdaab5ba77cdcacef8f8aab9addcdbbbe6ecaae8b9b6
col50:   7a9697779d87c8baced6c9d9bbb9bdb9ccde9a8ebfedbd8ecdabbcbdac9bdfbec96bbbc97bccb9a7
col51:   b277a897669a4974ab77576ab3a8979b6e83b8b998cacaca9a995a7cc7aca8657aca8abe9bd7bcc6
ROC:	 BPix_BpI_SEC6_LYR4_LDR24F_MOD1_ROC2
col00:   433548426933755268669571564965534975a7769188566535543457775468a85787386637844a85
col01:   57384849b755666779695765679679926995a3865596776699969696aaa566c87a79996856775757
col02:   434895564455577563a7775997675678566749574b95968776ca7996748798569797b98768764557
col03:   5556756958686958578577688b6a8a97a87688776a5595b78849886994967b784788676965769577
col04:   a546578555477965749878485a8966468859a6a68775aa52a98996a88768ba6999aa5a59585a8555
col05:   56772227551b745647969a99998589687764aaa357976a77658b79997877665968a883a88724a874
col06:   76768765465666b767444b747a7a95358795458965988a45866656677497756888a78ab9ba959894
col07:   4493546b6967553478947a8a65a89a998889759a7768a6aa64744877a588aaca88a9a9886aba98b8
col08:   868569857687a8476a88644a8756879aab68585a6b847898668766b85995a955637989ba48889886
col09:   b868483638797b6689795a5547534568b6655948948a997767b96769545885769a995576479877c4
col10:   66876494458a73a9857b54a857969696546ab8666a9aa9ab789688a867776689e69689998784c6d5
col11:   469556489366885689a88b7979a7667a776bb7a7996b8a8c667a7bdb648b5676a7696867abb95986
col12:   956443636866a9772845887865a77b5978b9a869798879b768864c89a8b59879b97a5ba98cc7a77a
col13:   87364533864759866761864959988a9ba67bacaa8a889884879a96a896a6a7b99a69aca96987a998
col14:   64653775776a7b484979a737cbc977a8b777787299a8a966a789856696baa9dab6978895a9aa99b7
col15:   a355662b666895875886579ba84a889a598878a88a78897b9689ac89a677a7a788aa7c6bb9a775ac
col16:   675385552795a87547876a68896899a758ac6ba8877c9b756a977cc69799a4b98c9586a68a2a778a
col17:   687586a2756756697799576864aaa78a86aa8978c9899ab5b998988b87d786a678a7a97798797b85
col18:   7816637965b86675a7b949786655d9c6a9bc78bb6a96aca878886a4ac8ad6a79889487aba8a86a89
col19:   5558a477646a767598899bbaaca99457c877b87bb77ac99a7cc898c8a6957a9885867899c89ad984
col20:   546aa6575668b863a786cc678776a67cb9a9b596ebbc66ca58e8c9ad79776558898a86a776a8868a
col21:   57243396759656624ab98876bcb9969989797c9956a9986ab47bea999a8988a7859799a87664a987
col22:   48657977696a85669986689a65c7a987aabca98b8b98b56767a9da9989c9a989898a763abb88aaaa
col23:   64585848669876a5778469787888895b9aaba9788ca8f898b898a9977a5a778979279ac66aa6b988
col24:   568666427a9575a777da8aa96a85b8b8c97689a989d976965c687978598a999a7698976898a69898
col25:   7777a9669a837aba866879bb95d5d776949bcabc99abacb9a6979bec99c7bad7998a9b87b99c58d7
col26:   7a86a7798798a6a896b99bb6b99ac7c8a7ba9b9cd8cecb7ba7b9f699a9ba9d88dbbab99a9d89aaa8
col27:   6289a7a5aba868989bb9b36bb66cbcac7bb7caacc789abb8daba89ab6bbdd98e76b999aca5ab9969
col28:   4578b5b9bc89a9bb68a9b889cbca7b9cdc9af87f9aabbdac9dccc9ca8a9c8aaead9a9ccc9aac7989
col29:   987a9778c7499bb6bccaa9a8a7badfb8cbbd97caabddabe89c7cbbcabb9caa9f7bb8bbda9aceb8c9
col30:   75789a85889aa88a86b8cd8ac8d99a9a7c9cc896baa8cb89ad7dcfcbbab6bb789aabe9b9baabbca9
col31:   99959989b8b5b989aaa9aa9ce9dad99c8cabacf8bceacccebd8dc6bbba7ceb9abb6aa6bbc9999bb7
col32:   89ca696aab89a99ba6ace9abd98b8bcbdedbdacabb9bdcccb9eeaefcf9ccbdca9bcab8bb7d99baca
col33:   8ba99caa8ba669899a7dd9aaabaaad7c98dadafbccb8ddd8b7bc8bdadab8ada8dcabefb9aadaacaa
col34:   abba9a9778998b89ab8f9a7679abbbe9bccbdea998e9bba9abbcbc9acbdbcddadbcb98adaadbd9da
col35:   9a979d98b8c7f99a67abbb8da999aab8dbab9ee9bb98cccce6db68cbe99c7bcbbcc9aaa6aa8de9bd
col36:   9a9598c89967aa898b9acb9bd8bdbcacebeccba9cccacacaccc9cabbdcdd9dbacdca7dc8addabada
col37:   ba999ae9aaba9d794dcbd99daa9b9d9acda9c6ccaabfb9cfe9ddcbdcccecacccdbbcdbddbbaabdf9
col38:   a88ba9abbaba9aa979d9caa79bcda98bdbaab9cc8bd9a9eddeabcbddee7cccbccbbad99bafdabcb8
col39:   8a97f98caa9ad988db999e8a9a9bfdfd9896cded9cc9bb9bcbcdbcdb9cbbbbb8bbcdb9a7aad6acbc
col40:   5b9997c56b89ccbd9eb8dcbda8ac8899aacddbccaae8dacbe9e7cecbbbccebbdf99ddcddeacadbe8
col41:   d7c7ba97c9bbb9a9cdc99bcec98accd9ad78dcb9bdcaaaeca9979deaadfcacaeb8dceddba9a9bb99
col42:   8a78b9aba7acc9b8adcaa8aaabcabacded9baedcaabadbeb8acbebe978dabecabedcdccd9bcbbdaa
col43:   97999a97cbbfd95abda899b9cceabaddb9daebaddecd9cfcc9a9bffcdbfcddcbcadfaecacbed8daf
col44:   cd99c58e6bcc8c98b9dbebfbb9faed9bdfbb9e7ebccedc7dcadfdaeacdeefad9ed8bc9cbccadac6c
col45:   7a99aad79c9abab8dc8a7b87ecdbaaa9dbb7b7bab9cccc7dccc9b9addbdddeaa9acfcadbbbabddbc
col46:   ca99e899ccaa9fbdabecc8bfbabba6ceedccc8dacbddcdccefae9cdeddbbebfcbdaedbacddc99eca
col47:   679adabca9cceb99ac88accb9adacdb89cdcfacdbabfbb9cee9cc8beec9adbacdbfc7d8dfbcbdcc7
col48:   8a7ca9aacbaaac8db8b9eaaabaa9acdcadb9aacedfcbcd9caadb9abcccbccbcbfaaaecbebadcc8a9
col49:   989a9cdabab7ab9a8acacb9eddaceacbedbbbebde8cfebaefdce8cde9bfc9beacceacbca6ef9bcb9
col50:   c978bb9ddc9ebad9b768caababfadacebdbdbc9cbbccb9dafe8daccdbba8ecea88dc7e6eadbf9efb
col51:   ba9868cbbbcb9a9adb6bbcdcb7ebaabca6b8ccbac59898ae89a7b9a7ca99dcb969acc99caa9c99db
ROC:	 BPix_BpI_SEC6_LYR4_LDR24F_MOD1_ROC3
col00:   44711246a7a8659996876c9687aaa8967bc8babb9aa7ab2999ebb99aa8698b54687aaa9c76988885
col01:   67a9354aa8a98858bb8987784abda799b6a8dbad8b7aca599aaab9bb9a89ba8ab8acca8bba8c66dd
col02:   7449a77a68578c58cc69c6b859a4c99a98b9dbc79bbbacb98bcc9d9bd56a7bc4dacaaab89ca57b99
col03:   66847458c99b7e78b77ca978bd9797a9acc4aa9796686baced966abcb898ca8bbca6aabba998b8b7
col04:   a873a829a79896985a986939b7878a9a875c8a9cad9afd8ada64aa9bd68fd6ba9a87cbb8cacbbb7a
col05:   799b7686d559a59397a9a677a6b78b8a879b7a7896c8cfb997c9d97bbcdaaba7d9a4e9aaad5cb5b7
col06:   8488a97478a87b98c8745a76bd76abc8ccbc8576b99b8ab6a896aab8b6e9ebc9aaa9db48795c68c9
col07:   7778b774a999775788abc78b9b7cd7a9aa8696b997a9859b99b2a78b9ca6c6ababcbb9ca8ba7ccce
col08:   7b5665825bad7e7967658a67eb989a9b8ccac77577b987caeabc79bbbac9bcc6c7d8678eba5c8bab
col09:   a976b896db9a76acc8a67db8b6bad9b8cd8bdcbc7b9aa7bda8abd8a98bdbcdbb99aba89979949c88
col10:   767a67588899859a8789bed9b68ae78bba9898cc9c95b78b7cf88ab8bbacbcaaa9b8bfb798967eca
col11:   4879987955a45987649688cba9abc693a4c9c898bcca97b885dbbacc6abaecbe8b99d77757a766b8
col12:   746668b6896cc9997bc9686cc8a9a67da8c6dddacca6c9d9a898baa6a9ae79798aa7ba968989b9b6
col13:   4767a49a6b78b889cdbd29ec9ba7a9a756999b6b7eab8e998b8dcca8dc979b797beabc4669cb85b7
col14:   3788858a8b7a7acb4778cc8989a4a9ca9b9b898eb57a8baa66cbab9ca158b88948bcc9cbda968abc
col15:   a87a6d692a7a34aacd896aba88888a9898bab9aab7889acbadab9ca96b66ad76aadacdbbc65a8a6b
col16:   626797989b78b875bbc97bb878adcb895be9a889c9968c577ecb8c88b589f759a79b4bcc9acb86a7
col17:   67a595b5b7987836aa4a88399c978a69b88998a98b5b8c69a98baccaaaa7a8aa7a3aca83b9b58c85
col18:   47666b596ba598876cba9ac9dc89c8899859baaa867ff8ba99abbaa9da89a67da978db6c85abb589
col19:   597648ba7779585a886e4899acab999866d89acdb87c66558ab8976896edb9f9c7696999aa8c9e98
col20:   b778889598879787fca57b63a97ab445796b8997c9b656ac77a6c98c944a6ba7c7ca7c9b99b7a784
col21:   5616886799cc1bb67ab889c9626c6ca97ab799bac9688d9bfacbba8acc9899b989c668ac63978397
col22:   94695b6888a763aa79b8f8687cb18a8988b9a8a9da999aba8a8ae996b949c9b6b9aa897ba7f9c796
col23:   9a6c9838c89d688b7b997896abc98a7add59a9995bc9a8b9599b8caa988a45978b7959b799a7baa5
col24:   8aa5c38699ca834a979b76bb66c7ba7bb787b759a7aa6bbbda7acaeacb7c8b3968588a7af8b9685a
col25:   94913c7988bca7d986997a99b87cc95dacdbcab59b99c459a7bd98379a78695b9a89a9c75c99999d
col26:   9a57877b9669c8c8bcbd68bbb896a989a9aa9abeab7897bb9abdcabd99debaa7fa97b89b6ebba9a7
col27:   755477669bca8bd8b67b59bc997acbbabceaaa8b9feeaeecbdfecaafb78d9ab7d9aa9b9779c7dcbe
col28:   9baa9698887d7afc7b77c8c99da89ea58addcb9e7b97efddf5dbbaebd8bdd6dabcba8cb9ccd3fbab
col29:   b687275774adb6758a39e7be68ebb799cab9ca87cccbcb88dcef7d7cbbcab7ca9ac78bbca7abbab7
col30:   c6abb6ca99798848999caaafc8db8c7df89cacad9dbcba7e9cc9c9afab8b9aaadcabfcf9bd82769a
col31:   86abbbaaf86afaaabcbed9d6dae8acd9b9ddbb87db9ddb36dbb697cbf7dc787de9daa9bc788ca9a9
col32:   6996c888abadca699a798bbd969cccf9bdb58debe9b8bf769bcac8a99dbeb88c89fb98d9dafbbafc
col33:   96a769839989c9cb78dacf95d9ba7c9caabacdff8aecdb99ca99e9cdde779bbb8caadcd9da8ceb5e
col34:   678a689abb9e888cdcdc8be7bb99b9cdabeddcede9dcb9ecbb9edfbcca8bbc5ccabaeba89ba9799b
col35:   d8c9788ad9d966ead99b9a6fcbc9eeadbfc9bda9cbcbe99e9cd7c9dccdbdb9ca7ec87aac8cb6c85b
col36:   a89aa5ba8c8aa6af7aadec996d69ab8bb8c7ce999bd9dbcdbc9cee8cbd8d8eabccbebba6ccd9cb9a
col37:   89a9978fddabb9998ab6dc7b9daac7c99becadbdabcf9e7cddfef8fbbdcbab8cba98bcbbdeca9999
col38:   ba5975b989bd9bdc76df8ab9dacab9dcbabecbaeebccfadacbc9ed8babcfaeeaec88e7fa9cac9bee
col39:   a966b8989c67cb89ebac9abdc7c8ccccccbadb6adccedccadcaeefccbdaaabb9bbc8acb4999ab98b
col40:   c778bcd8abbabd8c7b87ad79a9cbcbba9acfdeacabfbcfebda8fb8a8a79def8ddfc9fe778cc7dc9d
col41:   488cbbb8acfa9a7af9fd8ceaba9dfdadeaeefb7ab8eddee9db9eceafbafdcc99f9acbdab966cc6c7
col42:   9a8879d9c6ab7597eeecfb7bfe68dbaded9baffeabf8ace7dd98dee9abea9bd89ccaeecbdaaaa7cc
col43:   987869aaaca9d8a9caf9c7acba7eecafa78d897bcdb98fbbc8ac98fba9bdc9b98b9da8bdb9bb6be9
col44:   76cdb9a7acab9c69cac9beebedbeebdfed8e9de7e9bceac8ab8cfb8d8b56ccaccab98cceeacdab97
col45:   85abd66aeb7cdbc8a6ab9b4c7ac8cce87999c8baacdada7c86afcc8da7dd8a9aebebabbbbdbaaec8
col46:   b6766bdaecfe7acef9adcc8f9cab9fbe89bcbdbbb7aafbb9ccbbb9c8dd8ccfb6c979bb89abb9b979
col47:   a879e4eaa677acfabadc9e777c99baba9baddbbe7acdebacddadd9ba8e8d9ecaaddfbbea6adb9bba
col48:   a98bc68ccaa8dcba7bcaababbccbccbccfcacb9bfc88cabaacaeb8a99bd8babc9eabb86b6fc87bd7
col49:   e67c89be8dbfea9de8bbcec9789998de6aa9abcad9aa87d6c9eaada6ececbbaa9cca7998da6a9def
col50:   b679abd9cacbb95bed8849baaabfeabb6db9bdddacccbc8acadcadb9daac8d8bd9b8ad9db998cb88
col51:   875373934969a7b679aa85969ad7bc7b9a7ab689bba7999799c78869c69b7c99aba987684898beb6
ROC:	 BPix_BpI_SEC6_LYR4_LDR24F_MOD1_ROC4
col00:   989736677963669c892a37669866878497766896836684788a9889575c9568969476a9497a656a44
col01:   8b76b78c9c6ab8558a6a8887bb6bb9baba8b58b9a9b78abbbd88ba68a7b9aa7f9a8bb5b78a769ba7
col02:   9c977aa76654a897a9988ba8aa7c557994aaa47a9aa69a84757b87755c2a6b969c985289a5aa17c6
col03:   a8697a7599a7bb6b7aaac99bb6959d958a999bb6b877a8b687a999aeb8aaa67cbaaa7b8d5779b855
col04:   937a7568984a737b7a8a8b98a7999d75a9c97baca97a87ab477ca69a7ca78ac9d87677b8a7a9a964
col05:   9cc676777989a6b4a8595a788d955b9799a779cc54abd978bbd5859a888987996888a795a693b548
col06:   586879bac65b56896a9a75ada989a6c9baa8a55596c7a8cdaa8b8868a8898a8ab897977978467b86
col07:   7aac8a86a988947c9768aa88ba8f9a8ccb97577c59b85657abc9ab8766e9acbb79cbd69ab9b98984
col08:   636687a9479c87a55ba878a6799b93a8d6a899886b8898cabab9869aa987c8a9978489386a5a81cb
col09:   5368c567a586a898e99a7798987d597b8b88a8b889899c5c9e8a9a69db9bd9cb9ab8857a885b7888
col10:   4a888b6759786477757bd97897699d9cc99b9abba96986cad9c97aaa9b64a868747ba78647c637c7
col11:   795d7aaa8799b8ab8bab5d68898c88749bd878b7bb8a7dc8876bc9c778a99cce9a97b7757bc97886
col12:   bb9896b8988d96a5aa688b9596ca8aac977a8989799a78bbb9aa798858887bd4777687979b874686
col13:   7679ac8a9a7bbb7699a9b9aacba8a895aaab494c6ca588ab7dba6ba968b9b9aa68ab968976687c78
col14:   986a589778a89888a68ba67afba96a6aa8a5c7d99ac7ac69a999dc978ba8c6668a9cc777966a7974
col15:   a56ab8d756a7b7b999a988ba9c8a5cca97babab9b6c5ab698d76dcbaabd989a889aa89989ab9a85a
col16:   899989b7a97bab9aac9a7bc968cabaadcc968aca9ac7aca878aa9b8aba77a9bb9b97597ba686bb89
col17:   636c9a6bdd9a79a5987628799d5696cb8e99ab7e9bbbd9abb98885789875becaa69c9a7b5a7bac77
col18:   b9868983786a587dca898aa899b777ca6c9889cc9a8c6a9b788abab699ba8b77897ba79979968ab9
col19:   ba9899c989d9c7aaa8a878aaaa8ab69acba8daace8aac8e9c6a8babbc7a887b97a4c8a769b579a89
col20:   7ba99e968a9a98966a79ea96ac689bc9a99abc99868a89a7997a989cc877a95ab86996aa9897ba75
col21:   6b58888ac6b9b779999a996ac9c87b98ba9997aac66cacca799b6a8a9a3bab9a8845a88bac98aa88
col22:   e48aa6999786a9b99ccb99cbd9abaacab7ac959a5b9887d38fa7e9bcc8b78c97587ae7a788887b89
col23:   7774a885a4a7b7b87ccc9ac8a9c88ba8cbbe8aaaabcbde3daaadcb9bb9cdd866cc98cb699877a759
col24:   77a8a5aaaaba8b889aa9c8a89baa7b8ebb988bca7d8fdbdaeb8d998b79a889b999a9a87dba5886d5
col25:   897abda8b79b6c9898b59acc69f6babba9a75baa88f698969d99a999dfbb8cb9a9a48bbba876ac6b
col26:   aa8ababc8a8a99abdbdabb8cd6dc98ca78dc7ad8879bad6bdade99b9ddbbd787a5aa99aa8999898b
col27:   96bcad9cbbca6ea6a8c7ba9d79d8acb9cc87ae8cbaadbdd9bab9ca8d9c9ba6ac9ba87ca85888899c
col28:   8965a5bcaad7cb9d89c9bbbdb8add6cbfccbdbdeccebcdecad9bfdeddccb768a8d9a8a9dab8c8749
col29:   6cdb889bc5b9a6a9db9cecbabbeddbcef9fda7c99dc8ddafedbaad8cebcdbca9d9bfbbdc9acaa795
col30:   968bb99977b7dcaba9d997ec98caaaa8decddabeca8bc9ccbb9abca7bc5b5c8ca8bb97ba8a7b976a
col31:   6a6cc878b56b9a7e8cbbbbddccbbcbeeaeef9cba99cbfebaaa9bd8daadffbddec899bcb7fdc58ca9
col32:   cf99ab799e8ba9faf99d9ca999aabbbeeb9bcdebdeb9aadddddbcaddbcb9babcfb9dea8ddbbadbc8
col33:   68fd2cdabaeaabbac8cb9babcb997bbafbcae7feeadacedddceadcbdacdae9bb8bcabdb96a94aab7
col34:   b9ba8afba8a6bdc9baa888e99c9dbdcdad3adceaccedadcdfc8ad9cbcdcddfbbb68df9acaaa9ad6a
col35:   9eb67b9a9cccdcddaacc9f9ac9fcddcccc9bdbfecaadbb9bcecaebbeddd9fad8c7badc9aac9fcb97
col36:   a88cbda9ca959ead3ababebbbacbdcfaa9bccaeeba9b9bbbbddccbeabeccabb98cadabbab9e9aaa8
col37:   998cb8b9e679abbddcddddcabdecadc9bcecfbfb9eddeededbfbbd6cef8bcdbdcdccaad9cacc99dd
col38:   beed9cccbcdc9cddec99bcc8d9b7dbaceebabeac9fc99feabaeb898eacbccabdcbdcdcd7bcbb8cb8
col39:   5a7ad9afbe8aadaadacc9bed99dfabcfd9bb9defdbff9beb9abefdddaadd9dfc9a99df9bbaca8daa
col40:   ebb9bd8b689dbabcbefdbfdbab6cedeaaaa9c9dcf8b8dedebceffbdaddabc9ebbddcdacab8799ade
col41:   c5c8b8bdcbcda9b8bdaacafef8bec9cdfcdcccc9dfcedbcdc9cedeeabdcecc9cbca8fccb8b8abdc7
col42:   aabab9b9eaca7adaabb9ddabdca9aceba9eb7befcdbcddadcddddfddac9ebcabf8bec9b7cbbcdab5
col43:   db99abdeebaddc88cdbcdd8becdddd9efbedb9cfcdddb9f8fbecfcdecbebb9eebbedddccdcbdeabc
col44:   e6b869db7acbcebdccba99acd6f6cccdd98edeaecefcdefbafcefcacddccacbafcdfd8cdbcd978ab
col45:   e79e8be9badbbcacefbc9e7aaefdbbcab7ffdbaacffcfbbcbcbfdecdcfdecbb689bb8e9ceccc9a8b
col46:   abcabb8cbdcd47ecbc8d6d9ccffb9caedcd8cbcabaaacfcdebef7dffcdc7faf8dfddacda7cbd8db9
col47:   bccbccadfabacbbbdebedf9abdcddeecfff9dbbefcee9dbefcbdefddabebc9dff8ddd9bb8d9aaeb9
col48:   8dab99a99c9cbddbaabaddaabafcabcdbedddceddedefdacfddcbbdcedfdbdadcabcaddeafa6a97a
col49:   eaafdcbbf7caaceddca9becc7bda9cbfcedcce9dafebffdeddddfcddccbead8adacdefaaaacd88fb
col50:   acccabafcc7dcbbebc6beab99cdddafd8cbdaebebcbbcb8affcfcefe9dfbefeb9acabce9adaccb97
col51:   88acd99a7aea9ecc89d9babaceb89cebab9aabdca899a9badeeddddbfadaabee3e7ea99bdca98a77
ROC:	 BPix_BpI_SEC6_LYR4_LDR24F_MOD1_ROC5
col00:   f47b2625579849853b544ab766f97368658586c7a7b56777a1a6919ba7ba86777758824581735a35
col01:   559885a59ea4978b99a97b988e8c9ba875ad9c3b8bcadb987d6acbdb47687acb698d976b77467586
col02:   76766ab9668ca97c49998b7588a97659969ab59aa98b7687e9ac9ba99ca5779677a32b5a91792485
col03:   ac67a68caa8999a66898a66da78baa4898aacea16cb9bbeeedb9b74a6a8957a8a6578a79b9a85977
col04:   6e9978aac7758559bb78a6b9478674ab889b7c8bbb99e9c7797a99bbb5ad88ca5499b75546977844
col05:   8b685b7684888c958a75aaa787bbaa8a6c887d8ab59ad999da9a78b7ad967ca7a955856ba6aa6767
col06:   697b698475764866ca987aa66aaaab878c8dabaa9c5b77a9ca499babb7af1c97a989988bb5764b84
col07:   65cb76b8baf6b98fcc677b5bbddf7a89ab78fbcb996a5aaa9b5c659a978cd9b9c8b9797667c7b658
col08:   9a78b69773a9bcda7b89aa749abbcbbdb79c7ee9cb88b9b8c99a6897a39a79ad9bd489c9a19baa6a
col09:   97578a967a75ae796aaf95b79ea8bdeacddc9cad7ab9975b89add8eb987e798a7786778bc7899788
col10:   7ab8398777466a896bb899c9b8baab996c98b68b8caebd895a8d8cb697f769b7966a7aa8d6b49aa4
col11:   2bb6b9598999a887cb59cd9fbdd6a3acaddecaaa9b9c77fa688e9babba88bb87477849b755a67873
col12:   8c8b87b8a997d5c9854478874ac99becaa4b89877b8dc8b8bb7b94b97bacd95ba7babb87a748a573
col13:   793aa9537ba6a65974c886a9b8a99ca9887acaaba7dabe79889c88ab977a7a677b988865c99bb5c3
col14:   7b6766a77758495ea9b9bb6b7c698bdd1ac9abbac899bd98ab6acfccd96cc9a9a9c3aa97a84ba59a
col15:   5a55c9a7797785bcba986fcb885cba89c87ea6c898aac9b9ec8db9d9db4979aace76719969a63689
col16:   87289478a79b6c787999898aa3a46a8bb989c8eaeacf8968fc99b7caa99ae7a8aa97b7a7985b6a62
col17:   44ab379d8c989b7878977a64a7acbce9974b99e9a8979a8e8bc7896cdb5b99a78b86d585993c7495
col18:   63786b68529b9ab9c596ea24aeccaab6abcb4a2968ae5eabd9bdaa866b387758696475a57b49b667
col19:   68793994c6bbfdc8dae9aa3b9badc8a869d8a96987bfc97ab96bd6a88ae99baa9ab9688a5c93b98b
col20:   67984147a9778a78a89377d9b85a8cdbbb79899a58989b9b768cbaa36987879b99baa5847a2465a6
col21:   3a4968976ab978b958b8bbbbdbaac5b7cdbda9b889a68dbc7ab88eebf9e8ab9a8ab86688c4454164
col22:   788a55696762aa877a998977b988c8dbbba79587b9aa478688787977adb78a6a9aa99b459857ba64
col23:   6d85f597abe99a76ba965a788a7bb9b858ba989a8966badb79eb7ae86aa67cd8c7599436d8851351
col24:   b768a8aa56b8768928b68a79d66cb9cab9aaa99768bb79c999bc1d84a7adc44a859b7b9b34898894
col25:   b63aa8ad6b86aaacc86dc7a8d9bccde5ccaa8c85baca89d9a89a69ea88699989dada198967a79d8a
col26:   9ba8a89b6b7dcc88cfb98d9aaea8dc49e88699998b8e8aaaf7cba9c9a78b9d6eaaaabc77c4acba8b
col27:   995a89c9598f59a97669a7dabceb6bb9a98a89aa99aab9ebca974adc7b9bffcadc9b778778589486
col28:   b7a87bd7a7b858b69889ddc9d8a9babbd9aec7cd8be8eb8cacab9fcda8b99daaa7b47ada88d689a2
col29:   b4a7d88ddfbe9dbbd6d995bcfaaeabac99af9d7d9ad7c8dbdaeaee8a8cca6bced8ae77ea8a58d699
col30:   79bb27649d96d9b67ab89ccd768ccee9adebbc8adcc9dc8fccddd9ccfbdca8ce68a98b8899baabc9
col31:   967bc8c59c597aa77bc6c97debbca9b5ecfdb89bac7a8facadd9999aeed9fd9a9899dacbca4b9c68
col32:   66ca683ad986d9a68adf97cffc99bbcada8bae9c9c8fbbdceecddccaadceaae9cdb88a6b7cbea8a6
col33:   47cba9f795a7b38dcbccfabacccdbdfe99abcbcdbe9a99adcffa9dfcaa9ae9a97c8a99b4dae5ad38
col34:   a988ddb8c99da8ae9abb95dcd7caafcceeaab777a6c9bb79ff8ebb8a9adccbbec8ca9cbccbf9a9aa
col35:   bbff8bdba7bcb8c9fffdaaaccdf9fafdead79a87d9fd79daccef4cf6ebcbe79cbcd8a8beaed9a88d
col36:   599c8bca9abdacacabbaf9beb7cbc7b8a8ccd7cdeb9ccbdfbbe9ceeb9eda87b3bddbabbead9b9e86
col37:   8dbb79eb9cbaba7a99ebcefddbfcfcebbdff7ddaacade9efc7d76facddd99ac9c9b78b86aaa78e89
col38:   59dc6d7ed7c8ddbddbbeafedabdba8dbc7fcaaddebecceebbedf7edaccbbeb9aceaa8fa99989debd
col39:   9b4abd8dd7edacc7cdbaecaeafb8cccb96f9d8c9f8feffc9fcc9ab6bbbdcfabbcea38cbc979b9bb9
col40:   df9789dec9edc74bfeaabbcaada8da59bfd89f89dcdf9afaffce9dfda8deddd9fd9c5eacca89a9a9
col41:   fdbfba98fc9c7bb999aba78cebeb9dfbeab8efbcdeebbbbc98abbd9e9cafbecdacbddc9f9bdb6be5
col42:   fbf985bd8a87ddae9cdbebaecfbeacba9cdd8cabdfffebbcccdd8ce88aeccec5dd9a7d7caba89c8c
col43:   9dccccb7ddddabadeaccbe9f7fadb9f9decfcddfbeaaafdf7bffe6affab8fabb9c9e4a9ac899aa7d
col44:   c8ccacbbabdaed9dbabcd8c78fbc9decbdbcecfdbdaf8bbcccbbaafcdcd6faabecb6de7f788f7da9
col45:   acbba99dbc898d77dca7bcbba3f9e9e97b7bbceffabaa5ab9f9cdcdddafae858a9af8b4968759adb
col46:   e985cc8db9cc997b9af96fcc9adbaccdbcebd9aeefcbeeabfbbcaaedbfbabcea8bbbb9ddccfb9b97
col47:   9dbbddd89afb8db9e9a7d7ac9edbbd5cccde9fe9feecdafb8cfbade8dffadafbfabc85dfddda2fae
col48:   cb89ca8b8cda9dddefdca978bbd99d8baacce6fdbdfabb9cccffdcfde9be6cebbcb7b8c9daaa7aab
col49:   bbebccacc96c7adfadb8aacaddc96cc869adab9deaeccabb997efbc9f8caccecbac8ecf9ee9bbbab
col50:   bba7b7bebf8769af9dbdedcc8eabcabb8cefeddf9ccaabfcdbacfadeedb97ac8c99e9f66ca78aabb
col51:   769aa8ca59aaaca79caaca75ceabb39a8a9a6ccdb8ca8eaacb9baf8fba9cdab8bacc5bc85caa9b34
ROC:	 BPix_BpI_SEC6_LYR4_LDR24F_MOD1_ROC6
col00:   f665397a7a88798aa78697bdcb859779946967848788b68bc6c8a9b5eb6679b9ad69287a7b547a9e
col01:   d9769566aaa79ab9a68cab8bb8ccca9967aadc9cf8dc88c7996b79c79877c9aee999a99d89db9952
col02:   57b75a99688e8bdca7788b578aa96ac86b9ab9859acbcc58899fa89b89786b77b7cdad989c999486
col03:   aa9498aaa9698887abbec99996a7b6c8b8e67d8eac6cacacaccc89b7eb69a9bb99d68ba6998aa977
col04:   7867c965b8b9999c88dac8c4f8cb8caafd8c86699dbbd9c97a9ba99b98acec8ae8aa89ab78c9a919
col05:   389ba84b5c9b779b996b5bc7ca89c9979a8cdadcdcbbd8c6bec8baccac87898c6a8c996584e4b578
col06:   969a96a6b69b8db38a886957a598cc6ccaab8aba8c8d9a9d7ccd98993adf9dac986bc9bbbd97abbb
col07:   784b956bb86a9b8f7aacab98c8abda6acdc6d99aa9989a8facacdbc9b567d8dacaa8b3a8a49be958
col08:   b98f8a586687958c77a4abaaaaa88797cabadadcaaaaa7bcb7da9cadba66898a73797ccac75a896a
col09:   9b988487c87978a9b9aa7c9e8d8fcabb68eac6a8f9daa59f6babfe7aaf5faae8c989ba9a98dddd98
col10:   c3a27b95ba998b9ccba49b9aca8b9bbcadc5b7ccaabc98999cca6ecadab8a796a9abbbe7a897a5aa
col11:   7ab765948569b97a9bb88788cea9a8cad988bda9cbdae8f7bccefb89cd87746a8895ca94a7bbb758
col12:   488a58a588974b56cc9daa69b7a89e8a4bf88db9ccabb8ddaaecccab9aacd9aaca689ba869565599
col13:   6c684a67647288a97e7a785a97d9a79969a79cbe988b999d8c7ad65c86989479beaa99789aa5a485
col14:   7b7a7c3a7787aa6b967ea798679bbab9bd899ee9e9ecd89c6aa89ad9ee8bf8796778b77988829885
col15:   d566a69a888ae87bca6b4aab97a9aa6c868aa8bdbca98ec9eaaaefa9cc989dca8ac7bdccdb588884
col16:   a76b619758a877a9a88376bccbad799a799a9b9cbcd79bd8a8c9aca8d98abdb9bc988a8b8887a765
col17:   a76945675936a9a47b86aa7b88b4569b98cb878bc9a96aae99988cbbb98a9686a75758b67777c968
col18:   8985378bc7969a489aa9aaa89bbb9e9c97ab478a7bc98a99495e9888987ae9b5b7899aae7a665578
col19:   8a38a479766598a85a8a5b7d8c6c8c9b9b9ca88a67c937cc8a89adcabff6cd9ab6898c98ac495fc5
col20:   96599cb834b9a5a6b98b695a64a98b99a9ea59ab958d9c7b886b959fbbaaa8678ba84a86a7b68696
col21:   7455453858bac99ab59c9bd98aab8999c9caeb9be8abd999bd9ba99fabb8aa887c57b888bb7a4b96
col22:   3c85594477c58d6978a78858979a98dda5b8ca99ba9a9bab7b9aa9a7b8ac8a69ab97869365c8c787
col23:   b6b6367b8579978aab87b569aa98aac58aaaac78b89c99bab59da96cb9cb988a8ddada9866896566
col24:   558256567687a89392ab79ac6b969b6a976da9dca8ab9cd99eaaba6e845c8ba58abba65798c9aabb
col25:   9999a3c698793948b49cc6aca4c78aaad99bcdd6d98b897b897e8ef8daacbdda9aead79ac67ea798
col26:   a6cb5a96844c864aa7a999bbbbbeabacba8bda7ea8eb7dab8d7aca98998cdebb98a8bac86accc7aa
col27:   697b57d478745b8bcb96bd78ac7baccb8be6abcb8988defab977ab9ec9adcbdf9afb7acebdbbcc56
col28:   a4aaaa68e77b8aad96bccd9e9cbce79bcabdc8c77ca9bd897aada99bbabb6daca9da878ffeba88fb
col29:   88b2b599a68b987bbb869989f9ad8bbc6c8f85cdcbabcbbababd98a8fbdfaebb8fc8a66a77e75886
col30:   97819878947c79ab8dcb4a8cdc7cac8aba7bcbd89ccbabb6cdd9e8efeacb89cfc99da8a7a89bb99d
col31:   75589b696987cab8c99d986cb8d9bdbbbf8ae99ad8dadbcccfc7bb7ddcdcccab98fedb7a7b7b88a8
col32:   9737ba787e68b88aba8aead9c8daccdeae8f769acbbcfdecf7dbecaec9bacbb889c9efadd8b97c99
col33:   2987a88b8caa9a7c6bdcdfcfbac5eeeacc87adba6ccd9bbbfacddebf9c9bbcedeba69d78aa9a8bbb
col34:   ac2bc396ecca9954da6d7abbe8ce8dcebab9bcbaba8f9addaa7bfa79bcddbb99a9acec8d9e8a88ab
col35:   cb8b588a4a9d6ba8beeeabbbe9ca9b9accbab8eac8ea88cae8edcaacabbed9c78877a998cc79a9ca
col36:   b5982c946aab89955ac6cbacb7dcbaafacaaa8da9a8ebbecaaacadacdfc99ecbae79a8c986ac9b78
col37:   aa89b68b78a57ca779ae3aa8decbe88ccd4dccb8adb8ec9cdacdaeddd9bdeced7d9c897b9ab4979a
col38:   b4389a7adb86a79aab85bbfaac7cfbacfbedd6bc8addaefbbb9cecc9ffad9dbbaaa7c99bce9ebb85
col39:   b576997e98987bb89ab8b9a8ac9c9b76a7cc9afd9aaddc7ad9aef8be7bcacaccdaba69ad99ccd995
col40:   6bb96bbc57a8be6b3d9b8d9abdebdcc9eae98cdabbdfa9adae9a9cbcccc9eaefee9abc998f87b988
col41:   8b6baad8d69da685667cbaabab999cdbbaadb9aab7cd9dabcc8dafdec8f89feacaaac7998aa9c99d
col42:   888d3898b7859b9adaecd89897feedcbcfb79d9da9d97eccefcbcd5cbbccabfbdccb899989baadc8
col43:   a6b887b27a8a28a9a99a9a9beaadbabdbbc5bafdbebdddadafcacddb5c8a9bd9ceebcdcafcc9a778
col44:   993988cac8ca7dda6c5aeabdbd9cc9ad8da8bdedd5dfdb3becdf78fcabc9fdec8ece8cfebbd7d96c
col45:   74ad6a99792db998cb9e94ac8cbbaefccbecbecd8dabacafccfc8aec99d85cccabf7dfaabb8b4ba8
col46:   587c6a6b7d9b7ccad888c8eab9b8aeafbf8c9fdb97adfbccc99cfb7adeaaddcd8c6adcaa7aa58a8f
col47:   487bab8b8b8897993aa9a7899ec96deebebcbb9ccbd9ddf96b7ccd8ebab8abe8aaa9bd58ad89d9a6
col48:   67a989a755168c988ddba9a88dbab8bfec5f6bcaa9babbadca9b9eb9cbc7c7ccafdb8c9aac87cbb9
col49:   92717a78a6d87c7cb7b3897bc8ce6abfe9a89b8fd89a5bbc68add84fa9b9ddaabac8a8baa96fbcd8
col50:   9a98688a69ab5cb5b6a9a7d5b8ca9bd9bbfd9bff9c5bb85dfcbdab99dad8c9dbc79dad996ca9bae7
col51:   5857798a1a69769b97a776cdb975a9b99b8a8e8e56abc7b58ab8ad7c5dbac9ab997a7568576aab79
ROC:	 BPix_BpI_SEC6_LYR4_LDR24F_MOD1_ROC7
col00:   499a877a87baa799babf8b889c48a97d6899fcc7aba28b6a87cb99694999a88b9ba6a25819616721
col01:   8c89b868a98a955ab56ddaca88aa6beb1a7b8d8ca98799999b899999b8a7a733a96db796b8775566
col02:   55879795b7697986f7b6c9ac7c78ab82bb6cdaa947d6fddb6765ae8ba9b5977ac959a79bc42a4514
col03:   796cd5a7ab8ba8dad9666bb7957bd9cb8b96be6baaa9dc6ceca9966aa8979b968a766b8354668552
col04:   b7a699875a85aaba89cdbc9a7fa58ababcc8caabaabbacc9be96b6b9e9aaa4a99359878b5b794492
col05:   8abac988a9ac99bdbab76ca7684aeabdaa7aca59c7db8cad7b95d6898b754568aca5786ac7a79441
col06:   67ca793aa97bd8c6c9a9968c9ad98b7da88cbbbcfaeb8aba69bb9aaa97cdbb8969b2887ad7354948
col07:   699889d9ba979a977a9ba7989acaacdc3d89bbdac7c9abff69839b7cedcc9ab38a8799cd98858666
col08:   7468a9518d5aa788b89b6a87b8d6e79ba89c88e7a8c47b7876daa687c98656b567588c4696b79657
col09:   ea8796937c5ab8c9c7a79c8a57fabaac98dbc88ac98bccbaa8fca5abe9adb9a79698b88b186687b6
col10:   578a2977a7799caaa88e788b97669cc9c8c9a86ca8bbc795dcb76d8ca96f97a8d5b68787975c9517
col11:   787775976bb8c79945999c86a8868996c97bba9a8ab6bd75999ca7695ee8887b468ca77a784647b4
col12:   6b74996a6a665d686c96c45b8cbe9c27eba9fccb77aa9a69a87a8ad7aaacac98aaed217b97a77623
col13:   84b768c69d8e76b668b6e799fcbbb97887be7a8cc889a74fb7babb9bbbccd89c7578d2a9e46a5899
col14:   a979a7b69b78baadb999989699cccbad7acefe9976bbaa899b8b6a94a7b896a8644a68a39ba89766
col15:   8b5658899a78e9ab5bba8d69e6ec74765bab98689898ca5b9799997ea89a88c88b4ea75aa5956957
col16:   9aacc6e83e68534a9ca29c9c9bac9c7aab96f5b8cca7bb886a68b7bccbd8aec477b7d697887714bc
col17:   967a98bd399a47667a69a5caac6cabd7aa78a868ca9594b7b5a77baaa56ca8989c8979698bb4495a
col18:   7bb8a8b57a769858999a7aabb7a997ac6ca7c8b7affacabd7697ca85bb6e788aab679277698d6b45
col19:   c767ba9859889a6a6678b998969d9b9b87aabbd7687cbca7ab66b9a6e79d9ab69455a8b995986769
col20:   9a69b9b8978bca684878d68bb7c5adaac979ba9b7e9776d87c39f7d989ba4a5aac4995689a887466
col21:   a7667998a6ab6999776a9986ba199c97bb789869eaaba9a9788b6958d57bbb8496c5a9a45489b84d
col22:   5b74bbc94b78589799a3abc8b4889c7bb98886a895bba99e5d7afc697978aad7b5ac58669b447673
col23:   8676a6a77939b7d779a6a7953389d4dc5ab97aaba69ed88ce9a9bb5899b39cd7a9a7e8856a3b7772
col24:   97a586a761bcb96aacd87dca9deaa86a88986bddcc8cb27d679b75da78b7979891acb94b84c9a666
col25:   7bc7b87a3d798ab8d8a8c5499baca9dda729a989a599ba697884bc7bd97e9c79e8a884aa9ca89586
col26:   9497b8b76a8c8f6eccc8aac9b9d99c7aabddcafdc69bbe8ebbc78b99d979bcb78a7bf766d788a935
col27:   69ab2bc67a777a688e99696c88798a9bacabc9b99babdbabada96bbbf9eb9ccd9b98e66a998d7897
col28:   5c8cb9da79a8da89cc8cda68ad6bdeb9ddfdba7b8bd7defbb9bbfb8d78da7edbc8aa99a8bc6389aa
col29:   77b9e997aab8b887bbcad5cbbcea8ceacc79abac7dad9879ebfa96b79a8d6baa7a7a6a99888ba876
col30:   a8dca778a89b889c7e99dcc6b6cbaaad99b9a98a7bf9b9ebb9b9cfa8e89ebb88c8c7d9a9b6aaa999
col31:   9c997b9955aac98dbfeaa6cbbcff8daaafcb998fecfa899abb7b7abd9cddcfa98d79cb9b7966c7b7
col32:   a798fc77aaa7abdcdb7878d6cc8adcbbb7cbaaaeeda9cbffecc9bacb9dbca8ce9a6cabcaba886ccb
col33:   77658ca97abafae7ccbbac7b9ddb7fb89dcfcfbcd9bcaeacc8abdd7bebe8cd88b9dc8caa5bde4a89
col34:   a9b8ccb68869a9eee89cacce9fdf8c8b9bbaffbcfaeebf9badbe69a8ca9eab97bcabcdabb8969baa
col35:   a84c8a7a9accb8a8ada9dccb6cdae9dbbcbbdbed9bbd9eaad8dcbe87ae9ad9eb8b67afb87e98669b
col36:   a6b9d488bc9dcc8d9bdea9d8cadbbcfabab9aabbb88bb47dd7bcdccba6adbcc9ccbf6b886985bcba
col37:   e4986fd89a896bbb7abdd8dbaddada8fadbadddca89fbddbdceadc9cbf84a8798adccaaca9ac8a98
col38:   98a7958bb9ccbe7ab89afd7ad9b8cd97dbbfabdfdadead8deaccd9adcdb7abbb8aadac9e9c9a5bad
col39:   dd9b8bba9aba49988afa87a9a99cc9e7bdccfcaddacccbefcbf9d99cbbdadcdcc87ba78ac68c8a34
col40:   6969ea999aed8fcacb8dfbca8ddde9db7bdbdce5cdcde9efac98cbbfad99cfdce8aacddbd86caa7a
col41:   a8be8b9a98abae6bfd88cdefccbcdcdadf8cdbab9c8d8eebc9acddbe8bcdbced87bd69adba79bbbd
col42:   8aeabaecadb7d9d8dcb4ecafafcec9deceadfbeeecaacebdfbcdbeadcabdbe9d9abc98b7b89b95a5
col43:   ab98c9bacd9ccca9d6ae76efaea8ddcfcb7cf96ec9cf7edfbabffcf8efaaf7d88bc9abbedbb757b9
col44:   a99abaabdabbad8bccfcdabc9b8bcaa9a9abfbdffa7fccbfdbedcafebadacadb7ccb57ca8b9848b2
col45:   bacfd8c9cabaa97bcaadc76bbcdbfffdcaccefaff5ccacbeebbbb9badfbbcca99fadaf8e7ac89c69
col46:   b7abccb98d9ed998dd7eca9c79b9568feacd9ecdaddbdca9bbccfa86f9ec9c9b49c876ac2a7b89b8
col47:   bbb9ab9c8b9aabbe6c9d7abed6bddafb7dbddfbfbddbcbbafc9ffbbbdc8bbbbcecbb9896da566997
col48:   c9c9bcb58aa7aaaabbccccc8b8be97abdcbac8cc8c89ebecda99daecfdbebff99da89ba59b99ac79
col49:   ca778bcab99a3b8ccbafcc98ac7cdbcdcd8bc8ffcbfbadaeecdcfccffcab5cbb9db7ab77bb99bb68
col50:   aaa86dc99a8eaaae8bf9f89bf98bc88b8bf77ac9b7bfdaa7aabfecdbd8ce6efdac8ac8ab8b5a9aa9
col51:   69687879c781bb695b87c8c588b898884a9aa7c8d9b8888b99986df7be8accf8f24cc9d9978a9865
ROC:	 BPix_BpI_SEC6_LYR4_LDR24F_MOD1_ROC8
col00:   65465c864835678389a645887cc9375d7788baa85a748ba6988a97b9abac8c58d7a6ab89fd6faacb
col01:   963251a3552eaba827ba8957c8a9aab89eb9ccba9cb6b889dacb8d96d6bab9f7bec589ecd76d97ab
col02:   866868688ac14cd6b59698c6d6bcccac8b7ff8c95b8758896b88e4da8b7dbb7cbffbbc8bca7878d7
col03:   9386749165636b669c9a83bf79d9c9ac6ab9d8d6a959baaa7999fe69ab75f7ebdb8b9cadddb7c7c5
col04:   8296473847f1a79e268cb764b66585899e88848b93a79a767b88bc3b7b7479c99bcf6cbb9dbba7b8
col05:   787684c7884598b2769686ba7a79877ca887cbc9aecdaac7a9a7fcaacb58887aa6ceb968fea6bdfa
col06:   59285a79843488579a7987b77978f6ce47c6b7bba97b5b76c8dcaf1adbcb9dbf9ba5ab8ba9958979
col07:   635919a37d6637a46b585996996c556584db9a88ab8cddd9a89bb8b97c8d969b87b8ab985874a5b4
col08:   6884a44966b78b897986d9bd8aaa7a7a9a77e7a37c6ab8d9db597a7ad699fcdfade6fba85da9ea82
col09:   b3a9778976a8b7779aaabbb29576a7d89bb8ca99ca5bacaba96adcd7ddb88955abc8cac77d665a8c
col10:   65765779726777a16cd6d869a9aa469978976ba893a98b97aaab899597795c6ad88abace9aa69cd9
col11:   3b4781848a1494493c976ad3a3989a9a7e88b49a9676b9945b68ecc78ae6a8dabb8dd9f7f8c96766
col12:   767538455a78247a8b674db7b5a946c79b998a9b896c9b4ccc9d979c79dbce859db9caa47b761466
col13:   a24c677464535b57d687e4677f9abb76b8a6c928f75797ad78e9bd95c89aaaac96aaaaaedad9c9de
col14:   6326894858658593689897818977b8567b859aabcfeea997eb688b6eb9d58aa79b87869859c889a9
col15:   129389d7335b76977589ad43d84a95599c89e7be9a37dbaacccd9a7c9bb4baaf6a8eccaaccd8f78a
col16:   68a661671a858aa95b7a6b8a6bb85ab9c4857af9bacaababa6ad6ba9a7778ab78889a2ba78c978b7
col17:   7585696385868563936b8c7a678aa866a9878b784bb85ca2996c876b7999ef9899c77e79897baa5b
col18:   522585671566673468658a7a6666c6a8999bbd388acc9bb949acab76c7b9e989ac6ab78ca889ac9c
col19:   533763587678369496759aa63b8a87797466b8a787b777a6caaaca8588caa2947aa99ca9caab88a6
col20:   4554684295868889566c67628625ab7a547bd877de8bac793dbc98ba6bff85a1aab7fcb8a9ecbf48
col21:   27a2975975a1a55aa75676a99793d8855ad777aa68589ec5c6a96ac6ebbbedac86f8a887ba77b997
col22:   44941359b61b67691a45897bf95656c798bd988d558bbd78aa4a4a668ce7dcc65acbaa9ac9c98ba7
col23:   663786346555476b67795a1695695adc7ce6979cc5a6697c4a89cd7c989bb5a677778d5e677cec7a
col24:   671675527459335a476a8436634859f888c9887bc976a889a3f6bb7ca789b5acf9bbb5a7bf9599aa
col25:   8668944584978677cba4697a8a98856dac46fd95a85398695761c9cea7d85b9b9ab9e9fb89a8ade6
col26:   957aa7947688aa6c77b5add9c976e6fadafba9d777c76b8ccab8f99ae99ddcc5abdeab7abbacacaa
col27:   6759687676465c8b5499778aeb899b9a868d8aabc779ce73ad99decbbcaadaaba7bbd9dbedaceb68
col28:   6d37767b59aa855466876c9aaff9adcae56bb6add68beaccd9a696b9baec8aabeabaeccad7caf8bc
col29:   a696a656aa639db6947a9be89d8d9e887cd57e5abc7a88b7c9fe9eac78b89b8a77a8b6a8c9da6bf8
col30:   77ab694c69aa98569ae7bad8867c8a9ad95aaadb89cc7a8ca9c46be9e95da58bdffe9b8ebcdf9edb
col31:   594168b986978b86bbc4ca8687a9a6aa87bdda937c9b4aceaabad77a9bfcba9cbacab8bcebfd999a
col32:   58b6889aa94a84c9954fba68c8ba77abaa8cbb6a887fb5da79becd778c95ec9dbbd9cebbae7ac9a9
col33:   4ccb7959bd9a5a976fa99999b4eabae79cec8cdea8a9b9d94cc8bc89eabc8fe9aaa7e98acc8e9cbd
col34:   5a7865d19bb479a478997db69993bafa9995b9ebf6b7bb77ed7ed8eedcfabdfd58bba997c9abbc8e
col35:   995a78565a64a87a7b6aa5ba39ab967ac7d69797cba88e96af89ca7daf9ebab79dcaa9cd8c7bcd5e
col36:   468647977cc8bbe4198cbbd8d7ad948bcc7aabdaa6899bb9acaee9dcfacbb99dc7f8dec7ee87bec9
col37:   389c47ca6b99abb6b8a8cdbbcc9fb9a7a7ac8cca879d698bb9cdbcd9bb9cc38bfab9a8b99dcbab69
col38:   b98cc968fbc67558cfa8b8d9bdfcce8ab7b7dd6bab89bcd9accb6ed9bec98efebcedbabf8daa7ffa
col39:   7598634a7984b82d57aac9bd4ede9eccefbcfbafdbc9cbedf99a9c9be6e9dacfd6bbbb85eeecb77d
col40:   8677d75d5aa8a8b8acd68989a3bafeda7a9c9bb7bc797bd8b8adcdce7cdfdebe8caa8a99b7fdcdeb
col41:   7ab6986997456886d85b7d99ad89bc8db9aefdbc68e9a8d9ac5ecea8cdaa9b9aee8f96abedcfcb8b
col42:   c53788796799cda8a8f99ce6e889997b8da94d9aea68ed87a8d9fbfbabfdf76ea9bbef9aba9bb9cc
col43:   98257c777897b8b9e77ba628949bbd85bbbcc9dec3fd9fcabecdf9dcde7798ffddafedcfa5bda44d
col44:   93869da67f486df7d74658b87e78b888b29a7ccdbbc9bea6e79ccddaa9ca9ec7fcef5c7aadd9ebab
col45:   59793d6a8961abdc95afa58b6a98db996ee7cbebdbeba9baa9f968c5bbcb87df7eaa8abbbb8fedda
col46:   9d9a98777866b67ab8a99bbfac8689c77dab4997786d979a888cbfbacafaa9da5abbfcaab89cd76c
col47:   993a7847aa8db57b68b988cb99d88a8d9ae8ed7fbbbbb9dfa6cee967fccaa6bc9a8fe9fb799bfd9d
col48:   7aaa8738c77a7af995849c6bdd98caa6f7dbc6dbaae5b8cdaecdecd8e6aa874bbbf995b7b95bdbda
col49:   95a4a968a6c6e7a94de9a897bd8adabfaea9b876c685a6ccabfc9b8adbccbacfaa9b7dadbfad588d
col50:   d9667998c7a65397b79d7c877999bc9ddba9aa8c7fcb9dcf8858fba889ecbfbe9dbdc7dc897caeac
col51:   45516663593963637689887b6969f8713aa57ab8a79a97974a79787a931698bb7698bb9d3ba49aa5
ROC:	 BPix_BpI_SEC6_LYR4_LDR24F_MOD1_ROC9
col00:   42746255668486457147c4aa685ba4865635489947c584634a6a668879647595a8b4a778b97b9756
col01:   71439369898949a47179886b9977a877b796966ac889bf8975a765d95667787ab97bb77a9376b966
col02:   847177894634926477ab43778759565587c788868667a6b8a6a55795b5b586baa84967959aaa98b7
col03:   51261794877649495998a6787a39967aa768c6556a6a799a77d99a7ac987979cb76798b79596ba69
col04:   538487989671787995b7b8a9585769b479a397bb7c79956976b486a8a78a937c84b88bb89b876b84
col05:   33a1455761758337a7c9839479a896b5b969aba99394935558a6aa85869a79bb5996969a7d799a9a
col06:   759583a5792395b8aac528a8787c57a9c6a6a599ab9a85a8678ab469b7747cb8696b7a86669ad886
col07:   2464aaa75855695689898972c6b36bb88a8a27bb9ba5b66cd869b7989a696d9bac9b986a7898ab5b
col08:   68849a73575c58977679995989c879798678adb8a7a97989958bdc99a5789b9878ac2aa6e7c8a887
col09:   3562b5374a6917788489789b87875b9acacb8a9b999b78c82cb769656d8674b996688767aa888d87
col10:   26588797757475a78b98464457469798b6769997bb9c876658a875c99756879b6b79b7ef65679295
col11:   8514a76b856b9538a84599765d8678a98949569a569b487875c4886b56b9979988539769958564aa
col12:   89766726665847598b7994ba469a778668786867ba9c8697a6ba95b6849b997876c9d5a497868b45
col13:   6641853463665a879b9aab779b77a58467887477549888669b77d7a7b98967b78a858c76b7259899
col14:   435a24565b7b9696767988988895a45a79897989788678a986b7579c8798a5c9659578a6855b8b89
col15:   5a95476c4ba748734888898787a29a963b87a8b89478798769a68a6ab84a7aaba795c56b887a7bba
col16:   a66775a94a3484b985d7535686b879abca8a96d879887badbbe9ba9e83a7a7b96c65853966999a96
col17:   429545594184948aa58c98c776a47a4b86bb97ac7566b6976993bb6a6b894bbaac96597789a885ac
col18:   5465664165968284aa76666876586b95997687b99abb8b6b4aa6a953767b895ca969985b565a7699
col19:   7623a74a3a76668d96776998a898a5a676ae6b36a6965688759985b8c7bbc679b5996aca99d989b9
col20:   a543a8475a37677a886abb7d687aca8a886745b78b69a6c6a96abb6a95989bccdc9a88b939959c9a
col21:   956163a59c7a4639b779832a7998b98da878967b5c8a876b44ca6a9698888aa87b999a9886ca87a7
col22:   9152545346874775953cb6a9656b77575c972858ba9cc666ca95b689c7a7984b9a8799baba899a94
col23:   344274658859763988773876b9666458897859667a888cb66a86b78cb7538d598667b889a85c6ca4
col24:   5366634621666a8a64745795a579799788bba78b88588898964b9d49748789c89499c66c954bcb44
col25:   57455786776778968868a786898589a797baaad89ac5c66789aaaba97ab9d99a9a94c897b998889b
col26:   645554674888c49a8399784a57affcc8c9ad88989aab68daaaa9a99a9adbca9686bab8aab9a9b8c7
col27:   4895978855b88a698a39a8a7bb789b7d896b64895c6bbd887b7abba5a889da8aa76aa888c8b86bba
col28:   788d7c799b58776379ab5c955997c97a88aaababd8aac6795aa9d7a9a9ba9cbb8c8baad9c9ecbba9
col29:   a48a9a9b9985989b8835a6d976abeaebaac8abc79c899d99aba7fa9ae9bc6a99bbbb8acb7bebeaad
col30:   81868795a8869aaba98db78c9899c9dbc5cd988dbb9ba4bd898cbc8abaac8989ad9a8bdbd99bda6a
col31:   79398468567ca6b9856da7e796ac9aaaba8f78e89f9dc9b8bb988a9ada96e899a8a8b9cdcbafb7fb
col32:   497597688475c889ac87db9b7acaa787dd96bc7ab8a9599be78ab969bacdbfbcde9cbcadbca9bbca
col33:   da495b66897a9572aca8a5ac97d9adbadb988aa9ead7bab7abc878a8e8b8a8c799dbcdebadc8b99b
col34:   4a7b89c49c97ab5bc7e89e8bb7ad9acac5eab89abb87abfe9ec99c9ae7aecc9aeea9ad999acaddb9
col35:   a6795b797599c794bd6a96b889b7ac9979b95c98a999cba97ddda9c79cfcb7ec88adab76bdcccbaa
col36:   456565a8868785bac79a9a7da9a8ca7abadccb9ba9b7aaa8b9cae7f9af9ebac9ce7b7ffbaaba9a6b
col37:   66b6888887598cc7c7cc7bf6b97ccac69ecd9d7bfe8cdbc8babc89cceaa8dacc9dccfcca9ddc8e8b
col38:   777a79569c456aa9d7aaac9faf4ababa8de9999dc98adbcbaac6deccdfed8ebdd9d8c6ad7aabddfb
col39:   a84559869b9a79b66f998a7be7d9896fb99cd79db897abbcadd8bcbbd8dd8fcbabccb7ef9e88eeeb
col40:   997986868aba9b7c8684abe58bdaaedaf8bddefcd7baaa8a8bdd9fdbf8ccaccbcbcddecab9cacbfe
col41:   d69c899886a96dbb9d8db8ea7ab9aba9caccbdde8d99acfae9dbeaabacbaabecfc97e9cbbc8cfcbc
col42:   99987d6789b8799aab8b5cc8accdacec7dcbc9ea9bda8fcbb98eb9866cabdbdecdcbabc5b969ccc8
col43:   9a9777b888c998adc99babcb656a7dbe8bcbaaa9d9e89cbbdead9aafaa9799cccf6ca99ecfcdeeac
col44:   88999b79871b8988bad88bccb6c8cdbcda9c69eb99c8d8bcbdffd7abeddfb77fdba7dbfbdbf8ccdb
col45:   878a679789ce98aac85aaaa8a9bb9c8987cb9c53ba9d9d7ba9c8abc9c9999cb8d9c8deadffabeaab
col46:   9688a9a998ba667caa6aa98ab9caccb99d8888daa6cae9cd7babbedebf9bceadc8ccddca77dbdddc
col47:   575d87ad9586abbc96d9cbfbe8cc9c99abbcdbb899abd89abf7aea9cfcaddaa7ffcdab8eebcca6da
col48:   c64558a2a46aad86b7e9acbb7bfdecca78b9cecc99cf8cdacdeeeba7db8c9a8cabbf9cdab9efbcec
col49:   5676b57a88889cd7b8b7bf7c89b8bbd79bb8ac9abbecb9cfbdacad99c7cfc9eda99cdbdfadbdcdb9
col50:   c994676a4a767cb6dac7cb99ccbbbaeb9a9fd8dc88cdc9dcdf9a9bfabdcca9eccdbdadcdcedebdac
col51:   b669879887c788787698889678baa98ca8779a79a9a99abb777b7abc9a8a7db88a9cbcb8a7ecb89c
ROC:	 BPix_BpI_SEC6_LYR4_LDR24F_MOD1_ROC10
col00:   3b759787a4889a3a99a96b4a786887b8985ac59c9bab5a66a1976a84c4a8aa5a8b5aa85a46779452
col01:   9878cc578948c6d987c8b79969bdae87acd85bd77867799a8bc5978ad9a9bba5199855b973b74285
col02:   3b98645d568a77a5b775a99aa7b56bd6abbccd97ad59989679979a87ca85b6caa8996bca65533375
col03:   aa677968b5b9b978cddf7db7ad8c78c9a8a8cbe6a89c9a8aa9a86bbdc7db857c8a8b28696ab83893
col04:   c74e6783a8677adc959bbcbd9caced8f5a5b8798bddcabbe6a57b78ca78da769e7738b9873486874
col05:   a57b9977ae45bca9638bd97bbbcb78a6cdd9986bb782c7b677a878876988899649b62a88755a2a22
col06:   6999789969a9bc9d6b98a9978bba7c6deaa9c869baba5ac9e8c5bbba8b8c899a8c887b9541839b42
col07:   6677958b9a7b5aa998847cfacadab98aaafb69996acda86677c6796b7896d8a168428b4a82555895
col08:   a859577598765aaa995a47a5ab969aba9ca8a7b59b7f7e687cadb88b3d998b4a9479577579563666
col09:   6aca89a8fd8a7ab9784abaa8daa996b6b74b998bbaf8e93a5beebabb9daf97b464975b9c81898b77
col10:   9893885749c99747c896b9bcbe6aab8cdb89b8bbca4a89cc6d9e56c6f677886647a619596b933777
col11:   c8a8797aab6969b98b975b6b8776d7cd788cb9abc4676c77bbaa578b3a87c8b87657674646876633
col12:   976a489a95768698aab99b98949c889a99aba988cd98d98c4bb489aad79caa866a67ab4b72864693
col13:   a8e577997ca799e98a88777cb88aa89b9978789dea7ca8596a48c6d98e85956bc97879a596c69881
col14:   498637876aae8a86b79a9a928bb88b83de8b78b78ac8fb8bab79a77ad79bb7687a7b689599558474
col15:   69a437a67aba87875a7768859c3679979bd878b8999e9f7edcd9d79d686bb85597537b2419388542
col16:   c9a9664ac97b9779daa8da66899babbbff9a8a7ab999bbc8afb6bae9597c97ba9a77d9294466a684
col17:   594a66767c26c3a7575aa4c48b9a96758c858c796b56a788bbc366b839aa788175c5647672959664
col18:   aa74778b7995b8858aca8689da696d7bb9973eedaa898699bab89e7badbba98a6561536c3a554b57
col19:   9988a886845768787ac79898968c89a9498cea9daa9b5b9bde398bdaa8aa99bdd6959a66a5882574
col20:   964e87b96967a67748bdab4a86a79b88836d8873a6caa9d896c5b5b7d7cb76678a4875371465c644
col21:   6a7a84c98c979cbd99a988abc44b6a8bbc98a6778a78a8ca8ca59bceb99ca99c9927ab69ab546469
col22:   866e7a8879d57bc999a865ca8b7aac9bb9984997caab9598bd26bba6f995a689b684455a5a361c65
col23:   99684a8bc9769669bb956bac7a8b77ba657479ba759a9c7876c86cba86abc4bba6c7939767b57861
col24:   548e478967aa8979976667687886aac27cd98b77cac899ab596bc987aabba78a97a9855647642516
col25:   668a8767b7a9a6766ab997c9cc5a869b9ad8fa89798b87e76b547666dfaa7a67bca6b7564a574654
col26:   78cc397b4c9aaa7795bf899eca78cbcc9fba7c777abcb9d9cb8baeccbcbaa9a8ab977b75bba69418
col27:   9b6d99bc7c8739bcaa9a5a8bab968a89aa999a98b6f8b69ad87986b8bbaaf68c5953a49977656967
col28:   a8aa9aee58974898d86c9b8dbc76abbbecdbfddbbba86c7daa9d689abaca9ea9695515bca66bb983
col29:   8aeb8b67b97d9657789a9abdf4998c69cadcdc7adb8cab9b77aeaad8a9da66b49fac9958b59ca6a4
col30:   9666c9b9da6ad9b8998bdbcbbaacfadbcbb9c8dd9fe8b7d8a7a9bcc96fa997bb559a975755ae67b3
col31:   88a9b44da4baabecc999deadbabababbbcee9cd9aee7ed6cabbbe59cb995eb89845aab9989272aa7
col32:   868da8a9cca89aac8e8979cdaecfbc8ace6b9ccc7d77a6b99c9da9b8b8cee77cc489c9a745592467
col33:   b5aa47adb9989ae9caecfc77bab9988cdbbc6beedbac9ba7cdf84b78cacac7c9edd4aba967796398
col34:   a657a987cbbe9899cc799bcdab8a9999a9d9cdce86ac7caad8ba8deeaca8a99999aa8799db9599b5
col35:   c7bbbb989a8d67cbcab889a9dcbbd8e98ccbdb7c89d6ace99aeba77a8e5fe978b6b77abc7a8bb585
col36:   99d6ababbba9bae57a9bb78bacacbd9bddabba9cceefecbe8c8adad7abbe96dcf587cabe6ea776c5
col37:   b8bc9c689898b59abf9ce9bccdfcffad8b9f6bcadecab9bbcdd7ce9fccccb97e99cbbbbc75686553
col38:   988cbbad969b7dbdcfbcc769dfa9fa7fedddfebcfbde7e7cdaa358a7aba8e9ebe8d9a8a5c679c5a5
col39:   cbac989eb8dcacacbbbdbbad99bd6da8ccbdcc6bdbbbacabb7bccd5cf7aeb8cdbdaaa7e6a7d99a55
col40:   897c8bccabd8b9ccacbacdbcbb9fddcd7baccaea9fbebb889dafab9aa87aab7b8daad5d7aa8d8a3b
col41:   a9c9a7af977a868ba6bdead8a99babafadc8be9ba7eabbddbb8ceecbfcebaa77a59ac76888a759a5
col42:   b7ea59d79dd6aaaab9aeb9fc8dc9cfccab7cedccddcdedbcdabdacbaacfadda7c67b877685659886
col43:   aeda7bbced9ad7bb4c9cce8caac8abe99aaafcbdc8b9bddabdcd6badeb6af97d987a8b89c9ab7978
col44:   5dabc999caaceaa6d9ebc7afabbbbeb5add9ccc9a9dafbada8cbdbbaf9af7cda9cad79f996ad97a6
col45:   a87a9b5ca679baa99caaaacd87d5bfdebcdcaa9cbaf8ee7dc9bfabdbbbcbcab8ae99c5c88499b856
col46:   d7dc9ce796baa6da99cce9dceccafbf9abee9cbcc9ece9c89bb8ffba779fa9aad9bb8768f9d7889a
col47:   a9299ac67ccb7994aaa9dbda9ecccacd9bb9bbcbba8bbeb99abbaa9afbbfcdba7c67ab79aa8bcbb6
col48:   8a9aadc95ab8aa6ba7d79abfdb8daaeadce8eb99deaab78d8da76cdcbdba8eccbb6ad885baa88556
col49:   9aabc98c8c97dce99acad9acaabddbe6e9dcbdfcdbca6fc7cba96bbbefdfdebb5ccbb79a9cb9dbaa
col50:   c7ca7ab497deae98bc77e7cc9bb9ba95dbaabebe6fdc8bfe9dfbeeaedab6ca9fa8beac88ad9b9a77
col51:   29866b76897b58bb78778698abc8a769999597cb9acbace67779a7887d67d1c887c67b5897533345
ROC:	 BPix_BpI_SEC6_LYR4_LDR24F_MOD1_ROC11
col00:   93b168776c3595d7a7746578956d778da54957d455b3b6657ac68c98b695b697a787683135658675
col01:   98a438a98f87d596aa9bb2b8cb8bb6eea75b8dbeb5a69ca9bb9c6b68497b6ab7866dc246b66959b4
col02:   88895785ca88c66687ca888a6876d898cd95b6caf6e97dcbb896e5c9999aca1b84988743aca75192
col03:   5b53887c788c9c9d99a4ad8b6899a9ac785cb956da7c27abb575a9aa66b4bc4a883858995d186276
col04:   3b9886a64987c9ab47c6b976a6cb997d9d9ddcc9ca8fbec68ad99894d9c978685a7577636aa2b714
col05:   666a88769d89c9da78aedcad7c5979d7c8bace6c6bc9d99e988ea7a8bc858a8597bb566869a735ab
col06:   b9478cb996a7a9b6799d96776adcba9697ada65afa84689ac8be9756ac653ac28d966a67a9598737
col07:   787e698a88a737c784ae78789b8b99748879a95e98db99589de988bb877999d93b7a68828323513b
col08:   68787f59859a78abd19ba9caa7f78b999b97ab6878c7939d6d569a9777b7779677769a9479742348
col09:   559a9a858a8a9a7864abc4d8fc679a958cb896d99688b9af8a7cec86cc59ad1bac6b89a936465498
col10:   76499a9d8b9ba187a9489d7c7da9987aaaabd6c66c5ee8889eb5f969b64877777213a7a915271456
col11:   75a68995b9b967689c7994b7888a9da8ccb799ca7e9764f7a977b586c7b39977f9358275989b3656
col12:   798a8caab9b488acbdb98a66dbd86baec5a7949b28942d9da66b5a8babb698a78536761993768792
col13:   4b769b8a56a538a7783a9dadce666d7e8e9589da68967978999b84acf6d58aaafb9da67875987a34
col14:   79879a7a8884c9474769dab6797c86cf995a738a9ab9a7a868b9d59a98cb69956b6c776b76596a75
col15:   ad3c967759a765ba8497ada9ac7a89c776bcb4a6d7cecbb87aa76776d8ac585b79a9a786645a5761
col16:   767695b87b8889c877a8b997b1aeb8bfad889cbab66d5aba794aaa5c4a9bd67a6496897754279e1a
col17:   7986662749874ca768479ab8ac4997b8469ca9bb4686bc4d98a79cba9748a8967746749778562924
col18:   86887d768a864d489b57377684a1cbac86be76a9b66774dc87c78799c98a7769897b68b9c753a6b5
col19:   ba9617666667ba68a7b4b5bb8b5ba8898ba959fb37a7db8bda85686a88b57bb4a99a497583684564
col20:   586425a65a897da928898c89a98a587c96c5bca783c9979b887b743b87a786ab8499b37886925a66
col21:   5497b68cb7a928a858774f899ac7ca777ba76894baad979ddcc8d788e84796497c89c55664575743
col22:   a87b964b8a5aa4cab9a47ba8cd7867b9886aa9aaa5b99ae69747ccc5cb7683bb2755b7ab73685483
col23:   87482aa77985586a567b6596758da9789c889aba9d6959a9e9a4c98879a868a7c67cba83487751a5
col24:   7ccb8575993c896a7b786a76cb8bcb1d27aac6ad77d78bba8ace9b89c5487a73494a6696ba569315
col25:   374798777a867989a98c59989abcbada8b7af6c8c7aab5a978bbab789a966baab5597c94fa844421
col26:   8679abbddd99dc69bab8cc6cae9b79abaececbb6b9a99b8c87cadd8da9c98ed998ac98c498879166
col27:   7885b8998976a5ba6bcbae9bb7af9a7c6f3bb9cc8984bcdaa9ddaa7b799889cabababfb8595ca967
col28:   7688a68898aabdd8eb9a8d6cacb5d9b9a98b2aecdd9bbfbdb98bbdaaace99ced99b7d9196a6b4661
col29:   c57b876978955ec975ba79bcd8a8699d89ec9abcf9a9f88b7caab77bb6e899f9d74a966adc9a3877
col30:   951cbb9eb8daaabaaa9c9a68bdcbc8dbc89bbffbe986bcadb8accb8ba999a8dc88a899db5777b945
col31:   788a68aaabb59cfcba9989ad9cecb79fcdcbba6ebcabcba796bba9cba96cb9bbd767b9ab85946369
col32:   a85979699a8cba6adba9acbcc9da9c9ca9fddcbbbc6affdad9d86cac9ac8f898adc5bb8ebb8558b8
col33:   677a398ac5996fadb89ab9eca5bebaabcc979eaacbdabfaebabbcbccfabb9b6aba3ce9f5a9baa894
col34:   beccc7cb7bcfc797aaa89cccf95bd97abd8ebcebddaa9ffceda6ec8cbe9ae9abf7b68a85a65a775c
col35:   b8895ae97edeac9ddd8bcb9cdc9bcb9d958eba9aaaa689cdfdebafd7ba97895abb75868bdcaa7a81
col36:   acea9659c8c35ddb77dc9ee9adbedbadae79ee9b8adfacd7cfc88cff9bbbb948eaa8a69baccbd8aa
col37:   7fa4d8aba8cb77ab99bcaf579dbabdcceabe9c7dcbffccb8d8c7fc9d9cd6ebab79d9baa97845c879
col38:   89c87dbabc8cabcadb4bbe6abaccfddcbc8a9fdbefbbdcdecdac9d9bbebfb9cea9bc9cb7cb8aac49
col39:   a8bd6b79bab9dba9eaafaabbddcacfcbdafddddedbc7cfd9bcaebde9defaabd98bae76d87747b696
col40:   b69a3887db9a9cabb86bafdbbbfecbcfbdda9dfdfabe8cbffccb9a99d678abd7ac7a67aaa9785568
col41:   b867b9bc5ac6ab99bbfafcadfc98dbbbcadbc8e8fe8afd9f9abc7b9dfa8cdecdbe8ab9cdba9c8a99
col42:   7c5cc9aad7cbd9d9bbadbecf7ad9cbea998fbefcdbefdbfdb99e99bccccd697bbcda98d9eba46859
col43:   aab96a7ac8c977dce88fbdbbabfec78cdabefafeebfb6cafddea9fcadd9debda79ac7bcbbc7abb68
col44:   66c7b7ae988eca9a6fdd97989dceccbbdfcfe8bcdaeacbffc9c4efb85fcbdc9ec789b89b978ae796
col45:   a9f8b87696a89ecc9cdaaa9ababafcbcfb4daebdfbfabbecb9ccc9abeb9e979bce9cf95895685adb
col46:   8da5bc4b8d7a7dad9bbf8997dabbc88bbfcbbde5ad9bba9ed8dfb7e8c8e7ebbfe7adabe9ea85b6e8
col47:   8777a9a9987bd8b9dab6eacac6bd9bd8cbcdfecff889abdd6cfae879cbcecebaba54d959869aa816
col48:   b697eaa7a98cb9f9d79ecfb9bcc9ddd99ca9acb5e9d9799abb9ec88d8dbbdcb8c8a7bef57ad9be58
col49:   ab9afa9dbb6cb98acaaacaa88cf9cdb9ba7acfbcecdebfcdd8c8babceeebbecdc7bb8acf5a58a774
col50:   9dc89f7acbfa9cd9ecb6dabfdcabdbddaaacff8fbcbaddb8cda8acced79bab85ae785b77b8aa97a1
col51:   57c528c99a66363a2c94a9c98bbb56a894ba8a9e8c7a777ba8a76ecbbb9d9aaa5167519355143963
ROC:	 BPix_BpI_SEC6_LYR4_LDR24F_MOD1_ROC12
col00:   f854965558899567888788b8599757897a88875588657a5949978bb998b76996569c668ba484975f
col01:   93879a57887c759c98994a56989baaa9fcc8896e8bb779a8dab67c6d9779d868a7687899c96b5795
col02:   4577975578a68683788998e8bb49b996da6bc9ca99c43b9d9cb98a59a7adc5998c8aa9cb98898d77
col03:   9364666978b9989abf7979dc8877a8a89baa9ac8acbeb6b887bbddaaa8a7e967bed2a9764c697e76
col04:   4778386b97ac78bb69ba89699ab79ca87498bdabbaab79a7ccaba8b99b69975aa69a46b199b88356
col05:   a68886968778bb97779a76b8ea8abb98bde47c9cf9b85d999ab7bb97b588c7979bab594d867859a9
col06:   779b998a9896b264d59ba65bba77ba599c88899bbdaab8db66ea7b7c8777c9978688997aa93581c6
col07:   8885b896a7ad9ca67b7bfd99aba9bcc9cb54ab9d7af97b6a7a98976b9a7aa83a8678c67a7b698989
col08:   72729a4ab68b9b8cb7368fb98ea979876bb7a989889b8a58a8998a78abada67e79aa989ba864b768
col09:   77a565e587676bc6a9bff9ab8b99eebc9addab7dc9ab8bafdda6dba67a89b9c4a9579b9666975a58
col10:   d4a9a8668678697a7bbbacaacabc8a9a5c988bad88b9bbc868ac6a9b9b69aa84a774ac4859a56475
col11:   8c765666a9ba896c6689a9e9fbb88798b67aaaa9bbacba7babc796cbc778989aca99585b77e675b5
col12:   5865a898a7b7ca88947a999a889fcb75eba98b5d9bb6999b9c8ace6ac9a6a69999a86a5858d96465
col13:   69bb8ca97b74cbaa99b68eb997b4eaa69a9ac8ca7c878697ea99c89cd6b8656acc6a6bc796974aba
col14:   9787bb8978d7c3798b8eba59adbbd7857a88aae88ec97c88896ed99cb9aba98abc9cb84b7b86694a
col15:   7da68a6bac779768ba697ebc6669b9a8b8d95989baaa777c986b8978cd89c88568b6a35c9885766a
col16:   879a487888d7897a9a8ac9db578bad7dcaa8b888da898cb8c8999c8c9aa9d7c865b7984777959861
col17:   ba6897bde898c89b595ebbb78ca68bb9967c99c978a8cb75bb86498b88b8b6867968897166666956
col18:   8879a7a7b8ca87979b48d78cb9aab98ab7a7cb4aa77c6a89999b8798b989a95a4ca5d89785d83676
col19:   77586d6bac9988b9889a9969b878faa8c7dc999bc8babacb8bb8d88bc799b98b9d5776a965897786
col20:   89a7ac846689997a9c89ab8eaeaff9aad688b7897baa7a8b9ba79ba9567cb9b9a819688954787395
col21:   a754a914acc9d6d8da88d8bc599fec898b77bcc9aa76bbc8e9b6ac9cc5ba688ba89887878a87a977
col22:   67697778779d7a7aca4a6b8ddba986bcb8bdd9fb9baad89ccc89fdc9e987d6887bb978597585a867
col23:   aa5a6ad96799c9b98bb65db799ca99a5988c5b6ccc8b9987ab787968c7ba77bb6a86898c66385b67
col24:   7358aa7a8c98c888d999b96aab7aa6cef8787acacdacdcd89a7ac7bdd99cacb7ba9b67588c8a5a77
col25:   7a965d96a68bcdcceaaaacb989ca9ac5caa97cbf99acb8cba9baacbbb7bb96959bbaba897c678aab
col26:   8ab8bbbaab6bb67ac7ab4da9dc9bc7b898bcec99dedebedaeadaa9c8ccacdb7bfa8a8dcca8698a66
col27:   7896bd6896a9dbaada5abcd8dcad9cf9bbdbbabc9bcedbcabcd9c9baa7ca867bbbabaa8b6ba6bb67
col28:   a9789bba7ca7c979c9acabbed9dbaabd98accbddbbbc9debdb98cdaa59ab6caea9b5ad997ca5978b
col29:   9957879b8a9bae7cec9bbccefcebca9adbbdf7dcdabdecdadc6b8bacfd8aaa9d67898cbbd594ad87
col30:   93a7a9c7ca998cbcdda7dc998cfd999b9cac8adabacbca87e89c7caaabcbd9cba5a9bab88b68a5c4
col31:   ab998bb7b9c8aebdb7ec7a9eecaabcbdecaccdbfbeadfcbdcaabcbccaad6c999ab97bb8c998a8688
col32:   9889acebdcac68b9ebde58aa9bbcdeeeecbddefedeaebdbfeacb9faa9ccf8b8caba97774c968c9c9
col33:   a8ca7caa899ba8cabcadefeecbba9eebacfbcf9ceed98f7dcccccb6cb8abad9b6c7bc98b9bdd6b88
col34:   69cdd79dcdaadccdc9ede9badadaa9adaeddadbcebddbabeef8b878adaefddcfbbcaaa89a9ba9cc6
col35:   ca7e796caabbcfbc6a99ed6c9bedb9fbbdfbadbade8efdcbbfac9d9cdbfa9acba7bc897acc87cd77
col36:   98dabca98bb8acaab9fccbadb9f9c8cac9beeddcdadbe9ccdbe9beccc8ebacac99c7b8cbbc9b7888
col37:   c9ba9abcceeb9aecfcbebb9c9ccefcdd9bcfc97b6f9ffcb99dcccedcdbdabcbb9ce7d99c8989a968
col38:   bd8bbdb9ccdeebda9abbbbcddc9cdcb8fe8debdeba9ebcdbacccfafbfecbbfbc9d6ddeb5bcbb7a83
col39:   a98fbbbdc8bacdb99ddbbfabe9c9e8ccbbfbddecddbcffa9dde9f6ccdd9e8ddae9bcadb89635a9ba
col40:   e9eca8cebaf8edbdfc78facdce8cacfcaddacfcdbfc88fcadaafffbccfccdce9bccb7da88779b9c6
col41:   99adeaaa889ca99cfcade8ababafdbb9becbd99ce9bade9cd9d9bfbc9cb8fbdbab8aceacbaa7a9bc
col42:   e9fb7cbaba4dccac9edcdedadcb8bdac9bd96e98ccecaabfdfcddd88eab9fbbb9daab9aafb846bbb
col43:   abaadbdaebfd9ecf8cfffdfaecfbae8bfffbafdfdecec8ecfcfebccc7dcafbea9cc8bdeacad98adb
col44:   ab6cb9caa9acbecadeaeaddcfdccc79dbaccbcceeafcbcfcfdbfea8dbbbac9c9fc88f7aaba88ac89
col45:   7c8cba8dcefadae7abccabdfdca9bdaef9cb9ceddad6ada8dbcfcafaaacbadbbdd8cf9b6acaa89c5
col46:   cb78f9ddbbdadfbccabb9bcfa9779bdac8cccac9cbceebdbcfbebcbbcdbcedabc98beba99d67fb78
col47:   fdecbcefc988cbb9dcba9ddefecafc8feaffeccfbdeccccbabbadffccbcdbceb9bc9b89cb9c9bc9a
col48:   bbbe7dddbdea9cbbeb99aaaacba5d6b9ddcaac8ff9bcdddccfb9b6d7bdc9bcbe9c9aac8b9ababc59
col49:   8bcb9cadddaab9abafdfa8bfde9fada9df9ccca9cdffeaabbafed9c8cdbcedac67c97aadd9698fb6
col50:   9acc9e98db8acbbbefeccccde9ebfde9fa9f9daabdbe6dde94db9e9abbf9ab8e8ea6ab977cd6dc98
col51:   a787ed9d7b9e887a9a58a7dbbcbeac7dabec998aae7d7c8ecc8abbbad7dca9788aacb9a77ab68c8a
ROC:	 BPix_BpI_SEC6_LYR4_LDR24F_MOD1_ROC13
col00:   57f45b8791378347767498455456594576b799469626697a54667578566a78892461655425589461
col01:   a6569b868687b698baa7caa78b78b98aa7bb8aa8a9c784b97bd9c99aa8a89ea8776a989b86666372
col02:   4698745295477394a9a98879a878baa968698ab758a8b7a57898588a897b8a453da89c6677b97a62
col03:   557a7684c68588d5a877a7496876c8897b5b69ac5e79ae88bb859abdcabaa3b97a89685768bab93b
col04:   757597356859867ac88677ac8a995a8ba7c3898b8a8c585dcb9c9c699ca784795b4688a813467555
col05:   6665682867a967879aa9a6999b75a7778b76f99cb6a4b8778a77c998ab7d79569485976789547542
col06:   875458876878a89a9a8a7ea788698b3aa98a8cd78798a6b77b7b9959988a56566b7767997c746562
col07:   b664bab8395684b888f88a98dca7bbaacca99a7c8c698aad78daa97b98a51aa696cc899666375954
col08:   577489356b994593898997aa68968999d4cbaca97aa48b78ada4a8c8879bc96f8a774695756a1666
col09:   9568787a5c978568ca97d99a9a8a8a77b96a9966ba9dc9a7b978498aa86968b6968bd4a788698969
col10:   98895864575475776a7a67a6877b784bb7a88889a8864878597578499889de7568b36b5185a17957
col11:   b557b97789856b7999a98869b5a8a9c9b89585caaad85a8abb4a7bb8a8b89aa8da98773785c72845
col12:   886b41554945ba7769979946867a985ca977c8886a98aa868b7998b99b6998857a497768777576a4
col13:   465798869b68997ac4ce688898986855dbbaa6aacb58a5c9c6a687ccd7ac79a5bb6799b6c7764774
col14:   6984364467b977667b969a89b98a6a889cfa79daca5b67864cb9dc895795c9697667696a8cb77867
col15:   5799999aa4a88aaa7aaa9695869aabbc9ca89d79698ca947878689b6a5bc9ba779987686a8298744
col16:   848a36884776578a69a986999dd75dc889db7b5a98765b79eaa7ca8abaa99b6778a767647a456c66
col17:   6543bb256a694858a9b9ae88a6875dba9aaeab8bb979a6b76ca89a657bb5ac9a89897766872a6581
col18:   b6776b5bb597449a8a5b7c6948d96c8ca88a9b69bbb77c6788959b8ba74a57fa668a697627845959
col19:   558687a77997b8588a79bbda7a98bd3c8ba99ba9a9a8c9a858b99bd8b9978a6a869b9aa8a4947897
col20:   9787a588387a5a877488899b9a7ba78a9768bcaec888889789aab8ac8bc88ab88929cb7784a68859
col21:   269958499568b88b64968a8abb9a8a8d6a77ab38a68ada4cdb9a9ba8a9a9ac87ac79869c38113763
col22:   66872b9b78876999a7ab6799a957859a8a78d997997ca6689a5ddb79885a8886c6655959b9269b28
col23:   7656779a698368b399b9999e86787b6b878a8978a969cb967cab8b89b7b79758b2a79868b485a487
col24:   899746865894799bababad78977798bca7a8b6797a9887868a9c9de96da53697688b786665597976
col25:   98cb98999679b99897cab79aa9cc77aab7db897baabba9abaab84aadc8cbbd69cd4a79695866cb18
col26:   8599bca667ca778a8aabb9a96bcaca9a798ac59b5e98ca8bccd88b7cc7b8baa3ca9b786647666954
col27:   9a778574c9897b9bb9bbcadcaa9c78ba9b6aaa848c8bc9cab69cd98dc8bbb899a86996a756b848b6
col28:   886c86589b9ad88b598ae8b9aa996c9999ba6d7dbce59d9bacacc97ab8bed7bc7aca67b6699a6a86
col29:   cd8797768b9599a47ad9bbd8799d986bb8a9bcabcbb899ba9acd879c8accaa7cb7a779bd3884b965
col30:   9b78bac767a798996c8c99fa88b5ba6697b9bdcfb99cbbba8adbaa5bb59dbe7ca98989abeaac8995
col31:   bca77897baaa8aa5869a6c9ccb9b8a97ac8a7c6baeaadd7a9abaca9aaea9fb9bb99d6c98a3987865
col32:   67887999a979985a7cb9dbcabbcecc7ebcb9c9abc68afe7ab89fbc98eab9b7a7a954899b968b8c77
col33:   87db5985aaadac8788ced79c8997ab88cacbcdbd98cfecccf9fda989a987c7a4a8bd6afc66675764
col34:   be4a65b5b99d8aaa9aac8a99aaab688baa7bbbcfabbd7ce987dbd879cab9baac9bd83b7db87487a9
col35:   7959a9a8a9b95daa77a97c9cbb879aaa9aab97ccbc77bab6acacdcedda9878ac89999749669a99d8
col36:   a78887a97aa8dcb98abdc977b97babb989b79a9cb8bdc8d988cb9b89b8cbccb8ecb6537e7868a848
col37:   999bb9aba898ebbed88989aaa998b99bc9cd95deeceeb86a98bc9ba8fbab99ba99b9857b8a88a766
col38:   386bbc7bccb9abea9fabcf99fc7ea9cca8bd97dcdaaaee9aa9aebfcfcb9af996bb9edb78b8a7a896
col39:   c8a8b8cca986bab9ad8aabababa997fbbb9cba88dc8a99a6bceab7addbbbe9d7ca5a387a7a8ac6aa
col40:   899d7bdca5acbaccc8bb7adf9adbdcd9baca9ee9cc99afda6894a9dcf98af99cb9c8b46a98a8884a
col41:   977caa9a8c78cabdafcdcbbadaaedccaecbcdbabbaefdd9afadda9eadeaab898ae889a98add599b8
col42:   bc99aa97868a988a28b99bc88c9be9ccbaacf8d9b6edaaeb8c94fbb6cdc6a9ba7ba77caad978ba95
col43:   c589a99ada9cccadbecbdbb998cdbdbcabcbffeccbcbcd8bafc9b7d7dabbcccc8ac8b8b79abba98b
col44:   b6caeaa898ab8b9cb99eac9cacc6dabdc9ea6fdadcbcadbabedb96ee8b76bbcda85d8b9c4bbc65a4
col45:   7d8a88e995799f8a8bb9acdbaadc9abb8df9aa97bfbdcaccacbdbb9dba8caab694fbb684aa9749a7
col46:   d894ac5abdcb6aed88cafbcabbcca99cba8aa8caaebfd99cf9be7aa5ecccbaea88896986a85969c7
col47:   a898bb7e9aadbbb996e77b8dadbebaddddacffbc9dddfcdc9cda7acf9bba8fc6abc6a7bb8cacbc86
col48:   97ea9c69ad8aaacb99c7b7ad98c99afba5cd8cfddbbc8a9afa9cba999bbad58959c4eaa8e9a96897
col49:   996a88acacb9da6ae5ccbaec8e9dda8ead6e65acaffe9dd9baad9cc8bbadbb97f6988bacb9b8aaa9
col50:   a9ba9aec9ec97d5acb8aa77a9a8d9cb9decfbcec8dbbec7dcdaba7debbcc68caaabcecbb599696a9
col51:   56daa7e8665c6868b85789aabbaaa898da7db89abc999cbd8cb98cea7bfa97b78b67488897869669
ROC:	 BPix_BpI_SEC6_LYR4_LDR24F_MOD1_ROC14
col00:   8c7667b999d87c9c988a9ca95d9cb986a89999dab788d88b9a883867a79a8e35862cc77875a8a97a
col01:   9a6a66a7bb9b7ada8899a9a64bbdbbcc9f7fcd6dabffccbca8dca978abab5bb6c88b59db69b89a48
col02:   4c7546a76985969a7b99aa79bc89b9ccdabdb8a8bd9f89bc9ae6c7a6fcad4bc8ac9ba9c96b79b98a
col03:   ad6cca875aacbb9d98b9cb8899dbbb99dd9fae5bab9d78c8dc95ac98bcb9aebd97a9baa837879a48
col04:   9a7a99867c995bcbcabebbba9beacc79db6cbc8bbdbc7dc27db8bcb9baa8dd998b8897ada9ab9987
col05:   aa7b7a796a7b96c7d58d3a9dca988accde8cdbaa779a9ccdac8cd9be8dd4dacc8c9a79ab6a7a9659
col06:   aca8adcaa52bc9ebec7bebea4c8c9edbac6d9fb89b9d7afbd98a4ecaedb6cc6d8bca88a598ba5889
col07:   bea944aaa5c8965aaa6abbb78c77eaaf9c8ba9b9c7bda87caa99b9b9cf699dda9c6789cc584a667c
col08:   96d957887e97a7bab7b9c8bca799c9c8dbc68b9a6abdb88ce9d6ba5bf7bbb85bcaab8c7a48a67b41
col09:   47a6a82bc98abca9aaddceccb9dbfbd9d9caa89bccacc99daaa9ab8c9998ae9b9cac8898ab7a95d2
col10:   5c58683a7a9a8d898d6877aa89b67bea5a9f9c8aa9a8e9ca44799caa9c7aea79b7878956b97a8aca
col11:   bb8887b9c99974b8a7a8c878bbbacda6c668abbcc8dbc5a6d8a96a8dfd66a9784567c8968bbf89b9
col12:   e7569279aab8aaba3e9ba898d9caa99979bb98a9b9a6a58cbbefa9aedca9ac8d9cea68a8e9bdba85
col13:   88a752689ab6a449b8fc7bbddb89cd8abad99ec8dbbaab6ae9ad8bcd9da78a8ca8c6d678a67b8968
col14:   78bb7987b8a9a896ccdd7b9bcc7aab8dbccabaabaa9baeba7a787da6b8ab9dba9fa8ba77b7cc4b8c
col15:   4387e7b99da76ab98773bc88dceab8aa976ba7989c68bc9acac9b9a79bc99a8db8e9b975ba6ca9b9
col16:   656ad78a8aaa7da57ac9cbfcaadd879aafd5c4d9aacea9bc9cac879ae6b6a8badc5a889979a8ab71
col17:   c45b88aaaa8c868888d7e9687dba89b6ac986da9b98a8c8db9cfccad9ba6cb87b87a89c778a75895
col18:   a578887b9b7bf7abf9dc5998aa9f79da87acda89aa8ce6bbb88aa8bb9ab6ad7a6943b9d8b92a9876
col19:   2a97767577ccbcbcab86ea8a86cecc666acccddac9bbdb9cc8bbadb9bb888b9899a898777985c989
col20:   a94798a84758a9a9c989479e99bcaacce7978a997a69bddeeccabc9b968a7ba9a9d5977555666ea7
col21:   b39298994bac77abbc96f9b4abccc4abfabbcac93996c8a9998dbbbdf989999ef98d7d63688c9aa8
col22:   bba9647d7c69a57b8a68ab898a6bd8aaaaab9bfda99cacbd88dba9abaafc89ba9aa48989d65996a9
col23:   4668c745c6aba699ad9b69c9d8ac7a8a7cc6cadbd8c988cbdbd9ae498e8596a69788989aa97d77b6
col24:   bb88769865ac587c898aab989bcc8cf9a6abc9c69c879b9ba79a79e9e96e8f88d7c97e47e7a97875
col25:   278977ec9aabc67c6a9aca998ac8abad9a6fa69edaa9bdacdbe78b99afaa9d7aa8a5476c6a79b544
col26:   8798c97a6bc9b94bbdebbb9dd9bcebdafacec99fbddf9aecfdbcba6bcfbcc9cb8bab88ba9cf4baea
col27:   a9b8bdbab87bd97ddac67a8a8c88df7a7afca7bfebeada8b7dee9bc6ecafb9e7cb74adb88785bbba
col28:   6a497aac89cafad78b9bcddd8bbacddaf9fb8bcaadce9ccfcfcebb6ead8ddbd8ab9aa97999da8e96
col29:   acbbe895cd9aaaa8cdadcd949d8b9ebdbbfacaceccc7cbbcdbebbcbcbcffbbbd968abac9998a5987
col30:   8a6a5d9848bad9dad7bb8bdccdf9cbdbbadb9b99a78cac8ea6cce9ddbdbbadcadc8a7cc89969a9bc
col31:   7baaa66accdca5e7a8c6bbfbc9cbdecbc99fdbb9ea79eabfdadb9899ac7da99dffbbae9f7fdb9c97
col32:   9dab9d9cdbad77faec9eeffaadbfb9fddca9eac9ad9cbb6b9ce9fcf59dddbe8c76fbccce7bcab888
col33:   a8a9a8c8cfbadfdeb89dfcdeadcfadfdbefabf9aecad8cedccccffcbdb9dc8a9d8aba9a8dbc7acbb
col34:   acebbdc9baba58cbbec5cba9a7bddffdd8f9cbeedaefa8cc7eeffc6c9cb9ec88dda9dd8b9c9598fc
col35:   bdf7bda7bdbcaecafed9bb99daba9ceb9acbaf6adafc6feefae99f8dcd8fdbe9b9c7ccbcdca999d8
col36:   7bdaa7d6987bd8ca9979bbcec9b8eafcbc98b89bfe9cbfbbcfdccafadd9bd97aa87b9ec38dbd87ed
col37:   eabbc7baf9dbfdbefda9edfbcbcfddfe8bbcebccabedeffb9eaa9ddabecb8f8addd6787ad98fa9b9
col38:   abcaebbaafccabfacdcbddaafcfdfbeedfffefe8dbecdeed7ffb89db6bc9edc9cab8db9bc98ec9ca
col39:   ad8bb99cb8bf9dbc9d6acdddaecdabaddfddfabddbcc7ec8f9bd99bdfdf87cba7cd6c78cfa7bc4b5
col40:   99ca99bcb78adbcc9b9cdaeafd8dd8db7febcccddbfe8acebc86e7cddfcc8bb9bdab88acc7a98ce9
col41:   cc9a8a9b696aaddbdabbddd9baf9aeccfffdfabcc9d9dacbebfcbaabedfddba9e4baac9ab88cc994
col42:   a6e7ac99bfc6e5ccdcaadeb7cd9adacecaacbbcbfddbebcfdccbcfdcee9aeab9c5b86baa9a27b6c9
col43:   bfd9bacc8ceaeade99ecbe9b98cd8dcfce7b9cfcaecbffedfbe9ccbabdae98baabd9c8d97bde6cbe
col44:   ee6d898afc8abca7ba9b7dc878df8de87cfcedacbd5dadfddbefecbebabeeacbbbaa97b9bbc9abe9
col45:   cadafceadc6ba7b9abaa9bafaebfeeeefbcebadf99acdff8ddbbbccb9bbfb9cac79ad9abca7b8bb5
col46:   cfb9bc9bca87ba9ba77ddfeaf9b8adbccbbcd9edbdcb9ad9aabe7aafd9de7d8898d9b6dd8ffada7b
col47:   a7dcab78f9aeb9da9dabdb7cbccdbecdfeeebdcdf9ddcbcb6ecd6ec69c9cdf8cb9cbbaabcc5c9986
col48:   6cc979aceddfc9accbc97d9db8cdbddd8ccdbbdeeceeffc89bbbddd9f9ca9998cead89ddd9cbaacc
col49:   9a9c77ad9b8caabbee7debc9ab8bc8fdadddbe8fccaeeaeabcebacc7cbed89b9dfcd9cab9bdacb93
col50:   c88ecebb9deb9dadecddccccd9fcddccca9bcefcddb7bba899aaf8bbfbcb9f7dd7bbcabddadcc9d9
col51:   358bb4d89989848aaaabb77eab7b7b4b9de9d8cda8ddaabea7fa9f9c9a7bb8b89ea466adb6976585
ROC:	 BPix_BpI_SEC6_LYR4_LDR24F_MOD1_ROC15
col00:   57777678747394b63387a65c7674496996cb629a89aa7ba58775b8585c84642c4677866778764963
col01:   8b6968b57a5baa67b5aa9d6988985a98cf2873db7c59bc7696aa8de96cb9b7b687b5776997954365
col02:   7277697236b9848894bbac96adcaa8b7a9abc7aac7bac76d8849376aa988788d6575a7ca86666331
col03:   8a8656a3836b78b5975998898b599ab4aab9879fa95bb77a9857aadab7bab6965c66a64845396a65
col04:   687a55995a947a6a8b988d5c8b77c88aa658b6798a558c89abce9bbc9a59a68b8a4b48679c154992
col05:   5666536ba69c9479c5b98a8668a999aa7c9a3ad9a848baa7b8888ee833f82b8996aa9966483472b6
col06:   95557b535998e78a56cddbb76b996a88885bcbb6acaac9ea95a98739da73b9697a86e69793487948
col07:   a968968a7b9bab7676aa5889958ca48aac8aa9a997b874aba698c8cac9c689aa86669d57e8495297
col08:   8574868b795ba33b5a9ba349bfa3f9bca85894cb7ba986b97a7c8bab78aa5bb5898527849447a973
col09:   67a6a765826781aa785a4a8aa88adbaca789aa576bcbcbad9b9ccacd88bc9577a579ad8a49368687
col10:   98475675b567b86a5993a8b87abb897e898d9ab568597aa95a88db69ac84a998956cb5786bbb6585
col11:   49238aa7a4567ea8a9397bb8d7abcb7a6abb7888865bc6bc7999a79c7aac99824686996899856758
col12:   96a9653a71259b7455566c874abe7c9686988b69779b5a89db789a39c77c6bb85886579287585683
col13:   987a3c6688aaa47a686698e7aa97c4a896bcc96988cca78a59aa6a86aa9a7aa968888a755ad1c741
col14:   a6b97a899bae7865aa985a69a7b94867c667b99dabaa8736ca379799aca679bc8ac797858767869b
col15:   996b458ab98997bb8a88d47a857766758ad99ac99e97ba85c596ca9f669d4999977aa65997aa6718
col16:   8868b79555977ba599899a5c8b8ba9888b778879cbca9bb6f8aaaa8bd87879ba99559b8666535647
col17:   858549b6898a46699699c889a8bb9b6b9c7a6aa7f87d89b87ab69665a577b97b2aa3949677129887
col18:   5686a249988949857652999b75c57e57b9eabaad596cdba699799876b87735b6ab4d985ca594728a
col19:   686b99c36cadce8a4b5cc7bb886675c9a79bcc9dd77bd8ba89b6cb78bab5ac9d8ab857a594496942
col20:   3b8633a7887975b7b61d8888ba6a5b7a86c46889865669a7bbac8a898788885679a5ba56a599285a
col21:   75258779b79a8b193aaaa935bcd899bd964bccb9acbb9d8849ab4a87679898ba8c68a46957b59965
col22:   349799a6686475a69ca8a9b7bad9947868dfa7a5756bad5b7c7c8b77baa8a9568b69837866664472
col23:   78a3b596978a683d778ca26bb9b69ab8ba689bac6b8b9aacc85bb895858ae69a5957467565176753
col24:   6b3a19295794a3788666a989c89a87c95d9b6a99b86d9ba8e899858789a9bb988a7a78c468882455
col25:   7988556ca75999587bbbeaac79b669cb66864a9889a8db87a8c76938b7ab7c98b699ba6851883acb
col26:   997888d9778a7ac7acdba7777c9b9acac9bb9a5ccc6dcc9b79b79ba9a79a9db86baa72ac78d89ca4
col27:   49a7a7cbd9c58c9968cc9bd7acccb9aaeda87cbac9acaeb97caca8acb938ae1976979eaa699a9a5a
col28:   7abb49896ada89a9ccad9ecccba99bcfe7abdead897cc4dfaa888d8bc8cba9cd9a896a559bcba768
col29:   d9d99b9c8dd4a5c88c498bdebdbfcbdb8add7b979acfb5ccccca8aabe88ceba77b8baba599598548
col30:   96b39c9d5a687c89768cab5959a8be9ecbccf9abbccad8ed5dacbaae9c7998a96a87ba7d898b97a8
col31:   787c9fcdac7bede578ecdd9ac9b7caddddfdabdaac9d6ccb9caaddcdadbdcad7899b467ba9d77a97
col32:   d98b8acfc999a9799bfbbcacbbcdcccfad9a7acac7bcdfbb6e7cdecb9bc9dece66bb8a945c879566
col33:   7dafc96ba7bf99da8a6c8caabb989a7bbadabc8adcba9a968babd8a97bccbcab9897a7bad8797b64
col34:   7c89ca3c99cdd899dd7bcd97b897cbdbcefbdfdbb85ca9b8debcbcbad98ace88abacc9d9acb837c9
col35:   a999cdaca99bbb87b8ad876dbece9ea7ced88f8ebcd9da8ddcb9daba7e8dac7c8bbdcbbac7a9cda9
col36:   8a8abcab7575c8cb969c9a9caea9eabdabb98db7bfd8ecccaa6ba9a98c8b6bce9ddaac9ac7aba5b9
col37:   bbaca9aab6bace9ca9eb6dc78c869eaafbacddedbcccdb9ab96d7c7fd9c8e88bb8d8fbaf9588aabc
col38:   ccacdc8b889a8b9bd9ce7d8dbbebdbedfbecb487dcdee6ddbafb8cbd8fb7eabb8bdbc9ccd6c8a984
col39:   9cbdae887b669ba888dd6cabd9688bd98dc8cafbccdcad7fbacb9b4ccafabaac9b8cd7d7cb5cb5c8
col40:   acab6ac8aac9c9ac8afdcee9abcaeaedcb9bcebbdebb8ccca77a79ddeedabca9bc79c89a978a6988
col41:   dd9bcada9dacbbdacaea9ebdebbbcccbdbbcd48ecdcd6feac9afdecd9cd9bbcfddd978c8c789676b
col42:   cb89999bc8c9aaf999589c7bbbaad4dcecdeda7fb67ebdfbb7f9c9ad9b9b7bb89a9ab77bca7a77ad
col43:   99d6d9ca89bbcb8bacbaaaab8bdc9c9cbefdcebcdda9bcfdafbf99fffcbbcac9cfd98cd6eaf588b7
col44:   5aa968a9d76679f9d8afe9affcececbd7aacab9ccbbcfddcf85adbda9b9cb97d9ccc787ba89cbb79
col45:   eaccd6a9c9c8addaaada87ccd79cdbbbbacc89fbfdafc8f7aaebedcabdddfc9cfaa996b9eb999b98
col46:   ae6c9bba5aa96f9dce9cd9edadc9b98cccbbedccccfaeceafbcecf9cbacefe9bfeb98db7c9c9b9ac
col47:   89b677b7fcccecdfcdd8ebab7bdbdce9eabd7efdddcbabae7d8b8cceccfbdbd88fdb8b879abe79ae
col48:   ab846caaec77ac8d8a84c9de8babbdddbb9cb9fdedbdfcf8dfdfcb9dcbccdabc8cbcbaca94a798cb
col49:   8786b97cbbcceccda5dabf999c86cebcfeccbdaf699dac6eedbd9afcbbbb9aaabdc698f8c9d79fcc
col50:   c59dc8976bceadabdccc9bededdb8edbfdfdbdbdbce6cdbceecbaccdbbeb7aae979dafdcb78c89e9
col51:   a868ca89d674686a88a869995de8b9a8b949eae96a9c9baa7a9bab8da78a6834b6b857898ca97a85
