ROC:	 BPix_BpO_SEC3_LYR1_LDR2F_MOD2_ROC0
col00:   565521445457689868957646a374b97bc59d53a599668773bb988ea99898a89c98ba78487888bca4
col01:   7597775619497c596795959659a57549898aa4be679a7c99bb7b889b956c979ee97988a8ba8874a6
col02:   6533a6858799b66486965b5a788598696786cb9694759cbc4a3be966c9c88bfb949ce7ac7897a98b
col03:   9662933163656893976ca6b89c638999789d68797e7a97d9bbb8b6bc87cb88caf6979898c95aaba8
col04:   52461745886a2a6695786854ca979ca9b99aa8cc48acb68cac9b389869887bb6e97683dad85bbb97
col05:   468a738454648437568873aac7a999a9998a48bccab6b7a9c7b96b8b78cbc789c8b8ba99b89784c7
col06:   4864332b38993458523a69976aa966989a8c7c768aa665acb99768467a6f56a94c97c8794879b999
col07:   797949983742b67749779ab8a888b7996895cda986ba67cb59dcb6ce67e9cbca66b57a866ca8bc7c
col08:   4b3a74686455756a59663686995d8719677eab898bba968b9aa3da9989b8a89aaa6b58837d64aad7
col09:   665ac97794977496977a7c98d678a6aa86a8b8c6989ac9ac7b89495bb97bbbdb8a55866c56bb879b
col10:   4c3aa54166585624aa39937487377c88982a89da997787b8787c9c787c98868a396568a997a698d9
col11:   65a776a2235c474673795369a865599c8866957a476bbcc38c95ba88b698ec98c7957ab785c9b9b2
col12:   a7a56ab479668368a859bbc866a75aaca93aa7a9a48ab6bb4ca7c867795becdc6b7876989b9897aa
col13:   3677767775b9a8958394a27649357a99b79c9aa9879cbbacbb7bc8bcd978b8ccd9889a8699ca88cb
col14:   457417368654a6938b4a27ba6877b4978878778b57ba8645a8989bc964b6a8bc7c86b5bc97adbb99
col15:   5875466747434b652ac7a66a958a6759ea9b597879c855db978ac6bac9fcd7bcb77b6c7b478b679c
col16:   924a37654915a97628a85789885447e9888e567a678a7baac9c9acc98bb896a3788886656b6887b6
col17:   416c28d3637668693768875678987766ab6a6a57fadd978b7da9b8a97bbc86ba7a8ddd96cba59775
col18:   333585638694135926a87688396198a48479a6a59a7a4979e5c85657c9ca568dbce8798c8b67848a
col19:   5948698476b6956479a935577dd9998869896bc8488b889d9ba58b96bdc95cc6b48cebbba9c98ba6
col20:   4848825935868a7617965666ab8c7461b6498956a7b77cbccaa6c7a86a4ea437b899b9e6898d78a7
col21:   955663646564657a2bbdb57ccbd7979559da975b67bba88e87a7dc6ab998c8c9bc87b6898cba9899
col22:   67258946977683886a74b99a667697a265ac767e6b8b99aa8994dc877c666b966b5787a89ab6c968
col23:   849515a41865437681574ac8a6f999676689d9ebaaaab599ba5c89bcd74b98a7bb8776abcb5bcb6b
col24:   63a79963715978597897a978a75b89d5a6c6bad7b9b19b6cdd6ad6a68ae48766684db7c8e97d4a87
col25:   9589896a7a786437799599b87867c86a898568a578ab998c5867ccbbc98bbeea785aaadc8688ba8a
col26:   35512977557777954686498bcdcc77c864bb77bbb999a94a9a8babb899a99acdcba998a8e5973a47
col27:   889a6b8d99ea9c623b985a9cbb9bbb99a9bbbbabbcb8b9a7c7ca8bab8d99adbaaddeb8c8aab886a9
col28:   8bab59667aa4a785b6688aa2da87988cba5d3b86a99be9d5688a769b4abb66b4a58abad6659e7b97
col29:   a764bb9b878a88a6767478498cc9a88ccd9bb6baab7e959c7493659bbbbaa9dacbadba7a8bc78598
col30:   77969c2c76b77799a8a6cb9c9a99bccd876bc8fa6bb8f999aaa8b87acdfad7679df979a7acf47ffa
col31:   b66156696a97cebbb7a7d9d6ab8d8e4fdf6ccb8cbc89afce789da8edd9bc89c8889ccbba9769668f
col32:   779857a85c77a68b8ae89bd6c6ccdb8ce9ab7d7a98afcbabcc969da68d99889ba7a9cca7abca6939
col33:   778d489984868db89664b8a8cc6bdca4e998a98efcd99a97699aae97dcecbca9cc7997e7a79cb94a
col34:   c36879691546986c68aa976cb9c7a95dc8f8a759baaf98caac88ba6bcdbd9e89abc496569e9996e6
col35:   993ac9ea9569a97b99969a8bbe688caeda59fde98beae9dcfcfabaa8b9e995e67bfaa9aabb6dacbb
col36:   6a4a677753fa94496ab57aedb68789a88cb798c88bb63bebcaacc87a9bfa777968a8b7c6bcb87ab9
col37:   3887367769699baaba799a4b9876d68abaae89dcabacdd99ee3cb6a9b9a99cca9f88bfa98bcbabbc
col38:   68b37aab668a577975a8a7db47aa98b87b5adabdaacea8ca79dca8e2aa9aee96bad7a679e89e976c
col39:   a727d9579a89995c59b5779aa579aa5a98abbe8cbcbcadb7dbbb9fcacfcbe8689ceacabbcbb5a9ba
col40:   797587786aaa5b8486698ba666bbb87cabb959a69799ccbe9cb3ab398ac7bb74b8a9aa69a67c9858
col41:   67765c568a8585189b793e74989d9b6cfb9b8da8ac7e6db89e9b7d771bb997a9b989db86badbc588
col42:   3ba56499a6b8894e879d4b8d79ac98b6cc9b88bc99fdfc979a9cc5bb65bcbbddbd8ef8a8ea8ea94c
col43:   79557d769787b9994586a899858cd633bc7abd8aabb9b8ddac88fc77bbbd9fcddadc9a88dbecec95
col44:   7854b78ca79b753bc6c6687cab9a876d998a798aae6dbb99fac8c99bddc678c9899ed958abdc8aab
col45:   443a999798879939ab8aaa698ea77586fb9b9fbabec98d9eb89aa6baa99ba7a6995fc6d9aa7dddcd
col46:   6789b38789833679783729dd8a75eb797cbabab9c7b69ccfe8bcda7aba97c4a9bb87b88dc8998d88
col47:   77b76a678687865596a678ab79c99586dcbdaad87b9aaefcbac9dafadbcac4669b888d8b9da9a7c8
col48:   96a79a58584699a5ba796b879bca59a7ba888a6aaaddccbb8afed6dabd96b5dbdbac9acdc98edb96
col49:   345e849969b559a64b97a6b8a577b97bb67ada9aacaecffba9fa77c8caea7fa957a8acba569d9d8c
col50:   956669a854768654bbc977d8789999a972eaada86d8aa98abd7bb7ee6dbcb7ab5759a796bdbad5c9
col51:   4a68c65475737849489759e8dd6857cb69c78cbce9a9dcbca8b8daccebbab39d887db86f8b8bbebc
ROC:	 BPix_BpO_SEC3_LYR1_LDR2F_MOD2_ROC1
col00:   91382347975168b6551b552b8686978b7c4737774cb787565457b98bbb8bb674b69d97789b8879bb
col01:   96748689855776755887466d6757b7b4aa66896a99c8b9b8a8a979778ecabacbc98bd8777b9b9a97
col02:   56469589769c76a532595a89c65b6de97884c9677a4585ba69a8c5998b4ba9bc756b899dc9968c59
col03:   446469a9b67246876b4c89a6179587989678667bbb88a97b9dbb7c89b6777cbb9b68c8bdaa7b7799
col04:   57b86ba7477588986556747875a598d897ba68456899aba8b7ba84cd768bba99b999c86998f79a54
col05:   9469774575797a46d7868567dc667895aab99c6b786da7b7ba67897bcbb96a78897a6c8868a9b875
col06:   858395b9698565753644254b99a7b388879b5476788768b8475bb67b5b97acac7b9749478987d746
col07:   879568784742369d9347cb569dc59a5b99c97b8a7b99bbadc59b897b8bbb9bc76bb75a7a765ba78a
col08:   8859a879653367b4698687895ab869adaa78889b9b9699a99c46a6875a8a9bbac4898a86dabd9b89
col09:   6885b6b2999765577b316988779cc6b886a997c999a63bb9b9ba99b8aa9ac5b885cc7b69ac8b958b
col10:   845479278b358467376988a969cb8ca68b49a79895829ab75cdd98b97bbbb9db7bcdd9cabcca9bcb
col11:   3553596616653789754879759587d9b78b89aa6a8a9a699aa7ab8cbb6cb8a8b85d7a7b99dbb78774
col12:   42918998518367a55636b756655677ab487daa9987586ba8864ba95caba75b87a7698fbb97a75756
col13:   55a98b225496797a988797a7bb5a699947a8bb88888ab9aa85bb9bbdbc7b975c42a66abfc7b1ab85
col14:   1627746459255791777657a8569a9789a8b8b8b658ba9ba9699b889a9776666767b5c865bba876b8
col15:   559a96545343463724689d98abb7bb79bdbbab688ab97aa8b95ba7f7d8bcd8a7a9b7688978b9e9bb
col16:   14367537476379249b7558679a68962795688a6b77ac999c747b79aca9dbc88b98c99a749859b9bb
col17:   926277743a26977758778578b9679b682b6778598ab8c79a7aba9b99ba9a898abd9b775356ba9774
col18:   466285574538586866579978ca96758887b997aa8ba7b887d58b98bddaaba78688bbe7b9b47b6e78
col19:   65223478876494889ab9a8665965b8a56b79d9977586756b9779c99c88bbe6ab7679a7978adabbb7
col20:   a78255458699b5d6a9ba8787967aa6665898647b69a598a798979bc6c79d897988c787c98e873677
col21:   4465755636819847476466777798b8899aba879b5aa8888fa5beaa8c8928cbb7a8879b9867bc989a
col22:   9898b536bea76467597c8977667a979d9768b697a69bbb75dbab9d9bda768b7bd9a8d6b9599bba95
col23:   8659487b79778b7887866a666b766b97858aaac85c43cb7857a9cb9aae8d9c9ba56599a7ab8998a4
col24:   43a98888597868a58382741c84c8667475576c698d9a7a6ac8866bd7bb8ababbb966baca959b8896
col25:   75877497699a9a99b8b875d879746bddb6aa9a8855d7a98cbadad9cbdaaaaaab69ba8bab7a97a8bb
col26:   5552688aa443658a865a766899897788667bb587669d6a99bdaecba8ab769d98469bbbb674ab5ba5
col27:   77557786b66755795765a7699a97d9996b9597a985a7aaaab9aa97abdb7abbc2cab8786acba997bb
col28:   7196957666c89678b878ac797589aaaa68799b9cd85cfa998e8cbeba9668d7998afbc9bbb7bb39cb
col29:   5757699786b48889599a797bc96589899aab887ba889ccf68cfbb7abb87c88a5cc5bc7c7cdba78a9
col30:   668448b879899696889a7578b658b938c99768927a9d896be9b8c78b688cb698e9a7bc87a79a9877
col31:   6138a6963478677978467b899b9a95da99ac9bb7bcd7b599c856bcaeaadd9aa789cbca9aaa84ccd8
col32:   28846c65565679b3797899d4cbafcca79c897c787afc9939d7bcda9da9d889accd89c88d5bde99cb
col33:   38aa66626799b89666d24b78b9a9d7e8bbdcdca994dc4ba8da9cb9a88cb7c9eaccb6b85b9a8f8da7
col34:   48558445b9b4737963986247babacd8a9b7b99d9899ebb9b5eebbbcbdac7c98a9a79cac8a6bc89c4
col35:   43538549119444989a868c67f9a9a98fbb6b978c9cea88aaed9ab8aad7acadbabc9bbba977a9bd79
col36:   625377796738e8655558978699998b826aa8ccb583ccbb7a4bacb9ba9ca5a978aac5a897bbb8c896
col37:   89b65686b184a59537a99aaa7aaa75697cce8679f9bcabbb8bcc898e8cbbaa5c97a8b9db87cbbbe9
col38:   5644a624886588468387a78389597537aaa698a5f78c988ab9c8c9abaabc87c879fdc6cc8a79aba9
col39:   8397868986867a875987668abbe759ccd68b899a8ccb998cd99a9dabc4addb88798bba56abb94899
col40:   3549a587767257b591ca89748c899ab9bba7b99c9a9daacbd9c9c8acbcae9cc6aad8cb988bbcb67d
col41:   a374755597964667738aaa58968682c6aa6ab9bd9c8ac99bcac7c8a846798a79aea99c899fb7aeac
col42:   2a88614977188b6a54898c8488656dab619a58689ca99ce8b6bc78afefc999aba99b9ea8ad78cacb
col43:   4488d379879887a5c8a5477a9b88999877c99f9b7ab88b7e999fbbb8cb9bdab97b95d68cac987aaa
col44:   845eb79853b779576848a76a9885b558ba9979b79ca9b7dff99d9ce87ec97c9dadca898cbdbc99ec
col45:   578776656355635a95895a7867885a8877c7d787bbda8b7a8d7a7c9bca7dad8ada8bb599c799b8e4
col46:   7c67474a73656655b587555a7b69aa99aba6be775bbbbd899ba9a99a76969aa9b9e9a9d799686bac
col47:   574668778576856a517691889795996d63e7db99f8ac97b879beae988a9ad9bbe89889897a9c9bda
col48:   865675567759786664a579b865a7895bba5cc5a9c8b9ec7ab6a9988a4a6967c98bb6e9d798af97bd
col49:   35176479767759768784aa76575978798b985db9bb969aa9d7c89ab8a78abbaa7aa69c99bc9ab88f
col50:   137685b555649446959657b8a846668b79a77c89767a975a98aa7aa886ac697a79a7c99849a8a7b9
col51:   343283541a68768766658716977559a6a837849578a8ab96b998bac68bdbabd86b766cbbb7dbba86
ROC:	 BPix_BpO_SEC3_LYR1_LDR2F_MOD2_ROC2
col00:   265347997469568871262227cc562b69759478b784b8488758979b4839b976bbb7779374584857b5
col01:   676a849b689448458872564894b9429b66ba8a5d7b78aaabb949c97afd4b6b4d44aa49c8958957cb
col02:   53787662977679c89966a268988b598b47462c662babca9bcbd88a6b8a89db757bba4a1b58859a45
col03:   7b554885957b71488c56b57989685c558c8a7845779462a698a77c9bbd8b867fa7669b666c627722
col04:   65879194586576a7579688758b5ab4986898564cb6d9c7bace86bc8999b9bc8d794876787d277bb5
col05:   5839ab166597a68778769678b55b9887dad9a66862b77795e8587679bb9664677459896a745b7665
col06:   79778aab686c6a969547c9ad9aa89f689babab79ac67bc9dcd7faa97789879e6489594c8a59a3784
col07:   5556a9c9a8b597665b7c7996d76a6a4bc7bccbccaaa8885764da8b796bf87397a4b9b6769b5a7c88
col08:   69466399787647b999ac6bc8c87d8e5d568738769a8787838b897999997bc66c8a58aa76b7b37977
col09:   1993ba66787b38887b79bac935e9b9ba9aaeba98a4a8d9b8caa7b7ad66d898adab688589c58a5784
col10:   68979887764c66888aac668d676da7bc987ad7bbb7a7b6684a99eed88bab966bb799b7cb87b389b6
col11:   764b8a55999cb899a76b9ca989a5d9c599c956ccb89788a8584a8d9ba7bccc4ab89a7ba989a976bb
col12:   a739f8c474484c8778aa975bca5ae97ab848bcae7b96dab766eac8eca47c8bbb76953b8889a8b7a6
col13:   93997984a9688478a98643a7c7b4ecf6c5b87989a8879c5a8b6ac79d8abbe68c966abba685c9a876
col14:   45589784623a5687534879bb68a68e4bdd86c8c7eb75b9bb6a8c8fcbb9db59cd5a4698b7e8c39b51
col15:   49756a668777bb297868b879e752877c87cc77ca89b898488b9a8bca9ba88987899479ac868577aa
col16:   63791b84a68687978998877b9d86ab67bed897d79e8b658789c9998d79b6979fccf96b6596857e88
col17:   7b7696a245b9a59c6a7955bca398b88b7b6a7a946979b7d9b99aecd89967b588b97ae38967696f88
col18:   aa994254788c8a77b48788848c589a88caa86aa8b84abac7b6ab67aaaa7c8aa8b6e9987388958bad
col19:   476466c9b78d98cb64dc877cdb868ba6b8c9a8cc8c977a79c89b96b7c9bcab6979e978a7c9569b88
col20:   467695687795b55a489d74adb7bf7f9ec78576cb5b7c9989d98bff6a87aa78cc6ef89ab4764a6888
col21:   79795899576a88873675a9c77aa86aa898a9b65ba6579c7ab8bbaab8bcc79e94b3a86b68677737c7
col22:   757a987579d4997a6bdd9b6978778ababb47b99e8abb8a9b8d8ca8bc8a95dc99d9c87e8b8bc65a36
col23:   59966a679b747a97796996b9988667aa99ada99987bb99c8fc8efabd8956996aa6779789657273b8
col24:   34987d3bdc7aa949b553ab7cacab9bffd8a95ccaab69ef7bba8bbcadb9c8dc9b8bc694c89b75cc98
col25:   795bbab98989ae98a7a6acbedd98ab8a883db9eb8f68abce97af89bd9b9bbda95aab5a8a9ae96844
col26:   8a9cab93b5bb95bcaa998cabbb8ca8edd77beccf73aaa998c8ee79ce6bba989e9ad8b55b77ac669a
col27:   6aab797b798b9af798768a7aca79d9d9ac9bebbbb59bcbfd98bb69aacfd8bac5ccccb6ba7caca999
col28:   a787babe67acc6a9acc779e9bdf8cdb6bcdc9ab6c967ada6cb9f4bba89acabccbbbb9ccc8ba96aa7
col29:   a9a7bcb7abb9a88d7999a69debfc99c6ae5baac9dfabbbfbbbccfdbdf8db82ed98ed8c99af8dc9a8
col30:   3a964b9cc7cbb67a753d2949ea9cc9abc99e98adede6d9ad9bbafcfdddd9c8b9d6bbcb8ddfba9a8c
col31:   a99da89aca99d87abd68ad6befaacbbdbcdaa8bdaca99debac6cd8b7fbbadde6cce68a8dddbbbb96
col32:   89566b8b478a7b3a8c958af98dddc9ddfea9aa9ebab8bc7b9dfbbddecdde9bcafdadbbdcabb9ec86
col33:   6547c9b9baa9ecb8bd89bbb9bbb4bc69f98e7adb6987dbadab75ff9cacaabaccb49a7eb99b3d9fc9
col34:   4973da9a999bbbd9a7b5bcfebdce9c9bdbdadd7eaabdddfbbc9dfeebfd8beeadf988c9c99b668d98
col35:   994998899a3ba89877a7cb99b98bce9dcbeebccb888cefc98d5989b9cbdcbbabdb8bca7b9abedbac
col36:   98254ba958dfa8d79ab975a8b96fb9bdbc5bbdbae949af8a6cabd8bd9cbc9bedcb95969fc8aada8b
col37:   b9a967b7a7a999988a95bb6c9dd447d9c68aba8baf9cdbfeccdccbabb87adfa9c5bcbbad6d357889
col38:   9957a8c73b7baf6b99d7b8abdbbc9abddcb9cc8cfbcdebdd8befbcadbedbcdaaebcb9acba6d97aed
col39:   9ac9a9fc6f8a678afbdb8dcb8cab8ff987b8cabea68f89deadbcdcebd9cbd8ca8b698e9ccccaacfa
col40:   b7bbbaa98cbfc499ab4688caabaa9aa9b8ccd6fcac999cdf8bb99eecfdcabdafcdffdc997b8daacc
col41:   b78bc797c6aa9b788ab5ba7cdc8c78aec8aebb88bd9ddacbcd9b69fc8ca9e8a996cebcccffa98bac
col42:   9c6c6cad6ac5e97c8adcbd7c788e9c98ccbebdeedc9ec9dcececdc7aaca8aeb8bbacbbbacb9afbc7
col43:   878998a67ba8a9e998aa9cb8abdc9ac9abcdaae7acebbbbcffbbca9dc879ea7eba9dc7c9cd5ae8bc
col44:   79e79aba78897eaa4ab89e86baafbc6c8daa6bbdbcbbd9fdcd9a7a9ade5adde9deabfafa9dcf9cbc
col45:   88d6d7ab978aa8b666af9bda8d9c8dba89b77edbcada8dfce8c9dc9f8896da89b4aeadbb9cbea9c5
col46:   aa9b8a5b66cc589a8aaa9a9d99decdac8ecda9dca8baadeceda7ee8cc9df9ef9b8ddd8ed9aabc5fa
col47:   754c8d687a7a5a4b5ab68bc6c8dccce9abdb5dc9967b9adca8e9cfcddd7e7abea9bee7cc7c4cade9
col48:   4c8877b969b5ecc878cacbddd88bdebdcb7ffa7b8a8af7cfbdc8cdaccc788eb9be9dadacdeabb9cc
col49:   7577daab7c88dababb6cb7df787aea96fde8dbbbf7c9d79aada98eddfdbdbbdcd8dadceebecabdfb
col50:   667565c6757ab796796b7a9c8bf9edbde9bccbcbe8af9fcaecdfe8799bcfa9fe3fdbed899cae8b8f
col51:   76a877877cbdd678a8bbb7788bcc979dbb9d7edcbb8ddba7eacbb5abc9dc78cbe4e9cabccdb9ea9c
ROC:	 BPix_BpO_SEC3_LYR1_LDR2F_MOD2_ROC3
col00:   4785477827473467165b646b988e8575d845586a88b8553597858587793525569898954458443566
col01:   55687867aca229472887488b4ca87c868a59a797967977897776c96b8897a97b678d87b885757956
col02:   13a647577a967477555757579d7b8b777844995366a8686687476164789886524a6754a796465495
col03:   413756555687759759b27768467ac9796adb5b8663b56a87877b51b567668974b78867355727b776
col04:   64762748587758a66d6998b8476b8c988bb674978895a867945686779d88999969c56569b1748974
col05:   784666a9a98c7a76ab8779ab8758a869869cd9a8c55778ca58c5795488946987989a69bb888a8568
col06:   87197676ca48a55b85a749a726b999755578999ab56c7a86949747678368568865978b7a66727744
col07:   9667797444c998b9ab868aa838aa88786c9a79d7579ab49876b6857a696699982677769455a99b55
col08:   b78a875579855a49865987a55677d657a7786ab9875766b8c79aca7b67364899b85b896386679634
col09:   7646986962645a89796b6aa5799883b6d6b78ab84678567a5ac996587ab5597989e85559aa8a699a
col10:   5865888a67469b7bbba95699a66a587b65896b8c96a9d7ac8b9a68684a36689b7464688595885669
col11:   87852696697ca699889887a9b988a7779699a78ac6758948858996b9947858786779689a97695749
col12:   96877245737958689777aa94579458b86cba887b9bb7685555888679a69776795494448a5666864a
col13:   7944678c735a888a9557a87e6adab854a8786da7e79ac85aa9bc8b7b78a76896ac58488865a83559
col14:   6948336787773965684938b698ca99c89bbb8ca98787989a556b8bc6b578654bb987665956c73371
col15:   a45a69584587b9a9ab88657a5aa9bbbafbd9bab489ab9c6c59899968466a7d82778bb8859697a688
col16:   669847443775496a58997b6a5aa78aa9cbba9a98ab88888489b9a575777665ca7a99668585645763
col17:   a974556876557a89977888dd867baa694a85a589b588d99b8b9a7aaa977697588898c8a5926a9986
col18:   535787a667677bb64969a7bdc9a99bc6a95a84b9879a899aab7b868ab1a95a896579266798556756
col19:   1686775a994b8ab86a47868a9c76ad998b99a8b788d8ca9888898c8b77477b877869375488766197
col20:   44554a7a869939c665b88aa76994cd869a69874b96ccc8869989a69a5877a83947aa477834535858
col21:   75567a387959776a7ca55b847a56888b7a96786babba78ac8cb67a1656bc99b998897876a5485988
col22:   97765aa87a78aa67b5c87a8697a7a85b99956c896a9aa98caab9b9b7949b7a8b96c85799b925677a
col23:   6549a6968e7b7c8b999b887b6cba5cb6a8a596ca8f95899c57b9ac9d8577bae677967597676663a6
col24:   78898686c89869cc6c9885cc87558c79b85a99a68797a6bebc8a8ca9778b868aa69b948676666388
col25:   aa7ab788577767997a75b99ab9a59985d38976dbfb76d86c8ceacbad7c6ba7969bb88ba996ab59ca
col26:   778678977ac9a6c5abad7cac997ab2cbc7888986bd95acd9ea9c9bc6cbbab9b69dc7b69acb653d87
col27:   77bc69a96b879baabba8a788c8779e7a988c8e788aa9bb8b59baf79989c7857ab9a4d999ad77b977
col28:   c6fbc98c9acac8bbb7abad6ada9b87985997a7c7958aba9b98969baad8667cab8c8cc69b7a938b86
col29:   8e7e76c8c99accdbabc9b9799bb9a78abacebb7a799489cab9cb79bcd999c8ced5c9a8a7c888ab98
col30:   68daab78b6a8cfa58baacda767b9999f786a3aaa687caad96ead9896a997dd76697be8e99c63a993
col31:   757ba8aabb56dddbbc9ba88db8a9bd77bc885a7a87a8acabc8dd9a99a9ac59bbcdaaa867c979ca6d
col32:   cdb99a979e8feddbbcaace5699c9ab87ab88bda6a99fba789bc99aadaba8a7cbada994aa7989ec87
col33:   98b6b688bbb7fba8a9da8b9addcccc57b68cabeb9589a7a8bbb59aaba8ebab67fbc9997bcd9b99bc
col34:   d8ba766a8b9cb4c89aaabe99bc87cbcb599da8b89c89799b79ca7976aa7aadb9b9daaa78a849a839
col35:   79885bbc977a9c98a97c9ba8aeab79a9cab839ad89896cab9adb9eddb789abdd776989bd7ad6a895
col36:   bbba98b9bcbe8b98a9cbb79deab97bc89d8ca998abbdb9bbfedccacebb6ba99bb7dd89b8acca5ab5
col37:   b99dbfbd6baa8888ba88dbb7b98bccf95bcc8a99cbdd85bbbaaaaeaaccdbb89aa9bb69aaaac9c8a4
col38:   b6acb987a9a987bacbedbb7d987ad74d88c6dca9a9966b99dbed9bdbb5dc45aad7c9b9b8aa89aaab
col39:   7a97ca999ac9bdccbaa8898d779a9aceaccbccbdacadabb878ccabc88899a89897b9b9a8b8a88d7c
col40:   dcaaaab8cbdcab8a9baaba9b8aaabfaa89bcaa8bec6bebcbcacabbb8a6acc9caacaaca7999a9aa76
col41:   a97879fcaca9e99dcab8cc6ac7dd8bba7899dcf99b7b9a9bfbdeaceb9daac7c9daba9efbb8869a48
col42:   ca87baf88aabbbbedfec6fbaca97bcaa79899daccc9b88a9ca689dc7ac887797997daba99a888a94
col43:   acc9e88dd9b5ab9d9c89a76bbcdedeabb9bf8bacd9b87edb9b8cb9a8abc9cc9acb89ecacac9a5a89
col44:   9aad89bbbcaa9d9beaca8dcd9cadcccbc899b9edeb8ebbdd88dacacb6d8cbcdeaa8bd78aab96bc88
col45:   99aca79d57aabab8b7ac8b9dad8dd95a7bebaac8becdfa7bbfd9a9de9ac8f779bbb9a69bfdad9955
col46:   98dcbaebacdbab9caf9cbcbcc9cc79dedfcf8c8cddbaceebdecc9acbf8bcb9a98bcdb9ebae89a8c6
col47:   79b7d9c9998bda59f9ebdeca9ac8ba58dadce9acaaf9ecebcbfbccc9d9ca5ebdba9967aa59acc8b8
col48:   79d8cacacaebcca98ae8aaabb98bab757abcbc89dcaec6cf7a9dd8bb8aabaccaa965a87ac99b8b86
col49:   a8ad9bbbb9baa7cccfeba8ab8ad6cbceeac9fd9c9dbdceeaceabbccbda9bc99999a99ac9ccd99cb9
col50:   78cb67798cbea988cc98a99ecc8d9c5cd9abc8c7cbcabaadadd9dedd87c9859777997a5799789e89
col51:   8787cd8aba69bcfaaa8b888edc68cf8cba9fcbbbaeaccaa6b7bc7ccbc897c7b8b7987899858ce682
ROC:	 BPix_BpO_SEC3_LYR1_LDR2F_MOD2_ROC12
col00:   5615b9456797967ab74ac77cc8f9aa78897d48ae5785b9a96a97ab8abcdd98b96dcc4aabb35bac6b
col01:   76a7c6b78635c7a7a83bb697b6648b779878897b99da77b989cc9adbf98ab78aaabad99a98cb568a
col02:   9a5a94b767a966da78b7a7889bc8a85a89589dceb7bc98ed7a9ac8b6ea99c8ba8d8a6db66dc97caa
col03:   9c8676b587888849a9d98988c79d7e8a7aacc98bd6ecabdcb89ab9aaa77d7de9e9acbccabd9bb7b9
col04:   59945acc558974a8699877a5b9d9768ca994b876cfddaaabacbc99bbaea8dabccbc9ccad68b99bac
col05:   989a789476c97787a8bb798aac8a698accb8cca9a959c9bac7baaebbfcb9f9b7baabdcbbaab85a9c
col06:   aca666765a76bc7788ad587aaac8787bca69a8997bcdb7a6bacd99dcdebca8dbcc9c79989aacdbc8
col07:   79689778ab97b8698c1ba79c8bcbd7b89bccad7de9aaacf9b597cdcb8bc8b99ab9c98baacba9d77e
col08:   66b888884aac7896ba476a69a88cc998cdaabcc76fcdac99cc9cd9baca8be79bc87c97997ca5894b
col09:   b2844a566a66ba6a9d76bc8b8ac6a7dacceaa7c95cdecba9a9d4cbef8da9bbcbd87c7cba7d9b8bc7
col10:   86b895c488558995da796b5aaa7cbf8799e55ffa7dbc97dacaf9b7aa98998ac99bcadaf88ebda7bb
col11:   5588975a8596cb5798d9b677667d6c99a85ab78bbdaaa8ff9cb9bbb7dcebecaa95b9cabb9cd6dcc9
col12:   7965a77487578c77c968696c99d969695a6aa9a8b76bc67bdb9c7baaa8fc7cbf65d99a7c89b969d8
col13:   1679778b87692eab84959ad98a48a6abb3a6749c88a9b8aacadeac8ebfaaa96aaba4d9abbb7a989c
col14:   28baac9b7ca7a899a83b96cc6d8da98babb8699cc8a99dcba9efdaacab69bbddbc8ccd68e89c996a
col15:   79978969957458774899889d8b89a8b86adadeaa9bdbaca8dcafbebccdfc999cac89dba8b998b875
col16:   88898aa5c74778718867ab8e5669775b6795a966db8948ccadaa8ccfaaa3bc98c7a8eab9baacb6b8
col17:   556555aa79496663bbba7985d8a47ab8b9b89897bcacababbacc7e9bedcd7eebbcb6a8cad7bcaa99
col18:   796778bb97746697b78b6486cea79b49da799aabbca8cfaebdfa7c9d8dfeedde97cc9aa8ba8a78bb
col19:   c66697b657ad9c7756bc49b85c99b5ac8ccc995aca7c6cbfbcecabba8eccbbedccb8dcccbacda7bb
col20:   65493675768664ba9587ba9997a99688aaac6bbfdb6a9facbcfe977cb7c9b99af8b9a89a88bb7ba7
col21:   8c6a65887a7b7956c5a9459ebb9e48fc9ac798a7f9a869ebabdfc7d6cbcdbb9fcd87869eba6af976
col22:   66455973578688939a6876a54aa69d88cbb7ab9aab98c98dffc886abab7c8abccc7d87c6b99d8c8a
col23:   3767779b478485756a7449972b9c897babbca899c87989bb7b79ebdacec9c7fabbc6faff9796cab9
col24:   87a9a5a7aabaaa739c77b9bc9abbaeafba6c977b8ac899eaebaaabacb9c8feaf69dcd8aaec9ccea6
col25:   b7a985888976c639aa459bb7bb7bbab89e9cbdfaadcb6db74abccaaad8daa77ffad7aedd8ba9aaeb
col26:   77794a9967b9ab8e99a4ebb889dc976bbbb9ab78cccccced8ab7dcc999b9becae688b999bada9b77
col27:   8a9a658998bac9aaba8889688ababdedeaa9dcbd8ced9eb9f7ccebd6aaf9bbe5bcd7bbfc9cd7b999
col28:   87764a7a95a69b5abc97d598babab9fa7bcb6db9fee9bcb8b8acad7cecdeb989b9afdcc9c9ad84e5
col29:   896891668a59988a6bac78cb9b9da99eabdbf89be99c9afcccb9aae89ccfacc9cafedadddbebba9a
col30:   7ac6a678b78b8b98759b76c99dc9ca7e9a9adcbcdccadfbedf998adcdeac9adaa9ca857ffcbccbbb
col31:   8ba9869a786747894faa99cace9afcc798ad9bd99aaecca9ddacddf89eb8aff8efbba8bb9b9bc6eb
col32:   8b5a94767ba8bbc97a7e7a8f997aec5baceaba8ca7ccacb9c99c7b6fccbdcc7b6dab8abe99b97afb
col33:   5b693749369bcb7a99a99cbb79ddcb9fccecec9bc69be9bfd9dbbe8de998edd6b8eb9ec8dadcdf99
col34:   c59799955d99ca496d7b78bbaabf99a849cd9ebcadfcebdda7deb8c9edbac69aa95bbd8d8cc98bcb
col35:   68655c88669ac6c796b5a9c9b8abb98798d7a6baca69aecddbccfd9fcbdb94bcbbfd8a78e7dfbbc8
col36:   46a89aa8869699abc9ea84d98bcffd7ddc8f8bcffbccb8ba9bacdbfbbc99ee99a8bbbaac8bcd98ac
col37:   98458ab54a5ac794abf5aa7cc8db7adb99eb9bbcbb8b9dbdbb7a9c9c5dcd9ccccedbdbcabadafaba
col38:   ab8695dab896dba9ab94ac84bcbaab9ab6a6bddc89898d9ea9ecaeba8cebdc7a9688cbc97c889cb7
col39:   b7a948a88baf7a68bba9bbcb89766c8abbdb78cdadcdbbda89dec7acda9acbc89a8cdfcbfccdbaee
col40:   a79566879b6697f5e97877a7795aa69b6e9cb7bbcddaccbca96acc78a8cbacab76cbbdcc9abb88b8
col41:   9389585657b8bba6889d8c9b787d98adc6ac7c9ab64ec7c7b8a8cac8acccabafc48ea999db7a98bc
col42:   be4892974bbba9859a9a9bdbc9989bafdb9badfcedfdcbdebb9dd9aeefebafcbfb69f7eb6be8b887
col43:   275868b87889aa667cb9e898bb8c86ba68cf7c8dd8dba8dbcdf9fddbbccd5cccfacbb99ca9bcbaca
col44:   66a78a66aa4978ad89a9bbc84a7c999bbf9cda8e7b5dac76adacaafecddda83ad9fc7786ddea9a7a
col45:   b6775656b9578ab8a85ccab86c5cc88eaf9caadebbfda88bebedefca9a7dcfb9fbabda8ecfacbad8
col46:   aa695b98a967b8787ddebf98deb8a6798bd9bbda7abaa7ca8aeecd9d9bccabaaabcdb679d8d9bab9
col47:   47a8476317893aa9789879aa89b9bdd69dacb8ca7ac9c98dbfedcbbac99d9bbe9baacccba9ddbadc
col48:   96ca6aa6aa9b7b9a79bae9fb4a6aaccaba9bdb989cecf69ccdd9ccef8b8ea8a6ba9ca7abf9988a7f
col49:   886a64878888877ca897dab9816676b9be9cdadb9cdbeaa8db9bca8ddacac9ca878ee8bb8ea6adb8
col50:   7a9aa6996388b856a67a849579c5d8ca988e899e6babaffb79a9c6ca9c8ecbadd9badbecf6efa959
col51:   b6878c97887b7976a889675a6af8afc9aa9897b7ccdacbbcbbcd8decb99daa5bedc7bccf7da5bc69
ROC:	 BPix_BpO_SEC3_LYR1_LDR2F_MOD2_ROC13
col00:   44a57876327575731579264b8eba98848496c658499ba96ac699d4885a7d88cbaa9c6b97a77857c6
col01:   988768797b47aa9358889688859d698888b9a5bda786a5baaa7f9abcba997aeaca8d67688d9c8c99
col02:   863336a7965835379c549875a7b8a98a7787535a987977a7a978b688968ba7987868d88a49896756
col03:   8476775559458aa694867893878699a81789798989996c8979c8977b7786a98dd8ad9a78a8e87889
col04:   a72873b96278282b35b748666b878c79799694e89a7b5a5965cb7ab759c7ba6ae98db9769399b878
col05:   48b75497759351b847b8869bb5aa6ac9ba689cd98b75e88aaca7c4968d95bc9a5a79987cb7ab5a79
col06:   66489cc7a8766535797986b9657b67acbad999946ab53969a95aa7db66a49957425a9d59a98b7a8b
col07:   9888ac9437b5576b5aa75897aaba99cb758aab4a688797bdabba8cbb89aac8d7c573c87753789a7a
col08:   3a9885588656598a96d8b7975a9a967856aeab99c59666cd756bbd8879758596679ad68d66aa86c9
col09:   856888b5759abb596573b47a5a9b8afc78a9a89b9bc796787ad697bb76ba9a7873e47aaaaa897685
col10:   97967a755598a7876686688bab99a6c59aabbc7b9bc488c9a789b98d78dcaba9886ac57c7d7a49c5
col11:   9658819fb5647887b587898e7ba9d7a84b6cbba7b688b9bc83a669b5d5abca7e5d9966786bbc9a65
col12:   48498676957755498876658868d89ac79676ab79897598a98765b5bc77b9bcba8acaa6a6b9789a79
col13:   864879bb799756767a6c8887a658b9b89d9a98a9c669e8aacbb9887aaa9679c9b8b6b84d8d599db7
col14:   a57734586647a85a9646a7ae4777dd823a98daa98a97c7758bab78e9c89ccba97778adfb7bd89d77
col15:   7746998851783429b958c9e898c9cdbbb66777b9787878b6d584799d78c66aaab9b7c774f7986baa
col16:   1679b6b887b78c977d378a6b95a88a56656b87689a79ba87c64ceab598cca94b8669889dab479bc7
col17:   776639a44878d79868782749bb5688b86a48979d88597488869c9778c9ab7d79ca98a967a7a36885
col18:   47148693797b85ba6669887a87993d89786c9b8a9ea469bc57a859c9dcad5bc89779789629a99ba8
col19:   55778679888769a86da9987878ca8864b9ababba3a8b9ba8ac89cbcbd9c9b75c96bca85b988bc99b
col20:   57871938967798a779753893878959879975a8b6c78a8a9b8b8cb7bc8bec9beacf8859a4aa698797
col21:   9895a177689496a94959868a9556a47cb88c9a87788eabd8c79da97da8ca8988849b3985acbb63b7
col22:   69bc869747a8689b827b5b8a95899a8b877c8a8b88ba7bbaa6c9ad9b89bfad9884979888aab9888b
col23:   949a6c996867a8ac749866b78857469a887b98787aa6878dc9a89ad7da9b6ef6778ac8657b9b987a
col24:   46898696788b779666748a99766888dc68698bdbb65af7abd9cd9daabae9b4cb694aa7b9c7a66c99
col25:   a87bb977b888d9a8b6a96a689c7cca4ac5a59ea8649589bbba7bce7ccca7c998a88cbb49cbb969d7
col26:   dbb595766589b57d6a7567b2aa97ae779b4ba88d7a2c78c9cb8bcb8d8baacca8abb9c79cc68c89bd
col27:   9498a6b8ab77999996834888bbaaa9796a978b7bb6b86b939869bd8de898e799ad6cbc89c9698565
col28:   a8998aaa9878b98d9cba7b8a98aaaa79d8a888a9b97b488adbf9adea9d7cabbbabcba9799d977b5c
col29:   8778a898988c5978388968bbcb8fb9d3b8c8a9ac8939faacfcdb6e7edc88bcbd7cb9b9b9ac9cb9ab
col30:   57b997b7c5988a78685a88ab7bac9ab9a58c6ab9ca9e98ad79baad8bed786cacbc9b9cacaccaa359
col31:   967a897556b7ba59a739cecba7d9cba8d68ab5a79baabbcb7accddadc9b9cbca9b7c8dab796b9a5a
col32:   a6862a47697589865787657d68cba9a7aabdd8ab6a89b678db8bf6febefacabaadbc78a97ba67b98
col33:   67759867b98797b677d8c97aa88d889c8aa95ca8aaf78aabfcbfacbf979caaa9abe9b9aab8d9c8f9
col34:   9747a54797a6b4c587aa595d88bca6bd7e9be78a79d8abc878b5daca8cdbb98cdbaa978d646a8b94
col35:   36768a757b966798888989b9a9babcaab7b999cbc9aedbcf9a9bf8cbaa8bba7b99a9dcb8894a6be8
col36:   85656698b77989a8989e687477898a78ba68ce7abdc9bbe9b8eeaaec9c84caaccaa799cea99b79b6
col37:   5c3a815c88bc79b4a7a7a9dabb88eacdb98c5bba69a8c9adce9accda899897a88c8c597a99a88995
col38:   69857a8cba687a77accca8598b9968c85899bda9daa79cfedae9cdccdd8b8ab799b897fa8789988d
col39:   8aa987a98689c8986977688cc89c6acacaa58df8cbbaefc97c9f9ee8cfd8958a8ad9a888cdb77897
col40:   ab9b56bb75987878c7496796b9b889bdbaa9989fcb6acb7aa7bba79ac8b796eac98988b99a6a96a9
col41:   76a8b77a9b5b895875899abb7a89a6d79638976bae989cabd8a599ae79798c967fcb8dca7b9cb968
col42:   69967da4478953698bbbba9b89b688aebcbfa79dad9999a9cbcbfabdafb79c8fcbcc9daabdf9ca8b
col43:   92986a8969947bb7869c8999a89b998899ba6aa9dba9c98ab6ab8a9aca76e7bfc59ddb9ac6aa78aa
col44:   937784878c9767787a496a6d599b99d89aab9bac7bcd8aafae95bb8d9adaac969a99b7dcebdb6aca
col45:   176a6b9a5869a978b987979dabd9b5d77b99788aaa7abbbcbc9ea9aa8b9aa6eadabcb88cd5888b8c
col46:   4a736553587577586876879696889b798b7bdccdaacc6a9abd9eb9a9a9aa97b777ab878b4aa68c86
col47:   7586856b986784934868c98889bbb894aab988aa6cc7fa7b8aaaaab8cb99c57ecba6ebab9a7ed896
col48:   a588a9687867a9bd576b57867bbac9c86a4dcaf6778dcbbf98bbe98de66598b8a8798aa9a5a96cd8
col49:   57576ca98aa8b778b98ccac86a7d8c9babba49bab9697d8ceb9abbadf8c7b7a98aa5ac7e8bcb6698
col50:   777c688b888a9869a7a9796a8da8ba8c96887bb73bbcc7b9da9a98b9c89c7aaa8aa8a8ba9baa68aa
col51:   b874b36959637a87c97df6a7eb6c987947ad969a6b88bc9989a8a58cc4abb8679ab6988a89b73587
ROC:	 BPix_BpO_SEC3_LYR1_LDR2F_MOD2_ROC14
col00:   8a8645757aa9557556ba776bbf9c8b7a77de7786c7c678aaa7988c997b7abc99c77976687686958b
col01:   6a474c5a49579ba488897eac8bca8bdbeb97b96be5aa7b9b77bbbf99cb6cbd98888886bc7a6899a9
col02:   b5676a58b6b7839ca798c756a99ca8978ba688c7f96b6788b8b999cab68ccbe98a78bb7a54638b76
col03:   188577997d79a86aba959abaabdbb9bab9a9ac76cbca8d8d9997abbe7a9bba9f98c5ac639586a4ba
col04:   9555995877978b87696877be95a6b8ab7c9b577c7bc9cbc89aa8ccbb8887b6babcbbcaa8655b8b66
col05:   9a89ab8b999b9a69bb4897dbbbd7a779fa899bdcb88aabcdcbd88cb975cacaa8bdfe8b8967aaa8b9
col06:   71a88789987779b974888eca6956b799bbc8abaa96d7acb5998a9bc78865c999bb9478957b629676
col07:   694457788687a7b86a77b9a89c7db7a79cb6bdb969bcdb67cbbabccda98c9e7d45ad79ea79898b67
col08:   d75d576597a87785a7bbb99ba9fd49a97e9dcb966bb9ccab5788cffba96b9eada77787c7a566788b
col09:   756c1a6a9ab959879cb7ba9ebc8abd88b786a9a8fcb9c886c9bbb9ef98a8a7876995787cb8a7593b
col10:   48c91b6868dbccbd8acc6b6adcababed8b6ba6d7feac89e778a98cacdc6d83dac7898aadbb868b9b
col11:   836627b6b195996ca6a76875c98a9ba887be8df87ab9b8acd9d9bade9bba9bd7ba5b7c8a5887533b
col12:   a5523798d1878a9d4995d86bb78a78bba4d995874b9f664a99cc8c7b999ba64cba36968a8b959828
col13:   6b2658767aac557a9797c6d82c5a9f878dc9cbd9a7aac6caedaac65bf9a8fa99b68e699678a88a88
col14:   67798958975c558689b9a8a8a8b6abb7899a968d9bb8ea85bbd8778baddf97a7a87835e77b9a8b67
col15:   56566a78737d9878b9ba7c9769bcbacbbcd859c9c7b6c7b8cac9ac8b78aaaade88c9abb8767b7885
col16:   7749813c65887bb7964a788ad987da8ea9ba8a7f4baca8bf8788a99979a696ac7b8688b9666a7a33
col17:   566a3517541885fd5c8a779ca99aedcbcbacb9d78bac7a8aaaabc667565b7bfaab56b5aac6cca8a6
col18:   5488c86a6587689b5a5bbcd9ab78e85cfdc9e9ba9a9baa9a5cb99a7bb6ba69979bbcb83b342984c6
col19:   a466466bb9579a77dc6b8d89d5bab7abcb8978ad8adcecebcce9ab9b9d5ab7d9bcdb9c94989c8882
col20:   5a9568479778a9855b3459b6dae8a9c79ba76ddb7ccb8dabd8a49af9b887a48a9a867a89585ab2b9
col21:   5626695659bb58cbacbba9aba4d96aa9a7abbc89dbea7dbcb8fba96d8a7d79fab59795a8b8678d86
col22:   6a4599986caf57daafd9bcb98ea6a95f9eec57c9dab8bce6e7aaccd97fa7aa7bb9797cdf775568b7
col23:   6376a14a97769695caa98a56996d9aaaa9b9b98dccedaaea98f9dcb879979848b86e59898bc5bd68
col24:   87b32999abb657fac8be79a77ba98caaaa99b69abbda9cbcadbc5a8dcdc476cdc78d939377a9b683
col25:   3599782a99ad889d8ab6baf7bdb84987f7776eacc8bbd9a9aba7eadc967b9cd8c79c869b9a969879
col26:   97ba878829987b9cba96b6c9a6e4bb748969a69b7cebaa873da83a9bb9c79accb99ac88666684889
col27:   667795d8a69a6ac7efeaa88fadd999bcbb9b97bb99bdcabdf5ab89bcad9dace9fa8c78872d96bdd9
col28:   b4ba6a9dd96beb9d9b9b8c7a78937caaeabc9adaaa9bc7aaab96b7eedbe89ab2ac9ccb898b8babab
col29:   989daaaa89abb8b78ca39ecd7f7c7cbda776888ea898bcb8accdacffaccdadbdacbbd8da9af7986b
col30:   7c78887b886aae8bd49fabbd598abfbef47b9aca77b7bcba988c9bbdaafcbbcadaea6bb859c8984d
col31:   6b565a9cd5aba8ad7b7d9b9e8bacc8997f999b5b8c99d9cfbfaac9ed7d978caf9fddabb8bda6a6ab
col32:   7a7b7d69a8ce9ba6a6a96dcbacaa9dbc77ad9d8abb89ee6cb9aa8fbaa77aab8a68add7de95739898
col33:   8ab75327789678caae6b4acbb88d9b6899bbc667adbcbd7dfbbbaafbfae9acca99bccbdb9edbcd2a
col34:   d8ab989ad6b966d6abcbca5c9c7aa9bb8a7ea8badc97af6eab9ba7dda6ecb97ffebeaae9e9eb9f78
col35:   6a466a79ce8ca99b87b79969c9debbfbceaecccaa7edb697bccdbcf9e8c88c9afb9ac987d8ffb9b6
col36:   7968a579b999578b78ceacba8dad88dcdcbd9bdd7cd87c6affcddbdbe98abacd4ecbabb9ceaadc77
col37:   9c87d888c7abc5bd7bc8efad88899ecccabbc89ba9ac8cddcccafabbc9ecf6a8b8a6beb969ced9c9
col38:   a66b69ba889b4a7dccbba68e8c8bcd9aad4eab9b9caa97fd6fbaed88d9da999997b68cd9dac9a5bc
col39:   879a99c669a8aba7dbab778b7ccfad93aaaea8ddfcae9adb96dbc9dbc6caa97a6e8ecd9a87bc9999
col40:   ca989ebcaa98aab489ceda89ca87b9abcab95bcbbbdcdbeabab8fcefc7edeb998c88bb8cb48aa88b
col41:   c86aab9a86a9a99aa998dcbdc9bcabbb95aeebafb99d9cbb7bfbabf7e6c99dfba8abfcdda9b97d6a
col42:   96fbdba9ab88cd87bc7ab9a7a7bb9e7cd87bcb7b98ac9eb9abacebe88d8a8b58bad9ccbaf97fda8a
col43:   ba9888b88f8d9ad7a9988a5d7acc5bb88ece9688cebdeb8fbef79cbced66ecb7de9abefafcc59d98
col44:   c5aaa89b998a9cdbaba877a99dcaca98ccfeedcaa7afcc9987fdda9ab999ecd79bdd9cf9ddcddeaa
col45:   7d7b67868c9a6a9b99ccd9a79598bc99ea8c8ca9bdbebbccbfcb9b9ebacc6888bac8b6ecbac7a985
col46:   7bbdb57a7beac9caaba799bfbeaa89ac7aadb5ba9978faa799beab8cbccbb7c7acf8ab7edbd79a7b
col47:   68ba9876cbadddc9c89bc7b9b8bbbbba77baebbcd7adb6badddafcb8a8be98d8e7ebcdefaba7d9d9
col48:   74857738cb99cbaeacacbbdceaba7b8aafdcdcfd8dc8fa86b8b998dce7a97c9ad87b7866cc9a7795
col49:   878a697bbcd8c9acc8acbbbafbdaca9abcdbfacdca7acfcbbbbdcbccdddbbfdaacafadae8d8b7b8b
col50:   9895986dc79b58c9bcfd9a976c65999ccbe9cdbbb99f57bd9cccaadafc9ad8a5c989d65cac9f99a7
col51:   7878a679b48b99bc9387876a785b8b3b87abedb5eb97988cc788c8cccc7dceb6ab78c9a795576aca
ROC:	 BPix_BpO_SEC3_LYR1_LDR2F_MOD2_ROC15
col00:   849229972464887a699837aa77698899a87ad99b67397b6bb7cda89d672c9b67a98f54b9a989aab1
col01:   44559689536a799999957b6d8648aab9758977589a5baaad9ca7aa799bc6c997796baaba8b9e78b2
col02:   5a9736487745675a5594a696c38699a986798a99598abfbdd965abc5ce7a9b9c893caca686d87aa6
col03:   9886577a89856494788787b8b7c78a7ab9c95a8acccc7c8788a8a67cd5c8b7ac7e9b998bfb677c6a
col04:   55548686a697b85a788aa55688a8dc7c997b9db6b8a7dc9c99cb7c9ab5a6bbccba99a9ecb8886cdd
col05:   ab56982988686886967776bd79798d9ba88a9949daab7799d8678aaca8bb788b9bbac887a8bb8ad6
col06:   3587586727b74d8957976a75b68949d87998e77b89a9386d9c78ba8b8a8bba8997887ad8a6799bd2
col07:   689885944579979b998898a969cb8f78c87b7c88aa7abd88aab79c9cdc4c5699aaf988994657b99c
col08:   aa68586759976979a175b669dadddaa8a7cab7659ab8bb9cba9c987cbdbc7d8b8bc8a9764a67978b
col09:   9887ab468467996989859bc68aacbc9e965bf88ab97e89eba7b9d99b98b8939b8889ab39896bdac6
col10:   8558449e55aa677b97a8c779977c99ba96ba7a997a889b7d99c4c8c9789a77cddaa9d648a9aa9a95
col11:   5992b188a47974cc5867bb55a4969a99a778a7b6c7a799aca84bfac49badc7aac68ba4b988c8b686
col12:   9975475663695976857a78888aa768968ab9c6762797bcb97888ab8cc898dbb87b88c5579bb5798e
col13:   74528889c8864aa7755887647bc88977ae9aaaaa8c887e9a86ca479ab5b9a595a9aaa96787977787
col14:   8425763755567797597aa799c58a79687886afa867578a99c7797cdaa967bcaa998aba7ba749b6cb
col15:   42784a47547698a777766a9a986c7c7a594e89b5b687cbcba99c99ca8fa998699a9da687429aae49
col16:   852588946797937b8a6b75799347899b667987999a57b9aca759dc87b89bab9598a7998b775497ba
col17:   93a4615535757897a789b788588a6ba8993887d8ccd9a9be9afbd88bcbaa979caab7b558ada98c88
col18:   77428a8877976aac9c58558b77c69687a79a99aabcb8cbd877cbbc79bbb6ac9adb8b897fc7acba8e
col19:   63851759768977846a88a8a8949ab96a94f96d8b7caba9ddaaaa9c9a78b99aa8797cd989a97bbe78
col20:   a3259569b758996998c5c88878a97748a6c7788a79b9a8c8f5cbd98d8bd98cd5699baa6ba94ba7b9
col21:   35833694838a7b7999a9669b9b87559aa5dbc9bc7b97a7cbb8c99bb9877a7aada7b9a799bc798d9a
col22:   5478a5aa68897695c768ab7ba8887c688859aaab7aad8bc9abae789b878899cb5898b5ec5b7b8abb
col23:   488715545995769b9697787b5569a968a6979a8977cabaa97bb8b888c977b9a8cc6588abc9c7bb68
col24:   7b798a897b87997947ad77a8bb987bba9bb877a9a87897b484da69a59bba8d8998bccb6cbaa77abc
col25:   85647555554b888b7bb7596c8e9ade69d7aea7c98f8cb9d9678ac7467f7b897ac6a98caa9ca98786
col26:   656a57467b7766aa789c9aab9b669a9a8ac3cd9b7c898abd8855a86a7ab79badeabdaaabab79a6d7
col27:   9b667978b3698758799b8cb8d3abaa979bab8aa89aaaaedbbcabbaead9baba9ac9bab6d869ca99dd
col28:   76b8b9b89848766d9b79688eaacac9d779b7baaa9aac9b9fa579e7cac98a789be9bb9b97ac48d9b8
col29:   b8d66a97a4a8a4b98999a899ba9bac8c7d9b99b5dc8c5cad79bd87a7da5baaac6ea888dbdbb78bab
col30:   775b76666c798668b8b99979898ba99dcad8d9c7cdc9c96c9d98ba8ab79ebacdbde7ac978999d4b7
col31:   77777947b65878a9ac8aaaac88a8aa8eaea86a9a9c4d8968b6bbd88ab999ac79c97d787a988dca9b
col32:   7994b6846b884a56a8989aaace9bcb9ce89cb89b7badab56cbd78cbcc949c88994be5958aca6a87e
col33:   76b75b74aa8b5a78cc59a9daa9c8a9a48c8cbaadc5ac8abcaa7e96adace7747ac788cca9aad9b8da
col34:   55655a8d7699a9959a69cb9bcc6ba999aab8a6c388cbb6beb8caa8bcab966d4a96aa79a9c6a89bd8
col35:   69b856b4846b58876886899a7c89b8c8999b97ec68d9bbb779a7b8a98d9b69a89b8a989b8d88bb88
col36:   79a8a6b9d98b49999aacb67c8abbb998ca9c8cbfac89caab9e7aa89bb9e87ca89cb9aca9b7b6a99c
col37:   6a852a8576a9c997bb97d979998c897aabc86dcc8bd9c99a9b9bcbb8bb979c9ae8bcaa9a988adaba
col38:   69579bc75a9a77c9ba86a79c876899a899addbd87489dcb98c5bb7e48bb8a97aa6b9bc9a899a7a7c
col39:   697895a59b9a85aaaca78769ab98a9b59aaacb8b999999a9bbcaca789d7dc8cc99c7bbba78c7cebd
col40:   ba69a7aa57bd9b698b786c9889784b6a9d8ac89a9979cda9abc8cabacaa7d98c7a87adb9a7ac5ab5
col41:   76caa978a89ab8aaaa949bca9cdfeb9cbc7ab9ac8bbf6be877c97eacbb7db77c96cb899cb895d7aa
col42:   89966488baa695ab9b3aa8998a8ba9a88a9bab9e8acaa78dabeb8cbeb9eadbce68f8cbca9b9578cc
col43:   9779a7c686b8a8a5539d9896aa8a7b7baaa6eabaaaca9277adcbb96697a7a9fbaa7d9c88b85998a9
col44:   a648c69699a8577988b687d9b9b95a67ac9c79aa2ba97999a779ce9d9b9c8bb9caa87acaeaa6b889
col45:   9b8e89798a9588689a4b8a7c895d789c9a888ebc8d9aac899ac699b9d989aaacd8a99a9e98b98dd8
col46:   7bbab66853889a76698b9a9c6ae9ccbc7cabae9ddeaeba9baeadd9b9edbb9ab6d6bab7d8fdcc7b8a
col47:   89889678798398789887bab66579bbabf5a9a78cad9dbcc9ffdbbbdccddbf88b9bdbaddca9cecedb
col48:   a85559db998a8a8b698ca7cd98cbd9c989cd998a7bbdab9dcbc9f99dd9bbdde9daabbd9bcb77deeb
col49:   686a998b659778966d57b6779599bababb99baebaac68fbcdb6fd5cba7c9aa889cd9d9ac868c99fe
col50:   75956b7a9476587a6889a8688e8b7a5bb9bac6aad7bbc8bbbd798a8c9a9adcc987aad6bca995a788
col51:   789824ba968456897798abac6d887a89ba989ada6d889d7cbbccbada978ec76fcaa978c7aac89bb9
