ROC:	 BPix_BpI_SEC2_LYR4_LDR8F_MOD2_ROC0
col00:   f615245864a7749754878797a9984b83795b7768887999a64caaaa5899e6aa6a89779967599986a6
col01:   43575778569659a5c768b7787a87bb98a9667ac79799b7a698d88ca8a976ad6b788a89a9ad7c9cb9
col02:   45458b14616598749a9886779777758c7ca5b69449885a58966ea59aa8aa69a499d78879c9bbb9aa
col03:   455555756651498876974ab8ab69b8a6969888aa89c8a8ca84cca676c79586aaa8d7aa9aa7949e89
col04:   2545967516467698986cb986b9a79985d58c7ab7883a97669ad5a87ad93a8bda4aba9ab7bb39b799
col05:   69455176a653655b6789969a858a7589aa866ab5758888787988bb8789989ba39fc9a9767aa6888b
col06:   8465a57185935379997885967779ba99775a84b68c96b758898aca9a698b8799b96a8b868ba58a79
col07:   5496946477559488aa598a87aa99a888696b97777b8849b89dd99b877798bb7ac579a9a9a8c87ab8
col08:   975675655942832585666468c796966889987786497888c9779988768b6579a678aaa8b798a89976
col09:   67967459677969557887699868a785757886898a8b77d689a89b9b478989b55bb8a78869a9887d98
col10:   315894567845966969899a479a975ac6888a89a5a78995887aa6b8977ba787a647c78999867aa6c8
col11:   643a7742376548987b97a783aa75a9cab96497ab88b9697b8bb86b6cd69186996886cca5886898a8
col12:   5473973768657a49646ba79877bc68a8598977a8757b5989c64b9a98bb6c8b876a876bc97897cb76
col13:   976855867686669776377878687947a976baa6ab966876aa95ba799a95c876a8bb9aac776d6afd78
col14:   66653656a44846789844a689497967a88b87498ab988b76778a97a7a96a678aba788aa96aa799888
col15:   2474a795367276675758977898886a8577786868976a6a78a79ab5a788b897a898a9745abaa99876
col16:   24569575414794997418768558879a9a68694895978468a7889789679857d69988878b35b48cb8ab
col17:   33252777156587655364755466a99755786674a9a4b986a96b9997a695788683ab895967775a9a7a
col18:   4664869556a65445a1656623636a85667948b588b78cb476669b764377a8777888b97a7b889a9789
col19:   472233467256687984398a45498957998a8685c999a88278378a7997869aa967aaa688c7996cc7c8
col20:   6475767557756645265783657769678c6a99688c6a387799b5b6aab7aa74796aa67b65877939758b
col21:   436513676763436587765746966679578587c8659cb77b44468a76abb7aa79b7b69578b9a8358a8a
col22:   843263945634668847b981598697879765a88688799566389a557798859998b687a79a75c997c489
col23:   763642144856322467769454861376787668874674b78587786377aa758765d97d95b96a878a87b7
col24:   6356844673846766979452a7567875654865856876999666a56733977a85b8e48d8a74b897a598a9
col25:   1234798355646674287548566c8593aa86a7a69a6669baa8996ab88979988a8766997da68ba98977
col26:   75978862865849685779766889b966a76479bc989999a8689dbaa8a697979b7a9aaa99988c8a889a
col27:   344357536757558a7877876b85aa95c9b6a778d679cb6a8a8679986a9bab88aa9c698c8d47998c86
col28:   957359575596679444577a78588ad59b8ba7b7978a8998a8e79a9994a78ba6b7a897a999b7abcc9a
col29:   44645545659659999676287935bb785aa5b8dcc7889c837c6b8a78886ab74cb89a9b778e997aa9a8
col30:   3527546555466166766b6a878778659667b3796bb98a9bca7ba8a976ac87968889dab5cc5acaaa8a
col31:   92468686689875775b97bc876779b4a8aa9a88eaa7a889b9cb6bb76ae7a899c968c9886cbbca8d5f
col32:   b5565a86556a57976ca7c9bc9a6a9aa79896c877a85c7bcab98a986999a6baca98949ac4a9986c9b
col33:   8488628638a595577666599b7a6b797898a67c8b8a88897aa8c87a96a6abccb8bc8b9b9c3baaaa9b
col34:   516357a3766634946487a486b88898a7b8c697ba7b96da8a9bbbc96c979bbc49a9bbbaba87c5a8ab
col35:   29763527667a48548579b649766996aa76a95796a597b999ab99a68b89cbda69c8aa96ab7dbbcaaa
col36:   86674458b784287876a8975996a666977a87687d888a99b95a8857abbd9a87cc88a7a9a8999896eb
col37:   b856675577663787679769a898aac9a7b77c99a79a9ab898ba76b8698b98abdc998aabb5a68ae9ea
col38:   673a26666975774765a83a685ba97897a6a7aa7b89c8aca9bc89ad897b9b88b8cacbb98b5abb8aba
col39:   2355559399719a667549b96885977b7999c7868a98b9a98a9a8a896a98989c68aa77acbc6aeaab77
col40:   4555a24789796879754689a899796989ac96748b8a98cac98998a9bbb9a986cabccbcb79bb9ccac6
col41:   99868766278473a4767986b98886888888a998987b99ca5b88aa976abc878bcb99aa9ad999abd8c9
col42:   8877754562486784769bbb97a888a9ba867785998bdaa6878978a886c6b9abacbaba9ebae96999c9
col43:   7538a457579a7696a59888656ca7677c79baaab8bdab897ac699c5888d9bbdeac9ac78a9b8dcbb89
col44:   25a681769959866695995b88776959b7c9bb3698aca9a6bba69ad797acb9aca989daa5ae87de9aab
col45:   544334967595136ca67979562aac866a8a8b687699c98aca8d876496699aab97b9aaca7a8baaacb7
col46:   65743763856476998376684697488b54a888ab788697a98799a7a5996a88c6abaa868dad3bc6bdc8
col47:   6765465156b95a5979999873869a66bc6e88b987789b776a9799a7db789a95aeab6c86b867bc87bc
col48:   35332697556536a55a969169a5a8a9a5c7a87679898aa97b987758a6758cacd899d7969a9e9d966a
col49:   2757768a65856a566baa8777a36889889a698589994b85b98b89bb9cae74aa8a8f4bab698c498a97
col50:   85576147539876a4785687947a9896bb8a98a88899bb787ba9869bc7aaacbdc8a69e7c8aa7b9b89b
col51:   24114456747558763668651559a34678765968a864868a777a85c7b55a6989a94496998a6bbbba96
ROC:	 BPix_BpI_SEC2_LYR4_LDR8F_MOD2_ROC1
col00:   21443663735152666957a8767b8566a3537866ab6748936b9856678877aa7b6887987865a7688979
col01:   458783949888472986577a4855a79846a3a69b78589a5c85a7879a5a8a6ab9b788986ab9867996a7
col02:   266478746876d776679864994c94a96a7a689aa595a5a99a7a76ab8977bb9b4566793b8b747ca689
col03:   543997744a63546757778167a4b9a55669884b639684c36693789ae86687a69459ab6778a8878a85
col04:   64736785546a9777857a9696a7645c967b9997a5a497849b89497a6cc8abcd98a8659ad99a89abdb
col05:   746873669563465537a76898888887766ca8bb7b8687d887ba3ab868a998a8998377548d8c978966
col06:   6355584865847384578b7795694698877889869959876b76bba7788b877ae77788a7aa6d99b89675
col07:   6876568555658b9435968c5767a8c789a6a89c9687b96a85378a499a9599b7bc84a54a97388b8b46
col08:   455964944568697568669b8b888b5a9697976599aa8789aabc8685c5799b9a8889b8866599955a98
col09:   7599797b776665557876994878a8269b54555a99517bbc8786cbb7b69999b9ba7678a98ab9896a88
col10:   637278557559697786a8465876996749a777a6851a89aa6a8797a7a7b48aaa9aa89a8b77a9889b75
col11:   423273937667557759797a65686aa599699996885b476a59a9be78779aaba887a99c86a868a968c3
col12:   73696942496635b36968598997b788caa8aaba897987b886798ab9aa97a8aa587898bab898a99b95
col13:   247452a834967378377789a9795a88a8a59d969797aab8ba8a68c97cb56878e986c888b8a7555e77
col14:   643447876967665777a9ad45979886b7a8b986879c9bbc979758bbca9987988e87999998a895abb8
col15:   534874b58778b34776795a5679875a57866689976a8a8bccd989bc5956aa8b8a8b6ad7a59b8b8887
col16:   554673375653b776683897896dc69578c9a87a8889bacb879b89a6abac99c9a8864a8ab78a89d79b
col17:   674554a1788895579399a6a468a3a69b9abba9dd86949aaa8b98a77b75cb789ec879bbb788a8d9b6
col18:   98626675749978532379b69cc7a895799b8767c7aaa8ba4aaab778976d9c9cb6aa689ab8ba8b83bb
col19:   774498686399758a64866767a9a96886a89897c4897bac95b6788bbba9868daa8b9bcb6bbc89a888
col20:   51558396788977753a47a7859aa47699769b66c95bc95d7d9b99d9c59bbb99799b99c9e9d86cbc7a
col21:   566753b457786a65a7868aa88ab59666bca968ab865aaadba987c98aa88caa9c7a79bc86ac5aa69a
col22:   86949988853776795899668987597a7ae97ac67abb9c798b9b96797a7b579679b9aba988b9898887
col23:   85674746685b9a465a446869875a8788c788b66359897a88b7a899b977a6a9888bdab89998b687b7
col24:   7559797787378594caaa845799b78b59b8b8aa79799a7ac8778679cba897aa69a99ab589b58a6bbd
col25:   5578a5478b65767975c698588add8a78abaa9b9a89998aa5c8869caaa8a8c8b9889899b9b59ca8a8
col26:   77977a666785b758a6a6767b97aaa8bcb95aa8dabdcba8cddbabcb8caabb8acce989bd8bba98a99b
col27:   485569977799873876898779b86bc8c88ab4a79996dbeba89ba9dcba896bc656afa8d99bc9badaaa
col28:   8666a65777a598a9c89b7b6cd9acda9ba989b8c5bb7ccabcb8cd88bbb9e98abbb98dbdcc9ab8afb9
col29:   a9a5b5855bbbaab6a9aaa6699bcb78c7ca9c7d8cbaaae7aab88a87b999aa79bbc99c97aa7ad9abdb
col30:   9888a7b97a87bc99b9a79b9a8ca5dbda9c9abbdaccb9dc8999489c9c8cde9acbabcc9dcb8a78f99b
col31:   625aab969999aaba8a8bb79c86997b9c698c8bb99bea9baaaadbbddcaba9aacade9d97bfaebcb9ca
col32:   599a968c7ba88dba8969b788ac99cc9cbdccc76ab8898cbbba9bbbbdccbdcababbccca98dabcbdcb
col33:   787ba47379689da7daba9dd7aab9cbec9aacba9dbcae9acb9abbab9addcccbec9c8c78bdda9ad9f8
col34:   a6a4b75a8de7bbbc79dbad78cc9b95bdb8bbf9ca7d8cebeabcfbaaebdecbecbc9adabbfba9cbb799
col35:   a8467657b6e7a9868a79abbb99eabb897bcabaebe9ac8cc79acccddbcaa988cd97b97a7bcbbc89ad
col36:   a897aa8aca668aacb7ad4ccb789d9c99ceb999cc8bebabda9caccbb8aadf8ddeaa9c8dd9cba8abcd
col37:   e9987897daaa8ac9f9c998aacc99999ca99bad88ca9aadcceddcbca9abddbbaa7fcee8cdabea77ca
col38:   9898cc87799a96778dd8b8ac9bcbbac8dd7a7fadedadeba9baababdbffdb9ab5e9cca9ababbbe89c
col39:   987ba6da959837b74b6b8cc7aa999dbaaa6bb9a9bda9bbb9bdbbfb9abdaddc9adda9aeabaeccb8e8
col40:   5ab9887b96a889b9a9cbacacadb8a88ebbcbddfb8bbacadbb9ffaaa9dbbb9e89cebccee9cdfbcad8
col41:   a97b9b98ba779cac5bcdfc7add9cebacc9dc9adbbcaa99d5cddcebedccdbdcbba8bbbacebdcacbba
col42:   5998b9b8a79a8cb7aba9cbcc8accb8cab9d8bddddbabfdaaacbceaab9cbadd8cbecca9dcbdbaaaad
col43:   9ab7a76ab88b87bc9a99b9bbbbaad7aecbc5d7ccebcdca9cbfbdada8dfcbdceabafddaecdadaabcb
col44:   8a89868a8e8cbbbdccfba9deb8c9adda8ae8a9bdcbd9dacacbeedafbbacabcbccaca7dd99ababdd9
col45:   9a3ba98a9c9b7b8bb9c89b9bcda9bdcaa9bccc69abdce7b9efc8c8dbb6aaccedcabddcacaecca9cd
col46:   987ad9ca9cc99ab4e99ebaa7eeacd6daabbcadb9ede9efbbbdeaeaaabcccdcfbeaadab9ecfbeeeca
col47:   868ddb9decaaa5798eb8c69babedaceb9a5c9dabebdbebb9afbdaadcaadcbe9dbad8ecafaddcba9c
col48:   898c886c9b68a988acd9cd9acb9b9dafdad7cb8dbcaadcbdbcfd8caed8cbe8bbef9bbfcbe8dfdfe8
col49:   8a6aacb8a988d9a99b8c87abbaa89b9abcab9a9c99bfb89bcbc9bbeadfaddabcdd5fdfbbbdee9cdc
col50:   8a98a9769aa99ddc87e9c99abad98adcccfac9dc9d5bbf7dcabbddabcebdd98ccbdebdccca86dfbb
col51:   a85987a8769c79cb9c79a9b78fb8aebedaa9b8aabfcd77dbad5aec8898acba7aaacac9eaa6ddc9a8
ROC:	 BPix_BpI_SEC2_LYR4_LDR8F_MOD2_ROC2
col00:   2111111113111211151261153211114132144417125131111121135313111111111121112111121f
col01:   11174111531114111251151426143117111314451364944141583243122111161131411222151111
col02:   16211221121112141111181822614114441162611153421111541125864145112131111112152115
col03:   311133122427521521715175333125162166261511124714512115519511215131111213111116a1
col04:   11171712171111613824721261214133271235151c31559113514311311131114724331441151151
col05:   31312113138174671162115421373653111562482172444181411551111112241711112111111211
col06:   12151111114351411113351551154111119133543315111211126151141161131112411111451151
col07:   41111115821421432114166143114212311241121318341614414131362333164111161511531111
col08:   1811121111251231a212311113111351521433113134211126141512144121514163131152111131
col09:   12111221114341476124531627154269755253138114545881a11126131321322115114214461111
col10:   31113511216462173113541141341531446217331111654411872764845214433631311111141214
col11:   122114131949131431212116131543251112311614614323123151a1321213115131134121641111
col12:   41112161111111148551111461161367353721411324952317637211261211181115321411151143
col13:   13143111131512322211121142565244111231521a52235116652511515126111112111511711131
col14:   12211242125131313163112121311456311141571613814361251335512111111135111111111311
col15:   11123131562171114111161512132415666451247218548974411621545211213311134111223311
col16:   11412111116311113112583521127133124917441172736141411133581341111141215311151131
col17:   11416111213115413341223165112131147112161141441134163532141411413311311411131111
col18:   11446113111121212412311911835311241221994118241192173244311211161111171124211111
col19:   51131161123321123111421111334932134141431511357652b35226111435215111124132122122
col20:   14231111511113a41111233154334321743113511636162431643116122111371117133412121111
col21:   443111162211111151655512337616182737141b1111652461113341817675341422218151111251
col22:   31251113112121424111333521351465443425112212121113132152115314131111113123111153
col23:   39111511112212171142213117854311325415241611321311441145911144431151511111632311
col24:   11111111111114361136165412212a33111a174353127443111114127444331a1131411111111121
col25:   251222221515111811212254852133155b3316272463641177552363332231251556211334111412
col26:   3321113154546142516347191537777452464155193746262199981a111485215441352141711444
col27:   11124441112187a43213319635774156586887912945353731521266271393491626511163111512
col28:   3555114115633b1211724131131326387574b556348147718646a518512261431345252116325331
col29:   231413733514341313525145654b5512243711641165743432139451252651122824115911341111
col30:   11711414154643734657814219842675886783778443856316172764133161654841561212314514
col31:   13311535244156643426336375a45714553321851691521571342151827333289313133633172323
col32:   141516541141455364334246985225589565a1385163384758668341265759234411918874a15611
col33:   34463133363324543534518426847277631764524325584414343745344817444142484112151113
col34:   4136365736172642615892684235715c388884951565461571937265415946a2a514713272156411
col35:   3524436217493668576528457962168788166757448443353a241299f87932213327321115a13147
col36:   11586561535586356411514826518711271164451b34a311998698633713b2422761418521354341
col37:   3412851413376385166312a8954322452454778a54256a29189868a5a14834513bb4542136311157
col38:   522415424381313451455c543a8b745693559896134354987934525b355392321c61641384132361
col39:   41132112142347496625a467631166255577641b6a26957689297335b96832711545743157213241
col40:   542725124611a93413271574a9345341266764847235193832758315a46216763313183114351624
col41:   2161134633271415815447741786295567653354564528c7591677393a8654494579b67156414114
col42:   2159581117388a5616647641376931885727511111131511643954a753365415635171156a217224
col43:   a357522341716153545246651a661766936551111111113b8881889a335167953726516345128635
col44:   7552325313732257347aa9ca645992415623111fff551111353186a2499b31241213318548131a11
col45:   85578b413671561794741318aa716622817511157ff7b11193584648365986338331371121546215
col46:   665517164156412a6254674248546452513211fffff7511154512893951652132211225278131251
col47:   38121a782348182548346154a749388b1a222179bf5771115666267564354341574233b422582452
col48:   72326315565c5524666621796174153426661112111111157585243635735775651321111a311113
col49:   6157149363311264674479251528661a959211111711211131476496449232449561677433144311
col50:   1725564147116421666877b78424974c214b7237263279a768846898552411427183433162233414
col51:   11114118114473417116266533131563556716612433215811117582551555768251232131232131
ROC:	 BPix_BpI_SEC2_LYR4_LDR8F_MOD2_ROC3
col00:   734a559667665b574c647968c4737e7ba9db8b79749777a9aaccd7897aacb978a66de8badadb85e9
col01:   6579593856d9da49788889986ab8b9dbb98d99abcc9af6daabc9b58bebbdbbaaeeaa9fdab9ea8bcf
col02:   5376976958c3ca8855c879ba9c67db8ba9b9ac97bacb8d9977b79cecdfcdb9bcfbdcfc8bb899daca
col03:   86566676b898d298837b6caed87c9b9cbbcca8bacadbaac469ae7b67a8aaccdccb9c89aa9fbb7eaa
col04:   695a3789885497a657ac9ac49adf8c85c6a7db78bcc89c89fca95dbcfa99ec89aacc88bbccdfca9a
col05:   9788ab6687856847a976daba989b9a7a79c6dbb989ccad798e967899aae98a9d8cf96cf8cd89adbb
col06:   b56554756a7976a9c7449abadaacacb9aad8d6b5b78b9a7baa6bdffaebcbfca7e9b6e9ddb77d98eb
col07:   5351995a646c78b7887c78b8c7cc78a96a879cd98cfdc9ca6d8adda9e8dbd8ae77cab9daa7b5ddc8
col08:   847967b4785a7785498898db4898768c9aadddd7cbcbdec95aac97e7b7fc68c6667d697aa9ccaeca
col09:   787395c6b967c643a7b98a79879abcacbbb67c886bbb9dccbca79bab87afa89ddcbcbdcc8bb7feec
col10:   164667c89744696975a6ba8aa989799a9a6a7c99abcdbedd4b8ae6bddcdaabfb8c9ebd6b6d9bb869
col11:   8a969656858788893e679aba89b69b85cb3cb76b7999c8bb8b9c9967bbde5aba9986a98cbaacdaca
col12:   445356756465c78a3a76a2d87a68a8cda7a846b96baadacaaa9fb788b6c98ba7bfc7adbd89aab8ab
col13:   ba6463967a6b95558597a7b78ba68b7d989989acccb999aabbabbbd9aceecaccb97aabcbc8ef9cdb
col14:   7647164678898686b89b6b6799c798d5868ba78d94ccba9bcbbac976bbc3ca8df49aae58c67cac99
col15:   5159849769978acc925492ab73b8a966a9b6ebacadd789ababd9a759a9a8b98b97b5c99b8be9ca99
col16:   9775858434a69655887b97a75797a987b778a9a9f5b7bebebbbb9a96d8a9cbd9d998adbbcadbaad8
col17:   797367a9776763595398a66997e4a5b6b9844a66976aa79c9d55e87c868da966cb97eddacfca9d8b
col18:   47a8975467a796449987968677798c96bda8aab69a998bcaa7b89bb7b7baaca9bba688c8699cea98
col19:   6384496897937a8a6785579a5997897cb98868aa986b8988aaaca79f986ebcad595a8987cc79dc9c
col20:   738576762858386555718a757989367a86adac79b6ba7796596b2aafdb9c71b8868b55c7da7b9999
col21:   252656697853a797888aa58897a4967aa7a8cc9baba98889a68caa5b75dc8ab477c888add9aa8cab
col22:   66537625a96437688746b48c57678976aa88bb799ab6ab98bb69dba68be9bb8c8bbc988b7ad9abd9
col23:   1668a51227764567969489c695e7747963ea779bba876c9d8b3677a6b8898834999ad87b598d5ba7
col24:   584167247493628847158779aba884c77767b9dc6b5bbda8a4aeaa67b794aa56acc8c8a8b89ce8aa
col25:   8343757b3898548513a659aaa89aa66579abf55a8bb79765ccbd9ac86bb999c796ad6f8ab9b7d7b7
col26:   662464865848978768977b974dd777bc8cae79c5caadcaa99ab6a99aa9ddb85aadcabbbf877bab8b
col27:   269534758567977857877b698b87b7c7aca78bb799a86caa7b9a9acb9f6aacca6a596cc9847cb897
col28:   75987ba667a98957a9f6a7dc59dad7b8bee77d898db59b9c988baabc9edbe7a997c8cb9d7bb9bcab
col29:   6241a36548789ba5558282aa846796ba9a9888e9a89ab7ba8aca98d7b95dbc9ae6bc9ade6cbcd9cb
col30:   67a573b4b7449b56444d786c98885689aa9aca98a4d999bc87bcf98baadaacc8bc67ba98b9d76a88
col31:   6255a8385768668ac556775b9698ad8b8d79a9a9ca99b6a8d9ccece977778a888a79adf795d8a9b9
col32:   b558996a5a68498557a6aab9f6c989d98aab6d788aaa6bbb96cbde5a6ba8baa78ccbedcbeeccecc8
col33:   188786787d96c5ab83aab879a9a6a9969bc89ca6b8599b67bce7ce7798d9f8bb9958cbcac9898db7
col34:   83387486a75a8979b8f77c7a8ba8e9bc5bbabb8e899789b9b77aeb98edb79ba7c8faccccdeecbbca
col35:   41b33877b3867666cd6d45a89b59e8899d89aabb96bae8aabb7eaba9dcbb88abfcafbb875ab5badc
col36:   746574253c5967876a549a23799b97b577abc896c78ad79bd9c88afc8b69b9aaa7baabb9b8eaacbb
col37:   776289626578b9bca88589986b8c8b5c78cad697cb9aa6a79bca8bb899dbb9b6bd9a798bdb886cb6
col38:   7836a2599343a9a744e5899b84aaba877369aaaca95abdeca9ddc6a77c6faffc9bad9ba7a839f9a9
col39:   8a47998865a88b3797767ad984ca988959caea89aa898979c8b7baa7b7ba6eb4784b66c7a8da788a
col40:   a368477366787788a9699797bc8a5cbbc9ab6aa7cdabd9c5c8a9ca8ca679c8dcabb7cfa8ea9ab7bb
col41:   6755869642929575498c884f69578ddb9696a5cb3cbb948b995cbbb6789abab78f94c5abb85c69e9
col42:   934566a683898a978baab768819ad9c8a75b9b789dac7b9cda9995cafa9d99abe5baa7bdb9cbac98
col43:   88515c5577858ca965669566d7aab7c587abda8aa5c8c3bfabcc89c7a989a8c998a8d358ad866884
col44:   32968754a8936467bb67b88da9a9f9c4775b97c88e98bb9a7b8ed894fa7c987cdbcadb9e7a79f8c9
col45:   849874514865b8639673599a354a48599ce88898b8ae747aaabe69999995fa68a7aa7598877aaa6a
col46:   5128c66785519c564469ab397c5787a9b7ab8299aa865cca999d867ab88c4cbb769acbb7bac7749a
col47:   9b824a567836547536b785b658adb79a5b439aa35798a98956a7d38e289b67aac8c6d676daa87ba7
col48:   5b71629b8756674547549698595b79aa2e8cc68ac9898bc9c9667cca69d57a9d7d99999b4aa99cc6
col49:   38945955997657495267885ca4479439996d9bd76857bc95a6ccd848b6b988897876978aaf89aa77
col50:   577a155256d387694998b8766a83b7b9cc6a9576b8895caa97abbb7ae57a7ab98985a7a79a5bc6ab
col51:   539542457611758634153397b792423394647a735445867431749584674565953456717525ce8672
ROC:	 BPix_BpI_SEC2_LYR4_LDR8F_MOD2_ROC4
col00:   847557366b4736b7717c4684864bc98b79a9a8a99988fb665d98cb85a9697b8bbac9c7a7b6a979e9
col01:   9488975eb7518ac2579b4ba99a6b7777759877bec77d7a9a98b49759769aca7c8a8acbbecabb75ab
col02:   5747851b686975687a5667aa97a89b8c7a7b9bbb99aee7bb99c6a5a9d7ee98caaa75bdac58d9a9a9
col03:   a969b65babb2cb4bd7cbb9bd5698c8ccb87acbb4748ab99d869b88abd8dbc6a7edbacbcbd7ebaaa7
col04:   88c5958a8a4a95c595a449a7cfaab9a8999899eabb7ad5ad5b88d78e4dda6c79bca54cca8a99a9ac
col05:   4b86a85879487997a69844b75486c6da67a68a8bac88a9eb6ab9db9bb9aaba98a8fada6998ed69a6
col06:   6b99977894688add99abacb69ba889ca6ad89c87e68656998a469cad6bb87eabc8e8a7c8aabb65b8
col07:   55917867a78cc688b37ac6689a79b6d687b5b7a39578999aa7b7a6e7bbce49b896cb8ccb98b4c97c
col08:   847c887639987a89869988aab5c869788ba79adaaa9a5b55faa7b7db8aa9ddaa73cba6b86b96985c
col09:   65d967d996e77b77698d79a69898a9a5bc99ed8c788868ba9d8c9a49adcb897adda97ba9ea98c977
col10:   8455a6a8796a4a2b7bb99b517a7ca5cb996beb896aa986a6c5ab8b668acadb9babc6dd9b6d8c76c7
col11:   9584b484b79a55689797aa7b7c8a699a4b76a66a8b4a4977b919a675e9b7ac8ba6646c99aa8c87aa
col12:   649893579692747cb4aa848968c77a8db529b3959b49a8a7ab97cb8a6887e68f5da88976c8d7b8ca
col13:   79787a5ac5a396473b93c97b6e7989977c8cb9fbcdaefb9d8beceda58c986767ca79aa8fc99b5d97
col14:   666778c798a389782784a78256bccba76a6dca8697a7bae957b7b89d6adccb99b9bcabbc7bd76798
col15:   5b4997a955a448a9889bea97dba8a8cdba99cdb9dcbc86a69bbccba4b9bc98fb69bca76c8db8bcdd
col16:   75b6556783b659dba76ca587a5a98abb5db994a9b97775d998bb77b9bc6bd98bbb7899a6c4856a97
col17:   156976b3a79c843a8789aa96957b8b4b99bca8aca6597a958a9b89a48ccaacb98a89985ca7ca94b4
col18:   749445c9a4866b9a7884956a8e159595aa679ac67b8c4569c9ca8a8879a7f9c477698893c7c79976
col19:   a8628aa949ab615bcaaacc97bb9cb7abbae6889b58fba7cab98e9baa73c8cac9aad97a77b7b88848
col20:   785a6a7bab677acda37cba6568b8796a788ac9e98de76698dc995aa6aca9a98995c8897549b7ca99
col21:   48b726cd7896a89866786a93c78aa7babd76bbd578dbaa7fbbccc77899a7ce5b9a449cb79db5cba6
col22:   6359a41c389988a455b689ab19859a8a99c7ca88ad8bbc7add4a3876ad99c7687788b8a87b6ae9c9
col23:   965587978bd5554456ba6a5cbc9a9a8884c8b8aab98ca893699868985876689d7b538cbdbccd89a6
col24:   3c456968b8399786b969478c86b67d85b96a98759aaacbbacb89c9535aa5bda87c67c749a3b9b54a
col25:   975988c77985a8967cb795a567db9abb99749bbccd77697b5bd4ad79d8a8eb867a86c7ac8a99fa78
col26:   9886b8968a77c846e894aaacab7acbbaddaca9efdcc789fc83dd996cc7caba87a4c9bc3b5ecdad7d
col27:   79bab5a8a7caba69a88d86a99bb76dd99dc9bba9cdbdfcfdab9b88aa96b8a986adeaf9c85ec7b8c7
col28:   997747b77d8a7c9d8f9c9ec9ca9ba9aa6bba9db98cc799aaaccc98bd8dc87a8a8c7baa98f9b888e5
col29:   7bcab9a8c4daa8bac687d4dcbf7aa9aa8b978d8e8954ccc8bcb89c7cc3f4bbae7a9899becd7c9aac
col30:   93ab8b77ca6b6c8cd6c98ab989ccb7a77b79dc99cbdb9c7d8d9dfacaf8ecacbcb68bc6eec98ac999
col31:   4766c79a8bc99aa67baba9eac9adccabdabcfb9b9bcb68aec9addcbeb9ddff78a8eb8acefba9bcbb
col32:   8767b97aaa67c68af59dad9a9a9abceb7f8bfb77bbdbd8cb9dd7dcbacaddb6df9afad9dc8d8afad8
col33:   75cc9bc9bab8b7b8baab987da9afba9acbc78aacabcc77b9dfccdcebcb9fb7f8d9cbcc978bf8c7a7
col34:   88bb7a587d99cac8ca9fee8a78cff4bccbd79abeaad7cca8baadebfcd7cdda9b79fbbbcab999ff9f
col35:   7683a8ba99bdc9da9eeb88cbb8dad6bec9fcccbbae8cfd8b6cdabcbdabacb999fbdbe9f77aa98d98
col36:   8b96678b5b98a5bb946e8dcccafcdac8b9b6bcfbac7bacacc9bb7dba8debc797bb7cdc9bcc7e8c8b
col37:   858d7afbc2ab99b679bfbb99e9ccfaca8acabdabfbcbfa9b8cbcb69a7d8fc9bb8edeabebea9dbaba
col38:   de8dfa89abbe99db8b9dab8dcebc9dcb9ecbe9dbde8bcffa9bcddccfababeabaecdc9fa95dccf5eb
col39:   96b9a8abc4bc9acaa99abcdc6be7baad79beabba9cbec9c9dadcaab8bdcddda7efabbfccd8bacc45
col40:   9abcbc976bb8db8bb8abeebce9aaead9eaeb7bebf69cecfbebc77ba69ccbd8dcbbdafb9ceba7fcf7
col41:   8ed88bcb98abb7ac7dcadddb7e9a8debb8d79fcbf78dec488f5ddbdddbb7abc9c9969c9c55e8bee8
col42:   c97579998879bcebfcddc999bcfffacedcddcbcdfca8ab99dacdbcfaecbdd8cdf788cacaddbdad8a
col43:   57888b8d7fa9ccaabab9caba9a96abb95fa4bfaec7acfdbcacbcbeaaf8ca9bbabdbc8cb8cdb8b99a
col44:   78ba9cab986bd9b79aa9aabc9ab9cad8bccacba588aafcb5df99c8dbd9eecab6eacaedfee9edbbcb
col45:   ec97968aa88898979a9cfea97bcedadbfadbe9eacdfbedddf8b9f7adbfcccacbccfbafbb6ba7dba9
col46:   a97bb979c8bcbfc78acdadd8baccc9ee797afbbecac8aba7c8b6e7cedcbdc8dc799dcc7899c9deb9
col47:   a9bcba9c5dcaab7caa999daf8beae9b9a9d9d8dccbfdae7db9b4abacaccdb787df9bcbb9c8e8d9a9
col48:   a8a5c9b8bbe7bfda9cc9979db8abdbdbdbc79cea7ed9b9dec9dcabdbd9edadc9cacb89a9ca67cbbc
col49:   93ca796f5a8a9c88d37cab5cfdafc8bec9b59ae9d9bbad9a9c9c9ddb7b98b68ddbbab97e9dd8e877
col50:   c997aa98bef7cbdbbb9bba7ddfbfbffdfcdba6ac8bc8edaeec9b6c9cccdceefdeadaeacdbabf89d8
col51:   15a6a68888a5e6489888e8996a6bb6879896aa7f9dab7669b8b97bf9baa97c679b5996bbba9a8996
ROC:	 BPix_BpI_SEC2_LYR4_LDR8F_MOD2_ROC5
col00:   9746788a676488a476765a79875b7765383765376aa74664ac1565931a86416683558a3127735a25
col01:   99388a566b775a79996b76a8a77bb646c4765797b8ba765a5aa67a5aac7658589539ba599aa65695
col02:   b7689686a96a5764db9694c373a8a4b9a95d8f797b89a39998585785264481748a78486a78687884
col03:   568378b7496675875a97b7a766a9c6848a787d9967ddca6823b6649669ac79579657355657788955
col04:   976542596399569879395a967a9796c7a8b7cc674c27983ab5879a6b49a9c376797599d6874777d4
col05:   87a88967c59679b5c57856c97bb7a6f7a4b8a864797883bae99878a594b7787518b6ba6688636582
col06:   345a7877587ad98585aa99562b87da697979759765bb5959479674b7d459c697848876683bb68a69
col07:   4496a8698a8bbb78848a9abe5785b9978cc9a99da483cb4988759996899679b67797989998867964
col08:   a877889777a77768818464a86d89a569b3b58946874984a56693676985587b8bd5b4618797699a3a
col09:   5777a69b97a9967a94787694a9a79995baba67a7cc786564ac5a577b85976b768bb3498784b469a1
col10:   75aa597bb8b97a9a9746b7a97b8c87c6a989898868b3acb958469757686566462aaec988a77b68a6
col11:   747777b896b6798c88b6756bc8baa98a88a5aa936a683a638b546ba9b85587a786a5a9caaa7789a7
col12:   a8855958795a89b2666a37e7598b96589f9e7aa89a3886b931ac99b777e549868c959637569b7658
col13:   2bb6859ba9b786cac8789ad97594f74ac899876aa7a8a9ade7a996da985ea8a87a9897868867898a
col14:   a6b87a978989a951886ac9d9b377b7c8779863769ac9a9967c7897b775a878859bb95a858753bb88
col15:   765aa2a473ba6958ad8c9b9876a6a6b9d9c689b98687488b89b71a769768783975b8677336495756
col16:   9a68996a8536988fc77a89b9748a8a76b4a696c68da9996c96678b769516647a6748aa8559a75476
col17:   b578796799ba464855975a899267b59c58c84d6944a45b565547878c9967b7a48a84a1a48aa96586
col18:   1b4295b6787a66b3976b64c6765787b8aa447936ba48978799c79867497b737a989b788a66396745
col19:   987477a9bc3a5668bc6da5b58a79b5f58c89aa36c8bcb78959bd7799b895996897ba97699b8c4657
col20:   58655a955678696498aaaa6f48338ac6bb8a98e99a97964a65b9a698da67b178a9964c98b4a96a67
col21:   c8a6b7647867ab8b8994793b7a7a787aba9aa8abc4c869898a73a668793a7b877c9766559da685b7
col22:   34577667588a8979a387b975996ab4677bc9b5abc879668b66799a8987899a8be6a6a764598bb784
col23:   854a5797a87aa25bc76577aa8bb8a8a6685cc7896966a975b6c6898ba6868b9988985466669a1663
col24:   67c88687aab6666568c8a8b575578a87882ac9bb8ab695968ab72ba59ad8b65866886833a899858b
col25:   969c5b9257a98abc7aaadeb78a9b76a86a996a4a8c98c7a69abac7599f86d8c9a6a88ba797da9a89
col26:   9966a98c8a864a6777599baa7ddaaabcba98c9998b8a8589788d9db9d89c9c67a7c7c85999b9b9aa
col27:   54796ab9ae886886ae888a8587acaacac8e98b8a9bda8bf9799e84ba8b68ea9a8a874aa78aa59ad8
col28:   cb78e9ce8ba9aa776cbabb78d9bae6f9c8c7abd7abca8ada79e899e9987c9d9a7db796fc7c8a75ac
col29:   9bb89bab9ab7aababcec7bc8d67bab7d99a9c9c979bbcb9b99ebc8cb8678ddaafe69b7a9b988ca79
col30:   898f4d685c79b9cc998dba8dbc69a5ac8ebbdb89b87b89fd99ab75baa3aa99a6ab99896baab9c89a
col31:   ac97867bbbdbaaaadb9bcccdb8ddbb8a8fdeba9dc5dbcb9daf7a97775efabca84ad8e8ccb7f9ac9a
col32:   c5599c9b7b94dadca9c99dc9d9a8ce7968bdbb8aa88dd7d99bdaddcddbcbdbcbbb8bdaccdcbaa9a8
col33:   dcabcaa9b98bd57d5a68b8cb8ecb9a9abad89ccdbddf4cc9bcb9dca8aa8bb9a7b8789faaabdbabaa
col34:   cbc997dabbbdb9a69c9cbcdce9e9d9f99a6dcbead9ceabc9e9df8bdf89f79acacabaa97c79ace5a7
col35:   febfa788ca6b8ea7bcb9d6bdcc9a9ac899ce9afabc9af9abc7bc8beca8babac9cf9cc7dacd9a7b95
col36:   c6afdc8ce999cb76c9c9c8a68cdbac9d8668fc7cbf987ac8b9ab9c87dba8ed9f9accab577bb8add8
col37:   789aedbcaca9efa6bacdcab9c9cbbbbea78cfe68ada9baaf99e8cefccb9dbafaa96cebbeabddcec7
col38:   d8f993c9cdbbbbb9ca7a699cfe9b9ddecafecadd7ddba8add9ed6cddfccdaff7b66efcaa996cbd87
col39:   d4aab869c6acb9fecacc878ef9cbcccaec9ccb9bbbaa9f89edaddac6bc9abcaecaab7aa9af94dcaa
col40:   96996baabc727dc9decc6c9fcccbcfe8c98a9c99b79ccde8b98bbcfea9e5abc59f9aced7ea99b975
col41:   cdcbfadabcee7ca95dedbbcbeda88dcde9bbaea9bdbac7cc8f99bbaddbdcbab5bebe9ab9cdccedba
col42:   9addaeedbaf8dbbdada9baaadbad98abf97a676cdea9ad7cabf975ddfcada7688fdce79fa7cbd9b9
col43:   dedcbe7faaaceac8dcb9cc8ca96bfdfcaee8dddaabbdfb67eddabdcbcbcdadfecbe8cdc9cc99ada7
col44:   ecc6a9aaad8dd9ec99fc6defa9fdddbfe8ccfde8eca9dffaccbbac8ceaabce9fa7dbecfccedcbbf7
col45:   aadea6bf7abfbc8bb9ffbd9f8fbdb8cb7bee9acb7e99dcbdbcaac9f8adf8c99ccbc9a9da88a996b7
col46:   e98a8a9cabb9f57ebb9caadacbedbca8b8ea8aaccfc8ee9aeccaea8dcc8ab9ad9ca8c9baa9c79d7d
col47:   9fa7cbabc78ebdfffcde9be9adb7d8bdcfdb9cbcfbfbfce7ceb4dbbafabd88aac88ce8be4cbbbbbc
col48:   d7aae9aa6ad9cacabec5b8f97afcfdceb9b8ceaededdea9cbbfc89fdbbd869cb8baeb6c9adb27dc8
col49:   96c9bbcee7fdcc7dfcee8cafbcbbbdfcccbffddd8d9cbbcdcdf9ec7f9ceae9dd8ce6b9be8d99ad89
col50:   8abaed7d89cdc9cdcebab8d9fbb8adafcaedde99cabeefa9cadbaaabbab9cfcab8aab99ab8488985
col51:   a7467c9d79aaab8ebae77bb82b989c88cbb8a9b892aa69cb8a979cb98bdacbc36ca54ab7a9c9c68a
ROC:	 BPix_BpI_SEC2_LYR4_LDR8F_MOD2_ROC6
col00:   551741867535578268736674537146893769876668b6379586854277465317542335213425345462
col01:   468589759b79969767288986748a7b79aaab5b79ab66558978696756365467898557456674243b46
col02:   566697565896567758a88b64a666b3786946c877577747687674975ac697653519c94a7623957664
col03:   57779378a8458999655988969868787936b7c789a6a68696459165149685a8435569656488685863
col04:   674288aa9688829788a897579843b977b874a768648658789495a5896898495726ca56a5672945a2
col05:   646766396a7487c6f77296785839977db79586999b88a99999675a952288797799a6962628635475
col06:   896967557a9698a855889aa76b97a6b6694998963a8582778769a9a535a669738925666962645947
col07:   96859ba5967548887783b9746865aab797b6a9897888a877b6b5984989bb8884a774997419686995
col08:   b94968898586a86697c897978868e9a97aa63768582925877677a6669b84a7698674a6a775a64766
col09:   974b88599a448aa9867545a6797996a786597a89992d46176c8645746985585669694b954a567366
col10:   a778a6a7697c87b86977754977a9c387d87aaa878b75489a66686a717959587a6589883385776965
col11:   4585d576c8869a987867c759975687c65b48979aaa495a975aa89863b57955788564785573a72787
col12:   8768a67178379a858938a9996776ba99e8cac3c8a4cb6c986a5b4a56858894a73984a67645761924
col13:   98578637975866797d66859897bbca97868397ecaa97b8877aa5b949988755677468669564973798
col14:   486779594966877979688778aba67665c977c866a879c8756a969a8b4682749b564635768848795a
col15:   784637656748687675886bb58a9e9d6aa74ab4949c97a5a96769c6968aa87a653726a57867184794
col16:   956757557a8aa795357b965799b97ab87ab868959757668759b363599a467c7976778a765697a797
col17:   766765855ba856895548ad76ab6b998985a898c9c766765a9585968887785659353b999569674785
col18:   495b947169876a54358794b7a9659a776b87c7a7777a966758989897769f85767434d67999944863
col19:   6c69668657885a98b8c997a8887a8988aa5489a48899887498aba66c158866ba58657476a9736468
col20:   77745575b5b57967a86aa94d987987b75ab897a59747a787c776755b9885768436687582a8566579
col21:   9ab7787559a9bb65b7b86855b896974789968b988a898557a4b8872b7787883858bb654958a43568
col22:   6867864878aba869a9888b98a896db7998889b884a45346244677a4b7896a786557868554a964396
col23:   6865776d59948ba559778688986a4b7a66867776ac5976879558945a76a975758645749768736364
col24:   6698955b5b45ab9989b7979ab999bb929aca7999989a568695ba58a7879596839883789877c99491
col25:   6b9897967889b7a35469986a8d7978a6899b69677989b999888596a5678aa777978a998577545875
col26:   b7998293a799aa9a98b8b59c87b8a667c7a6b6ab9dba78b5898aa9d99988ab49a6886b977983897a
col27:   85769b56b677859774b88da6a6c9839ca8777968888ab8ad88958989a5b6a9bcb7b4995686663974
col28:   a8c98d93d8a79a5a8ba96aa68bb6ad6c6bab9aac898a9cb7ca78c797889976a67663b997479a8655
col29:   b759b798866b8996aaaabcda8a7699c967a8958e98d9b939a789749697688394d7b9bb56a75898c7
col30:   786a967b9a57c999699ab9ab9bc5bcabb7aa9899a888b8a9a79a8aa699aac78b987776a789959875
col31:   b78796b798adaa7df96bd589d8863acc9c9b9c9b9aa8eabb99999b8ba878da8685a75b9579ab9b75
col32:   78b6aa9aa77a58a7b79c9cbe8c7cbaabbaecc988cc89b8dcb8899799bc699b9989aa9aea5aa89661
col33:   88866a9a88979aaaa8c8698589acba795bb7b6a788b9a98a779a7a878a9895acaa5d9789a8b798b9
col34:   b9aab577dc7889abbcbbccc6c999aaa9db5c6899eae59aa9d788a99bf6b99a89a99a6a878a95965c
col35:   6877ac98a9987b8c8b996995ae6b8dc88aa7a99888d95c69a9cea99c78a96dae76a68793796b45a9
col36:   9a9aa7b88c8597bcc7cda878788889baa6b9cab7c9bbb6a7a89a9e7a997a67533989c55897b75857
col37:   94b9ae7a688bb8ada8aabae7ad7ae89bd6dacab7c9c9b9a9bdbb7bc7cac79ca996a89da886778a66
col38:   a9988699a7689a69bdbabccae98abaaaba76789b98cae8c98ea9c85ccbdbaddbad69b4c558999787
col39:   a899a7ae6a7898cb6979b9b87bb9b8bd7797bab9b9aa798789ab89ac978abba77ba796c95b8b6863
col40:   a669998c8dac869b8c957bcb69b6cadbbbc7abdbaacdb8cca9b9bc879a7ca9799ab89aaa7799ab9a
col41:   98bb8489f8799b77b9f6a7ba8b99cbdba79b9e6acaaac7bae97acba77dad89baa8bc6a98968c79ba
col42:   b67bba7a9db9e89ab8ad7aa7a3989b8bc9b778c8a8aca78aa89cb8ad677999bf978b8999ba99ba98
col43:   bb89a9bbac8ec8adba9cadb9aac9cabfda9abdd7ba989bacea8b99ab9bbbce88ac978b9ca5e99a79
col44:   aa89a8599bcbab956b897c9caad9eacdba7aca8b8ca8ac9989b9a9adb977bbca989b7b9c77baaaba
col45:   ab9e7995ab9e6d5aac5cb98a98caa98ea9abb88ccbba3aab9acb9aa7669ba9bc88988976748894a9
col46:   98acb7a5c7b8bda9e9abcbab899dcdcaabdcc888ccca9ebd97669d784b879d999ab9abb8b9e6d8ac
col47:   e99ac7a8a9477bab9aaa8a89edcaaabebbab9abb9aa7af8ddcdbba877b965ab7a98aba86e997c786
col48:   b9a7aa8dd98cdae9acaed88cbda8cab9bb9dba678baaba9b8bab987799ab567c6a7b998599aa9877
col49:   a89aba9bbbcd9dceca69ce9a8bace9a6bb8acaedd8dbdd99e6a798bca87ba75d989abbb88e8ba676
col50:   db88dc9a9bc9c9bdafbeccfbecc8ca8a9a7b96fb89afcacaabc79ba98aa89aa9bb79b7d98ebd7b59
col51:   94686a9c99888b77ab8da8cbb776a576da5ac89ba8b7ba8cb8697a7cca79c7898679485675679b75
ROC:	 BPix_BpI_SEC2_LYR4_LDR8F_MOD2_ROC7
col00:   6649868478955879a685796ac998764a77a997773967857767785747715765435a651a5254a34954
col01:   6585871cb5a7a774798787887996a59998badc9bac24a5985597745785865b986565684644648467
col02:   4347971778855c73a889c58499cca548615ab867996758895699a757575657a557b68a4468467853
col03:   8734882886654719798599a98879a679958798aa9988a8788596a67846654566aa4a4b7a79365474
col04:   685886ea8a6489947a6a949a937699b8a95879597497a38b99265479a76a86543748676794563876
col05:   154a565798abaa8ab5a8957978aa8a7ba86db7d5b76e988497bab899a68146571697476956873353
col06:   b9669878b8b987955aa898795786b4759a666b597689b97758746474884b85554764746248867763
col07:   97857788a7a775a7777995cab85997a8779797aa66877976ac5a79974a3586746671766945887676
col08:   c517675578787757968377abd9a29667b8698868669a9597a85a82767a45b7862894673824583451
col09:   9455a576b7a87a9958993a768999ad783989ac9aaa895a8ba755ca985786a7887645868873937763
col10:   76644848736886b467a78898965867a96a9789563727689445678894995877a5659572447757a566
col11:   347685474277668784738484879786848ca7ba6a88657bb9844688a5566a99859477565454565343
col12:   666446699669a5957898a6398778864896b94457a8a17b664a8966b488d737865367357679774847
col13:   574591959ba7639875a78579b6699b68578b8595a659769b65477b796d6927556647127a74979863
col14:   667856487988755386ca98b969a747889887c9553288b468668625b5783b67573863651424457463
col15:   795576837368bb7a68aaca6686766c99696477c9968846698a6936958667677a4456797353961631
col16:   596457568a8898633495a758668aa5988657d79888a466584a65568646a8776a6747587567369446
col17:   66b576677478977aa1897468974649776749876688d986c6a7977a5b559476777597445536135375
col18:   6839793466465678c4656aab7789967887899567c9757a7886b78956497479635456a53876432665
col19:   aa66784c4768888866638873a8767a99a6255bb699a955546765969867197787558869c279346861
col20:   37783963738765995646778855648575ab976877478467a5288568646486c3566658651158426653
col21:   9856a66859857adb4489bc688897a4367bb759997a65a75a8698888a7587a8994476385a79556384
col22:   57a8a38656968995974b86986aa6769776c8549a969588b5888875877992ba87b677446396796756
col23:   927447476665c92583974548aaa9974788687487a197686487781877698336885258638458445584
col24:   477462786979868864777655e75bb76387a9a4a7477675a657454a768ab94246557a477618668827
col25:   76364659272a9aa79688b8946b936aa596997867886d7a89f8996995896573634c63747775295666
col26:   7757a5899875e8769989956497757469565597ba6a76aa756786a49874694a7a65787873776b87b8
col27:   65ca578a7b4369b9a766888b5ab89769b4a89889987b657b9756a956a996354a939a5874783587a7
col28:   8657b96b87b65c9799fc669abbd7b9777d9a8b779bb8c8aaad86678779869768b4676a6567772778
col29:   7b82b9566c78675689a7866b99998896d699a8aaa7978a64d55747995a898855947556849a88e898
col30:   546857199759596797968586b67967a87989697ae769a9a8a887988bb58b49678687496646686936
col31:   a67678a6ba898a79b7566684c997c37aba6abadbc8a976f795c9666668a9679a57853869694468c3
col32:   a978a7657a79796a6aa3a5986a76b78c7ca7f8897ca79989c9878959a67bd7ba7745788648657467
col33:   9ca8c8b38a8b587a8b8b5946d978a7ba8bb689ca7c8ba987cb9b8498979658a6988a99b748668a26
col34:   8647a69b7899b8aa5667b8aba7a88baa99aca9ca6c9ac96ca7a87878938cb7878469949999476745
col35:   96aa6aaa496dab668a9b8896687bb79da98caa7ac69ba9c4878a988792a78a88976a87c58762788a
col36:   96b7855bb757357ac88a79b5866865a4b799d5ebbe79baa57b95976b6a985b57a5a7478274856837
col37:   77a4873ca7e862a97bd7dc95d99baa9a896c7acc9cb8b7b977aaa789d465869ea994a875ba776695
col38:   68a78889b98ea9a87b87c66a89c87aa9bb8cb9a789bccbaa9aa9568a6d8799bbb8a5878588878885
col39:   77569797bb795a779a876a5a59a98acba65a8a87a96bb794b76a68b9bc497ba65347867a38685a82
col40:   9569696a9bcb978cb8ca9d5a85b7aaa99bc987c966896c5977894ab88a6a8ab68668a6899a882983
col41:   6974c79696c499a9b56794ada9586b9868779bc8c98c8a6888887a9564ba98877676847935887a96
col42:   95896c87a988b797c8d958887b8c67976aba789a9aa9bb6aaa8a5b8565c5ca6b8978b7a568aa744a
col43:   7a96688876a7c588798ae899a58a99899be7a69baabaa9859a8dbd6b88a7878855525a6b97b88898
col44:   959697829ba69799c98aad879b78dabc85b77dab9b8d77a869897b76b8797c5ca976bc759ab97995
col45:   7ab5978ba9a959cb679a7a778bc8c9c6ba59a9abbb7ace96756a791ab66a789184b9785796569783
col46:   677979b86999a88cd6b6bba95a899aa9bb967aecaa6a99aba8ad9868a889767a246a7788619b7383
col47:   b9b88858a997c8aeb7aa94647aacc9498cabba5893997778b88885a79a79878888793a9787576678
col48:   5b7ab9a477a7c58aa5b6b788b98b8fb76c6b58b8b65a9ab6a587a9a86956c7953688a86548159755
col49:   853887b2aab65a77ca777799c73ab58c77a4498a568856a898685787a87669558887698a64779435
col50:   8a8789849b889ba678995987967f9b89978c89b9b77a8a69889b9d99eb3869878cc694869889b774
col51:   673914894865877755556576273795757875674544447749484595675857a6677241576255844234
ROC:	 BPix_BpI_SEC2_LYR4_LDR8F_MOD2_ROC8
col00:   778584676666837966868679957861a477a878994878776a585c94ab5a8ba7587778694a86976866
col01:   46566255596833485587ab497a8a7a675877c48acc8ba9eba7a886898a988579788b88a5d8a68994
col02:   5696763578597897686677786678b39796b8669b67ca98bb98685a8bc99a6a97849ab97a68997b69
col03:   576435a4466497b479468a7487c987987879767b78a899a8b988a67a868a9a7a95798c8a76778789
col04:   6868575554a58653885787764899ba85b5488987695c7b9c9aa9cb8a87a97c96ba8bf5a798bba487
col05:   2466274767b5579388595889886849ba6897849b587799b97c7a6a8648668b7aba7a9baa793598a6
col06:   73a6869458545595a585a9968898a4579a9b878675b387b6856caa7b69a8b9ba7967b9789855766b
col07:   8745556564576257a484c7c66a5969877888d6a98a9c777aaa89e8b778dd86a9998698b9b877686c
col08:   a755454235562477765697659776766aca68ab8885989b798a89888679a85885a8a78c56b3a756a8
col09:   55758445685974955687877698974868868a99998998c7a99cac5999a99a9b898b5b9b69898baa57
col10:   6276678585367869a976a748769a9697b468688978997766b78a5869a9869a8a9a76a968998a6876
col11:   463436867978766456674873387587a6956b7b57c95998788a66c7b8bc458a9a9ac97579887b6893
col12:   541c549523769645a7685697788798956687a764b999588797967a66aac5998a786b574476876548
col13:   243646568764568548468766964b8799487897688a57788b9989a99966b5aab86686987a8688b848
col14:   546547465753864466a916396a96657476a796a569a9a956ab78aba897887898389a458996898876
col15:   4266627787566576567a765667566969b89a68a8c5867899a758787b9a894a599a7599869861b8a7
col16:   5182676567888a466888515b93a877a68579aa778a87886a73997b6a898d89a6a869679877977a98
col17:   556469363844757955726947376a39b84876d697b68a6876a93888789887a6684678269654587a55
col18:   13749668464b66a55b8878a97469697ab8a56b96887985955ba486886538a98458cad8567a83698b
col19:   45737345447678645788448672a97749995856aa89946b2557985b69cba7975969c99979678b6a47
col20:   9425377436422587782198482549675498978689889999adb58a68b88a66899758c9c89767865656
col21:   33577331868577462666847898a7664787a89579a78a8767998729568895a76a565795a65385b6a6
col22:   44561556368465a76986479857688868765479c96889b98b658a6567a8a788564b95699969988967
col23:   4411456347c6644556753778779378ab9933556683265a7a8a95787b996779876547a68668886377
col24:   6454723597295523366699565768575648676866abb7865696878975686769b9695567b746445946
col25:   452447656663596b54449754964548a95a6567773a85aa98986889469d7477958586bbb479989673
col26:   658786488a38446336664a795768a889597aa8ab8768b79ca5aab99aa8a9987a9bb8987879996a98
col27:   542665942667465776959729978897a6987a6688d5c5b897ec8799977a9996b88895978c89665968
col28:   4b323454654ca578587677967888786ca7a98ca9b8699d468977a879b89b8a97a9486b7aa9a89577
col29:   346335236665685786737899853469679a89b4a86989589994db88b99c5967999a77c79a8a688a7a
col30:   6353298468474684964895a546976879977978bb8aab9b989a96bb98889989a8a8bb6998787ca874
col31:   4773783287776a477865558776753d8989a7576749aa796889d9b8a8bc77a9a4784948bc69c86698
col32:   54651454883249554663765657589959779a88cc9776accbbabb9698865b7768bb55988688556b98
col33:   366713525266874786257459bb46a95988a8bb9a8957a89966759b7998b69acb7d7693aa77597c36
col34:   35355854315566b3566995856958b8a87685975796b9989948b6acabb6ab7a7e9959a99849a8a9a9
col35:   512344336566354c56559665869757675ca758a778989949aa78a56b98baa6c5b87878a7b87a8785
col36:   74956438438a72875964654a5767a7676969b887a9979c8aaa4bc78988ac6cb9ac9b9a7b86977a76
col37:   14444359463754685959838a657974967579a799aaa897a9a75c97a5b897a798ab5c979a67888899
col38:   9494545969a9988b7954683b6b987b7958bb8799a85988b9b86b79999a8db9b9b64975ba69a7897a
col39:   58135114952568672558375a66949929c7678a89a68b99995a99778a686acaa97b4ac8a95948b695
col40:   8751744583158958a577575677646994697b87ba6ac89a45864a8898a7d9997aaa9b8aa67c888997
col41:   5656269248736453567656477585748789577894888a9ac67c59678aa687a877787a7a3d9a646c4a
col42:   4421435656568c775878553586659365687577c6997a787586a88888a9663ac53897ad685a6caaa6
col43:   349534688347534486153745c8774475883568a7a86689859a67a676bca97ca4996a8a86689b3a78
col44:   4767127375987873b186667616848a498356cb5a6976894eaa7a98a58c748678869856bc99659b86
col45:   384736478535257653444885785854779a94b9369a8a53a797a893288879c967ba5b8a8c58769773
col46:   4621748836775555617a78366647796746855438759796688869968a7977c7789965668aa6c6a7b8
col47:   43744452151234586556678554968a898793776777a677aa957777b946869aa7888a59897b78b879
col48:   27742333134334765645668657658c5656846885a5838786a837578556935958775a7476a7959636
col49:   576256644467171438544576637565ab73483687932858357867653676666954685677a97b5a7576
col50:   562166931544836633347a76447a1757a9479686a86a87894b95978978b5896a776478a65c767385
col51:   53213231143532134381145641419561326633388465752663752298736787863475277963582911
ROC:	 BPix_BpI_SEC2_LYR4_LDR8F_MOD2_ROC9
col00:   23154663834974488474685516835b3455a65334538682585675773657b697188719651873364453
col01:   5355688845755657335557917457a484655a67b776355886a575699457a578675a71744b87694636
col02:   44623626244546753988489744587647569a779849678ac6777c75295b4986896367a73684666477
col03:   454522255778439947849a879886886a9a78589696a7569ab93b6467789a9b87958766a65781a815
col04:   94465387799575925285749a8658989978a967579a684877974695985376978767da875697736942
col05:   67632a5245515655a8488776a71689548a389719658845994479775788984717778a854a51383591
col06:   6524735165265858469758b4467568697898a66696855b8787889358a988568933c956b796456947
col07:   368455597a685867578a4968879558a7888a67c8948a8a7b8a99496a938957a95967c7a585774875
col08:   92135725457476974a7975876648858729b989898658a9a987495a89794a5586a859588a57533a64
col09:   9945896266a8a875ba68868866a7a68a8759a89c948986896b979a8943799b88a4596a5658987746
col10:   1a4447467a7848894766b37a678899688c99885ad98997968672689a58b77a3779a7a36877838867
col11:   35685257783974788a67589897697796a894d5c79997a9a669bb669569799a797797995577766685
col12:   66c68159676872a555868a938895487878b989a8ba9ab69857a759947969b89a7337597679554868
col13:   697445555466786878749755aa8848979bd87669998d3fa895578b57ab86b564a5c645765378b99b
col14:   856374756a7787568c64598958a3a876a996a79bb8c8687b876d7968aa6aba9aa979b74668386975
col15:   4554455535457868743679ba98a996985aab8ba9896978a8ca85b86a4787765b98a784b5aa8a1b46
col16:   953656656975597986a7855778699759aa69b789bad6b87c896677bb6a7876a98a5875796a3b6665
col17:   5627667d98b886468686667c69b68776789a9a9b9688799a9a8778b3abc5656a8a5a593593844565
col18:   65436634775b9a687665546a567666a875757a98a887aaa8a688aa6aa49799676878795a54747665
col19:   733483887987348ba76599887567899c847789a27979aa95756a96d967b69957a593586ab6a67774
col20:   157536367848688576574369b89696cb8baa4b5898b79996b79b67497abca78a7557698875597989
col21:   24618696575858857b4899766868857bba677a849c9798a78a59a97c558999a868568baa47a8c866
col22:   3662665753542b58585c4735958578b7a8ac9c7888c96da88594a886586bbb9896a7769564685963
col23:   54214853754556745a77854698974a5a34b8a78757b9298b765675667778579a657547789a69368c
col24:   6673785854a459858a95dc5b87779897ca968887b4c9a8797ab7987979ba6b8a698a786766877664
col25:   8249484b757454969955942a4b96a94b9a6a85daa579bb8a978b8a79bc888a8aaa76b7978a466767
col26:   328895145466b8b97877a77896b9aaa9abab6aba877c8c6caa98a9b99bcb9a9bcaac7b8aabcc97a8
col27:   6977a468668ca8a6c47a8957888b7abcac7797dd7a99b6a99a7697769b76a478a788997ca99a9aa8
col28:   835686598698879869588b9d899c6a96bb878a9a9a9b7b8aca9ca97abbaa98ba9ab5956aa6995bb7
col29:   aa9389669893c87b699996779888b8779689a997b8d98b889a97c8b9ba6979becaaba6ab7946ab96
col30:   549856675768a8859a8c4477b778cac98aaa7daf99dba8a8a96cbb9ab98ba9a589ab8977dbad9886
col31:   748998693687c7999ba98caaac87a889da9ab9b8babb6b99bddc75dd79ddeaa88e8ca87dcc89d8a6
col32:   9979955869a987748789c686b98ebb7ba8685ab8c6a9889caa8c8967a9b9a89998878aa6997b6969
col33:   b7e9a96786788c6a9ba988579cb6e859a999d6a8a96ca9baaaab8acc8baaaaa97d9a988988675873
col34:   b957866ac8a989aaab68ac966b7ba89a579abd9a7b9c9aaccbba6bb9ba7c4987dbaad887ab9abca9
col35:   897a4796877dc57b7c979b597ba9caa6ba9abc9badab99aa679bb7b5898caa5a7abbba6c99a78bb8
col36:   a8a68777697789aa9a9b68ad77697878a79f9c79c8cca9a9bb9bab99c8cbcab869688b9889b6a998
col37:   7aa8597a8948a9899d795bccb9bc8a9688c96daa9bccdbbd979bad7aabb79a8a89b95ccbb9bbd979
col38:   7b7b779689978989baba7b89a8c9b8bccc9acea8b7ac88aaac8ddbc6abcbab9ecb7caa9acd9bd997
col39:   97588588bc44a79a8d8ce68987699aaaaaa9cbbbe9e7ac7abb9aaba9bde98e7cca9b989bbd5a77b7
col40:   8879578aabaca759846acbbabc79a9b96b8c89a9ab8aacdbc888da9b99995baaba68b898b8a8b7b8
col41:   559996568c99a77aa99b9878b7a77ab8cbab8ba9ba867c9b8bfbde8f8dcbd8b97ec67c7ebbd79cac
col42:   7797aca7b6b88aa68b8789b77978c8b9bebad79be8d979c5adb88e989bcbdad998878698b698698b
col43:   ba9c4b9a77c9b978db8b9a79aca8b89ac9ed7c9a99abec99adebb8abe87a7a7cbbcb5baa988ba795
col44:   8b79a985caa897aa9baa7aaa9eba8a9cd9bda8bbb985badbd7babab9d89d9d78fbada9988ba9abca
col45:   769aa67939a987aa959ac98788a8bdacac8ac9dbdd7b89ab89aaaacbccaaa8b78aca9bc7d7b88c7b
col46:   7859ab7789a78dea6b8c7c89a6b8adb8acdbb7ac9c9cbbcbaadb8bac8bca878ab9cada9ac99dba96
col47:   689547a5b7669a7688c888dabba6d9cb9cbecab9d9bb86bdcbdbab9ea9dbcbcc8b8b8ecb9796b6c7
col48:   a897888686a789aaa9a8988c877abd98c9ab58adacabcc99cadbc6b8b9ac6ceabc8b69985cb8ba89
col49:   67659ba87a7774d9bb9876aaaa9a789a9b88baaa79c9bc98ccbeebcabbbaec98d9cacac777cc8a98
col50:   88986c8979e69a8a78b5ac9c6cb9bca7689aeb8cccabbccbc5ce9c9daa9ab8a9adcc9adabaaba7b9
col51:   765586676697745898a779978a9a88aba789dcbacba88abaa7c7ba8bc7899b9bb6aaaab87a675b86
ROC:	 BPix_BpI_SEC2_LYR4_LDR8F_MOD2_ROC10
col00:   344336541879347993685992877aa698767995896c668b13966a5996c69699999d78a6c987997c87
col01:   972511854a86681bcc759a98d7b485654bd5a7aa678689778ba7b3ca9ea8bba74a79d89bc7a7b8ac
col02:   569665867abb8441d7be8a99858a697999a9a946babe5bbd6b5d9bc86aa5bc6979bc9d9a69c66b9a
col03:   134361777464967a8bb979b9a96ba87a58bdacc7767769aa97c98aa5867aaab9c7ba988966ba5646
col04:   34397c736725c8b9a799caa78978a7d9c77b9acb7984989ba987789a9b8ba9c99a9a8acba478bba6
col05:   841581679666398745447ab758dc7a789bb99a95bb68b9ba88abb9777ce76e758465ad9a6898b697
col06:   2477558a78cb997cd7c6a88679d9a99949754c9c7b6b7b9a767897cdabb78be997a78d7cb88a79a7
col07:   8724783468c455a47268476268d59e45567bdab7b669b9b666cad5698ba99b8b46888aa79faa99b7
col08:   751577554955514599457b7bc8a799c89d69769e959a7887e8aaacb69998aa5b798ca6c5b8acacaa
col09:   b37769965899b778396656b764697889abada558f7b8a847c96db979adb9a999bb98beabbdc8a7db
col10:   6877636a39aab7778aa6a6886b4a4beb8495dab8c987e9ad748b4d98b9cbaa98dbca9b49bab98ad9
col11:   4a7861687782745983a965ad97c6abb8c7685468a97689bbb8be8b9ac8dba98cbc7a8a7cb97bc9d8
col12:   53648359a87559665ab57a69cab7ea996ba54b767eacca987bdd7fcbdea9a7bdbbc589ac5ab9ac87
col13:   53565439587579c97769b69754569b88837d9975a9a7a99b567779ac898a79ba5aa6c6b8c9dd8997
col14:   7826a68a748ba9358b58b957b56bc6aa97acb977ba89b9b78ab787d99fbc6bb97cb6ac8bd87b5bcb
col15:   24656cb4b67559699b1a937a9c66bb947b776778aba687b788a85899b7a7e79368a79ab8b6886c2b
col16:   45189789a56899958a9784b9e99799bc8ac89b8ac9a68c884a6955a98d8adbc787a98cc6c9b5d988
col17:   297674558569657579967ba867883998b3499878674a6e75d996ea97ac9eab84cc7955b44baa8888
col18:   7935477445a7948b96949a6a797499788ad6c768d89b9ba38b8ca6cccbdbc8a8d6a9c38987aba998
col19:   b326897c366a9786b98866978c6c9c49577aa8c897cf68a96399c866a5c34b8958aae7fb9ab8eda6
col20:   33535483a546a48677698b7858a758797a669b9ae6a6dc8a88978aba74c6b89a7d7b69b69787d996
col21:   b96667976646846aa97699bca998898a795a77c84da7b981b5b788ba6dc9788bab9899eb9ad199f8
col22:   48959178a63864a67c899779898986b58a9886d5aaaca9b78a79c598397a96cb5c9b67da9ebeacb8
col23:   5745936867869ad77a9b98bbc9976c89a88a6b7da9638d7a8a77479679788b579768d989e7c599c4
col24:   95756864c6577669725b89bd8aa67a97aa98769599c98c8d87bccc579c8b6bcb7998989a96999dab
col25:   4887a368427869369a5b687798998c9bc79baab878c9a6a699c8bd8dc749d785a976a8cd9868baa7
col26:   427ac6a7c7c9e7a3cc69e7a6bab89b88a88ae7c9cbb7dcaae5d8dacaacbea4758efc7bbabaebdab7
col27:   5955b547759b77b9bac6b99a8baaab7cababc79d7b9cb99aba8ab95dd95badbb97cc4bbfab7c9aac
col28:   7936a96e9cadba9b8bcabdb7cea99e9d86c9acbb9786ddadd9ddcacdbb9cc8cdaeacb9acacdcc9bd
col29:   36998583aa76a859b5dc47a7acaba4a9bae99c997e9d964aa7eaab7dba67a7bcc96ab6ebdc9e7db8
col30:   9827b7ab4b884c7bda6ba8c8fcf9d9fdbaba89bdbcc9addeb86bc79d9df9c6aae8a9bdba9bcaab77
col31:   5573569ba97868dc7b9b898c9bbb97ca7e9efb99ac6aa99b9c998aac9ce97cd6c8b9de8ec9797bcb
col32:   684cc8bc7868a99bb7b77ca9bebbfbbead7ab89acbab99fbfbd9bcabb6dda7c6bcbeabb5beafeb9b
col33:   b969675ba7b7aca58a8d9babaad8abc9db7aac5bb7a8a5caa8d99ecdb9a6ccf78daabbb9bbdfcce7
col34:   cf9a37dade6b9adaebb87399dac4bafcfcbabcbecaaacebb9ebedb7bc6dfcccbaabcacfbdfbcda7f
col35:   589a9aa9594adbb7b8776be86aba9c98cecacca9bad8b8988ddcdcdcabbcbbc6e79bd89c8f8cee9a
col36:   b89887a8bcdcbd88cd7bcbb9adc6fd7bbdbac9cba9c68a9dc9ff9eab9f8befcc9ca8abdfeea9a7a5
col37:   9878aa996959b8a9cbdbcacbdcc89d998d64a68bccac79ceafc9defbfbfaacb9b988aa6acbbe8e89
col38:   b66b5b9b68adb88ebcaaeaa68c9ccce9ccfe9cbbbadfeebf9baddbf8dceebccbfbde9f7dcafcdbbd
col39:   a9867baa6e9caacb8d78ac9eec768b9abddbbbcba5bbcdbaac88a9bcf99abbd899fddfca8798d9cc
col40:   8b498ca8a9cccab7cdefb8cd9cdb7cbe9bc99cdedecadc9eccfc4bdfcabdddefbfaafacccee96dce
col41:   a949ab9869d8abd87b599b98b9fab8c9fa95b9cbcabddbacce8abffafdebace8dace9dd9dfda48a6
col42:   a9ba6ccda8adcab7db98cfccddcad9cafbbebc8deeedcabadfadaaaa7ccadda8fbeba9a9d6bcdaa8
col43:   8f869a6969caa6ea9e9fa97daddbc6ccfe9cceb8edfebdcfaba9aaee7efdc78d78e56ce97bb8bb9a
col44:   9b7aa68aaabbb9b6a88fdcd6c9bedc4abdffabf8d7ddbdbccffdabeabbdde8d7ae97ccfbf9abbeb9
col45:   8a3657c8a9c69c59eba79879ce9baac9ba8aa89cceee6bc9bfdffcceabebcdbbecf9dbcbacbb9d8b
col46:   58acd27faa9da9ebcef4aacdbb9accedcdb97bddc9edcb9cbcebe8b9d9dbbb9fffbeecfcd99bfced
col47:   9e399c869aba698bbb6c9b98dbabeedaabcdcdc96eacd89eadbab9bddabfcc999dd9a9bcac65b6cb
col48:   58898bac8d3bba8aaccdcdbebe8ef9a8cdf98dbcabbccbfdebb77a8aca8bfecbbdca6bedddcddcba
col49:   9928896688b98bcbcc6eada9dbaebbaadbdcedabafcacfc7acc9cccedf8aae9c67a89bacd8c9d9aa
col50:   e4aacbda99b8c6a6dbdcd8a7cbbabdbadbbffcaacabbfaaffcdfbed98bcbdacb9afa98ecbceec8a8
col51:   5667a647bab767897a9974da7aa8b6968c76bb6aba897a69b788a5c6a9ab8c8ccab96aa9a9ac8675
ROC:	 BPix_BpI_SEC2_LYR4_LDR8F_MOD2_ROC11
col00:   43223743365384515648642517679546433448348536bb5849458666657666641578986686554859
col01:   652555579367847358726664554867456556476748646887769a859657657785a88678588c759626
col02:   356236666425178658777757a7837a7a6674857368668966789748667867697a98a757579874776a
col03:   64836353531468477387747267767695887a864995546277849868693865a66937664896575798a6
col04:   4555482355648968642637276546566687678947696767b94576975a77877986a496777676696876
col05:   26653635564567247636785b866665448795587957756979888799768878856899b7975839855776
col06:   55475577645446855a963454796844555649995688668986966789699a6988a456a58876858b9896
col07:   748247435796663685737485868688385874767567789887688578777ab9c886a8789c7a8999b777
col08:   43756647548667867a57376547867667768868777988797673785787ab569a758969889976b687d8
col09:   7455667354677799675766795a9856b8774888972768865a98666778687659798a6b937a648a9579
col10:   6555866584665a5578a776879425476a75979576b8888177589aa7796a896ca787779a79488a79b8
col11:   54725432896566559486267787488979778884764c9768986877b67b76aa68467a7799a7698b9aa8
col12:   557636635536467766689768878676577777647778b4796879765aa78b668977a9b986979898d89b
col13:   364944776579767554486997969887889984833352669c78659bca676a96946a768ba77967757699
col14:   6557a678778b96376478474aa599856578677769b566779a66696857abaa69987787a8ba86678a78
col15:   255857576676485667775782788ab75a6977a48a889988778776b999a89778877b9687779a97aa66
col16:   57585577739777855757b77268967b7968aa998b798697987787988b88aa57979999a7689a9858a7
col17:   7863636769977465885a7997767486a5999969995799ab999986877b9687a7998878a97575778989
col18:   56543658786a855878499967b6b6878a8788997987a779999888998b8a6a6997786997a99797b78a
col19:   485764859574a689978769957897899999898799598a9768b8689db69aa9a88a648577b979a79b89
col20:   66878657457588993668697989569674859787b69a85876a7a59979ae5999859b879667887a8aa99
col21:   6495587846968868978a589986aa9786878a7777799ab9698acaa899578aa9a4888779777a95aa76
col22:   65767665a84669896986469796768ac88a79897889a877ab6a97997886a5a99879789b98a7c9aa77
col23:   64857966884858749295a97686888a997989979a899795a877a76aa9868a89b39a8bb977a9bb67b8
col24:   847845379575798456886a7a6787996aa877779a887ba79898a7c8896987aa68889aa74679a7b8bb
col25:   a7578885477a686866877cb48a98997b8a8aa78979c88878a9698996a9977998a98b8a9c77997876
col26:   675675677746b67a98999a69a8a69ba7d88c9aa77ba79b9b99b8988aabb999a8aac99bb9d9dbac98
col27:   7877868568669989778a89b968abaa95b9b8ab988a9a9aa9dc8b9abcaa6acaba99a8c87b9b9a6b89
col28:   88a75375899a99885989a86bb8bbbbb88db87aadb988687aaa69ac9adb9b9aa98dc9b8a99ba9ad8a
col29:   9797b668799a78899886878888b998bac7a998bcaabac89bb89aaa9c99bbaa7b9ba6b97abaa9bcb9
col30:   a5799675656b97a78ba879d8bcbbb9bbb9bbb99cbaba8a99a9a8bc6da9ab9ab9aacbdadc78bb8a8c
col31:   99a9a9899a8a96789ba97a7b9a9c897cbacab88b7b9cc87aa9aa98a9ca78a8ac9abc998bb8abbaca
col32:   99b9aaa87bc987c99a999ab978c999a9ba9a9babd8ab9bbbdaba8c9dd9bbba9dbaab9a9aabebcbbc
col33:   949985978aa99986978b99a7ad9c9bcda88898c9bbc9ba9bcd9ba9bcaadaaba9cb8abbbaca9a9c8b
col34:   b57a79777aaa9aaa79bccabb9aaba9aa9acacbcbd7e9cccac9bb9998d97b9abbc9bcdc8ba9b79aab
col35:   87887776b9b97b789a5a97b9799cb9a9b78aabbabbb9ac8cccb8ba99dbca899bbab9a9b9abc89dcb
col36:   93a5a79bbabb97a9aa879bbc799aacac9beba9ca9babba9aaac8dabdacb9cddc9cc8dcdbbbbabbac
col37:   9796a97a8686aca8aca8a9cadbacacaab8ba9cadd998ad9cbacea9bbdacada9ad9cacb7c9da7aa87
col38:   988a999a9c9a99a8b7a9cbd8ab88bab7ecbacabed9cdac9aeadba9a9ae9acab9bcc9bcabbbb8dccc
col39:   77699a79878898a86889aa9bca88adbb8a8aacb99aa9bc99abacb88babbbdac9bcbb8cba9abb97ab
col40:   a88868a9b99ba99ac88999cca9bbab9ab9b9aaa9bb9abdedab8b8eb9d9dbaaacac9b999cdddbc8ab
col41:   6a6bccaa8aaaba98aab9a9bbbadaabbbbabbdbb8cbba79cbdbcc9dbdcbcdab9a9b7aaa9dacab9cda
col42:   789bbac9b97a9ac88aaba88a9a8bada7ba9c9cbb9b9abbbcbabcabcba9baacacc9bb9c9bbbaaac99
col43:   a78988a7c9ca99bbba8acdb8cc978ba7dcaaabaccbaba9baab98d9c9a9cac99bdcbbb88bdaf89cca
col44:   98abb98a98d99dccaa99c8ccbabbbabb9bbacb8dbdbcadbcbbaa9cdc9dadabbb9bc9cd7b9cccc9cd
col45:   867a7bc997bd7a9aa8ca9cc9aaccbbcaabbbad9acebc8da7abcbdbc9cbbaba88dbdcbaabc8baad6a
col46:   a7cbc89ab5c9a887c9ba8aaacbabd9b9abbbdbc9aacbcbcabbbbadeabaafbd8dabbacacc9abbcccb
col47:   b8889a989ca89a9ababcbbbaabaaaadb9bab9c9bb9bdbcabb9dcaaa8bba7a9aac99da79cca6bbcbb
col48:   998aaa9d78a9b7b98c8b7cad99a9aabb8bbcbcccafbcb9a9eabc9dbebcfbbcddbfb8ddcedaababbb
col49:   9ba8abb6b979ddb9a9b99dabbaacabbaadcbcabdfbbca99d89bbc9abbdbbdd8ccbabacbc9d9cabdc
col50:   ab8b99ab6cca899aab8becdb9daa9cacbbbcdcbadca6abb9ddbcbb99cbbacbbbccbcdddccccbcddb
col51:   99adaab89898a79ac8988a9ab879d8b9a8abaadad9bc99b978ab9bcda9aec988b9679caaadb6bbad
ROC:	 BPix_BpI_SEC2_LYR4_LDR8F_MOD2_ROC12
col00:   1134434486a455596585888b848899776a2a95499796866978594499a8959565c896c94765a8b796
col01:   87676b789679655696878978ac367777a69aca898789ab89c689986cb37897b87ea7b5ca767d99b7
col02:   5723669349459a6377cab74a9895b868688b6a76b687b59c97b8aa898b9b77998768a9ac59764a89
col03:   b38679463a266aa6965968a6b97566955964ba7969b2a62995a7a8a893c88886b7948c98998b6696
col04:   574768565554769857b46c8734d668cc989bcc8697789a86985ac7a68db5cbaa988dd89a89887697
col05:   51789577677964698988884be9676898a7669557387c77879b69b95ba6a44a59786a899a87a9a58b
col06:   4633688667797879899985778679c9b57a88ad69b7a9698776359666b869b5cca79a9a999797a7aa
col07:   57667695265b56986877489c887a785a9a969576c76a697a78667bad666bb8b7aaab8a7a4b77b798
col08:   63356685393aa6b7983495b98ba688b86589c589c67bc88b5c995979c9a7a988aa97d98a9a9a7ca9
col09:   56553565865548b9a58787a78864888a99b8aa5688b9b865ba7ba89a9a7b85788c597778c59897a8
col10:   1669837a7567b89a47758898ccd67b58baa6b7897a699acb96a976b9a9d7a7a9a49968c899aaa8ca
col11:   864a578756595587878968769679bab9788693566aa765a975989b7b998ea5889ce795ba49b86b79
col12:   1253a54759844a7559759a768665358c76ba787b7aba7699b659996b7979a967a48aa88b7ba69898
col13:   5535646467678a548475777e85ba8968a4a98889bab64c78ca765a69788899979b485ab7798b79b8
col14:   69945a362486c684aa6bb57989a6658988ab6958ba78988a7d6b976ac98bcc55766b6bb7b3baa7a6
col15:   72368a3387963525a7579da89a4748ab6976455697aa598aa89ab97876c699b7c89b4bca77849999
col16:   7694575389a98574a797966a77aaa98ab76a8b9a8f9b9c96b978955a889669b58a6c797ba77ba987
col17:   58356925477676888c67b757889458537aa9987b9c5a697b9aa97b7989a787a97b7bc68aa86e9a7b
col18:   466563763887b5886a76974cc966c6959e588a86b9b57b84779abb8ba8eba9769c8b98969998987a
col19:   78553727922863998458a6588697ad479499988b69ba649abc96bb78c7aaba978b8ac8a9a897a98b
col20:   59394354988c77a56757472548c98b887b7a99ca7898979967a677cbb5896a97a7898795967b7798
col21:   46367587777944675358a94787b76b5668ac99a9787995a97b8b6ac9b77887f8c99badc9b79a85ba
col22:   77957368644676152778696989b8ba9aa7fc7776896b95b8a7c98aabe6bb79aa8a7a9ba7b96c78ca
col23:   84822267a454a585778975799587a77767757979797ba99986b99798a679795a7a9aba988ac5c8dc
col24:   38775576784979438aa8976b95868c968baaa88e9779b79cc7c559c5879cbcaaa98c8777bad887aa
col25:   1795175995a88766853ba6756756a784a978888c65b9669998abccaaa89cd9a586a658d9ad88b9aa
col26:   9888478778889a89bad4788a8bcc7969568ab9c6997cbd48bae959db97dab9abb89ccd9dcad9cb98
col27:   5964785555895c6a6968b898b7d8976ba5a67687c979abdca9c987aacbad9fcce66c9dcd48a8baba
col28:   51aa9997b86b755a985c996989b88ab8aa7b6a9adb8abc9abc9b689cb6d8aaeecacbbc9ea5b6dbb6
col29:   895582b69a5b977b97969677ca89697adaca7b8bcc9bb9ba7bfececbc5eba997dab7bcb9caacc9a9
col30:   66757496c783ae7858878899cbaabcaab798d99e9adacb8a66abcbcacb999bdefa8bbaccb9aada79
col31:   3ba7a78469b5b57ab6699987689878c7c9b96cf98bcacbb5e98d9989b9deaadd9bacc887debaabac
col32:   9a868744a68689675a78ab7a7dc797bbca8d9cb8aa9a8d799c8997bbadb899bbbdfb9becbabdddf8
col33:   79495636a8449c798aa7ba6d88a8cadabcbe98999c89aaabcafc7bcb9eb9bcbbb9d989bcd9c9c9de
col34:   36875c9a97569779c578b898cc97bbecbcc7bcdccbdc5d79bf989ab8badcc8abcaa89bdbcdbb998c
col35:   78797936789aa656d8998b69b7c596b989a89c58bc8cbd97cbaceb899ebbbbeb9ec9baaad8b99f86
col36:   9b78a6b89adab5aacaa8ba8a7b7ab7faaca99ca8aafbadcc6beabbfafacacbcadcbfa9aeebccdcac
col37:   68495877bc9ca87968b9c997d697c6e8ccabbc6b78acabc9a9cba7da9a79cacbeac989fcea9dc7ba
col38:   96797b8bb87da86bb79a79ce7d99ccaba9da9d9cac8bbbabd9a9baaeebfaacbb9aacc9bebceeeafc
col39:   5aa88779878b6a9bbaaa89abcb9babbc9b9a9bf98b5caafadccabedaacecbbfbecabdb9adac4bbde
col40:   978786989ca6888ec489dba6ac79d8aa89b9fcdbceb8dceebd9bdc9aabdebfbfbdabbecfdfaebabe
col41:   a69c58a9e97ab9d979aa96f4abcc8ab89b5f9cb98cca7ca9abc9cbea9a9ee6ecafcdacee96daa7dc
col42:   95a5a69777a9bba8ab79bb6acd8a9beb9db8aacdb9daddcddcc9cbbce8aaecbfbdfbbfedffdddab9
col43:   a899a8996bd976cd79dc8ccb8b9abaeeacbb9abc79b9babedebc97cc9edb9ddffccddccadadaddeb
col44:   48aa5ba788ba6ba78a98b8a6b8e7bbcbadc8babcc79caaec9bdbebafcb8ccab9dfcfdcfcbcbcfcdb
col45:   69896a76ad69ab7a98ac59a8a9fbcd999aa9fabc56c94dbddbbba7b9facdcdcecababaeccdd9ceac
col46:   97879a9aa9989c9b8dcab88dc9ba957e99a7caadfbaccbabdab9bcaddeda97ffccd9cdcaacaadbcb
col47:   769ac8c89ad9b95c9baa79bac977ca9b899789d79bde9debbcccfeb7eaacadd8cfeaabbaf9bdcbab
col48:   87d6896699a9bb687a97d8daa8a8a9ad9da99bcd9a9bc6aabbcbcbaadcecb99bacdefaecef8abbec
col49:   9a7678836999999aa78aba97aca9a88b98b88aaab97aa6abdce8ecc7ba8be9b8a8dacafcbcebaea9
col50:   787baa97ad89fc98adbdabcabaacbc67bdb97acdccccbaedfbafbebedd9edbc9dcacbd9bbfccccb7
col51:   97687968aa6799b8977989d6877ba4c57ab8aab5395a8a9a6b99a8a87a7ba6e8babcbcbbda898989
ROC:	 BPix_BpI_SEC2_LYR4_LDR8F_MOD2_ROC13
col00:   8316237618447654415763352355223332377647552557a978465748958854645769968597548467
col01:   69833411159362a6732543788685746676567678874883ab6786a88a4a484a565a3779a596924894
col02:   82757155516576a3b9858568885778545591876589876ca838884b5988a67a7a56558896567a6a42
col03:   143432585888b431421985a5686a859588a578767589675597c95988589871aa6768c93649a93866
col04:   6664937175453663466425767746879683b7879a6465275437b4a6898894bb99ba8691558a843696
col05:   4183744613414235663735a853715963976599a66615489a98873478778629a6b3c56a87867b7889
col06:   3745681674558372b597aa759c9ba58682258a84b76586a86842951545565567759b6a8d79775567
col07:   a79427336738769476394c94495489758857567979328479787c5288788a88789895867185a78779
col08:   23626763132987317a859a68a887594285667b54c8278588489a77647476c6897a79889888b47349
col09:   7a6555457579579175597867777a8a466a789b695a588552958667696469947694768242a8879882
col10:   5644737893c49991768354845b8a9795678588763878b47a9778b4565b77a955b7baba66574e8588
col11:   61139588624884445a9869265969974a96456688547a6857689563466b77b6e3668a64b8c5aa47b7
col12:   52955455244965c38439497ba4a94a589c87897599676a839655b46726859687378385a96b978944
col13:   96131458674784998937bba45ac9a28987529a669936a626d883a78847843e6999785a67558559b3
col14:   46666a77a657529566a678599987558c997463b5633ab789969865ea8a8765568c8a7ba9977668a5
col15:   617374a94466251a3387667bb4a769467679577a9b479644975495a6778765958878687697638453
col16:   5474524748759685646156b48b67b479498f9a89b58c4a9767ba597c6a778a8a8658947a5999b99a
col17:   3837152634973694646976778888899a36b57785825969788a889a858b897377685788666663466b
col18:   5355137724776a57a59857a9398654b167baa9aa8a5a67856751d88a886da6c75146958a96587899
col19:   487449569a99c61344a484939658866b95685ab86b59a62757867a69786668675668895679876a56
col20:   7345348b9493356265843897789a34654787ab9768b76b99469d6678755959b8a4b9a8a97997a677
col21:   43845686654924b4885a6a57988396c6bb84a4686b779a888a85789aace856577466a9b77d6758aa
col22:   885862696896686459a8849ba7866555a77799a9a8ab58d78677689774ab887877966c97b9997796
col23:   631596577559843676a36474a6644c838658825357767798c9a7776464968b6869a7b7b9988da377
col24:   588557455374b962a7c7762b887887c659565185288776b75698268574787779b8784a46ba9b85b3
col25:   57624636773c3a8675776668aca7699b9a998ba9444a385b7a3976c9b6a9698665ea8a7ca6858c87
col26:   759894667465763c69ba7795a9aa469687bbabc9a5c6a9c998b89ca98977aac6eb5bb9ab98ccab76
col27:   54978667566bb49767c8896bb885894bc877ca58668a96da96b9a48b7a88998a918ad9c898a887a2
col28:   6767688888779a7c592d8a6868959aead88b9abd79ab98d68a79be7afb86ae59a49abbcba7c8999c
col29:   6a45178d9698aa788888a8b8ad77b885b89778798c8bab4ba9894cdba57788d9a9bac65cbaabae89
col30:   877ba7876656488689977ab7c5996984cb9c596879aa7b98a5aa9b8aba78da6a9aa9b89bc9d87bcb
col31:   7b75887967aa96a5a87a9ccc96b6d7879a4aa45bc87ca776bdbbc29c9ecbbd996c997a77c8bb9a68
col32:   3799897b8687995469aa8bc96abcbe9b79976c89ac7ba9a9bc8ccabc779dbaa9bab687ca988bac69
col33:   a3548985567d99994c49db7b87cb799cb7aa688d998aaab797d7c686899dc97a8a9c9d8ba1c67bc7
col34:   88739c5754cbac37596b8ccdccd7b8699789c97da9cc9aca7868a8bcadfa9f9db7caa7c76bcdedcc
col35:   a87868656d576776acb99cbb85f785a987aab9d7999bb7d893ccbcba9fbadbb9c8cba8a9ca9dbcbc
col36:   79288566679976aa57a79b99dcdada799ebbbabbc8798579eb5da9a9769daca79ab8b9eabccccd99
col37:   5a887c6a7689bb6b5797bb78bb8b89ab99bbaec9c89bcbabd56b8ac8d88a889bbacab889baeb7a9a
col38:   837878579c898ac8788bcdb6b9b68b9dccc9b9cb8cabcbec7f7bdcf79ac9a7dbc5badaeeacb8f9bc
col39:   a877b846267ab8989968ab997ab8ca8bc89babdb9c98dd78ac8b7bea9bbaa99bebbbaaf9c9cbc7fb
col40:   788874a56786cb8a7aca7bd8abdaa88eb9badcda7bbbd89babb8cca8cdbbab78ebfaadebbcd96dcb
col41:   9587ba4526a3abaa96c9a88b9abbdaba6bb9f777caaaa9aefbba8af7bbcbdd9cdc8bbbbb8db89bac
col42:   996a786754a9ac76d7b9888cbcbfd8a6c85a9ad99cd8acbcc99bccdab99cda9cd9e8ca9cbcacc79a
col43:   49168c886aa9b89a9dc9b8aba9c68ccbad7bbaf6dddfbaae8fc7bad95aecfbaaafabaac987b9f8c9
col44:   6685aaabb9c576b98cacbdacbcaf79be87badcddb9dbcadbaec8baceddcf9caeb9dcbbdb9df9bafa
col45:   4b899757ce95a8baba98a9dd8aad8dd8b99bcadde7ce7dab9e9ddb9d9a9a87b9ad8bdc9ba5a8bddb
col46:   6999bc78798e7b69bbadbac9a9bacadc8ac8baabfcd69b89bbffddcfacdbe9b98cbcbdfd9dd9dbec
col47:   6976a86c77b86dd8bebf89ba8abb84acebc9ca6abd79dccb9d9c89dcf899de5ada8f8a9dbafd5769
col48:   7993b76acb8baba8e8abcaaac9a8ce9fbbeebce9dd98ede9aa9ab9beea87abaadf9cdbca8baaabb9
col49:   b997649ab4c8a6db59a67daba88a897dbd9ac5d9badddbbdc9ebeddada9aedadebcac8bcbf9b87bc
col50:   a48478668b789bc5d8b9daa99cbbce7b9de7a97dcdecdcd9bc89ccdeebbff9decca99cdbc99ddab9
col51:   34679ca59746b79796b9b844e895ba79889ae88999989caab8adc76cb4b8e67a98c88789feaa7ca5
ROC:	 BPix_BpI_SEC2_LYR4_LDR8F_MOD2_ROC14
col00:   576868167a67899567896655b8c7a7857c765692a9a6b69556989678899986686859897865655499
col01:   a1a98b1878d863a6758b7a69768966c6e55b5895786ac9ae778798dabde66a8c96c65785ad986998
col02:   9877c858b99a7a59748a79757baac876996686597983996a8957688788944ba8a968b75677958a99
col03:   9658982858575997b5a9adab9a79daabbd99a88a7c6ab9b8b8e9888a893e9c9ab9a9a8997a8279bb
col04:   2866645775a65989b48a9bdbea85c99aaa7969766a8c98a786888a9a5bc7aa69a54688ba54869677
col05:   9827965b55778c63c995468287888c87837abba896ad98a6748ad74a5a69a87bcb5d886887778978
col06:   5659ab9bb37abca6c868a9988cba8799caadc8a887b668cbb38457a569b89c5956469685ab7abb9b
col07:   589a7888b67467b878557b886a8679597ca9968779a8a8886aaaa575c9b668989764a8686a86cd88
col08:   87c69b265a8c8765944c799b7a879ac7ae92b7898c867976b7992aab568435b78bc7883846a7ba86
col09:   47584674bb86987789ba94ebb97a9a968ff77a76bcb9caac87a6a87774975937c57a6ac7899999c7
col10:   3594467888878b68d939a5999c7b676bcba7d689ba87795c6988953a8796abd9a5b7d945d59b9895
col11:   6736318688a4568a67996886b8668a9a9ac7bc89588d99685aa4c87aa3c97ba6742952b87a346ac7
col12:   a8a964a4867786b368e7ba84a77598aa97769a6b6c17868b57884869969a86898c5a97958b6d9864
col13:   677b764a8988a65996a5b376daa5d78abb8d5da69925669b57d7b96d8ca8c7566aa879e48b965646
col14:   7765688a7b997788997a4a7b9da85baabab7caa77b56877c988b9878aca7aa786798b97849677a86
col15:   81843964a653978d879a879698aaba49a57b8c3f656c98da7688ab7b994c788e77975a59a9569776
col16:   64816a5994758b9485697a77c97b9bbcc8b88a7c89567a769779adba7729e5567a58ad966b697666
col17:   5767558b87886b858b78a625886475cc76aaa6729737997a6796aa969ba985b88b4db37c879665a8
col18:   b7769345767888987b77a65bc5a87a459937a77777976755676a83999486b88a69848898d687a885
col19:   934b77866a868da96497379697b5b9979aac99a6be776b747795589abba847a7c8a8a6659a6395ba
col20:   56a3548772756894878685aa779c672b59b66a766b7b9a77a96a5c7864769a79748577a878868ba8
col21:   937976a6978837a788873d975568d48aa76b797888879789c979c9d98bb8965ab668c987a948ba29
col22:   9549445b797754a9a3a77ad99ba6a678a29b86a7c886a88a58a97855c574ac7598a6d777797987b8
col23:   14787569a68a88a4779226a8267797b679598a58955c946486ababa89867ab88a976787ba5c79897
col24:   567766856988799bba349b999966c5796b89845877877a88886b9c86a588698a7546975a99c75758
col25:   69761647a8141a973aa8a657a9669958a87677488549b6686899a97a34b7a69cb8caa57a87777877
col26:   98a99557c999c3a977c699db56a8d6a8a6e696ac99eedb67a8659a598b9a7aaa6aa88a8fdcc4c78c
col27:   5373647b75d5968bf697daba27ab87948a98995a9b9a689c5479a69a9aaa8ab5ab97669a7c86e9a6
col28:   7a278699f896888762b9d999a799bb7b9abbeb6bbcbbc9c98a8aba9f98dc9aac9ba9b9d9d8e7d9c5
col29:   96899c3575887595a19c8a55c8a97a989ab7e7baa878f999aa98a9c5dab8a9b7db9699b8a6a9c59a
col30:   95787a864aac6b9579a99898a8998daa5a98e9acbaac8abcbb9a89abb68c89cb77458bacbdaaeabc
col31:   bc77aa68a8d6877a53da7885ca87879bb9897ca69c97c68997a568b6ca99accbba9dba95b9478bda
col32:   776985caa588ab9689c7dad9b87abface89d7dc8b86c9989989ca88bebcadbaeb8667c8a6cbba8bb
col33:   897b79aca9c8b692697a4885ca7979cd9bc9989bb9ecaf668bbb94dadaaabcbaa5d9a8bbcab837ac
col34:   b787aac595b85476789bba8aa575b85a9a9bdaa8dbcdf4c7c7789cb99aaddcb79879ab9cbbbd89d9
col35:   856479c69586ec8b776467b8d9aeaac97c77a9b9d7bc9aa5aaaa89875ae9aabab89b9aacaaba48c8
col36:   73a4655579a9c78a83abcbcbe9789cbdddc799afba79ab7de8a8eb9aab83aa6da87897dd88ad8cbb
col37:   884c88655958bac2899945ab7a98cd59a9aaaaa99c98acaaa1588f8bbc9ae9c7daaa9bccbb8b99a8
col38:   6b77889a6a57745aa95aa9cd89aaaaadbcbbfeccd799d9baa859cb8ad9aea8bc8cab678e6cfbc9cc
col39:   88887a8d7384d69b9a9ddbbbd7b98fa7aadaaa9abaaa7dbc7b9c9cbbcbaa87a7ab6bbaaba6a97cad
col40:   9b9f88b7b6b9b78a27829d68cb78da8e9c7c8acad9f8b95cc9ddcb77feabbee7af889d7bb8bcaed7
col41:   4799975e8696baa78b8dd799bc97d996876de78bbdd7edb67c9c7a9c9bac8999cabacaacc8bb8c97
col42:   a8b6b9baca77d9bbbd67d59edfcc9bc8bceddc8a89da8ca87cabbad9c7b6ebcd89cb7ceaadba998b
col43:   74a94449786a99ad9b9cebdad6a87fab997abcbd9e76d8a7a8abdcbcbeaca6d95d8a9cca89a9c896
col44:   878d99a77a79aaceaa78c6cc96abcaadaa9cf9aedaa88b6a8989c878a998dbbdebababdab68997a8
col45:   cb799949caa998989afd8d689e7e8bc578a96ded78c9a5c38ababa9a878c8c9967ac9896989a9888
col46:   8a7bc64cbb6ac7ab588a9b86c68b8eaac8caac89caba6ddabbd8bbbabb6adff877c58e89aaae8d8d
col47:   b657a88abab899a97ae9eb5ccbc8aacc9bacaad8ac7ce595b58ac9aacbb97ade79bab78ac7b7dc99
col48:   ab8896a9779899b6a99b69adcbbbb97fbd8a998e89cbb9daa9fdcca8966d9baaaba9a9aaf5ecd65b
col49:   c58595798c76988a979b89c97bc8a84a897a759ba8987bb85aa8bdad8d7f95b8865878568bceebaa
col50:   856dc679699bd894bc8a9d697ba9db69b6aabdae7b9db88d9afbbfcb9aebebec998399cdc8db9a89
col51:   53f27945886168756694a179aa99c9d9866796a966b9b98888944ba88897986a748787b4b99a99a6
ROC:	 BPix_BpI_SEC2_LYR4_LDR8F_MOD2_ROC15
col00:   f979a96a8a5cc77458e875559569b88a48a7a5b7754ad63889a78475523842a37251a59739498947
col01:   b78a99ac7959b6adb8bd789b9dbaaa67a5aacaa7594c96cc79847db986ab889a793876857aa56f13
col02:   5577783789779d9c83c94a8aba84aa56b999a986aa68aa77d8689699a8b79866847b655477858567
col03:   e976a445a869b59ba66bbba848c9f7b5caa7b9a9ca687b85a6cb676b6c767789975a46988888a974
col04:   98ab79bcabdc86c64876a3798cacc8a29a95c8499b776869a999979986998ca9a7ab9d8985a8ca86
col05:   b79b695a785b978aab996858687b8bb8836a8abb779c39b677967ac5789aa9ca69b46aa769b5678a
col06:   6b9963657867a5c967b7fc7aa9c85c7aa9869685ab4ab8699679b86b99c7487689a9866764b876b4
col07:   7588384857baaba5969acb8acd7845a7abadaabfabc7788bdb8999bd987a75cb65477979b7a75895
col08:   7785c78a597bb7c9c7ca894b4a8b88a6b8a7ab8c9989c8697846f795a86b7998bb96d79458a45865
col09:   8677a8865679878a9bba9bdb8a4cba9bae997957cab875796a9947ab578b957b989abcd578b769a7
col10:   d5b9c4cba6b79aca9a45788fb6ac978bceeb88d579799596c88b57b88cb685871aaa93869698ab76
col11:   aa5a9a597f9ada58a8a78468ad997b8e8888b9d6893a7bdc8a87855b579647c6a78b968836835c99
col12:   9b7987c98bc6a887b6a895399a9a3aa8a888bbc97b94b96866bce48c58ba6c7b8797883a7487a88c
col13:   6797c7a8775996c789c688b9aaa76baa738ba776999ba7acda9a37a89bcb7abb8bcb6a7a84518759
col14:   5b788698c8895f8499c8a7ac8db8ff9987e98ca89b8ca9b6789699bca69da5a8c6595c378c6b7882
col15:   7488aa88888a667947968757ba878bb396ca987978b8c9b8889d899cc76aad8a495a7b6257ab4b62
col16:   d7967dbca687c4a6ccc9aa5797aaaa898879b8fb67a68d7b9b97cadb966bb7766aa9968788897655
col17:   84756875a27b97da799ab98bbd9b7ba5d4a99c6bbb67c8bc9b439b9a8a69999699bd985ca67c8397
col18:   8a7897a8883d886b65a67998d6a9abaa8a8685686dc7a976548b8779c859899b78567527c7857a46
col19:   e96c989a999ab7949cc6683ca8cd89bbbaa8c698dba655a6db9a89eaab7849987eaa8c86bb939767
col20:   5c47a9aa877ca6b75ba4a987a8b6c58baac8a4a96799aa867779fba85a6ca8bbb75b5abc66979798
col21:   9567a6855c9767b3a68c678c9b8ac768c7b9c9dab889c67969b77688787799c9bd5a6597ac7a7887
col22:   48a98b77a989ad95db9a996969ba95df69c887bc58b6daa6459875a6b5b9b9b4abaed98ac6a69ab4
col23:   98b978698b65858db87ac879abab788568889db772ab8fa7b29b69bb89835b998aabf954589981a4
col24:   357379988887a9a55897659399e9da8856ceb5aa6995b8899aa59aa8676aa88a79a69cba8899997b
col25:   7786b99b4c9cab59779889cb9ddda5ba7eba8b96a89aaba868cf6cba8a88ab9abbafe8ad988acc97
col26:   9b79aba8a657bb87baaad869a89a8cef88a8bdbd99a5ca9b5babd9e8aeaa6769f9cab9b9dcd8bdd6
col27:   a6da9bbda5aab9e8ce9f9ad96bb4ecf7bd66dba7ab67b9a8ca8abaa6ddadebaa676a997caaefac97
col28:   69a69cdcccc8caba8b88cab67af978baee7b7afdcb97a4b9cfc8a99ba98dbecbb8b989eadbacbac8
col29:   bba988adba9a77c9ddd9decbc9bbbdcf67a95bcb77cabbe9dcba8bdccbc89f9b6ddda99aa967accc
col30:   cd9bbbe6b888b6ebd8bcc7db78cb7abfbbbbcabaa98beb7978ac79fbafa8b8fb88bab6cc9a66baad
col31:   a58ab6baacc7b7cd87e7a8d58fbc8d8aa999edd8ecab8df99e9baad9eabbb9ccddbabcb66adab9dc
col32:   8989caecaab6dd8eca98cadebadbc9cc9dccadafbbc79ad78ecee9aaf9dfccc8cccd98ccd8f7e8dd
col33:   b797ac87aabbc8aab76a67bbb9eabaf5dcae9997d8abcccddcadf8a9aa8ccb8efac9b39cab9d74b6
col34:   89db9c9b98dcc6b88d9dd9fe68dcd4cc9caeceefd9bbabf7ceaabdecf9cbebc9e9eabddbdda9bad8
col35:   9c778b7c98a9fcbbc9bedeaadcbcebba8fcddbbe9acaeabcbdd6bcecadffad8bac8ebc9bdaadbac9
col36:   79a9b9a6e9bbaa7dccbceebb9c8bce8bbfdeaedebcfaa8cd9dfbc7a99aa9dcbacc79bcbdcdd6bcb8
col37:   b6caab8b9ca7dc8dfbe8baadc7c9abdd8c9dbcfefbaababbdbdcecc9cdedcb9bd69bcaca89edb7ba
col38:   69e6b9cbadcfbd8dcb9edd89fba9e8ead9cecdf97cd7bacdaaaebc5bf9fddcabcbeafeb99cfd99cb
col39:   8887ec7acaeee7bc88beebf9cab79bfc8cd89dbabaedaafafdc8bfca7c89e99a98dd65f8ab8c9ab4
col40:   dda95aa6a7baba9adcbbbebbcfcd87cebccb9da9999bfddf8edeec7ce9e9b9d5fda899ebfc6b9daa
col41:   9aa4bacebbcac758ffeaddd5acaadd88da8ab7ac979cfbf9bbecad8d98bdaaaaa99a79bbda9fbd8e
col42:   a8a797897baf9eb6da788fbbbf8babcbbacdfdadacfd8ebbdbdcdaf7d7c9bcbdaea9a8cbeb9eaaca
col43:   abbba8a6b99d7cc88beabbbbebfacebdbadcfdcbcdbd7acdbdbaafb9ccdee7efdceb9ddf7bc9bdab
col44:   dbcbaabbbaecdcceb98cbeefffface6bddfbcaeab9fbffdafdcaeb9cca56caecebbdbaddfd9e798b
col45:   cd8cb8ad8aed849c7abc98adafbcc8acf8c9c59dcadbde79acbed9dda9dc98bcb8b9daceca79bdac
col46:   da8758ccbb8b9abb8a9dcbaccabdddaf89e8aa9af9fddaaeea7cb8a8bff8acc9b7abdcaba9dbbee7
col47:   b5ab9b9bb9bcca56fdbf8cbdbdd7fc9efd6ed47ecaccf78cbbef9eeaa7fdfbcfcaa97eabbbcecc89
col48:   adbaadd9ddfbadcac6cda8e9bc98ca9aacb9dbaabaadeabd6d9faffee8bc9fcaae9eaada99ecccda
col49:   abccbbbcfba7edfccac8ceffaf9bde99fdf9eeaeffdfacbbb9ffeccddbce76d9fa9bbca6dc9d9baf
col50:   adb9bbacdcbdbbf8b8bbe9abcdc9debfebbda9feeadeeaac9adbeaeb8dcecfc9dccafcaadf8cbbb9
col51:   993684c966b597ae7a8c7c57d8aa9c79d9ba898c8aa8ce87ba96b96addd8c987ccc69699a7aa49c9
