ROC:	 BPix_BpO_SEC2_LYR2_LDR4F_MOD2_ROC0
col00:   734747635595636472b88758b1788747876664846365726662918538a6b786666366642432511533
col01:   66591756477a755667386ab973c48a96a999d7b83667687987857987987cbb86a8666663a3453664
col02:   58757851276b2c3578a64a13787a78c8a8ba8bbd878a598a55a46553a868a4676b66676936136541
col03:   8834b7867496847c48b86853b483999aa76a78b6b77b68cbca697c28b757b58637a7142485186541
col04:   744a7a8864a896a77689157855bc2b65b9958c499a894ab989b7885b79bbc58a8976946443725573
col05:   8164b6b46c379a667c8a94a848b587a8a978b978717989b59868a4a9b6b8987749978976843a8319
col06:   265588a479cab6ac89a4ab27778675a898a57a6b4488673368be79749b5895676587875874347956
col07:   757999b77864967a78b78b8ad98babcadb79ab8a6a8988aac86ac99b7a484745ba9c888367853714
col08:   875a889bcbb7ba8a887c3cb87865e7968659b67aab9d49c57a66b896aac8ba9863199a9b47428466
col09:   3698687727789879a6cb86a88789aa9ca999b898998699ab88698739a73e78949446555933685454
col10:   5a69d569899aa59bb9a6baaa8989994b5d9c9c7b8b8aa5c6b986cac7beaab4447886697a676b6535
col11:   3397866a779b286bcd79ab9b999a96da98cabdd895a7b7da88c879c79a666b6b492a97a644829585
col12:   77159536a3b9986d48c68684ad78be96789a89a6c798e7ababa475c87b9cb65f69997b7667397168
col13:   8751a7678b78b9996576db5c8a7785ccc868bc8c77e5778acbbba998aa54a979a8869b388b964561
col14:   b759665586b66accbb5aa69b58a968c9698aa84968dc59c99ca6a9687798a3785896577757669346
col15:   7a796758957899a5589747abb6e897b9cc798acd5acaad78bb6563a6845778a857868a6c56355226
col16:   9867878b479b495a9679aad6c697bb74dacbbb8ea7a984a4a967c6be997937a52999797766776946
col17:   5a88857a6b577a6a77546db996eb8956ca99aaa5a97ab895aa3c9d9fa4988a897757784a57583881
col18:   a866c72987789899b57b6a596c888eb98cc9bc1a5966da9ba898aa88798394976595627a33229754
col19:   75a99d4ca7583799b958aa6eaaae79b8a83aca7aaa87669998a95acab3b6c919b9625a55a9656c95
col20:   6537976697a797b355878a67b6b7da7a9968a89d87866c96ec688a8bdd7388a7b2744a8947226584
col21:   66585398797d9887ba9a696b88adaaacccb7a9bb98c77876c4b6948b857865c6ba47531797276a8c
col22:   5798598a659899695a8b88b9c87a5878bb6977a9bb589877897ac8a78aaba6ccab8b5974855767b3
col23:   8558889576ca5b69d979b849b59a6b7b85a779674a8699a87b9b78a759a78a698669976565289c45
col24:   9a555688743a97a8aa6bc787bbaa736cb98d897597978ac3bba667a7bb8e358679c65797a4154831
col25:   566733d85866aeaa7ea83abbe8ac8c98ddddbf69bbb688768799ad9aa9c9b9c88666789a83436669
col26:   938bb88c8797998adbaaad7bbdc99b87daabcdbd8aae8adb6ade8aba67e929da769589c769996758
col27:   a89557d799c968896c9bb99eda5daabed8adaaaab97a9de8fccbdd79cca9899d7665687865676787
col28:   b7abdba69aaa98a995efcecbbd8bbfbd9abcadba74b7b2a9beb759abbd8c99775b88dbaa6a895589
col29:   a8a7877aa87c69c7988a9dd9b9fcc9af99acbdbbbaaa8cdac9a5abbdd9ebaf9ab6d5b8a89774a858
col30:   a87c9a79c977888b88ab88bbdaed9bcc8fec9ad8a89bbddabcc9badacea78adb79bda87776c3a587
col31:   76aacaba9a6bdac9cbccdd8cdccedcaccdbccddaebaa9f6bd99e6dca8eec9ecb9ca6cd9a49977884
col32:   a7d889c7789cbd7a89bde8ab9bd9bccbcfbb98bb89599ade5baacf7b8fda8886aed6959d9a844976
col33:   779a8c48abcf97cb5b6bbbdb78cede878ecbbaaca9da9ac9ebfc9dcc9bbc9979a8a4bab9978aabab
col34:   aa5dab9eea985a3d9a8bdfdccbcabc9ddbcddaeca9bccd896dbabadbddf98c8eab78a7789c8a9877
col35:   9877dcab9c8f8dc8b88dcdcbf79dcabbeacc9b9bdbbcccacbadbedaaf7ecbabbae88baca7846b578
col36:   8b8a7dd9e96a6995aca8d88a9bcbeb89cdedcbb7fc8cdb5dbccdbceef88ccbac8b788a6567a778a7
col37:   ba8beacdda8ab6cdcd8ebabcdb9cee9efd9cfceaa9deb8cddcac98cfabca6fb9cb868796b9a76bca
col38:   dcbdb8eb9cc99cb5697c8fbb9fbdaeaacbbbbcccd9aeaebb9dedab8bcdbcbbaa4cbe5dbab877aa56
col39:   58bb858a9b9abbb6dfba7cebebad7bbbdec6dbd9acbfd8fdcba77bc7a7beac99c7bdbc59ac6ba599
col40:   766a7a9be8da899bbacb8fba9cbceefcdddbdaefdbbbff9cdcbc8dfc99fdb9ca9ba9ac9becaaa886
col41:   c9cec9acac5cca998e8da9cebdcfcbccf68dcdf9d8c9dce98bf9dc9aacefbdad97ace8a9cc765d9b
col42:   9996ca78db75cbbaa8e88bcabdb9acb97fa9cbbafdbfbbdbecdbccfdccdd6ba9e8ac77d68c7798b5
col43:   ac98abc989ce9bdd8bdbafaacaebafcce8d8dbcdf9af9f7ccecccdcbed9cffaceb8b9c6cd8fc97c9
col44:   9989bbd87eb5aa9b78dacfdefcfeedbff9a5bfadaabeccaac9cdccdacdebecbbbbbc79daa5aa9a79
col45:   98bbbbe7588bbc5acdcc8caaaa8a8dad97bbceaf8ecdaa9eadcd5cdadbacbd8b4c78b9c89a5963a6
col46:   7ab9abc88ad4d9aceaabaefbbf99ab9dcde9cbabfaab9daaccceddfbdacef9dbaccdac8cb749a974
col47:   93bdcda987cb6aebeedd6baf7dcfefddfc7bdceacbb9c9cff7e88fbcccabbdbc7c899b7ca8b9bb8a
col48:   985b7ba985d5abaacbaccdaaeddde7fdb9aca7beb8d9beaacebcdd9adeded97a99dbb89679979978
col49:   c97dd788788b59a99dbecbab87bbbadcde8fbad9edaebabdaccedddaebfcc9dcfa9ceaeda99a9d8a
col50:   cbaad9a9b788c9caaabaacae9eedadb9a98dbbdadd88cadcedadd8efda5cbd9fa8db9ccbcddc7886
col51:   968697498587987948a76ba583aa69b785a8f768985b9b9bb7794e97abcca798b88a596847868895
ROC:	 BPix_BpO_SEC2_LYR2_LDR4F_MOD2_ROC1
col00:   6449675638a589976789a9a6a74e9aa98aba783849976667b89c7679739887964b6689aa5478864b
col01:   6646b68667b479bb689c6bb7a88a8877bbddf8899bba6eba9ad98ebc98ac9679ab77989885ab99a6
col02:   865799aa69c957a58a45836577975eac89cba96a78caab92da889b68e7aa8a79baaa9ab859ca8b9d
col03:   986676596aa876c989996a7d78cd7e8da99db79a97d9fba79b8a988badca7ee789b88cb746abc9a6
col04:   865a5b6587758e7196598a89846e7cac6b8b9daa8cc75b9b9bdaacf5ebbac8adaad9a999cb997aa4
col05:   796894a38a9d83689967a79d65bc776ccebfc83aabcfabaa98a99acaa9a7a88bbe988898633baae6
col06:   656986d9c8da5ba87a999c76b56795abcca97afba6b9b88b999b8c5baacaa7a9aa9be9aa8ba9abbb
col07:   6588a9979997b49791bbcaa9a7c68ccab8b9d6999b77b8aa87b7ddabb6aacadb7cb5b9faa88798c3
col08:   76368868c67389b285a6a888c7accbc487bbb8b9c677c89ac8c9aaa9998dcc9ad8966bcc79d6bd75
col09:   d98a4788a87d65b68aa8ad99b7867d9d4adcb5bb7bac99da8aeaac99debbaca8acbb677a8ca994a1
col10:   5539a467c9bb9bb7b9a5b496b899daebae8e9bbbb896fa8beb9bc9bab9858a69a8a77b879ea68aa7
col11:   8a78a577686a7acab5789b5aaa5daa9abacc9fbabcdba98c7ada88a7d997ba5a5a9c995c879b8a2a
col12:   69878ac8d89ba59655ab767897cbd6ba9778c6cb67899fa8677aa9aa8fc6ab4bb769a9ea7a6b9aea
col13:   483c9a75c8b966daa79e8aadbbd7b99ccacbdae94bbccb9baaeb8879efca99ab8bbccb6fa98bba6a
col14:   678658b36664ba477979baa8887daabab9a77cd7aba9d986dbaa58aaaa58a79ecc9b9c98d99a88d3
col15:   6526853c7868b8b68a7b7dabbbb7aabbcc7ab7df9cbda9799b9cdc8fac5b9abcc5a7b6bb77db8abe
col16:   98bbb7b786ba7359c978b898b7faba97bca9c9b4c79ba9a797adc98abada6ac79ea5a4b747b7b89a
col17:   36695a7588867a9a6599797f898abdabbc7b777639378aba9887c5ab8e6658edb77bba5489a6a897
col18:   a4a99676a6887c5968599bbd9a9f8ebaadb5c8a7987bb9baa98a9a8898ad7bb8846994b9d6684874
col19:   54868a947b6c997bb593b78a8c9a9a8aba89a99c77a8a9dad9bcbc6898dbda6d69a79ea8d88758a8
col20:   345a83986b9599a9dc99698b7bb99cde7dd8a8d9c9bb86b78b4998c78edad99b88aa4a9b9a9ea83a
col21:   7564672aca9965adae7a6988999bbcafcc9a77a9889fab79ba7c9fd987adafdbcabaa999cbcaabb7
col22:   35686598a64b5b7da9cba5f8cac85cacbda8bbab8b9b6c4adcba899bba96987cb9bc9a7976b6abe8
col23:   47a8855735727767958997ace4a4aa7c58db878f7998d98b9899899aba899a9ab9866f887689a748
col24:   37abc9b8c799cd69cb8c7a88bb98c7abb5a9a699c9eb9c6aa979bac9abb989db666672c9ab8e6978
col25:   476a69ab68a6ba7879994d86cb75aa99899db899dda9bb7ea6c79d76b9b8ba8b8acbb5a8595acfa9
col26:   a4dba97c693bcabac8bbb9db7dfafdda8efdaaaaea7ccd78bca7999bebec8addaaa5a9acb6cd88ba
col27:   94479bdb528bbca67dc78b9ddeb7dad8caafeaebfa8cbfcbab8bacab96ce8aab9dcbdbc785ba7bb8
col28:   655bb9a8aa899ba68ba9899da9cecbbbc9decabecc9cad8bcade7cdd9cb9c95cbbcbab9cebab7e99
col29:   b98996769ac987ad99bab8ab7caa7c8c9d99bcccddaabdbca8bbac787adcaac8bbfd9ca9b7abdbdb
col30:   89d7c7acb6a9bcb6abc9aacbebcbcadbbfaafb8aaab8dbaad8c9d9dbaabdc8accbccecaa9abab98c
col31:   b8998c9b97b7ab8ebc8eedddcabeeabbcb9acdbc999bb6dd8afeadcfbcea9cbabbc59679f9dbaa8d
col32:   9688cbbaa6abbc97dbcccad998d6cb9dd9bbcaeea9f8aaa5b8a9becba7bb8b8bc8acabb9699bc7bb
col33:   bc3aa4ccc996a76cadb9eddabbc8cfbd9fbc6c69bbdae8cbec59eedccbdcc79fbbbaea6eacf9cad5
col34:   dc98aad8ae7ba87cab98aaddaac9caa7bccc9cccaedadbcaedacdcfabdbad8cbbc6b8aacc7ec6db8
col35:   8995a8cabbcacdcaa88ad68dbacbabc9cdbaba78bafcad9cbddabd7e68daabbcab99ecddcaedb7c7
col36:   7ca6da9bcab85bbba7b89dc9b989cd9ceadaabfaddbae98bbad96afbaccccc8cdaf9c479b889bcba
col37:   9abbbaad97aba99a7c98e9aec8a9dacbddbec9c9ae6dfcccdcee9bddc9aa88acdebc89a9c9cceda9
col38:   b698a69abc5bbcc5dad99c9fcdb9af97bcddcd98799faabaedd89d99bb9bd9c88cef9cd8997bf8c6
col39:   7a98eab87bab8d9bba9bddb8cbaeecfabcffe9bab9dadcdb887fbbd9ec78f9abace8cbb8b69bbae9
col40:   887b59cfbacff8e9bbcbabbdffc9fd7d9dd7aa9bebedbdb7ccbcababb9ffde7aabddbcdbc7bcd9da
col41:   46ea98c7ac89fee7cdbadecda9abbce5be7bacaa6dafbbe898bbbcbdccdc9bc9baacc9ba9b8b9bb9
col42:   5668bbb9cabb8dd7a9bdb9eab9aacfabfbbbbbb8aaecc9d8a8abfabcdfddd8ea9bd8c9ecc9b79ddb
col43:   9b7dc9c98cc999abcdbbdb796acc9e99ecbcaa8c8a86b669b9aedc89edfcbac7acb9dbda9fc89b9e
col44:   7aaace8dacc9eba7cad6cbbbca9fd8cbdcdeeccc8adcdbc7bb3fbecddb8bda7b97bcbaaaadc78eb9
col45:   98a99758c9abba7ad8ab8b8deedaecabd9ecceae9da99bcbecaebab9c9ddcbb8cbababbc3dbbbdca
col46:   386ca999d8b9fa95a9bcb96ca9cca99bdc8bccdfaacbc9dfbccfbccbdbcbfacdcaecaacbbbcf7fb8
col47:   ac79accd9bb9d9acdabcd59cc8bddec9cccdbfdc9accedaae99afbdbccbacef9b8bbfd9ccefeb8b6
col48:   86a795bca7cab8bde9b6ba98b77a98b8bad9daec899c9dcdebcdf8e98bca9786efe98b87eca9daeb
col49:   6dabba98d999d979ead6bc878ebb7dcd8cacccd9cfdabb9bfc7abbcdcecc8beecdbacbcc9c8ca5b8
col50:   8799ce7dc6ca89ecadbbc98bcefa5a959cb9dd8b6bcaebc8bafbf999cbeb98cbcb58cdc7deb9c8ca
col51:   99a86574b6c4a59758b8935ab599a9a9bdb787967a99c7ba6b57cd7a8aae9b99aa7d7a8e9bc9a8c8
ROC:	 BPix_BpO_SEC2_LYR2_LDR4F_MOD2_ROC2
col00:   a6746883565797656957799679ba899adab46697aa979ca87c84d9898b7acb68bb96b4a9a5899b55
col01:   6449788799689786a86a898a79968e98cbbcd9c48c9aaa8cfacc9abccab9cca89e789989597a8b9a
col02:   4a475b58ab88777a96a84887c997eca7cba8a8a766a8878db97b9b999aa8a88a87a77999b8896889
col03:   c928819b7989a8a687889c7a68baaacaadcfcb8bc9cae98db9c9cabcca99bb77b85b75cbcec99887
col04:   73685654ac69899a6a9996aaa9caccada98a999ca8a8b787ecbda9acbbdadc99cf9b99dabca888ab
col05:   8877aa466566899759a7899958bc88ca9a9dd59aba6cdbb8da769acccbbab9dca9988c7995d7aa94
col06:   698ae76878969a797a6ca975a97cb8d8fa9adac85bde88bac7b9bb8bbbcacbaa5dea8b979d847a96
col07:   5a5abbd9a6887468767b7d9b8a9cea9ab87cbbeaac6ed7cb9caa9ca89abbc7bb96889b9b899b8795
col08:   56755aba3786a6ab7cb8e4689c9ccbda9b5c9baab6adab7a89abca79ab87ea89a8b79479aa7d9a8b
col09:   7a6ab76b97679b68a8a9cb99c6b898aac9bab895b9c8aa89d9babb89bdba99848999a889b89b99b6
col10:   686785d896b789d5699baa7ac4ccae77bc89baabcdbee9caca9db9be9abbe98bcc85a7bb9d998b96
col11:   865755557d69859ce6ab6f9c9dcb9bdca8caa8b979dc6da79c9afdaaabb8798a98879777a78abab6
col12:   5954988693aa75888888d8a88b799a7cac39bcb5a6cbdbdabba6acbb68aacbb6869b8899797c7687
col13:   75869b695a685b96797ab998aaa77bcdeba79a99cab868abded9a8c89dd98c6b9b7aca8a89b98ab8
col14:   88c73365658997648a76bbca7d78a9aaaab6badbc99a8bbbcbbdcb976dcf88caa7a7bb79cc9a9699
col15:   89a6a769a87978ac5ac9d448baaaaeab6adb8589a7d97899bdda9c98cb9adec9ea6dd9bdac6aa857
col16:   839a676979a896a7b5a9abbb9bfae9c99ccd5c7cbeadba8bbceceb9b97dcdacac8bc8c8da76ab879
col17:   59786996577888aacb98c988a98aacab8ba8c97c9a79989d99caba87ac998d88688b8c88a7aa9b57
col18:   87447a696b7798f9bca87a7cabb797ab99ba977c69cca799daa89c98dcccbd9799cd8e8a9a97ba96
col19:   93768825666679ba6c8a9ccba99cd989fb9acb9bb89a9daaadaaccbacbdaaa6b67a78cac89d679a5
col20:   bb4589a64d6b937668b9968dad9eb7abb8e989a97be79aa8c7bb8aaadad8c7b69979b99a999a9acc
col21:   6754979584678b86b9966ba89baaf9bbbbaa8cb8879dc9bcb89bb8accda887a96adaa6b99a9a56ae
col22:   998749a98526896d99ecb8aa9db8a98db9a9b3a9be7cb8bcb9a7dbbcb989b6aadc979a7b7ca678c6
col23:   69b587b75a657a796a9597cb7abbcaabdb9d457ca7caada9aabab9a9c8ca77b98d8b7bab9977c798
col24:   87577866357c676979b2ba89fdeacadb6b977c8c8badacca9d8bb9aacfd987d9d8c79c869aa778aa
col25:   9aa667b78b8996dbc88b89d7aaaabaaadbbf88f9ab99bbccbba7aaaabdbcc9bdb57bb8b49a9b9aab
col26:   8c9a664ba89ba579bbca6abdcaeec9a9d7b989ccdacafdbafbaccbececcadbcb8aca998a9a8aca99
col27:   69aaa9b745a8d9a5c8888bcaadacfbd8cabcacebdc9ccfebca9d9c8be7fcca79ab9c89a895ccb996
col28:   8727a5b8a97d6849cac8cbbbb8cebbac798a8cccdababcb99cbcaca9bacbedddb87caac9da8cdaad
col29:   55abbbbc88bdb888bbbaeafcbfb99cd8bcbab89c8bdab9c9ccbabbfaddabb9edbc86a7998a9c699a
col30:   b9999dab488bbb98cdaab878ccf9bcbd79abbeadcfafa9ebcedbdccfacddaabe7bb98cda9ba8e8c7
col31:   db96cba7bbb9da78a9d9aa8cbbd7afcb9eccab99ed9ecbaededbbfbb988bddbcbabd9a9b8b8bb9c9
col32:   75796a7a897987d7dbbbb8eeecfcdacdcebe6bfcefcdacdfaafbdaef8dab8ac6a9bbbbabadcdbc89
col33:   caaa98aba75ca8e86a9cba7dea9cfccbcb9a8daaabeacbcdceecadddbb7dec899b9bc8997cd7bcb7
col34:   b79a8bbda6bc79d8f9b9aeecabdcfbdbdccfbccccbddbadacbb8f9bbdeeedb9ba79bbae9bba8ac97
col35:   79899a788cb7ad9aabbafdca9f8aabdcbdacbabfacdbaba6ecb9aeba9c8e9d7a8d8df8d8efcbeab5
col36:   a8bc9ebbb699c98baeafbbcededbc98bcc89cacd7a9accdadcccbbddd9cdb8bccabbcdabbbddbbab
col37:   9c897c79c89babab6eebabbfa8b9cdcbcabbcccb9bbcdcacedccafecd9ea9eab9edacae8898d9967
col38:   a9bacabaa9ab9a7999dcbc9aeccbacbed9babacdcc9cbcedfabacdbdbafd8b9baceb9cbbcdebddd6
col39:   98869b9dace96a9bb8ebacbcbbccbccbdaa99bdbadebbedbacbceddbd9db9da8acebbded99d99aea
col40:   786577699cccbbac8bc9dccab79feacbdedecdf9cbca8becebceb8f9bcbdabdeddabadecbeaabcab
col41:   bbcc9cea9c9fbecaebbbbdeebbdccbaecbc8b9ecabcccfdcdc9cbbd98da78bcdfcdcacdc9cd6c998
col42:   78b9b9889a9b999bf9cdfcddabd7bacbd7edabadcdcdfadafbebdecbda9c9da969b8bacadb9d7add
col43:   97bc9d8aacbbabdddbcdacead8cccab99a9aacbfabdb8bafbdbbcfadfb9ecfdac8baadecbba9cba8
col44:   d88b8a6dbaca9cca7eabfecddcee88b8c9ab99cedcdce7ceedeafccaadcc9ecb9c7ba98d9b9caa9c
col45:   96bac6ad8a8aca9dbbdca9cbeddadf9c98cefdbbcbbcdcadbdecceddafbbbaadaccaccacfc9cdca8
col46:   8c9bb59d7998acde9d9ddaabaabeacec8accadf8db9bdfbedfccbdccbccc9ebbbae9cface9badbb9
col47:   cab9ca99a9ababbabb9a9edfc65dcbbcbcacecaccfdbefebceecbbec8abaab9bba9cbec99d7baca6
col48:   6cd795baaaedccbcdffdeaedecbaedcacc9adfbbdacfcbffdafa9ffcfb9ccbaaa9abb8feeacadcb8
col49:   a8bac7a9abaace8aabbfba8dcbd9e9f8ae9c9ccecdcecadfcbdf9b9dc8edbda9db7bc99fbbad7d9d
col50:   498bb9b797aabaeadacfac9cdaebac988daedcde9fececa9dbdabdc8bdcebacdaebc99e9bf99bbb6
col51:   66799977977a9a9a3aaab7ca9bad8b898aa7999b8acdada89aabaac9b9a8b86b888cdaaaca899b77
ROC:	 BPix_BpO_SEC2_LYR2_LDR4F_MOD2_ROC3
col00:   6645746726aa4a436788979b59aa97b988a8759ab7b398abb9c8a7d7f7c88885a78a7884899b8a87
col01:   682c96558884957489acc977b9d6878997fcb8aa978a7898b79aeccd8b8bb987c6995b85d7bcad5b
col02:   1969b3672765955bb8aa9b9e69ab94b6a9748a8a77b8b9cbc97ca8bab7b99a7689978c79b9d38888
col03:   343a8346995a5c97c69bcba9babaca99a8ab98a88668eb99c889778beb99378aa78a8ada9a6ba5ba
col04:   76698a699ab69999b9a7ddedc78d69663987a8f8a668eabacbca9c6abb6cc77789e9aacb899aa9c8
col05:   7689666758c598688a8a8897887988898c8c6a69c97b9ae9a9cdda938a99a8c99978aa98988a99a8
col06:   6768b77645979b8b6d7b7b99a8b7949c99c9b5c79d98bbcbb9fba9baca658a99bb7a9ae99767ba9b
col07:   555a93876a8968b5b997a8c89ab988a7ec68cc76998a886cb98ca85897a796e5b9a8b8cad6979bb5
col08:   945855646688bb887b998bbb3ab98ab9a9a8db8b75b85767bb88988d69ac98a887ac3896aa97ba67
col09:   555857647c8779683bb96b9ad6acd7b7c79c98bb99aa8b7cbac8cccd9be98978b868ba8987e6bac9
col10:   535935c58a889b7669acaa79b8aaca67bb8b9976a94ceabfcccbbaa4697795798cc5aaa558b88b77
col11:   767a7669747679686c676ca9896589b97a8b987973aac9b8f5acadb98999a45daaa8b797d7da9999
col12:   727927477a9895ac949caa7baaaab9d9967898d896a87b5babcc8989db969bb6cbd6aa99bc7a9bb8
col13:   6567398868b87d6baa29cb5ed9c5b98caaa65bc79588878c9b999b78ba799a8aca568b8a9ac9a9c9
col14:   5568b561bfa7d797bc777a68999a9b9977bc8ab5aa9b88aebca79dbb9579596a9aa577a9bfabb9a5
col15:   77757675861b54887ac968c78ca8a89cc5868ba9d9c7baa89ca989aa695cb89bab8b5aaba87ff875
col16:   24878369a8bd9ea79b99d66ce99db9aaab9bc6c9ca9fa9bc7caabd99a8989a88caab799989d88895
col17:   7639566856868384966abbabaa7b9898599a9755cbbc9a786b85c9dd57956aa7a9cb97ccb68d8597
col18:   896866343566bba9aa99d9ccb7bb78bab79698aa9cbaa9e9bb88999b8898ca9886999b669899a8b6
col19:   3366969578889679189a8bcab889888cbb9aa98bac798ba7988877a8799bab7767ca99cda8967879
col20:   6674378558a8ba9676a9a3adab9b77abac699badb9b679abaa9aab9d5d6797ec776b9833ba69a869
col21:   4486633aa8598796cbbabb779acab8caa99a998aa7aa8caeb9a9a9d6b796ea9d88cba56cda8979a6
col22:   4696c658532aa97b87977a987aae9aa5cbb885e899ba99e8e7cb958ab99a9a3c7cab55cd889c76a5
col23:   781733674b99658569cb8898a4b89a5779adcacbcababad977dcdebaea678a77a9969ad4a678caa9
col24:   86193665c697b87b78bba9698ac78bcaa6aa86a968a7d979bcd89a7ad9ba7a8889cb5e6d88b8b399
col25:   2657858899957d879799cacddb7d9adc79c9b8a88bb8598c9cbaab8e8c696ac86a82798cc789995a
col26:   956369abb48ba9b5dbba6cd9ddb8b9679c9a8b8bdbdfbf9bc9c8ee9c87bcc7bc7baea88aeddaab9b
col27:   6435a7889996e9dbbcbcd8ebcab9cc5baaaaeaadbba9dc9bd9bcc7cbd89a5b7b9b89f8b9abb9bbd8
col28:   4555999a9d69c5bbabccbba9b98d88bd96cc6dbdc8caedbdbe8a7bc97cabcafca9b998bba8eebe9b
col29:   38767644988d7abbdb9d6bdc8af87ba998eabcdb9abdfdbb7cfcdaaaaca78c8ab9997d9e9a88a599
col30:   21665a7665bacbbcabab9b9c8f8998a89bb8eeadbacdf8fbbebbbbb8a5ddabe8c9d8b95c8da88bda
col31:   84a5989b9bb9a9db89cbadc76ba8da9a99ce8ccddaabeaaba7aadd9cb9a8bcc89caba9a9cb89efbb
col32:   79577a89a779bebaa7ac8b99b987c89badbedb8ccbfdcbcaca9bd9fd9aade9b9acabeacdb95ddcb8
col33:   7955a78899ad89bbbebc79dcbcbcb988decbf8ad9ccffaabcab8999a8ca9bbbd99a896bbc9ca9cbc
col34:   1997889c5589b9bc6d7ef7cbcda8acb7dd8c9bfeacabccbdfdc89ebaa9ba9cfcdb9aacaac9ecdca9
col35:   7678a3699dd768bcda99d79aaa97bb9aabeadb9c9beadabce999dabaac8aad5bbbdeacec99b9b877
col36:   c5756bc8a99babbc79bcb995cb8cac976d9be9a99bd8ddeadadbc9c78ebf9bea9adc8c8c88b99a98
col37:   683867789b6adddf9baaaba77c78aadaa9b8cadbbdfbdcbabaccf6b9dabbcdaaabaecabbbc7c9d88
col38:   5b6889e6bcab9defdbdbfee8f9cd6ae7dbcddb9dfbbc9afbfb7d6bbb998a7deccc8c7cb9fd7a9995
col39:   453aab679aa9bcdc89cafebcab4e8b9caddcdcdbfdbacddadcbceccb9addc79d9bf9dfdcad5acaa9
col40:   6ab569b6b88acd9ccabcebebaabab9fd6b99cdbbdb99fafcfa7a9b9bcab995fccdd9edaab8bcfe8b
col41:   646a66878b9ccdff99d7ac8b9ad9adc6abefcbdaaccdafdfbcddbd989cbbcada986bcbecbbfc8ab8
col42:   a879a99d487d9abab8fa8a7b9d7afdc99b7cbacddffadeddeacd8cba8ab99beafccbddbbc9ccda86
col43:   687865999dd9fcb9bcca997a88aa6cbeabebced9eadbbcdbd8ca97b8a989bce96c8acacbd8ab98b8
col44:   98697b76b9eeaf89d7bebd8c9dcbb8ab9cdaab998deffbdceababcaeb9c5dbbca9ddfa9ba9ddd9d9
col45:   989bb937cbdaacecd9bbbaafaaddb8acefb98cbbdbfebeba8bc8cacc8b99ccdc9c89e7ffcce8b796
col46:   784ba9c6a7b8dadbccdcb7dbe8eb99bd9e8bc9dbeacbda97feadc9b9a8a79cbbcac7fdcfbccbc9cc
col47:   3bbb5a7cb9aaabb97bb87a7ac7b8d89d9ada68899cddfbbbcaaba5d7a88b98ac8ca97ae9cd9caaa4
col48:   77998a6ab98c8c98ae9c9d9d8c9cab9ccca8baa9baebbbfe9fec7fcabaacbdabfdddabdacbebabde
col49:   8685a66c2999acadfacbaba77b9a79da9bda99bb9fcd8db95db88abbccbbaacbcabdbf8a8bde987d
col50:   ba4879aa9ad7cebde99ada9aa87b9d9b9edacbcdcbac9ecbcacbb7ccabae8caac9e8b6dbadebc9ba
col51:   265569778c88b89ea9b8769a668b9bd8c579ac78b7bbca7aca899b838bb67c89598a9b83c7da689c
ROC:	 BPix_BpO_SEC2_LYR2_LDR4F_MOD2_ROC4
col00:   2114237226453777a198455332716134554b837a5947671256765461786663475476258594a95333
col01:   135359972886485c7496786a7555596a56a68742a927886787a75b78675689d53587973545676559
col02:   474547735576968686a54745b1539636569989b2566a87559547649a967996687a6897973566957b
col03:   47455159687676865748796aa725786594568888676486c5966865861cb57886754885967878a479
col04:   2451956919974a8998697a41187687737a5975a978754863945564464776ac8559a8656788789597
col05:   135247546b365785cc57666351763768a6838d86744a9964857675657845857997ad78c943736659
col06:   153866b28899887a69c5a88884897364995a37386ca9b9976667959c765c436a983869787599588a
col07:   84371978498aa3584955c5649967767288ca6ab9968a84baa4a9385cd79aa6939a88869996aa2853
col08:   4473675b966866b9878226bac766a479a5977a59e79a8a68899966a72988998cbc76ab6966988698
col09:   5753517353a577a5755d89878ab7355867b589a5a58bb86b26a93b6748774766b7a765869a954a7a
col10:   3434635847aa76b5896789568898b68894b66d99b64bad98999189b66899579a88a9897846557da2
col11:   765658999678754958686549669973a986b8dc9d74a4776678b67b65a984663a99a9e6a5c9461997
col12:   3411b88996a58868a787858757796684a86899d8ac89a969667b7a76738995a6e77b38ab74843875
col13:   2515367591999ac5987485677c976958c878aaab7975e6765717a3c4b9993aa58866a7677998b98b
col14:   24344b88b5ea5c6cd5594799a26589aaad699b97b78b559689fc6c78aaa5a97a636af9b576397874
col15:   729481598999774c8534aa6595a67a824b8bb8788b7bba6b8865a796b57ab79bd8aa9897795a8444
col16:   1985a88689a75995896677668a797a9b78baa997797ba6a89c566b8aa68997ccc99977c9a7997667
col17:   17715aa8864a576b776549c68aa7b9a9da889a878ab9695572a6bac969c656c93ba85999553ba5a3
col18:   15685819358876677869777959986ca98e7986a7a599c9a69b97b9778a765aa8aab979c9988a8695
col19:   3776447497767865b759937889ad9bbbc89cb8c88b98258bb69a788767b88ad5a86ba9699cc97554
col20:   55568b796986b786885a987779479868878a98b79589aa77ac79777cbaad6bb4b7cbb661b67ba697
col21:   3181655aa8b8555884786657846b78a9a99a9996ceb9968d768835678ba85995c85787325968c79a
col22:   75146286697a7b7978797899bb7bb8597aabb8abacaa999c7ab697a89b8c7de57a9d4c8bc968a979
col23:   74474ae5d9c7976a798a88467949ac4b7ac9a8a88ea598aca654c4558b25aa7866798cab67646575
col24:   54686695aaa63a54767998a28bc7996b8a99bb8987a75b9864b68abaab7b8a958a6469a8866374a5
col25:   36787d97899baa4c77878b986a89996b689b6a8db99ab975ab967eabb679a79bdc6897b578db59b5
col26:   482a9c566bc7bbac76a9cab99a89cb89b79ad9ba8c9979a9b69898cba88ead9ad8aaabd8cbb69267
col27:   757b66989b3a989bada6cb8ab8aa9f9dc9ad9a87abadfbd76c9aba9579c98aaeaa7bab877887c4a6
col28:   89298c9ab56d7698a5987bb9c899a7b6bba8cd9cb899add78bb9e8baace9cc8a8999c6b869b6b8a8
col29:   85968fcb9bb9b87c9a68a9cdcc8cbabeacccbbab979e95b7779db98cea9ebabadfaee6bb8abc54a7
col30:   9699697ca9c7a7b8f7abb9a8a7dbcb9f9cafb8caeccbb9a7adfbcdacfbadfbeabc9be9ab979ba95a
col31:   9bda8cca9acbb88bacbfab99b7bb9cd9be7cba8aac9a99bcb9ddc989e9dda9caa68ceb699acccba7
col32:   8aa8bbaac9ca9edbbe8a7ab98ab6dccacbddfc8da9bdbddb7faccad9eedde9aaebaca6bebb9dbc9b
col33:   985c7b799b9dbbaab99a89ac99eacccdeaccdc8aebda96cc5bbbd9b8cedccac89dad789977bcac9a
col34:   78659ae69ac899ac75faca7edceb9caaccbacdcd9aab999e8b88cadecbcbcd8c9fcbebdbdba9a85e
col35:   76b79bdc89c99a85ac78caab5aeb9dbc6bdcadd9bdb98bdbed988d8cd9bbdb88babce8ca8949cdd9
col36:   778ebdbb8ddceba8caf97d99bab7daaffdbbda7cbb9c89ca7db99ebb7999bffeabaddca7fa8978cb
col37:   68abbb767b99a795fbd7cbabe86bbcbcadb9ddfcbacabb99d5d7e5bdeefadabab564ccecba74ecc9
col38:   78999d779cadb9dbfb9abbfc5cebfbddddfcc9bbf8acccb7db9ecdaa8beab8c9c8aa8b9fadca8c97
col39:   c6a97947bb69abeacbdabdeb889fc9dbbeca6cbbccdc9bc9ba5cbcaab9bb9ccaacf98adca5bceab7
col40:   59a87dbaf9b7e8faa8adb9b9ed67afeba8ddab9ccaa9bb9cbb9bd9dcbbdcaccf9eeabac7eeaeb698
col41:   89b7a8e8c9fc8dbbbdcccaaba9b9dadcfcf8c9bccbca8dbfc98ffdbbcddcdfeebceddb87abdafbe9
col42:   879c69cbb7dd9cccd8aacbbacdbfffcffefeaedcbba9cbdea8b9dc9bfa6cdcaabcc7dddadab99b8d
col43:   699baa9eedebacbe9c99cbbbccbbc9aededfde4cdbcccdcb7befbbffbdbdaea8dfcd8cb89eb99ea9
col44:   88a9d7dadcaa9daaaacbcaabbddbed8ddffcbdcfd8fcbefffcccbdecf7a9eed7a9dfcbb9ceedfebc
col45:   497bb8a9aaac9cfdfc9cb98aabcdbabbfeadbcc7acbe84bdbbbadcbb958b7caa9caa8ccbbba6d9aa
col46:   bcb9dabba99ca8aecedeacddb9ecdad7ad9dcbd9aabbabc96dfcfd98cbefeaa9eddacdeebef9daba
col47:   b68a8ccbd9b7cd9bb7cc9bcecdfcdfdceedd8adad9ddcdaceec9adeccccea9ffbaf9cbbcabbacce9
col48:   85967a88bdb899adabba97cfdcc99cacdcbd8ef97ffddcacbdcafdecc8ccdcdbdeef8bdd9cbb8cdb
col49:   4b9a99b8aa8cbc9aabacced9d8dfbfafeaddcac8c8cbfbc8fbcbabc9effbbdd8ded9bbfb8aeec7cb
col50:   59dbbbbd9abdfbfc9a7fc9adadfbcadcdede9aba9a8aa8ededdaedbedfcbebfafc9fcdfadad9ea8b
col51:   89937a2baaa7b9ab98a6689eaabdcdbcaaa8d98aaa9bbcaa79dcc9abddcb8baab9ccc8a868a7ad78
ROC:	 BPix_BpO_SEC2_LYR2_LDR4F_MOD2_ROC5
col00:   482537775793865a4967799bb8849a887a787aab9c85aa6b879a99785c96a89a6b5aaa76a898777b
col01:   99673a9797a49ab88795bca8b9a88587a77aa9a9aaa6a859a99bbbbb9e9a76aba989aa79c8967c93
col02:   7195b3749749b997868948ac896b686a69768ac9bd7bd99baebd68bb9ab6ba6959685a9b79c86995
col03:   8566686b677aaac9997898dc996a8988e9895ab999dc9ebaa8d75aca8b999ba6a96d68baa76a87a8
col04:   555668584c573ab8b96b979cbc75679bc87c76ba59bcdda8caa8ca9a5a9a5a6abc889888ca899986
col05:   934575786738a588a696999a87b7c99b7c73dcccc9ea8b8dcaceb8a799b957b98a879a8999688a56
col06:   6463796669b899a76957bb8ba894a8779799c5799cbbacc978ca84a889c78998da77cc8b79958667
col07:   65aa7774c88ca7caba889c964b99a95cbc98d99d8abc8b9b7dbbdbb9baca97ba9a8d9599ba9c4979
col08:   896a989b2d8a6c6c7a7a999c777899a8cc9a99aa9dba7c8a5abd6b996b78c9b66acbb97699998658
col09:   989974a88889aa8b786d8d99aa586bab86ab7b9acacb69daac8a8caa5b785a79baad9ea7aa8bb687
col10:   567285885b87598ca8bebba68787988b8bca9edabcadeca6986d87a5a8bb48d88a9b96bcda9a7775
col11:   87757baa59976ab88bea8d69ca9a8f99cbacbabc99a98a9a99abca7a86abb9c899aabc9ad5976977
col12:   525a51995998b88859d9b8baab7c85e8cb99aa9dcbae9bb96b5a88a6b96bb98abbcc9d4b97867a77
col13:   67246878aa97566965c8aabcdc86a99cc7c889a9cbabce8a8ea8cdcbbabc7c99ad76bca998ba6a67
col14:   85865988a79d9c7b884caa4bbbb7ab8a67ba99baaacfedc9cfae98aa9aabada97a9ac9959bb988b6
col15:   54c6868bba8b4bdaa799ba87b58a9ba8a7cb885cacdabd8977b4bceacbb99b8bca9bbcbaabb9b8a9
col16:   3779988caaaa5aa6f7c97daabd899ca8aaabb9d9acdcabdc9b89ab9b9aaaab7caa98eab8c889b888
col17:   5ab86a5669a6abbca8baa9cbaab9aacbbab9bc3abfebaad5aa8bb947cd8aa6b887aabb9879a76685
col18:   87a9788876ba7c78699b8c6b8956988b99a99899dd7cc98dc74a6b8d8a8996989689aaa79898c696
col19:   877734654779cabb8b9ab597c8ba7c7cb99be47daf889dbac988b9baac8c9dba88ca7688b9788a77
col20:   38667248a99b47a96cbb7ca9789b96e6ab88f9ccda8adcb9b99799a97b9baab698f9b9aaac768966
col21:   97666db59984ab8c94969b98cbb8c9c7789abd9dabbbad9aaaebd7664a8aba6bddc9998b988aa979
col22:   c786b55b9898a8a3899b8c899aaa8adaaecb96cafbbbea8c78dca8cabc8a8cab8ac7b9acac83a6b9
col23:   598a8a57aaaccc9a8788dccba8aabcac8a9bbfce99c9cbb97baaa88bdcbed7c7facbc499aba8a85a
col24:   557674a966d9c8bca67da7b48d68a6a7c7dab8dbbc999bac9b98a6bc7c9988ca897ec88a987a67b5
col25:   ab766975dec6a9cabb8a96cbdabc9cbe8bcbabbcbdac9dbabbda5fcd99ababb79f7caea9a79b6887
col26:   46599a93c7ebae9b9c8aa89e7eb86acdbececcaedfbccdbbf97cabbc89fbaabaaeaadd9bab988995
col27:   c867977ac7adfecc8ddbcd7c9c8ccd9af9dde9da8daeeb99aacc9ab77dccbccdcbca89a986774986
col28:   665ac83c8878adddbeba7a9ddcbcccc9abbcdcfbbbebbeccdacba6dddcc9dc8cc9afdaddab98b987
col29:   5d5898ca6b9bba98bdcce9dfcdbdffcbbeeacff9cfc9d87bc89cb7b8ab9ccdab8caa99ba9996ca8a
col30:   94798eaea99c9ababac9c9ccadd99babb9c8caabccaedcba9aeccdbdeb9cbbddbc8eabc6db8769ca
col31:   947abb89ab99789bbc99a99fccbebdcddbf9c8dacebbebabbf9ba9ad8cbbccbf99cadbcacbcd7989
col32:   899957789bb9bb9ac7cad8bbd9bccdedcbedaebeadcdedfa9bce99cb97c8ccbefed9cce749898a97
col33:   b8ca8a9798abbaab7a9caabbbcee9dcbcdaecee9d99bcbbbbaabeaedb8cabcdcbaca69b9cab88bc7
col34:   9e9a9e8aea9aabaecdd8cccc8a89bcb9dfbfeadcfdec9deafeb8c8cccecca9dcbd8bb89a9baaa989
col35:   6a98b6b8cfda8b89c9ac99abbbcb9dd9bccfbcfcddaeaacbcbbbdd9cdcbbbdbaa9b8a9be7a798cb8
col36:   8b4a8aa9bcfc9aacc88c8b9cfbbbdccddeeaebfedf9ebdd9ecdbeddeabb9cd8bbcb8dcb8c99b8aa5
col37:   b99aeeacabbadddbaf9ca9dbbcbdabc9eafcddcbfcafafcd99cabcab6cbdadbfdcdbbbca6d9eda6a
col38:   9bb98a8cb9bdcbedebb9bb8ad9dd9ebadc9f7eccbeedfbdbbfce8baadffdebbceb8b99bac978ebc8
col39:   8acbb89d99edcabd9d98ccacccb9cfbcedcffbeec9edcfcbcafe9cbaabaceacdbfbaca9c57888ba8
col40:   777dfd8adece6a97ebbac89e8dbabc9ddbedcbabdccdbf99dadaedabbddcddcdbcb99b8bbd99c897
col41:   9b7dee9e5df9897dbacbba8caccecddcebefbcaebfffdfdcbdebdbefbcefcafc9f8ebddcc76a7c69
col42:   b8a9bba9c9bcc9ebbbecdc9cbcbeecc9ccbb9bfeabff99edc9cabebfeba9dbebbdbd9e9b879a9a97
col43:   d9c8b9b6ba8dddacedddfcdaeadbbfbcbddcedeeecedbdcedeefddedeaddecbefcbeaddbfcb7caaa
col44:   aab8b9cbbcdeeaacbdbacedcbacdfbdfd9aceebeedbbccffecbd9f8caeecbffb9adcaafbbad9bbb8
col45:   9889ba6dc8cbb999abdcafcbabcbdbffdbcafb3edebecacdaa9dcdfa9db7cad89bc8acdacb7b7aaa
col46:   5ba6bb9adcadadcd79cabbddbaae9efcdbdeeccc9edddfecaaf99ccbdbfdcceacbcae8b8b99d9499
col47:   b6599a98cdb9c9ddccdbbceaddbccceeeabfcebbce7bbbfdc7c8dcdcbccbdadccfbcdacabed6896d
col48:   a8887bfa8a8aceecbbf9d9bcce99cdbccafdcc78fcdabbfe8e9cec9ffbbeda79ecbcab9bc7c8a979
col49:   a89ab99def9ccecb9dbdaabcabbceecf7dcdddedadde9c99daefc8dfebcd99adcda7cbf8baacd9b7
col50:   9988d9a6adccbaba9cc7abbdcda7daefce9efcd9cdadfbcbbadafdcfdfffcabcabeebc998db9b977
col51:   a698aa88adba988bba6bcc9a9cbe8ba98be8cdcdf88faadedcca9bbafa9ab8476c9b8996ba73b945
ROC:	 BPix_BpO_SEC2_LYR2_LDR4F_MOD2_ROC6
col00:   7668458a462866769976869899598765899869788b9668367789638557689c84965b758a887aa8a7
col01:   5564497989a79aa88a9559967a976ca767759b98d9a799bd9ed983aabca78b69a7697893949a87b7
col02:   39856694ca6aa9a7b58a8d8b9b887a79caba99ab9a9aca8b7898a9996577aa99b7cba78aaca77989
col03:   638898856556847864ac97b98a57a9dab689886b98b8b889b6aaaa99da8aaaac899b859ac6889689
col04:   4657879466164594a8aca88aa9798a98cdac88999ab98bb9abaa78a989accb8babc899b9978ab5da
col05:   836864726bc8a7b99a699896365c98a7979ca8c88a8989a679c79bb7d7b8a894da9b9796678669a9
col06:   8856779b79769b8296979ba88a9699c9cb997bbe6c469b89b9cba87b89889878996babb8889aa9b8
col07:   8b9d47985835b7c657baab7ab8a98979c888d8ada8cb9c88b9ac8c589cc6579a6b587a9898b9bc89
col08:   69a68789759a6ad67b9aba95b999aa8cbbdabe9d6dacaabaeab8c9a8cb69c98765a979a797997ab9
col09:   8963a73889a78c698958b77984a7b86ba4b9a6eab7cb88b896ba9d6ea8b68ab89b8de89889ba885a
col10:   7556447c8974988a889bb999aacb8798bbababdabcbc8c9b88a8b9aac8db6abdba7bd76868759968
col11:   84455456796677799ab8ca69ad78c4aefb8c99868acba78abbcbdaaadbbb99b796d9877a86b87aba
col12:   6584a773a878a939aba7875b87ac9bab879a6a79c97cadcbbababcb8aeaabcb899baacaa79b966ec
col13:   856495775a779776b87ada99dce9cb9cb876d98aaabaaba7c9887aabd9c8bdba9a7898abae99cba9
col14:   6697786abb7798576c7a76977bbb79a7ac9abadd5dd9aa9bb7d9cb9accdc4997ad5a9aa47bb8aaaa
col15:   65675589784788d8899b698bacbac9d7dac9b9baa7ac8fb8ab9bcb994badc69ac6aaa99aa87adaa8
col16:   69c75999b899c58c7ac8a9788aaacbab998899c8acaacbaaab9c9d9c9ccaa88cbaab998bbaa6b88b
col17:   88697769ad8a966888a7e98798c9787bc9baababa9b9a8b97c5aa9d9bc89e9dbcbc99a67899a8bc7
col18:   96346998c69aa8c8e86866899b87778a989979ab788aaacabaa7a99ac9ccada96c88bac8bca9aac9
col19:   676895a6847a449b89a88ba86db8c8cab9da9bcca6ac8caab9bbadb97cb99adcb998ba7989a899b7
col20:   867a38b9379b795bc949c7889abaeb9a9c9b49d74a7878bb49cba6e9dab59addbda9d495bbdc8bbd
col21:   73546657277889a9a7c768a7cc69c8bac897b8d7bac9beabccb9bdd87d997989999997aad9b9ccb9
col22:   4969d77684b988688a7998988ddb9ac8ccf69978cdc79ca999a889b9cbdb99abc97ab7ac5895adb6
col23:   4866866958a5779a89a99688babab7ab88ab8c777878ba8ab9a8a997adbbbacb7789abb679a89696
col24:   885bc69a93797b788a9988499dcba787b8b989aaa86bc9daa9ddbdb9aeaaaa9aec88a9ca969aca97
col25:   67a59a752b67cca9a87ab65dab9cb8b9db9beb96b9b8acacebbadae97a9aa89a9a99d4c8ba999ab7
col26:   66a58bab8cd7887ab8bc87baeaa9ab7ebfcac9bbcaccedafbdbcebdbfaddcdb9a9dbacaaccbcd8a9
col27:   aa58697a979b8ac998abb579bbeea89cdeb9ea9ab7b9ecabcda78b9aaa999aaaabdbeb6bbdbddba6
col28:   54baa57aa8659a3aaeebd99cbabbbc98ddbdffe7da9ad97dddbcbabddbbdbcaecc8bdde8a998a9cb
col29:   b9789888c9996b8d99b9e9c787d99cbbb9cbaacc88dca6daefeaabb8cbc9c8a7b9dabfb9cd9c9cd9
col30:   967aac7adab98a86bab99dccbbccc8aa7cabadbaca7aea879accdcfddb9bab7dccadbebcccdbb8bc
col31:   8599b8a87cc96ed99dbcabbb9e78bcdebdfdbdacfdbdecbbdcbd7ca6babccbfecced8cfc9aababdd
col32:   a79b7cca98b9a8bb89bbdaddada9ccccbbaa9fcbcecdcdaecbddacacbdccccfefaf797ccdcbceeab
col33:   aa56b6bab7db8b9adbcc9dccfdbb8acaadb9aedccbecccd98bccbdcbbbefa9daab978ddcbbcdcebb
col34:   a9c7998a7ebbb5b9aca9f8adbebdbdbcaebbe9ba9cdbcccbbadbccacafecd9bbdcecb9dfbedbccbc
col35:   6798ac4b9addb7dba9baccccccacbddcbbccbabfaafccfcdfcbcdcadcafbdcec8ceebbe9dbcfabbb
col36:   faa9e8baaa7a979bc9fbaeecbb9ed8cd9dbcabacddbedcd8ebcacacdffdc9cdab9d8ffdeccbbbcab
col37:   87aa96a8e999cecbcdb9cedabbeedecebabfcdefebcabccccdccdaedcd9bbbdbaca8eccdbdaaefca
col38:   7bbb88e9d986bd8bcbacdcdbdedecaab7ccedbdddbecdbbfbffeddfbfcccfaaebcc9cb9decfebbec
col39:   da89a88999cab9d79cacffbcbecbaceecddbbbebdeffcabeacabbecaafbebddbdcdefe9cdcbbdbe7
col40:   8799a96b87bbdd79abcbfdbd7d9eafdebcebabdbdccdbdadbfbdeecfdabcfbbbcb8acecacddd9bdd
col41:   885d8989b9cf98aa7eacebadbdddebdfcabcbcdcdcbaacefdebbecf9dc9ed98bfeaeafeddfcade9d
col42:   bb97cdb999cc99ebf978ccfecdfffccabcbaeefc7dd9cccffbaafbedbcdaddafadfafaeccadcd9da
col43:   bb98b77899aa9cf9bef79ddcefecdfcabcbbbcdadeaffdeecfe8bfedcce9baefeccffacdabfaddcc
col44:   5997ab797bbbdbf8e8f9daa89c8cab99eddbeddccc8fdedcdefdffffeddcbeacbdefbccccbddcdcd
col45:   877d68b57998bb89aab8cdcafccfc8caebeaa8abdcfdccdcbcbdbfeeabcccfbbeccacddfbcdedddd
col46:   a88888cafc9deeb8debaedbbdeeaddffbdbadccabecbfbecec9ffbdceecad8deadcfddcfcadafdde
col47:   a989968ab8cbd9afc7bac8cdfc9fedeefcbfcccffaadddbcddaffcdbdcfbedfbbbcccbbeacbebdec
col48:   47a88b7a96b8a9cabbae9eaabcfddcbbfdefbcbeed9cdd9cefecfbddbdcfcabdcea8bbbddddbdbeb
col49:   b996aad9bcdaabcfecbabdefbbcadccccbbcdecfaaceeebccefdcbddbcbd8cd9aeaeddb9ebdcfab9
col50:   a7799ba8aabab9d8fccdccbcdcbcffdcedcabbbfccedbcfcc8dcccceebbeadddbcaffbcabeceeddc
col51:   7668a8b9c7679abc7c9ebaedcabb59ca9bdabbbcabbaabadbbdbcedbc7cbceadbadcadbdb9abbcd7
ROC:	 BPix_BpO_SEC2_LYR2_LDR4F_MOD2_ROC7
col00:   811851644767647936669797885947bc86889a58988a8599396743a94967a9459698469778695634
col01:   469c775879a8556568679848866a6a9b869a7a88733a579577a5b787a76bbb987796995735887687
col02:   35636b498aa86b6557a77b58746886a8c698678a9ac9bdbbc976caa498db7979998a788699476869
col03:   a98367559bb77a577976b868bb78897969ba89a7ac98d73947777ab48a9d78a7585a8884c8697a6b
col04:   54a53627b5788747876869ab75a68caa85aa987bdbdb58a75c88859ab787d879897aa7577a9787a9
col05:   7779da86848598886956b8c68569999bb8be9cb998989a7d657689a7a9755baa8b96669b997ab885
col06:   418cc8765a89788466b7d994788a98888acc8c789876b8a9f9597dcb9a6689758959a6c76698b774
col07:   694578576a8b86678978846a798b9ad7aa8b8d8c9cd89997897989abb9a88a9479692ca9b7993d67
col08:   56726a8a8482ab96c7666998a97988ab8b8dabaa7797a97a8a899899b868eac897866da969757854
col09:   1b65ab866aa57567b79679c8a87a7a7c7aeafab8c8db79a77c59a7ba7bdb85897a6ca78777869964
col10:   46a66867885a798d99b6787979b58b8bc96aa95ab77a9a5a99a95b56ba999aa96bb98aaa49595597
col11:   68678982764c56779ab9798998b7877abcaaa8699a8b89a88cb5bb9678bd998ca7896a8c8d887796
col12:   36b78757999b79657d9957b759a64cb8a9da9b89a9aa98888aba97b6489ba9baaa9a89a996a78846
col13:   998838b78634689a8c8bb9596a5bdaaaca7da76a5dba7babdcad989bbababda76a95967b79889ba9
col14:   7669a8a7a868669988b86ba8ac8a7a7aebcb8a7c7897a9cbc989ae69c8aca8c869376b8ab9a8a9a9
col15:   a7597876c4686c45785a7a969699cada7b8bb8899869e9ab9989797b899a6b679aa9986897886846
col16:   579b785aa7796774a7667b86a777ac98ad8ac8679adaab8aac8aaacb69aa96ba987b7aaa86a95886
col17:   7753758b8a888a79885499689b4b89c98a6bbac7a398768b88b9abaa7cb8d96ba997aa9858a96587
col18:   6389757686456b78c89968969c6979aa6d88bc98cd9cc7c6a67778b88aba94c9cb8a9ca89b7b8a96
col19:   8a5557479878a77898a78abbbbaa8aabcacad797baeda99aa899aacddeabbb9aba59aaa87a7a9a88
col20:   46785888697b8955896b6598a8c69a99dce8abc9bb9968b87ac84dbab7a68cab88a8ca5c7a8ac55c
col21:   3487689c866a9876b98a978b989be9c9bbbace6aaca58b9ab89765d98e997997a99977adb9cba858
col22:   767a69a67639b7a7767a5a26a68abbabc7abf98bbc6b8cad5d7a8aa998cc88cabab9b98c98ba6695
col23:   9697977689b587a8bb8b98979b9a88a89ba6959687597689a9ab69aa9eab7a6cb68886a688459566
col24:   476c488988689676967a97a967bd88a9a768aa9bca87ab99c68ddacacbdbab8a3a8dab7cca7a75a4
col25:   7b9b7c696b8b989b8c698989bca9accbcab6a9a9c8abc8c9999da98cdae88ba9c9ebb9cbb8bb9957
col26:   bc7888c7aebb7b9bb9cbd8dbecac9abbab7ccdf8fa8dcc8abd9cdba8dab97b9d9cbb9cb6ccba8b59
col27:   888ba9989776c999e666b86d8c8b6dddbb99bdddee79bdab999b97a5b8bddbb7c77bac99da7a9997
col28:   a59a9a7a6ba65ca486bd79a9a6b9bbcbddcdfecbbcbd9cbe6db9db8bee89bf7cbcaacbccbaa7aba8
col29:   688abc7cc7b89d96a3dbb6d9becb9ccb6babc9f9adaa7d68db99c9fd5bccb9dbabcc8aaa9ac9b8a8
col30:   8868889a89aba9a99ec8698cf8b7bcdd999ddbab96bccadbdd8bbbabcdbbbabbbabcbce99aa9b989
col31:   aab97adc8aa9bb8a99bcab7abaadd8adbcacdea9f9eaacdecddbcc99fecbe8d9b8b987bceba879a8
col32:   97987b89b6c9acabcb88cb99bdabfdcddcab7a8c9cccabbcb9bebdfbabbabbbfca889cbc9acbba8b
col33:   978767cab7b7abbe589a99eccd99dbadcb99d8f8eabdbbd9ed9bbccbacbacfddadbaccc9a4aa7ba7
col34:   aba69ba8bd7c99acb8bad8adacadcadbfcecddcacfc97b89abcdc9cf9eccbaca9eaccaf99bbabc99
col35:   cbc8c98cbcbb9cbab7a789baedbcce9adddfaddc9dd9aae8c9b8dbcd9ae8dcbc7ece7dcbcb7aaa8b
col36:   58b89a9cb8b9cb798999baaa9dd9eccdecbbadbb89bfaecd9fbbbecbddcabc8dbf85bb7ebbc99d83
col37:   ab7decdcc785cad8999bbbccbaaaabdeec9ebec8dcbcdbc9bbdcddceeddcac6ae9bcbfb9ca79ab7b
col38:   8b9ba9c8bcdedab8b99bc9bfca9cecccc9ebeefbcabbddde9cbeeccfcbc8dbfbdccdbc9b8cdb9a9a
col39:   b989aceaab9b7adb7daa89bebedaccebbcf9baabfbccaffcccfbeeb9bcadeecdb98b9ac88ca8a7b8
col40:   7cb69abcdab6b89aacbcadb9edbaabf9eacdeeebc9aeecaddcaebbecddcdbddcecea9dccbba97dbb
col41:   bbabfcb79c99cbe9abdbb9bccccedfbecefbaecdb9bbbdd8a9dbeeceeccedbcb6dbcbbdaba9c6db7
col42:   6859abcca8579bbca8b8aa6b9cfdbcaebeeeeedceddecabbbcecddcdefbbdaaa9cada6ebabb8cb88
col43:   a795ac59aeeeaaaa9dcbccdcabddacecddadcd9eededbbccfadcdafbeefdbbdcb8ecfcebbcccccd9
col44:   a7b9bb9dba9c8cec89c8dbcb9dcbddfeedccefb8bdddbcebdddeacccdeabdcdcebabbaa97a7dbc9a
col45:   57baacbb9b6ccabaa89bbbcadc8ddbbcbebbbcabdbb5eccbdbccdc9edc99fdcae998dad9dadeacb9
col46:   daddaadcfababa69babdbeecbfcacecdedbfbcc9cedccbff9bdddecbbecbacddf8ddadcddccebf9c
col47:   aedad9a5bdaac9dc8aedbaffbeb8cedfacefbdccdcceaccddcdcbeedeacbecceaaa9b9abdcc9bb8b
col48:   8bbab8c86baa9b999ebeb8ccdaec9fccbdddcbdcac8cededace9cebcfdbdaabaefdbddbfccccccc9
col49:   caaaaba9b8caaeb99b79aeccdfbdae9fcdbdbfffdccebfdcbedfffbdeadbffcfafceacba9edcbdab
col50:   c9abcb8a4e9ca6ca9dbc9cc8bbdcec88fcfcde9bccabdcdeebf9ceafefababf7dd99acdeadbececa
col51:   bbb5959ac79977aaa8989c9a8bb7bbea8aaaab89db99acaccccab88cabba6aacd9c7bda9acbbbcfb
ROC:	 BPix_BpO_SEC2_LYR2_LDR4F_MOD2_ROC8
col00:   49566826668468a668566a7976949889ac85988aca97889a998b559baa85a978867997a956b44675
col01:   6387ab6a87b97a985baca76caa9ba896c67a7de8bb87a9b389a98b69ab88a8885a7896a69a689961
col02:   773a695676c55674a898bd788568c88c698eac9c9c9c897ba7a9a99e8998e789acaa57bb78786776
col03:   64857b5799c8a6878adcac66aad9689dbeaa7a6c89ccac899b569abaccbb969aa56a8897b9888774
col04:   639386897b9abc98aa98cb88c6e8889999885b7b5cd878baba8a7caca884d9ba96a6869989b75b85
col05:   475778476ab659987aabb6b9c7789bc9acca9969be89ab98a97aa8c9ab98ac8c6896b8a8a789b772
col06:   785476a96858698888bbaaa989c6c776ccbcaa9b99ca39adabd988aa7c887a99abb86b9aca968565
col07:   88a8844887a96a674596a89bb68abd7ab98dcbcde8acea8d3a6bac9894aadaba9a85d7986b7baa85
col08:   827655a7885674959baaa5aa5a687c8bbbabbc9d966a9bbb987597a8bde8b97bd9a8bbb899979a97
col09:   66779796b5467b8858967379bebcaad9cdbaab9c8dcaaa89b9a978bbc9aab6788c9d997878b98a68
col10:   648a7977a96797999967b8389a999998857cba9a8b9abaa95db58ab8eca96da67bac95c6b7864969
col11:   76496b37898b46c89659a78b88c4c9c97c7dc7baa94dce67cb7aacd69ab8a9b5acb879a7a86a85c7
col12:   b4858578976537a97b979469b9a9aa9bca87dd8a9e78b899aa87a87bccbbbbb697ac9999a8a794b7
col13:   4a1686b8499b9989ba8c899b85a89ba7c7dbace7cf9bebcbbaba7ca88caecc99aaab999bdbaa2998
col14:   6729465a89488ca789ba9b6a988da8b9d9cd7e8b888c9a88ec8887cc9b6b5a9cdbcaaa8c98488c85
col15:   7281a565b789baa69adbe68aa8bb6a7a8a5b96ecdcbbbab9bdba6a9a9eb87b8b9a9c98a8b7a8879b
col16:   5a45b37878887899d74c9a99a998acabcdab8dcb8be8caa9b7a56da9adb9bbbaca89a768a9a848ab
col17:   35978b8989489a5a7568aa9b779b79c8b9e97abd996a9b9a6a89bfa9cddc97386ad9b99b8a899676
col18:   a6697a8888886879957c9b57cb9ba7d9998bb8ab79eb9daa9dcabba97bdcd9b97bebad58ab3667a8
col19:   754995a587959aa8a77aca95777ba9789dd9dccaa8cbbadab8a6d7d98996c9996fcb56b97b6a9686
col20:   448999888a5b848749988659aac9b689bf97ddaccb6ac899c9b9a9aaa9ba9b9b9889cc76b9b59a7b
col21:   76664598ab8bc7abb7576a9aaae8c9d989dcbbaa9ccd8bb9ccabfb799d9d77a7a69d98c998ac4776
col22:   54a498a998988c7bccd98a8c8a97ac89b88dcb8be9baccacaeaaacbcc8cb996a99896db6bbc98c89
col23:   258988555976a768b475998bc8ca6868979aa9aaaacac69ab989aac69ac8cadaaa9f9ab9766c7a58
col24:   5877aa877395699c7b9798568cabda59aa9ce78bc6a8a797799bc9bbba697a9a9aae958c99878877
col25:   a93775788aa83b48a9ebac9aab98c95bababbaabd89a96cbb9c9c88a7cb7bab8969da979c9adba99
col26:   58995aac89b998bd889bbbabcaebabab9ef88c9fbbab9ddebccaadccda97b89c9dbacafd7bbcb586
col27:   485688a9a8c7899d7aaaa88bb8bcbbfb8dbcabe89c9b99c8cbfcbe7dca8da9baacba98cd98a98b7b
col28:   5698ade9bcc6c7896aacbd8cbcbbbdb9ecbadfeba9dad87dbdc9addacbc8c9bfbcba7caac9a8a8b4
col29:   86996a6a8cdaa79bacbbd8b9fe8aafbab9cd9c8a89cdabadcbbdcabaab8ebbceaec9cbaa9da9a894
col30:   a689986cb588ba99a9ba99c9abcd85bcbbdbcdd9acec89c9ef9dcab7bebfb7cbafbbcbb9b9e9dad9
col31:   6398866bbb8aeab9cd8becb9998ccafbbcac9bb9aabaabad9c8afcbaecabdbeacdb9db5eab9aba7c
col32:   689867b97a9aacc9b988bcfb9ceedccfdbaadcccaaaabbcbadccbdad9dbdedfbd9dd6a9bbdaad9a6
col33:   adbabbac7cdecacb998c9ce8cbcbdc8f7adb8e9cdeaedcca9e6cebcdd8ccfcddabacd8dead9ada89
col34:   abb9a9857e8b9b9d99d89abacbecaacccd9fecbcedeb9bcaaeabfecafadfeedde9bc8baaf9adcaa6
col35:   89996969dd8aadcc7bbb9beafbeeccbbbbdfdbedcecacfbd8bcfad7abc8fbdabdeacc7daaba8ceb9
col36:   a58cbbc89b8eab9b9a9acdbdccaded9cadecde9aeccbbadcaccdbcdcdceefca9ebfbbbabfbcbdcbc
col37:   89b6d7aa88daa79dcddedcadbe7aafcdeecacafbbfbcfbcfffdbbbbcccedbceccbbceceb9ccaa9db
col38:   dbac6b9b98abf59aaaca9bd9fdccdcaca8acbbacdcdfdccedff9cc7cefda9cbdfbdabb8dd9ccdbc9
col39:   c8498795ca878bac9b99caae9ddcdbacddbcdcfaa7aeeddcecdcdcecfcd99b5aadad8cadbd9c9da8
col40:   8b9eb89c778ca996bacdbbaaabac9bbfeceddeacbecaacc8bbaeddadeccbefdbb8aeeaac88b9cbd7
col41:   9575a9eb88beb9be7cbabbbb9ad8ecbeccdcbdcb9caeddccacdacbebfbcdeabdad8cfdabb8d9cbb8
col42:   aa965f879abc7bcbbc8bab9adcdba8bcfdbdd9fcfcbd8bfce9dcfe8ccadbfdbbb9cabd8b9bdcaada
col43:   c798f99789bad9eb9ec9daaaccebfbec7cddbefeac9bedbbfefcdebdddedb9dbadbafcc889a99adb
col44:   b877a8f8ba9dbb9adecbbcd8a5cab8ecbcdcbcedbc9a8eeaedddf9bacecddfcdbb7edddbfcbe9b8d
col45:   38bdbc9bb999eb888bae7bdbabaafddbdcceddcfca9c9eeadd99caaacdbbdcbebeacdbbbcacbfbc9
col46:   686c9aaaba8bbba8e979aaaadbacabcdafbbcecdfeedb9aaee9caecc8aacdabbddbadefebe9abb9c
col47:   968ab999597cdcebca7dfdcabdbeb9dfdba9cdcbcdbbfddfbbebfdddf8dc7edbfdcddec9bcb9e5e5
col48:   a697ba5aa8b9cab9aa7dcbd889d8bdb9a9fd9ab9fecce9cadbedec6dcedacccdfadaa7ceadeb8daf
col49:   88acaaabc8a7caadcacbe7beccddefbbbecdaf9dc99efacdcfcbb9cccceef8ba8ebecc9b8c8edbbc
col50:   62ca9b59ac9a9aa7bbcabb998ddfbeabcfdcd9caebdecddddeecadbaeeedcbb9bbced9a9bcaccce9
col51:   b99966aa55697a969bab8a9a879bc98badcadcaabebccdbcbfaccb899bcac9b8dadbaabaaabcbb8b
ROC:	 BPix_BpO_SEC2_LYR2_LDR4F_MOD2_ROC9
col00:   633483666784a76a5635a65736a479b9ca6274a5895986637875b8486aa8b58585bab9783bb75859
col01:   8a75c99778b36785d78a8ae8abc5997a9b7888958a7d99a5999badfab8a7ab7ad69b98885678a89b
col02:   49876b5aad8836989b77ab9bbabaad8aabcb867a8b85b65677668a19f986a672857dc7b8c7e98577
col03:   7458889b49a89ac85468aa9b7c7848ec98b8a79978c99e8a9a9cc68c65abeab9bbbac9c97b9bb948
col04:   86988569d9686cb8aaabbb8ac9bab97c9bb7a88c9969b4cc57ab6859a9d8bcc8a78a99bc7bda9884
col05:   62769d86c7985b687abd968975fec88bb97c75bb79b767baaab8e69a968c99c83cc8a677fe696579
col06:   5747c8b3743aa59a889e99bbb89a7bc7ab8cb9a999fb97979cc8f93cbdba8a9aa798a96b7cd9b5d9
col07:   9375967c9ab77ea5a7a87a47b6bbd6ca57769bdaabaaa9cb8bab59cef8cdda9b8acb5859786956b5
col08:   5688ba4e675db87a83c85b77c88948b9f5d9e9aa6aa988aa68d9aaa94ed9ab78edcac99a7bb65897
col09:   4a99a78a4a37acb99bcc99abecaba6b96bab96a84a95ac889b87feb8bdcbd9ea78798bb9bb798a8b
col10:   c9a5a8ba98bb6b8d8a66477d788a89d9daba79a8b9bb9d6baab99589ad9c8999cb888ab9a2aa886b
col11:   75847676595a97988cc797598f87ab979594a5a8cdaaa8b7a8a87bd98e7ab999b77a8a88a7836a88
col12:   697bb9a9bb4a9d97bda9b77a97bbd697bb8a99e97679a5c86eb7cb96b9acbad9c966b797a69aab55
col13:   77bc6788f6b87a68c6a64688cca685989dadee9cc88b85a58ebb76ecdda7c8db8bc578a79a77b9c5
col14:   58afb6b96b876a886c4aa8abb9c755897c8a9bb7a98caa78c5a45ba6bcaaaacbaaca5a8cc567dd79
col15:   58238b6756a6a453998a9b9b5879c6df499ab5aacb88ab98b8bc68998aa9bbba3a6968fad8a97978
col16:   798b77678582ab7dac975b77bb997ac7ddb855af8dccefdeacbe98daa8dfada8a58d9ac969a9aa77
col17:   99668575b9676886699bbbb8a7985cead6d7aab98999c9c9bb977bb9cadc8a9988dc7a9bbca86769
col18:   678a6bb8c7a66c9aaab768cb8cc878bc9dbbfa9ab964cd98abc9bbdaba886879c98c8a7b7b996cca
col19:   55793a7a6778b8988869aaa699a784d79ba8d97cbc68bcd9bbb8adabbba7978d899aa7b778b79c59
col20:   6988669a57c46ec946bb797976998a67789da89d8999cfa9a8bb6cca9878bad7ac97dc88d988547d
col21:   b48858655eb5675b89b997c8bc897c99299aa9a8a89ba87ebbd9e89bdc958aaa9897a58c98657881
col22:   b89779b99c99a6a9dc76b987abb8babfa88cd6ad8b8dba76d8998cbdbcd8dc6b8e9e79d7c2ab5bad
col23:   7a648c499986a975989966b7bb3ba99bbc9bcf99a99aea7b57c9e6dfabb994bb8ca9abb7ac796d99
col24:   9765b9877a7ab6998a5adb8a8a9bba98c8c8ccebd77aa6cd7be77b9ad89efac9aba9cafbb88c9c95
col25:   56589545aa9b874bb8cc79dcabaa5cccbbba8a889b5999b5ccacaba8db99ab8bdc8be4af8bbd67d9
col26:   886ac8c86a8ecdaaa8bea8cbccbbaaadabb97cbcfbfcceba9a8bec6db9badcadbdcca9bcb8ebad98
col27:   d8c8d8a66d5d9b899dd9b68aeaaceca9a988b9edb97cbaea7cac9ea98a9c8cfbb9b8eb9ad8cc9bba
col28:   9ca777bccbcab5bb96addadbba9db9cdaccb8bfccc9bcbe8adcd9ccc96a9acbcee88acdbdeeeda6b
col29:   818bc9a6ab8b9798dbdcc998ad7ddaecdf9999daa89cccca98d8bacbcaccc849bdddfc9d98decbdb
col30:   a777bb768d7bcddd798cd7cafa77cbb99abfcd698dadc9dc9af9bbf9c9aacca6afacaba8bdb9fdd9
col31:   9bb78a8c5b9cca9abb9e7c8cdee9cddcadbdd7b9cfaa7bed79bcba8eebccd9cbddbbbecddbcdcb7c
col32:   b888ca8cdbbaabeab9d894dcbfb9a7dddaeacfceafa9ddbbaccedcc9beb7a9cfbdacbefcac8ccabc
col33:   acc4d759a7aa9aa8de9ac4be8dddabcfcdc9ada9fdcfaadaee97c9bedcdeffabdf9adaba8cbbf79a
col34:   a88acbdbecbdadcbac9acc7fecdb7dddd9cffbdecbdbcddfcbca9aa8cddbbeda9abbbcd4cbcaeac8
col35:   b98efab7aaac5cd99adbb7d98aeabceaecbcdaacbd7dd9ab99de7cdbccdbdc8faecdecfcdaf8cbb9
col36:   9b7ca7bea7abc89baeea99e99fbaba9cbcffccebdef9fba9dcffcbcba9eedacfddd88ebb9bdb99ec
col37:   83d9986c7ca9bbcab9ba89bacdcfe6b6ccfafcdceafcacdedcdfddc9ddcb9defcdddf7ffbfbedeab
col38:   99897ca9daab9be8bcbe9cfaadebf9aa9fffeebe9fccedc9fcbafa9d8bbebc9bbbedcdbfdccbbbb9
col39:   858ea79aa9b59aa9db9ccc9ddcbbccbfcfcafc9eabcdfbbbbdcccaac89c9efe9bdaa9bdd99cbc9e6
col40:   ccac9aacc9adbcd9b7be9abd8cddce8decc9fdbbabcfab9cadd8d889aada8bfdcebded9bbea7bea8
col41:   59cdae98bbb9a9d879c9eccbbcbbcaaabacedcfbccbbdddd9fc9eaf9c6ccf7ecebfcb89bcdea9bdb
col42:   67abd8dd98acedaa9dbca9ccdecdbceabfb7abeefeb9badcb9dbfbfddcfafbcdfdabbedadfcaebab
col43:   7acb8aa9bfdb9efccecedee8dcddcffdfffdddbb9abfcddca9cdcf9aadbc8be9dcb7aed9dddadf9a
col44:   b877b7a97db9dbf9beccbcb8ad79ebed89ecbdeef8abedcbcba9cce9ed9edbccb9bdefcecbeedcd8
col45:   c877cacafaac9aecab6ac6abedebba9cccbb7ccbfc9c8cbfddacbbddae8cdfcc8cdddd9adddab8aa
col46:   ab9bccba7cccbb7d9b9cdfecfeafdbbadbeedce8deecbfcbbcdbd9a9dcdfdadbcdd9dddde9f8e8c8
col47:   b7accaf7bafe9bba9be79bdb7afcaacaadfdab9cabc8cfcaeeacf98aabefbbc99bccbbdbbc9a69ca
col48:   aaa7fc888a9adc99caeccfa69acd9bafdfeadced7dfd8a9ccbacacdcdcccb96dcbd798c7c9caddda
col49:   a78dbba8cbca8fa7beccebebbebdcbbefc9eea8b99cf9b6cb998cbec6ba8fabbadaadcabacbb7a87
col50:   8995ecb6db8cccbad9fbb77defcbeccbadbd6eabcdeecba999d89eec7fbcece6beecceecdccdce98
col51:   99a25759569a48b2955bb8d7775c8bcfbbdabbb8d5bb96b6bcca75a9abaa8ca9a9a795897c7a9798
ROC:	 BPix_BpO_SEC2_LYR2_LDR4F_MOD2_ROC10
col00:   a8475946da7b688b53688898db7848cd879aac8bc8685c86b9b84d6aab5bd8773c58a65378848118
col01:   86b8787997865aa2666698bdd8ac79ebbbad69b8ac8a8b899a97bdb7a8a9ba9d77d8b96a75964188
col02:   9998c69757977955367857aacbac9a96dcdadafaabb87aa7789bca7de8a99789d9c9c89575aa8545
col03:   5b688bc9776a976cda99c9ba79c7ae8cacaab9cb99a7f999a6a8abbc99b9db9ba8acb769b68a7b73
col04:   c4676998b389b678986aa8a77daa9bac8acfc9bba5879d668ac86a6baca7998b8b9989a8969788a7
col05:   aa79f5a85578977a9478788aea9adbdcbd99a5ab798e679c896aadab9aeaccaebbdc8a99d6677835
col06:   8889768b57a5887a878ca4ab89fc9dcdbe6ac98bfc857aabab79abb9899cabbbbc99abbcd77b8796
col07:   586a6d6496995694c54bbbe8c9a886dcb7a6bb8ba98898b9bb98cedb98abeebaa9b65989a8657b5a
col08:   6579785874589698897a6e77699d8bacaa9a8cf9bb99bc945c8b8ddb9d6bed9c78a78dc77a748466
col09:   86577b89d68987b9496aa58b686b7abaea7ecc9cbe8799b78fdc77885aced9c9cb88da85b58776a8
col10:   cb965786755898c779bc788dd9cdb97a987e9888cc7baa986878868999cbc8c8df9a998977a88749
col11:   67966b95a8871383966879a7ddcec8c4898ba9baa9aa68c97ad98e8b7cd9b79ad67e7c6698949752
col12:   789a8aa293db84b7c9ca9a89baa7aaeacd7b98bdbd6c89ba9a9cb9cc8ac989baa78a8b99966459a7
col13:   58697769758556b86a5d7a799b9bcd9f7ed7fda9cbc99bcc6cabc8bcb9aab6bb9b779a6996977995
col14:   77683869799796578aa7688b5a5deabccdda7a97a6abc8cabbc7aabd98df8cd9a987ba6a7c8a8855
col15:   669c8694769969999a88aa8877889f9bdeabaa97c788bca5a7cb8bce7ad9b89b89a56847a7798955
col16:   879b9668a887b585b9a88686ad989a9a8ad9aa758779b39cb7bd5957a9ddd7b989ab984886268a82
col17:   55994a3a65769b78a6acb778aac888cacd7ab65c989767bb8e593cab89bdec7e6bc8a9379b58853b
col18:   768a987a75a679cba59a7c9a8a7aa88789bb97baa7b8b79b87ba986adcbbcc89985b4976a8a6836b
col19:   77a8795a666a97aa98877688bb86dacdc3d89b67798987b8b9c9cb7ba98cb656a7b7a798465847c6
col20:   9897b9597856277767987bbbdd7ebbbbbbaace8b888c87abcb995da98a6bc97aa989897cb6687797
col21:   b79999a8973767b56a86a77e9a89bec9dc8baaddb789acaaabfe5edc9ba88da9b6cea99a5a499978
col22:   76773a652cb6658b879bb87ba7dabcacbcad99aa6bd77aa9ca8f8b8abac9579b897855c978a97da4
col23:   b8968d9687679979778889c8bb98dc3d9ab9bc968a87a7bdda8ca7d9aad49a78ab9a774597685853
col24:   4a794665686671a869c6a9aac969bb9ac9bb9b7cacc79bab7a875acbbbaf9ba68796aa9b88665897
col25:   c96967794376a8876675ac9ba998badc7dadbc8db8c99889c9b9edda8caaccaa97677885b7777878
col26:   dba58799a7c988e7aaacbbaccaeeb99adf97eb8b8deaa8dbbcbd9aad7c8ae97acdeaa9999a8a9ac5
col27:   76b577d7b4b7a9abb8b7bbddd7bcdceb8db9984ba7dbaeaccebdcfcc9cdc9bba7999797998779d87
col28:   7b375b87ab8868b99a8c7b9bcbcd9cde89dacc8cb5abecaefbcedbbdacf9aeaa889898e9a8865ca6
col29:   7678949aa96b87babad88d9aaecfc9acdedeaccbb988abcbcacdeadbacefab9c9b888bb876b89bf5
col30:   99da889c9b7779c69569accdc9bcebdcfdcdcf9aabcbd8bcc7cb9dcfbacbcccb88b7997898864997
col31:   9b7d5d9a8abae69b8bcebbce9c79bcccf9fd9dd8a9dbcd9d9acccbdcd8dfb9ebc99889a98a996897
col32:   cac96998ba6b7898acadd9dbcbddccbbece89cad9e6bcbbbcdddcecafedbefdc99ab9c79daa8b977
col33:   2ac79c768f99c9babbcd7fabcbfbcecddadbbabca9b9aecaadcbb9b99bbbbac8abbcda898997baaa
col34:   aad955998aed97db8eb98adfddcdcdbf8d9fdbbc95c7dbcb9a8dfecdbdd7c6ca799c59a6c77b8888
col35:   9aa579b8a5a8d79bb9948adbeecdfeecbbe8bf9ccf88ca98bb6cbeaa9aca7d988bbba8a7bdd9a876
col36:   8c6898879a9b7988abde6e7aeeabcdb89c9cb8dbe77b8a9bebdbcbbcedacbc798d859b669cbc9aa7
col37:   bc877589aabd6c9cbdfa9cadeefea99ddabbccab9aac9bfdbfdfab9bacdb9cbbacd8ab769c696b95
col38:   a2988ca69bdccdbe89f9becbdceecc7dbbab8acd98d9bddddedbedcdbebfcc7abad76ac9a7868b88
col39:   6ca999a593ac57c9bf9aadafaacdcbc9e9eddaacbbc8bf99bb9fdbbdedceebc8d99a8bbdb996ebb7
col40:   d978aa769c56bbbabbccdefcfefedebacbcdbbafbdacddef8fdddcceedbacc8c7a97dcb6d8dba9a8
col41:   cb6b79c86c78c9698a899acadef9fddbb9dcfcb99c8fbbcddd9cffbbeca8dcde9abbb89b878986d5
col42:   99a89ac84caccdaa9aedcea9e9e9eecbdcbc9dc89bbbdbbeaeede9fdbdabdbabbbabc8a6f78d88bc
col43:   aa8a597697c98c8bb9fcababe9eceda7abaa99ed99dbcddaedacec99c8c9ecaa68bacac5cbdd9d5b
col44:   9394b8576a7a9bdadb9dbefdcfbbcbfae8dacda9cbcaaebccdbdcfbffabcae8a9caa88ba8a979a88
col45:   77a8a9ccbb5aab7ba779efc8cebdddbbbdcefcda5bbddcedcbedfe9ea99bbdca7a99acc8b7b767ac
col46:   bb7a98ba79c6b6a9c9babfebcfdccca7faccddaccdbdddecebdbbdbbc9baaac799b6b8ac8b79ad97
col47:   58a8a99788dca97a9abad8abcdbabdfbacbdaccbfcdbbfcbafcfbbdfcaccb88bddd88abb8b6ca8ca
col48:   ad677baaab5ab889cb96bbfbcacfdbdb8fbfc8b77dc8abccaedbbcafe8eb8c7bab98be79bd68c8a5
col49:   7a7bb79988b8989eafb7cbbbaca9ebddcaedaedad97bfbdacaeaeccdb8997bdad9a89c9bba7579ac
col50:   9bac564b98b5699ad76accdeddeccaa8bba9dafccd999ec9dfb9ccee9bd9adacc8dc9975bc6aaa69
col51:   a843849764a757785b566daa9acdd8bb889876a9d9c599a8a9b68aa8d9ca979da6a976995c7a8978
ROC:	 BPix_BpO_SEC2_LYR2_LDR4F_MOD2_ROC11
col00:   22655655c99785778b9997999ca99b996bba9da6896ceb5b99d8899a48a799774698b5788786cab4
col01:   83767897acb79aead87a8c8e89c58c9b899699aacc7a9bd9dc8dbcbcb6bbb7ba7788baa59bd9ebbb
col02:   158367b58bdbb8dacbac9cd8ab8b779bb9b9d8abbdacbac9ad97b88b8a66788bc786499d9aca87c4
col03:   5767899a96cb7acbaa9bdabbb6ddb8787a98dcb8ec9babccc8a7679aca668b796889b9adbeab9d99
col04:   6686b78ba9eca97b9d6fc9ba8a99a896a99d99cc6d899b88888c9ccc8866899c7aa8cb9a88b7ce88
col05:   676cda9b9a8acaddcba996b9a698bdaa5b9d8b9bbabeb9ba9ab7cec8d77886a64ab98b9aa878a9b6
col06:   457b776c59ca8a9b96ab8ba79a989b988aa568dbacdccaa8ada8dbbd989b9cd88888969dbc5886b8
col07:   ba66a9669bb9b8d8c98abbbc774769b9b8d8adacd9fccbad97c9d7d78b68cd9a8a769abb7bcad9aa
col08:   9a667c869b8a5abe8568ab8879aba6ad596779c7dc9a78ea8995adbaa99a97cbabbaa9eca75b8b8b
col09:   7469b79889add77bb8beedb8799b8eaaa6a8adaf5fb9dcac7bca9ba8a8898ac8998ac6b9899797a8
col10:   484688568bdb9aacbc87b7b8c64c7cb9ba8ebb97b9e9bbbdbad675ab489bda97b7c87b8b8dc978a6
col11:   3169b55baaf6dd67bbbb88d89d44ddb9ba99899cacbdbab788a8b998b69db45b8695abcbaa89aa88
col12:   978b97aa9bca89bded6c7c97ca8ac9666d899eacd9bddae8bddb4a2a88898d8a69abbabcd8bcfa9a
col13:   565e68889c8acb8d8ebdc9799ba7799a78cb89c9bbbbbd5bdaae9ab96ad9aa6d756a9aab889aa8b5
col14:   6819977acdcaa9dc99a779a8bcac9ab7aacdb8ebbb9b8a6cb9baa5a6c9b8a8a8ae9b9ace9a86bda6
col15:   669bcb588ba7ecb8a69685b5be89e989b98596eaac9bdc8ec97c6c97a585cba8ba6bc79ccd5a76a1
col16:   7a87875cb7eaa7ba88b7889a9958867b98b83a9cdb8ab8dc99b9dc97c68a9975a496b9ac8b9bc677
col17:   73238869679c9a8a78c695c9989b9b88a9aaafb986b99b889c79b69e8596894a998abb4c8b687995
col18:   46b578b97b9c69adc8b999a6899a599ae8aacbb8bac9c9bbc9c77c987469a89ac4a5c975b8ca6696
col19:   29b6c47a799bb69ba76b1aaadcb9a8a9aaca88b9daaacbb9e69beaa978aacb8899aada999376ccd9
col20:   59869c78a88ba67d9ab64a8799c8a8c87c79aa9bbb8c87d8c5adc96999aae99a8974888a88c976a9
col21:   79989845e9d9866bab95a774d797bb9b8babc799aa8ba9bdac99886967897d89ba9ae7aaab9c9988
col22:   7476568caba8b8ddc96ab84ea787999c98a8aa97a88bb8cecc89b87b689b89aa87b759bdc8bb8bb7
col23:   1969565a798cb6a985795e6765a9c8a9aa8c78f9afaa9ac8c78bb99797758ca786d9e89acba87aa7
col24:   d9897caa6d87a4babe9c76bcbbe78f89e9b898cbcccb97ca8ac8a698a6b878b8b9b9b9bc99e9989a
col25:   57a26679c9ca88cab57c7dba8a47694af89dac989ba689de7ae8c9a68b6b9a8d95a8c999c7aab6a3
col26:   6ba84aac7bc9b9cbbcdcaabdd9fe69ca8d99becaebdcbcb7cb977ac9bbdb9cd7ace8bbeb9bdcea98
col27:   c48caae6ccaba9bcbb768abaa58bc568e9abbbd6da99ccfa9bccabc877ab89999b9e89ed655a88b9
col28:   877999a96c96cb8f9adfee8defb99c99dbcdb7ccbeccf698ac98fdddb6a9b79acac5bcabab5bba9a
col29:   584399aadacecdcbaa78eb569aa9ba8bc7eb9bcbbc99e78bb8cda66a59d7fac78be89f6c7d6b8979
col30:   67a97dabba9bdaca7ab8868cde6aabc8dcfbd8facffddfec987cbbea8a7dcfbb9acaaacc9aa9dad9
col31:   a94869da9bb9aeabfa9aabb6fbdbbafabcdfcedeedaadcdb9bdc7dbb799a7bcb8aeaa9cbabab7be8
col32:   8aa88adbedfa9ecab9cc5bdbbe8cbdbadbfdbcb7cb8ccacdddb5b7aebbaaaf96bc9a8cc99cddba66
col33:   babaaabd6d8bc9fbdfcdbb8abcbbb8aceceddecbedddae9acad8bd8ca9899bedd9d7bccabacc9758
col34:   bdbb8cb9bdcc7fdc9b8bb9babed9db87bccecaadecbbaebdbdcd7bb9ca9aab7bfc9bbfbad8edaab6
col35:   589998bccd59dc99fcb9999cd9aaac79cabdeafcdde9badecb8c9baa9f97ab9eb9cf9bb7bec99cb7
col36:   385aeb8b8aec795ecbcdceb7dabcdbd9b9bb9bdd9befbfdbc8cb8db8b6cbba9fe9c88b8defdd799d
col37:   87999bcfa5bddddeb989d9c9b9c9edbdeacae3ddda9fbf9edda9c797aacb867c9bbb8dabbb58a88c
col38:   8c7ccacbe8abbcdca9e75bba8cf9ea89ddcbccfbbbddcde9a8cbaa99dd97be89febaccbbdddc9cb7
col39:   96877c8b99a9bacc8886acadbababedfebb8ecd99e9bbcbdbc7eeabbb9a7cadbb98bcffcc7dcc797
col40:   ac48acb9fbaaccc8bc887d9dabbccfa6ddfdb79b7b7caccceb89bcacdba9debdbcbdddfdccadabb9
col41:   6b96cc96989caf7ad9b99eaad999dbcbfaeadeaedca8bbddadac9cba9d8c6fdcaaea9b9bd88cee97
col42:   a6ca9abac6bb98cce8cdbd87bbc9bcc8ae8bdddeccbbbaeefceeaf7b8cfaba99c4fefbbd9b9bdc99
col43:   8b86fb8a6b9aaa8a98dac99ca7aed9bcdcbdcebb8bdede7baf66db9bab9f9cceb9cdb7acbaae7aca
col44:   77abaaacbbdb9daaecbbbe8bdb9accc9bbebeac9affcfbedbbcbbceadcaadbccab98bb9eccbac898
col45:   5ae8a88d6ca9bb9db49dccc6bcbfdd7ebc8bbcdffb89f9dbfeba967cd4be9cc9f8b9a5cd9899e98c
col46:   bb798bb897ccbaacfc79aabdabca99bbbb8e8dc9adbddcaedab78c8bbbaabdbcaafdacd8b7d9f88b
col47:   a9b98ba888d96cb9daaaebd9c8eadac9ccdddebc9bdebbbaa89dc588ae99aabecbda99f8aac58688
col48:   9657bd79b7c989a69ecacaba8aabdaff9b99bbecbfcbba67bbabb897ab9af5dc69dc9cabaaa8bb8b
col49:   76a592b87e9bbcac99e57988aeeaa8acba99ddeccd79dcb679adcc6e9da8abd6bb966ace9acbebc9
col50:   a8b9caaebfb9cdaaccaabacdc8d99ecdbcbdcbd988b89d9daa8cadda9d9bdadad689c9bad9caab98
col51:   76286877a9666b798b856588778a1c9858cbb6c6e78875a9a6544698a436ca786a8999b9b899cac8
ROC:	 BPix_BpO_SEC2_LYR2_LDR4F_MOD2_ROC12
col00:   69888988789898975aa982996796a78b499889a977b897575798a4995569757846899a6486a93979
col01:   a75a67dabc6b6a99aa985ca5a97999778ab9a98a979798aa668b887a969988e9988687966898a4a6
col02:   9cad5d4ca899c8cb9679accc7887c6a768bc99c99a96986696ba69b6958899a8a8c86aaa57966495
col03:   798658996a677aab77899baa79cb9a97c89b89baba98b88667377687a7ba798bb8b86cb973c96a95
col04:   c988eb9cbdcb3bda999986a9976afaac5b8c7c9ba69aa4c885d788b798b7ab75aacacc7995d86837
col05:   576a89b9688bca58b968aa7998b97e89899abcbab97abab89b59a8a6878a8998b9a8876ab8a9a774
col06:   98bb88aa9b97caaca58a79689a988cc9ddb89b987b899bb954c877b875c6bbb7ba998c78ba38b767
col07:   9a6698b5bc97856a877b6eb9aa89b8baadda8ad8dbebcba87a8896b8897daabaa9989cb6889897a5
col08:   9798696aa9c97ad9998997c9b987cb98a8bb877beba989babd9bab99bbcaaba8c8a8ba88a9b89b99
col09:   76ebc89799c9aaa88bc9687899dc87bba699badab7d7dba9aab68a7a78a9b8bc677d5bb98a8b73aa
col10:   478ad8da886b55da97877cab8ad98b8f7bacb8b9dbac8c8b88b9b7a6a9b998aa8baba8c567778779
col11:   5958caac9abaa86a768c9a9bc969ab799a879997a9cae8a698ba7999b88b9a8799687a88b8a9a886
col12:   9b79abb6ab9a88b98678c8986bcb9a98db89cbb8ba9c98ada9a9a7acaa9549bac859baa79f979579
col13:   7598768babaa9b6a97879d6cb8baa89ba9b6cb8999abbbaba7d787b7899b99bc988689ba79a87c57
col14:   a88a9d66b8da96c9bab8a9abac8acc98a9d9bb9cc9aab999aa4589a6dba9bc9b88aba8abc58a9cd9
col15:   89a9ba6b9adb98b7ab79c96bb86b9ca8eadba6a7bd8a99a8aba8d89b97b9a889bbaa9698b7b58877
col16:   66b7df79cfcc98988aa89aa86bab9f9bcbfcbba788c78a8a9a99e48cbc99d9cca69abd96b59888a6
col17:   97879caa8a968c9ac7a76ad7ca9ddaccedcdba9bdbb897b7779a966698bbabb8c777c77a88a6a968
col18:   b9babc8a898789999886a8b7dbdbbbada9b7caa7b8caca9a7968ca989bde9ca89dc99b887768ab94
col19:   9899c8cba8d76687768b7c899bc7bb87c8a9b89f8bc97968bab8baa789eaaa9b89b86aba7c9a9889
col20:   79b768ba99b99b79a9b897db99acab9bbccaada9d89ac9ab89998c9ac7a7a8bab8b786686d96687a
col21:   87879bb66b9ab7989c953bbadcb9abcac9bad98aaba99c89ba88a5bafcc99ac8cbbcabaa9996ac88
col22:   a9bc768cabaca7ac9b7c6a8aadafb9a9bb9a9cbba8aa9ba9bbc7b7abeccb8aab99e9be99aba9cbaa
col23:   5aa878aacea889aa96aabe9ad67bc9a7cccca798cbdab798ac9dc8b7ba9ca9db9ca7b898b8979976
col24:   aa99a88db99accadcdab8a9ab9bbcbdab9cb9bb9abb978ccab7a7a9dd9a6cebbbcc986a889c6d9a7
col25:   6a95c8b9db9aaabaa9899ad9abecd7fbcbcbabcabaf9a7e9aaccac98ba8c9a98a9c99ab9a989c988
col26:   ebbab8bfceb8aecd88aba8ddada8baacbaccfdabfa9c8bdb9acbaedc8ad99cdebcdca99dcac7a79b
col27:   9a7acd969daabb9aaa9a8dc9ae9bd8bbb9ade8a8ba9fcbee9ccaa9a99bbccbb99bab6d9c6bcab999
col28:   ba9d9bddbb8bf9eaaa9cb8eaacbecdcdcddbca9acabddcdcb9cdc9bbbeccbcbadbabcdbac6b67c9b
col29:   99dbbc8bcd9cabccaad88badcccfc89dcbddcdc9ababbdbadcd8ec9dce99d9bddc9da9cce8ba8999
col30:   cbae7a8cea9ccc98acbbcdbccaba8dabaeacebccecbdacdbcdbccce8b9cabddceccacbaaac9c98aa
col31:   88cbba9a7c9ccbb9bfecdabbdabcdcdecdcdbddccdebbedbbbbccaceb9dcdecdfc9dadb7dbbba89b
col32:   a9f9feddadd9b8acae89dccaecbffeedccaafcccedcbccb9cec9bbb9bcd9feddbaabcbbeaa8d9abb
col33:   bfc9c998badacb9ccd99b9abadedfcbcbbfafcddbfcbcacda9acccd9dcbcbacdebad8cbcacbddbc8
col34:   99eaecb98dd9cdcc8aacfb9deeebfacdeacbcdcbcbdaabcddcbbcdbcfbdcdfcdfeddaccdbbbbb9cb
col35:   7db7bcbbbaacbca78dccbbbdccdbfceabfaeeeabbebbfebbdb8c8beb9afdcec8ccdcaccddebaa88b
col36:   cbaa9c9ccdaab9bbbcbcdb98a9ebecc9bbdacdc9adffece8ab9dbaedabcddb9dcaddddcebeabbdba
col37:   f98dca8caa89899eda9cabafcdefcdfbeddceadde9dcacdcbedbababdcd9bddecbededcccacceacc
col38:   d9ceacacabfdcbc9ddcadbdebfbefafaeeeccdcdcebccecaccabcfc9ecdcceccccce9cafedfaebbd
col39:   c9babbdbedcbbceb9bbdbcc98b8acbdddfdebae9c9aaccdca7cecaecbbecceedcbebbaacafb99b9d
col40:   abbdddcbebdbec7dca99cdecbf9edfddedcfcfaeffdbddcfafbaccebedeeedafdddcbbdaed9cefe9
col41:   deceddbcc9b9dccbfbbdecedcadedecabfdefceeeedefda8adbddcfccdcdedcccffbeaabccbccdbb
col42:   ab8acbbadbbeebdbdcbdecffeffebcafdccccccdbccbcebbaaedcaccaebedbf8dbdcadecdfcbc9fe
col43:   8abde89cd9edaedebcb9cebeaddceeddcccdbefeecbdaeaccccfebcbadeaccbfadfcccd9efabddcc
col44:   daadddaabccceb9cfddbcafcdaebdbcecdedbbddfefcfadedacafadcbbfcdbfecfe99bddcb9ac9bb
col45:   9bac9acadbf8bceacbfcdabcdcdecbeccffccddcccdabaeedccbdbbcdddccbafeddaaafdc9bbcb9c
col46:   8aceaabcfbbabbdcaeccedddddebcccdfcdedebfdffabbcdefdcaeccc9dcaaf9fecccdcaaecccbca
col47:   be9b9c9bbbebaadbba8cedcccab8feeebee8dcdbbcadbbadfd7caccdccccfeedacbc9cd9bcbb799d
col48:   c9acb9cc9cccfbfeedfeceddececedffcdbdfefb8cedb9dadc9febcbeccdcec9bdbcdbfdeebdd8ad
col49:   d8a9dcbbecafcaedbedd9fccefcdcbfcefddeffabb8bdeecc9fdffdebcfeffcfd9bcbcfca9ddcbed
col50:   c98cedcbdbbabbddcbcceccfdfcbcfeceedacfcccaffafdcaefdecfedcddbfcdbdcbcdcdeefbd9bb
col51:   bc99799d7db89cb8aa8cb8cca8bbbeabb7bcc9dea99c9d9bbacdcabcddccbcc999bcbd9ba9b9c8ca
ROC:	 BPix_BpO_SEC2_LYR2_LDR4F_MOD2_ROC13
col00:   55421311653542361539474b18a3448646745767376586387299367848bb946385815155b8c73657
col01:   4678258a359a3a769886afaaa8bc7a8996db794679a49d99bc685ca8597d7857987a27c9897aa893
col02:   4458239548658c849776969b99bb558599779b9789b69bc557ba4c9a749d7b86369a86548a78a9a6
col03:   7856476964164887b5aa49bcca9795849bf69a66ab7a697a7cbca99aab8d5b5a4878958789b9a96a
col04:   14a579653a5577799a98899d67578a497898a5789d8aaa39c9baa8b79975aa66a89655a76b95aa5a
col05:   58165345815558b89c97a6c899576665956b99768a6d9aea7ca88aa664696977897bb57989895613
col06:   47746a7768455698997adb69c9aa6699877bae7bceed89a8d975b65c8a6a9a888a55769977bc6766
col07:   77257496398794746e8978bd5c7a7c5a598794cacddb5cba9bd8bb8a5ecc897ab87a796c9c8ab569
col08:   a954555667a69679998bbb9a9a5889ab7848555ca81aa8a6ab9c783b7b76476f9b869976a786b8a6
col09:   5a98544a5779888a68b9cd499b988b858b93cc88adc9975b8988c9b9d89a7bda856a79768da97788
col10:   649556352967a68b8b9a998c885a76d997896d7899ab59cfaaaac9caaa699b8899a799a7b9669a94
col11:   38368566323837c78c968c5d879cb95d979a6b7ac8c88d9a8cbbb78a799a39988778bc8a6948d8b4
col12:   363561475a83a79aa7589dbaba7dc784656a65a97cc896799bceb7a977a75858a757679997889866
col13:   856764532b4895ca9969dc96abb4ba6b738a97ba9ba6fe6aaccbb66797a9b7b7668e9c95774ca9d4
col14:   74437866485489e97969c8b7a986a89a877a979b84cbb99caac969bb8d9a96777c94a9b8b968a69a
col15:   224976657a9576665577948a967976996359abc999a7adcc9fa9be8cb8b7b9777787647958689989
col16:   348688376766498a8887886ceba9998add9a98ccb9999ae9badb779ba9cd78e79886b5b57d886598
col17:   8a774367728967885d99ba7999acc989879ae175775d9c9bdf9989585cbb69b5e7cb5967ad7ab458
col18:   9b67564785797785ac74ba98b8679b449b5689d9a858db9c897d97889b4aa89899c68a4b96cb7a28
col19:   8957786945887657aa97bbba8c94958968cc878b7baa9aadb8f777b89ac9ab897a9b8b9aa6ba97a3
col20:   5452844b7735659bb7b958a76748ba3d7978c59778bb9cb9fc7b989999c864b77a8c7b986ab57967
col21:   78669565776766596bac8796bda999c986adba8a8b9a9acbab97da65bcaa87a6881db86a8ab8cf99
col22:   4675663955967a99984874899b8787c59cb9b9b385c857bbbc6dc6ca889c7bcaea4dd7ac898b8785
col23:   24849667d878c98caababbb5b8ba9c9ca68a69bc5b9c9cbabb8ba76c8a8c9e9d66a7978a89976a96
col24:   3651755977673869a8adaab8a979786c6888a9abcab9b98bcadfa7ab7b58988f7a959a78b8bb7b8a
col25:   4833c565585999d77c89738baa88bcac88ea6fbc9cba99c9babcca8a7da9da99c97abaa9a7d9ba97
col26:   9687876957edda7866cdb9b86cc7eae9dac96ac9cd88ca8b7eac9a8acbb7b887ea7cf9bdba89b9b8
col27:   8b8545678ba989a89bd898a97ada9bdb998bbc6cfdcdbbca8bddbea8a89989e8989b8bba8ac88b44
col28:   895a9778a69d69abba99e76bc98b9dbca977aac6daaddcedd9bfee7bac8ee8ca9bcabcb8a9aaaec8
col29:   4972aa5667a9b986baba98cbab98cbbc8ab6db9bccaaba9dcadebffd7bcdcafae5aa986cb9ba994a
col30:   9885559988948b69f778c7998b8a9dcca9d9def99caadbcbbbbdceddaab4daaa8997dd9cac97cd7a
col31:   a77d6cb7c7b89bbdaad999acaeebb8b9bcabfdcedeaebcdacbeeabbd9ebacb78daada8bb59bababb
col32:   2b4686a6a98cbd9eb8c98a99cf7aea8ba9eacabecdcfbdae9ae8b7abb9bdc9da7abbeccbe8ac68ba
col33:   9cb76487a89ba779bc99acc9a8a6fadca8ce9bddceafeebd8ce9abaacc6c9cdbdc7ebbcabab7abea
col34:   8a87da9589aaba7cb6acb8abb7a98cc9baaf9acbcfefbdcbf9ccddbcfca9bcbd9adaaba8d7db8aa8
col35:   8b887959ba7b8ab9ce89bbabacc9aadaddfbadfeeadabebddd9bc9bcebfbad79bda8bdb9acc979b9
col36:   a36737968a8cb8ac99a97cc9abb8cdbca99ebacdd7bbfabd7fbcdebeb8dc9b9bababbda5a3b98696
col37:   9b84565bcdf988cecbbfec9b7b9d99decbe9ed8eaeeccdfedefbaca7ccddcbbbabbbe85bdbaa998b
col38:   58858a87aae5cdb589cdfcbbb7bf9fa9e8bbeddbeadacccfdfcccdbeadd7aaf6bb9bd9bbcbface9a
col39:   8aadabb7cc9b897bbcbbbb8c8aaaabedbcadbfdd8ddcecabcd8acfadced8bbc8b8acacbca8abcb99
col40:   657887ada999d9dbcc6e9caeaaabcebdbddecabbdcc9cbde9cddcacbeb9d9dcdbff8e9aac9df8dbb
col41:   47779aa8d68da9bc8b7c999ab9dffdc8dfce999efbfffeceafadda8deac9edec9979db9baa9a9c8b
col42:   88987bac94eac98cada7ba8ca9e9cddadeadd9fa9ffdc7bd9cb8c7fb7ca7a98bccdaaf8f7aaca9aa
col43:   37b89c7ac9ca9bdaddccfbdecc8e8bdbdede9ecdeefcdcedbcfdeecabadae8bcfba9bcbceaedd9c8
col44:   c888a9aeac8c9bcddc9ded9abaccbadbaabdcdeeeddcbd9faefebfafe9dbdbbdcbdaef99e9bcca98
col45:   979aa78488bcb9bc9ddbfbc9cbcbbcbc87afcff7bacddebc8c9eaccbdc999ebdcedfdea8b7caa9bb
col46:   8b7d49caab8abddbbaafdbaadfcebccdcbddc6fed8cfddfcf8aadc69bcdba999cb9caabbba99a78d
col47:   f89a89b97e8bace99facdeac9cabdcbcbcddbfcedefffd9ca9cbc9bdbdecdfadcaeba9aaddcaa99a
col48:   86a78ca89cb86ee9dcdaacbdc9ad8bcddecdcecfdfebceb9bdbecddeba9fcdddabdebcd7ddbde9bb
col49:   6b78abadd8cebabacd9cdd9ccbddcdc8ddceffcfbedabe9ffccfc9fbfbdcdeabebccdebabcbcbdb9
col50:   8a69958dcecaecdb7b9fdcc7cdda9cb97f9bccdeacf7d7abfafeecbdcb5eecd8dbabbdd9cccdbda7
col51:   4939998776ca58ac9adbb9bc7ba9b9a898abc8ca4aab6abb998999bb8bd6d9a8b7cf9aaa69998899
ROC:	 BPix_BpO_SEC2_LYR2_LDR4F_MOD2_ROC14
col00:   69545bc7678cb8887a599a6a96599a787878677897a788b8d988759a69b8661966889788669d9579
col01:   784a6bb9a89aca97b87b99ca8b7aa97aca987a9cc9b98969cb8d999357a77987ab9b7987cacc99c6
col02:   56798566769c698baaaaa8b798abd9a779c98cb88cfcabca8a89cac996aa77a8a799ab8b98a9ab74
col03:   6678b96aac889cbc99b9b975795b98cb7b6ab735baaa9a8dcbb79999897b88ac7727799cbba7fb89
col04:   82899857848e6969aad78dab86b6887958b5caaaa58db9cb859c99d8aba7ca77b899acc89bcb8a98
col05:   667345baa55a8867ab87bd98827a9c86abb3aaaaa7abbac5d9c99d9cabc985a8c5a8689aa8b67a75
col06:   7b9679799b5d969a89b9b8ada95887b87a98e97acb7bb8a7b9bdc89b69ba7784ab889ccb98978899
col07:   658958ca7d8988d9cb8da69aa8c99969a8a8ac8dd89abdadeb77ab987bd755b965caa4fa99ab6bb9
col08:   79477a7679899baabacac98cc98fa88b8b9c78c9cfbc8b8a78bbbca9bd988fbb9a6b3ba988a6c896
col09:   576a7568cdab5b97cdcbcbb9b8bb777bba99d99b9b8ab8cab9ab99489d99a8a99c9676799dab9caa
col10:   8868949b994ac9a9aba9d8ac9f7999b987ab83cab8797b9acbfcb99ca79ad77ba9987ba7bca99971
col11:   a5685caa9878a7c978aa5c79a8be99c7b9b8db586d79eca9ca9d99dad7986949ab88883ada8899ba
col12:   6677a79b8bebbab6a66ebb9679bad9aaba997aaaabd98b9abdaba8e65ba98959999a9b85d7bc8ca7
col13:   a7a48b98ca8a79ab86dba78a9d485b9ab68bf798ebdacbc8a8bc5bcb8d8eb99989a59a98b9c79796
col14:   a56859999a7ce697a9dabb8c897ba9b8ba88989ad6abc9b9bc9bb7d7989ba7aa7998caccc89ba697
col15:   6657664bb99848b8a98b99d977dd7dda5788c7a9dca59ccadba9bac989cbba9888baccc56ca7b6b7
col16:   9364879a849bc9cec829ab88aa6778baaab89dca9949989bc6cb9aa9b59b96698aaa88b99a999bac
col17:   48589a9b4a8ab778b5c98ea9bc79b8c8a88a5999aab97baaca679c9867947989a7a999d9a5b57977
col18:   7637a98ca6b9b4a7b98b9aaa9b9759aab96a87ddaa9a88ba7bcbb7a8ab7bbab868868bc7a755b885
col19:   5898599788988ab7b7c9daad9ed6b79dcac9bcbabac8bcedcbc889a7d7c9ac479aa6be898b8b5bba
col20:   51688b767a9ac8996878ba9aa6654a4a9869bab89877cad9c9c7c9d88ba9baa6ab989d8a9798bcd6
col21:   4576b86a89caab8dd7a8d67aa8779bcb89aadcdcaabdcae96a9cb9b79a69c7b97969a896bf9bc899
col22:   4a786797889ba8a69e8aababb7b87798eb99999ccaba8f8ddcacb659ccb8dabc59d8898cad9baaaa
col23:   8787aa9a76b6a8a9ab939a869978a86c88bcbba9bcbcbbcad8a3aa8be999867858a777b6a9a58b78
col24:   747778e89bbbb8a89b9ac8ad99ae99b98785899c95ca99d6afdd9ac57baac9ba88c79bb788a7b9ab
col25:   786748c9a99ad996abbb9ab6b99a99fbc87a973ab9e89ebd78bd8a89b98d8c8aaf78bd9bdaa9b9b5
col26:   76a99d88a9ac9ccbe69e7cfafacc9d79ebdfddb77cfbccbddcaabdcc9a9c8dc8be68cdd8ca9ab9c9
col27:   8687c9599799bcaff9bb9a79acfef9aa8abe9bad7aeddfcdb8baadcbb89e9a8aaabaebe6a9dceb99
col28:   aaa8e9ab8cedaefddbe8baaa9eab889a9ed8ddbbeccdbc9bfcebadbdc989cc9dbabc7bb9a9d9abe7
col29:   9675bbaacd899abbaccabbc9c9daaaa9ccdfcd8adccbed9f9cdada8cacbeca7cc9c9c8ac9ccdd8ac
col30:   8788b6cab8698cfc9bebbbae7cdcbbabaabcbadcbcbbcbcd9aacccbbb9b99bdacaccadb9e9adbbb9
col31:   995ab889ccbacdc9bbb9e7abd88ebacc9dfbcdbccbdaffdccbeadcebbbc79b9d6b8ba89bdbbeb7a8
col32:   a6899ebe8dcebee9b7d9eeae9eca5baa6c6bbfd8ce7bdbaefdcc9aaba8a9ea7aa8dcbdbcbc9dcdcb
col33:   868cc98a9ac9d9addbabbad8bbdbd9bac8aabedccbafdcdeadc9fadcbcbbd9abbabc8ebbceecdcab
col34:   7aa8eadf89bdbdeaefb9ba9e8abbfcbaabbbdedcfbedacbafdbde7facbc9ebedb9acdabafeadbcaf
col35:   8a89aa79e99babb88eebccda9c9ba8f8be9acbbce9aebae9ae9aeebca9ded7998dbace8dcbba9a8b
col36:   68986da8eefc9cf9cec7eb89ebebdabcbcd9e8c6ddecffcdfddeeefbdecaeca9dcbb8bcedbcecdbd
col37:   68ba9b8d9cdbde8ccfeec898adcabcedcea7aecdd9ccdfebbfbcad9bcd9aabebbbfacbbacabeeebb
col38:   b9c8989ccfbabddaeeccdbbfdad9fbad9ddcecff9eeafedcbfdddbbaebac98bcab8befcaabcdc8b9
col39:   986787a88acc9dadcceefdccde9e95ddda9cebbfebadcedae9bcd99defafbe8ccdbf7debbdedda7b
col40:   6bbabda8b96cdcbdcdddacbcdbebaeb4bb9ddbdfedddeefdedbddfcfcdddedbdfcab99cccfbadeec
col41:   c8bb7acddf8bdbacbfcb9cdfcacb9adcbebcafebcddfedddfadcd7bbb9cabc9bafc9cdcdedecbdda
col42:   7789abbca7c5cdefddffcb9bbdb8dcacfadc9ffcdfacefe9cffceb9bfaf9d8c99aba9e9cedbecbda
col43:   78bcacecdd9cca7bbffb9bbfc8beeeba9dadbdbbdecbdefccce9bfcfbeecfcddcc8decaceacc9e7c
col44:   684ddce7fffccaffebcbbdb9fddc9ca98c9cfbdeefefeecfbcfabd9ecbac8b9bc9cebbec7df8ccdc
col45:   99a9bc98a9cedfaeaecdcdcdb8cfcad9cccdcacfbcace9cbeedefb99ceabcccada9f9efaddeccc8d
col46:   9ba9bbbafdbb5ddadeeeafcdcfcd9dfad9fabedbdfbdebbbccc9baac8adedc9e7a89eacc8ddcbbcb
col47:   9baacb9dadef9ae8eccbcf88be9c97d98efaedcdcceefcccaefcadcddca87aceeaabc9f8dcddfeda
col48:   b7baa9d68b8aeaacbcbdcd9babcddcced6adcccd8abcfdbbfeecd8fcf9adbb9badee8bcebd9cebda
col49:   a997a9acbbdfacccbdbddceca8dacdbc9dcccedcccfefc8bec9b8dabab99abdcaaac9cebaaacade8
col50:   8abbd7a9ccbcbdddccd9baec9bfcccb9cbfccefbcbdbebdeebbdac8bdb9cbebbecdc9fbadbaebbac
col51:   95864ac99aa9c8cd8dabeadabc9b998bd966aa8b98caaaacdeb8cb8ca859899a9aac9b899c9abab7
ROC:	 BPix_BpO_SEC2_LYR2_LDR4F_MOD2_ROC15
col00:   427224446796125b61864b5431a99856d999bd4559a3a8ba34a85b5bbb88886b7988b8a6977533c6
col01:   566987a69718a7665767c7857a779a79e9787db98aaa6a4793badcb9baaaa76fc87ccda8ac88c7a6
col02:   a48577882299789c976a9568bb5856ccabc7a99a9b6a783a47796a9976ac877ad9ce9b6ba8676662
col03:   6559668994555c49aa8a6a777b88dac9a999a9a7e5bca7da98a957b8c5abccbc776989c999887364
col04:   775598a9b97845a88878a79b88696fc9ba97b7b9f75797b58a579c99b6c79a98a79b8cb886857876
col05:   69677739775878b296577a46b6c6a95988999da88c6995b5bb6baa98b59a6a9698aa78877967a668
col06:   7477a88897677948695759972599d8ddaba9958689a56ac85baabda9b979ea8cab88ad9668533833
col07:   b45a9b79959a676556b9a65cbcbe9bd8ecaab89aaaaa98867aab9aada8bbaada98aa667c59928885
col08:   49588e1c524bb994a995bab9dab788b9ca6a8ccd3887989a9a69bcb9bcd7abc879bb9696aac38859
col09:   9b8a6877568d4755a9969a949c98bba9ceaaaae89ac99a78d999b6a7aaba99b889ba9979997a8765
col10:   5628568a79978599757675a58db9b8af68cdc7cdc8ec9cbcd9bbbb9687a76aeaca7a979a798a6686
col11:   1967848ba664bb98769d589b78b98a9adaddaac97d78989a989876a9adacb7d9b98ab69aa8846a81
col12:   6bab3876776966876a7bb67a6ad4a97a9bc899a7da969aac8a9b7cc8d8bb9aaa99badaa297c69a76
col13:   57887789b66bb9a74497988569aad959faab899d69baeda99caaa93beabbc9aa796ca88a8b379991
col14:   79495959b9bb6897467c89889958ae8a6b9dab8a999c9aa8ab9a96a9b987b9a9da987bcb9b983489
col15:   76983a5879638658b9a8a95ba9c86c79abadaec8a8876a9998a49c8ab66a6ba585cbaab8797b5647
col16:   47596857b5937485794a9a45db8dab95679dc8f99c9bb7ad9a7ca98cbac79cb888bb89a887967553
col17:   578978a7277798a7a6699b89999ad8ebcbcb9acab877aaa8afbd996969b99ab9ab1995867c7a6464
col18:   556988a7474999a889b5564aab79b5ab8bd9cb8ba89c8b7b686b975a5fbbab5d7db6ab6997a7a3a7
col19:   566aaa8857b9b599969c7877c89baaba5abeceddcdcb99a97bcb66bb9d9d9a8ca9a99b6ca69b2849
col20:   b97a46859397667b7694b68ba7bcc5ac798879abac78ae87bab78cac89bb89b98ac7599b8a969b84
col21:   67a7b69a77689994aa47a986a8985bcb6ccbac98aa6bbc5669b9ac98aac9ca9c96eabb95667895b3
col22:   996678b79997a8b79aa869ba989dc8a8c9cbd99c888d68879ca8c8c9cc59a8b588968eb5a7968435
col23:   6b55837a9899a7a975868a79bdbd69acaabaaad8ba78a9ba8baa87c58bb799aabb7988957888888a
col24:   797c44856b59687b45a7268b5aab9bbaacdaab96a95878a8997878c888adbcd789a5b9997764b685
col25:   78b6a999ac858987b8c7acc99fc88dacbfdd49db987899eabb89fb8cc97daa9ca9b8868aa9886985
col26:   69bb8d7ba9b7d7ae7ba8aa9ff99aebbdbfbdaacc86aabfcc8bcbbcc5ae9cadcd7eab8eb8667a8bc3
col27:   adb8b998694aaa8ad99a9877dbd79abdadbbde7cbcbdabcede87d89bd7ebbbc8bd8b989a9786a558
col28:   ca969986b8bd87aa87ba988bbe9dedddcfaa9bbbabaacdb8ce76eabbecede8b9ba9bcc9e9d56989a
col29:   abdc88c67cc879a8bb697e9bebdbcdddefeaefbbebdbbe789a2c9c8ee9bcb9d89b8b89cacabaa933
col30:   7abc965678ac89ca3a75aa886de8b8a9bbb9cbacbacf9cdbacbcdaabebdbddabafb8bb79769b8b65
col31:   9c8dab9b7abaa9b88aacb6acddaabebeeeedbaceadcb95aa7aacbaf6dcacbcccfa97abca5c8aea98
col32:   8dab7a99a8acbaaba899dc9ecadefd9be9cecd9cdcae99c8dbbbe8de89baaceddcbbbcbcb7abb773
col33:   6aca65a9bdc8aacabb8a8f79c7bd8bafcad9fabcfdfb58abacbacdccbdaf9c9eba9eabb5da8a999a
col34:   9abd99aedcb9c6bbacac959aeaccb9fdd8cdfeccbcabdedc9c6aac9cadeaadbcd9deab5aac788ca8
col35:   9569a7cf9adcabecbaab8b9bcbf9daeefdfcefbeecd8dcf9cbd979eddcedeb9abbc9b7abbba9c776
col36:   8cab757d896c8a9a89bcbb95bdca9daebadcaeeed9cbbbdccbb8afbcbfdcf9db9ababba9955a5793
col37:   c99daa8cbdb6968bcc9a88ecabadde9ceaabba9b8eddb9bbbbe7adebfef887cadbc9ca9bc7ba9b97
col38:   5dacfc8cb97cededbf8beb8abfacab9dafebaccb9acbfeaba8adc8baacab99baddbbaabdabac9d59
col39:   9759ecbc4ccf8b97ac9ab96dbeadcbeefddccddbde8b899ad79ceaabedd8dc6bccbacab69d78aa66
col40:   d74b9aba98a7998aae9bdcecdffcdbcebfceaead8bdcaacaecbdcbaadacdebe8cebbc78bac896b66
col41:   cbbbd8b5f6cb9eb9aee6bbccb9bdfdedacecfadefcccbac8fbbbbcaddd89edcbf98dcc5c69c99796
col42:   b7a8b78ecb898a8fc89eb9bebd8dcde9bbdefcded9bacab8d8fbb8cd9fcffdbaceca8bb8999baac7
col43:   899abbdebbed94fab9bcd7ab9cbecdcfebeefbbdbdec8bcfbeceaaaedecdddcebccbfcba9b999b7a
col44:   9bba9bdda98cdd9e989dacbaabdadcadc9cbddf9ecedbcdcbbccedfea8b9bbddadbd9ccebcaaa6a8
col45:   99dbcbc9ceb9a878ce99ab6edacfddfffc9bbdabfabb8ca7bae8eceeedfbbcbbbc597c997aad8768
col46:   c7897bdac9cb7cbbba899eabcfd8beddcdddcbebbbaadc8a9aa9eaabad9ceeacaadbbac79b9ba7b9
col47:   989ba7a79e99789cbce96b98caedeaeecc9debedced8cca9aebcdccdcf8f9afedd7ccb99977b7398
col48:   abbdccf9d6caa5ad989cb9abdcaaffaefba7bec9a9b9cd5aabeca9cbecbabda97fa99a86d9c78b9a
col49:   9caebcbb9d9eacbaa99accc9befcbdfedffdfefe9ddbc8fdecca9babeccbcebc7da89dacbfac9ad7
col50:   79f9d7aefa964cbc6cbb9ebe9eecbef9eddfdf9dabcdddacacbbddbdeebefaaedba8d8abfca9b769
col51:   5b9b76ab988bba68a6dca99bb8ddc9b5dbbababaab9ea897b9c8d8aa9cddc9c9b8a98aaa8a84a678
