ROC:           BPix_BmO_SEC7_LYR4_LDR27F_MOD4_ROC0
Vdd:           6
Vana:          78
Vsh:           30
Vcomp:         12
VwllPr:        150
VwllSh:        150
VHldDel:       250
Vtrim:         97
VcThr:         91
VIbias_bus:    30
PHOffset:      157
Vcomp_ADC:     50
PHScale:       83
VIColOr:       100
Vcal:          200
CalDel:        149
TempRange:     0
WBC:           164
ChipContReg:   0
Readback:      1
ROC:           BPix_BmO_SEC7_LYR4_LDR27F_MOD4_ROC1
Vdd:           6
Vana:          84
Vsh:           30
Vcomp:         12
VwllPr:        150
VwllSh:        150
VHldDel:       250
Vtrim:         97
VcThr:         86
VIbias_bus:    30
PHOffset:      139
Vcomp_ADC:     50
PHScale:       80
VIColOr:       100
Vcal:          200
CalDel:        167
TempRange:     0
WBC:           164
ChipContReg:   0
Readback:      1
ROC:           BPix_BmO_SEC7_LYR4_LDR27F_MOD4_ROC2
Vdd:           6
Vana:          70
Vsh:           30
Vcomp:         12
VwllPr:        150
VwllSh:        150
VHldDel:       250
Vtrim:         94
VcThr:         89
VIbias_bus:    30
PHOffset:      144
Vcomp_ADC:     50
PHScale:       75
VIColOr:       100
Vcal:          200
CalDel:        168
TempRange:     0
WBC:           164
ChipContReg:   0
Readback:      1
ROC:           BPix_BmO_SEC7_LYR4_LDR27F_MOD4_ROC3
Vdd:           6
Vana:          67
Vsh:           30
Vcomp:         12
VwllPr:        150
VwllSh:        150
VHldDel:       250
Vtrim:         111
VcThr:         94
VIbias_bus:    30
PHOffset:      144
Vcomp_ADC:     50
PHScale:       83
VIColOr:       100
Vcal:          200
CalDel:        155
TempRange:     0
WBC:           164
ChipContReg:   0
Readback:      1
ROC:           BPix_BmO_SEC7_LYR4_LDR27F_MOD4_ROC4
Vdd:           6
Vana:          74
Vsh:           30
Vcomp:         12
VwllPr:        150
VwllSh:        150
VHldDel:       250
Vtrim:         90
VcThr:         99
VIbias_bus:    30
PHOffset:      162
Vcomp_ADC:     50
PHScale:       79
VIColOr:       100
Vcal:          200
CalDel:        157
TempRange:     0
WBC:           164
ChipContReg:   0
Readback:      1
ROC:           BPix_BmO_SEC7_LYR4_LDR27F_MOD4_ROC5
Vdd:           6
Vana:          79
Vsh:           30
Vcomp:         12
VwllPr:        150
VwllSh:        150
VHldDel:       250
Vtrim:         91
VcThr:         90
VIbias_bus:    30
PHOffset:      155
Vcomp_ADC:     50
PHScale:       78
VIColOr:       100
Vcal:          200
CalDel:        156
TempRange:     0
WBC:           164
ChipContReg:   0
Readback:      1
ROC:           BPix_BmO_SEC7_LYR4_LDR27F_MOD4_ROC6
Vdd:           6
Vana:          78
Vsh:           30
Vcomp:         12
VwllPr:        150
VwllSh:        150
VHldDel:       250
Vtrim:         86
VcThr:         84
VIbias_bus:    30
PHOffset:      149
Vcomp_ADC:     50
PHScale:       78
VIColOr:       100
Vcal:          200
CalDel:        149
TempRange:     0
WBC:           164
ChipContReg:   0
Readback:      1
ROC:           BPix_BmO_SEC7_LYR4_LDR27F_MOD4_ROC7
Vdd:           6
Vana:          74
Vsh:           30
Vcomp:         12
VwllPr:        150
VwllSh:        150
VHldDel:       250
Vtrim:         95
VcThr:         82
VIbias_bus:    30
PHOffset:      145
Vcomp_ADC:     50
PHScale:       81
VIColOr:       100
Vcal:          200
CalDel:        164
TempRange:     0
WBC:           164
ChipContReg:   0
Readback:      1
ROC:           BPix_BmO_SEC7_LYR4_LDR27F_MOD4_ROC8
Vdd:           6
Vana:          84
Vsh:           30
Vcomp:         12
VwllPr:        150
VwllSh:        150
VHldDel:       250
Vtrim:         117
VcThr:         81
VIbias_bus:    30
PHOffset:      158
Vcomp_ADC:     50
PHScale:       82
VIColOr:       100
Vcal:          200
CalDel:        155
TempRange:     0
WBC:           164
ChipContReg:   0
Readback:      1
ROC:           BPix_BmO_SEC7_LYR4_LDR27F_MOD4_ROC9
Vdd:           6
Vana:          70
Vsh:           30
Vcomp:         12
VwllPr:        150
VwllSh:        150
VHldDel:       250
Vtrim:         84
VcThr:         86
VIbias_bus:    30
PHOffset:      145
Vcomp_ADC:     50
PHScale:       92
VIColOr:       100
Vcal:          200
CalDel:        159
TempRange:     0
WBC:           164
ChipContReg:   0
Readback:      1
ROC:           BPix_BmO_SEC7_LYR4_LDR27F_MOD4_ROC10
Vdd:           6
Vana:          79
Vsh:           30
Vcomp:         12
VwllPr:        150
VwllSh:        150
VHldDel:       250
Vtrim:         96
VcThr:         73
VIbias_bus:    30
PHOffset:      146
Vcomp_ADC:     50
PHScale:       78
VIColOr:       100
Vcal:          200
CalDel:        156
TempRange:     0
WBC:           164
ChipContReg:   0
Readback:      1
ROC:           BPix_BmO_SEC7_LYR4_LDR27F_MOD4_ROC11
Vdd:           6
Vana:          74
Vsh:           30
Vcomp:         12
VwllPr:        150
VwllSh:        150
VHldDel:       250
Vtrim:         75
VcThr:         79
VIbias_bus:    30
PHOffset:      133
Vcomp_ADC:     50
PHScale:       79
VIColOr:       100
Vcal:          200
CalDel:        153
TempRange:     0
WBC:           164
ChipContReg:   0
Readback:      1
ROC:           BPix_BmO_SEC7_LYR4_LDR27F_MOD4_ROC12
Vdd:           6
Vana:          78
Vsh:           30
Vcomp:         12
VwllPr:        150
VwllSh:        150
VHldDel:       250
Vtrim:         92
VcThr:         91
VIbias_bus:    30
PHOffset:      151
Vcomp_ADC:     50
PHScale:       79
VIColOr:       100
Vcal:          200
CalDel:        141
TempRange:     0
WBC:           164
ChipContReg:   0
Readback:      1
ROC:           BPix_BmO_SEC7_LYR4_LDR27F_MOD4_ROC13
Vdd:           6
Vana:          88
Vsh:           30
Vcomp:         12
VwllPr:        150
VwllSh:        150
VHldDel:       250
Vtrim:         100
VcThr:         88
VIbias_bus:    30
PHOffset:      144
Vcomp_ADC:     50
PHScale:       86
VIColOr:       100
Vcal:          200
CalDel:        149
TempRange:     0
WBC:           164
ChipContReg:   0
Readback:      1
ROC:           BPix_BmO_SEC7_LYR4_LDR27F_MOD4_ROC14
Vdd:           6
Vana:          75
Vsh:           30
Vcomp:         12
VwllPr:        150
VwllSh:        150
VHldDel:       250
Vtrim:         90
VcThr:         75
VIbias_bus:    30
PHOffset:      140
Vcomp_ADC:     50
PHScale:       85
VIColOr:       100
Vcal:          200
CalDel:        149
TempRange:     0
WBC:           164
ChipContReg:   0
Readback:      1
ROC:           BPix_BmO_SEC7_LYR4_LDR27F_MOD4_ROC15
Vdd:           6
Vana:          74
Vsh:           30
Vcomp:         12
VwllPr:        150
VwllSh:        150
VHldDel:       250
Vtrim:         90
VcThr:         83
VIbias_bus:    30
PHOffset:      145
Vcomp_ADC:     50
PHScale:       92
VIColOr:       100
Vcal:          200
CalDel:        170
TempRange:     0
WBC:           164
ChipContReg:   0
Readback:      1
