# crate uriT1 uriT2 slotMask calBX L1ADelay NewWay VerifyL1A [addressT1,T2 columns here if you want, otherwise assumed to use system amc13 etc]
 1 chtcp-2.0://bridge-s1g03-45:10203?target=amc-s1g03-45-13-t1:50001 chtcp-2.0://bridge-s1g03-45:10203?target=amc-s1g03-45-13-t2:50001 1-12 374 112 y y
 2 chtcp-2.0://bridge-s1g03-36:10203?target=amc-s1g03-36-13-t1:50001 chtcp-2.0://bridge-s1g03-36:10203?target=amc-s1g03-36-13-t2:50001 1-12 374 112 y y
 3 chtcp-2.0://bridge-s1g03-27:10203?target=amc-s1g03-27-13-t1:50001 chtcp-2.0://bridge-s1g03-27:10203?target=amc-s1g03-27-13-t2:50001 1-12 374 112 y y
 4 chtcp-2.0://bridge-s1g03-18:10203?target=amc-s1g03-18-13-t1:50001 chtcp-2.0://bridge-s1g03-18:10203?target=amc-s1g03-18-13-t2:50001 1-12 374 112 y y
 5 chtcp-2.0://bridge-s1g04-45:10203?target=amc-s1g04-45-13-t1:50001 chtcp-2.0://bridge-s1g04-45:10203?target=amc-s1g04-45-13-t2:50001 1-12 374 112 y y
 6 chtcp-2.0://bridge-s1g04-36:10203?target=amc-s1g04-36-13-t1:50001 chtcp-2.0://bridge-s1g04-36:10203?target=amc-s1g04-36-13-t2:50001 1-12 374 112 y y
 7 chtcp-2.0://bridge-s1g04-27:10203?target=amc-s1g04-27-13-t1:50001 chtcp-2.0://bridge-s1g04-27:10203?target=amc-s1g04-27-13-t2:50001 1-12 374 112 y y
 8 chtcp-2.0://bridge-s1g04-18:10203?target=amc-s1g04-18-13-t1:50001 chtcp-2.0://bridge-s1g04-18:10203?target=amc-s1g04-18-13-t2:50001 1-12 374 112 y y
