ROC:           BPix_BmO_SEC6_LYR3_LDR17F_MOD2_ROC0
Vdd:           6
Vana:          84
Vsh:           30
Vcomp:         12
VwllPr:        150
VwllSh:        150
VHldDel:       250
Vtrim:         131
VcThr:         101
VIbias_bus:    30
PHOffset:      163
Vcomp_ADC:     50
PHScale:       80
VIColOr:       100
Vcal:          255
CalDel:        140
TempRange:     0
WBC:           164
ChipContReg:   0
Readback:      1
ROC:           BPix_BmO_SEC6_LYR3_LDR17F_MOD2_ROC1
Vdd:           6
Vana:          75
Vsh:           30
Vcomp:         12
VwllPr:        150
VwllSh:        150
VHldDel:       250
Vtrim:         102
VcThr:         100
VIbias_bus:    30
PHOffset:      150
Vcomp_ADC:     50
PHScale:       76
VIColOr:       100
Vcal:          255
CalDel:        153
TempRange:     0
WBC:           164
ChipContReg:   0
Readback:      1
ROC:           BPix_BmO_SEC6_LYR3_LDR17F_MOD2_ROC2
Vdd:           6
Vana:          75
Vsh:           30
Vcomp:         12
VwllPr:        150
VwllSh:        150
VHldDel:       250
Vtrim:         108
VcThr:         103
VIbias_bus:    30
PHOffset:      151
Vcomp_ADC:     50
PHScale:       80
VIColOr:       100
Vcal:          255
CalDel:        146
TempRange:     0
WBC:           164
ChipContReg:   0
Readback:      1
ROC:           BPix_BmO_SEC6_LYR3_LDR17F_MOD2_ROC3
Vdd:           6
Vana:          85
Vsh:           30
Vcomp:         12
VwllPr:        150
VwllSh:        150
VHldDel:       250
Vtrim:         98
VcThr:         95
VIbias_bus:    30
PHOffset:      159
Vcomp_ADC:     50
PHScale:       82
VIColOr:       100
Vcal:          255
CalDel:        145
TempRange:     0
WBC:           164
ChipContReg:   0
Readback:      1
ROC:           BPix_BmO_SEC6_LYR3_LDR17F_MOD2_ROC4
Vdd:           6
Vana:          90
Vsh:           30
Vcomp:         12
VwllPr:        150
VwllSh:        150
VHldDel:       250
Vtrim:         115
VcThr:         97
VIbias_bus:    30
PHOffset:      145
Vcomp_ADC:     50
PHScale:       91
VIColOr:       100
Vcal:          255
CalDel:        149
TempRange:     0
WBC:           164
ChipContReg:   0
Readback:      1
ROC:           BPix_BmO_SEC6_LYR3_LDR17F_MOD2_ROC5
Vdd:           6
Vana:          84
Vsh:           30
Vcomp:         12
VwllPr:        150
VwllSh:        150
VHldDel:       250
Vtrim:         104
VcThr:         105
VIbias_bus:    30
PHOffset:      171
Vcomp_ADC:     50
PHScale:       74
VIColOr:       100
Vcal:          255
CalDel:        142
TempRange:     0
WBC:           164
ChipContReg:   0
Readback:      1
ROC:           BPix_BmO_SEC6_LYR3_LDR17F_MOD2_ROC6
Vdd:           6
Vana:          80
Vsh:           30
Vcomp:         12
VwllPr:        150
VwllSh:        150
VHldDel:       250
Vtrim:         103
VcThr:         95
VIbias_bus:    30
PHOffset:      153
Vcomp_ADC:     50
PHScale:       84
VIColOr:       100
Vcal:          255
CalDel:        161
TempRange:     0
WBC:           164
ChipContReg:   0
Readback:      1
ROC:           BPix_BmO_SEC6_LYR3_LDR17F_MOD2_ROC7
Vdd:           6
Vana:          76
Vsh:           30
Vcomp:         12
VwllPr:        150
VwllSh:        150
VHldDel:       250
Vtrim:         92
VcThr:         94
VIbias_bus:    30
PHOffset:      148
Vcomp_ADC:     50
PHScale:       81
VIColOr:       100
Vcal:          255
CalDel:        145
TempRange:     0
WBC:           164
ChipContReg:   0
Readback:      1
ROC:           BPix_BmO_SEC6_LYR3_LDR17F_MOD2_ROC8
Vdd:           6
Vana:          85
Vsh:           30
Vcomp:         12
VwllPr:        150
VwllSh:        150
VHldDel:       250
Vtrim:         145
VcThr:         108
VIbias_bus:    30
PHOffset:      173
Vcomp_ADC:     50
PHScale:       70
VIColOr:       100
Vcal:          255
CalDel:        146
TempRange:     0
WBC:           164
ChipContReg:   0
Readback:      1
ROC:           BPix_BmO_SEC6_LYR3_LDR17F_MOD2_ROC9
Vdd:           6
Vana:          89
Vsh:           30
Vcomp:         12
VwllPr:        150
VwllSh:        150
VHldDel:       250
Vtrim:         98
VcThr:         91
VIbias_bus:    30
PHOffset:      162
Vcomp_ADC:     50
PHScale:       71
VIColOr:       100
Vcal:          255
CalDel:        184
TempRange:     0
WBC:           164
ChipContReg:   0
Readback:      1
ROC:           BPix_BmO_SEC6_LYR3_LDR17F_MOD2_ROC10
Vdd:           6
Vana:          80
Vsh:           30
Vcomp:         12
VwllPr:        150
VwllSh:        150
VHldDel:       250
Vtrim:         103
VcThr:         101
VIbias_bus:    30
PHOffset:      146
Vcomp_ADC:     50
PHScale:       87
VIColOr:       100
Vcal:          255
CalDel:        122
TempRange:     0
WBC:           164
ChipContReg:   0
Readback:      1
ROC:           BPix_BmO_SEC6_LYR3_LDR17F_MOD2_ROC11
Vdd:           6
Vana:          84
Vsh:           30
Vcomp:         12
VwllPr:        150
VwllSh:        150
VHldDel:       250
Vtrim:         110
VcThr:         103
VIbias_bus:    30
PHOffset:      161
Vcomp_ADC:     50
PHScale:       78
VIColOr:       100
Vcal:          255
CalDel:        126
TempRange:     0
WBC:           164
ChipContReg:   0
Readback:      1
ROC:           BPix_BmO_SEC6_LYR3_LDR17F_MOD2_ROC12
Vdd:           6
Vana:          85
Vsh:           30
Vcomp:         12
VwllPr:        150
VwllSh:        150
VHldDel:       250
Vtrim:         106
VcThr:         108
VIbias_bus:    30
PHOffset:      157
Vcomp_ADC:     50
PHScale:       80
VIColOr:       100
Vcal:          255
CalDel:        148
TempRange:     0
WBC:           164
ChipContReg:   0
Readback:      1
ROC:           BPix_BmO_SEC6_LYR3_LDR17F_MOD2_ROC13
Vdd:           6
Vana:          84
Vsh:           30
Vcomp:         12
VwllPr:        150
VwllSh:        150
VHldDel:       250
Vtrim:         102
VcThr:         92
VIbias_bus:    30
PHOffset:      154
Vcomp_ADC:     50
PHScale:       77
VIColOr:       100
Vcal:          255
CalDel:        144
TempRange:     0
WBC:           164
ChipContReg:   0
Readback:      1
ROC:           BPix_BmO_SEC6_LYR3_LDR17F_MOD2_ROC14
Vdd:           6
Vana:          95
Vsh:           30
Vcomp:         12
VwllPr:        150
VwllSh:        150
VHldDel:       250
Vtrim:         80
VcThr:         90
VIbias_bus:    30
PHOffset:      144
Vcomp_ADC:     50
PHScale:       83
VIColOr:       100
Vcal:          255
CalDel:        139
TempRange:     0
WBC:           164
ChipContReg:   0
Readback:      1
ROC:           BPix_BmO_SEC6_LYR3_LDR17F_MOD2_ROC15
Vdd:           6
Vana:          89
Vsh:           30
Vcomp:         12
VwllPr:        150
VwllSh:        150
VHldDel:       250
Vtrim:         113
VcThr:         91
VIbias_bus:    30
PHOffset:      158
Vcomp_ADC:     50
PHScale:       78
VIColOr:       100
Vcal:          255
CalDel:        136
TempRange:     0
WBC:           164
ChipContReg:   0
Readback:      1
