BPix_BpO_SEC3_LYR4_LDR9F_MOD3_ROC0
TBMABase0: 0
TBMBBase0: 0
TBMAAutoReset: 0
TBMBAutoReset: 0
TBMANoTokenPass: 0
TBMBNoTokenPass: 0
TBMADisablePKAMCounter: 1
TBMBDisablePKAMCounter: 1
TBMAPKAMCount: 5
TBMBPKAMCount: 5
TBMPLLDelay: 216
TBMADelay: 201
TBMBDelay: 201
