ROC:           BPix_BmO_SEC1_LYR2_LDR2F_MOD1_ROC0
par0vd: 3.370000
par1vd: 67.800000
par0va: -6.950000
par1va: 72.000000
par0rbia: 9.960000
par1rbia: 1.100000
par0tbia: 4.050000
par1tbia: 0.288000
par2tbia: -0.000292
par0ia: -1.586000
par1ia: 3.144000
par2ia: 0.029550
ROC:           BPix_BmO_SEC1_LYR2_LDR2F_MOD1_ROC1
par0vd: -0.565000
par1vd: 63.700000
par0va: -0.437000
par1va: 62.800000
par0rbia: 9.450000
par1rbia: 1.060000
par0tbia: 4.070000
par1tbia: 0.251000
par2tbia: -0.000189
par0ia: -2.455000
par1ia: 3.496000
par2ia: 0.027810
ROC:           BPix_BmO_SEC1_LYR2_LDR2F_MOD1_ROC2
par0vd: 7.090000
par1vd: 59.800000
par0va: 1.570000
par1va: 60.600000
par0rbia: 10.200000
par1rbia: 1.070000
par0tbia: 3.960000
par1tbia: 0.256000
par2tbia: -0.000218
par0ia: -1.208000
par1ia: 3.422000
par2ia: 0.031110
ROC:           BPix_BmO_SEC1_LYR2_LDR2F_MOD1_ROC3
par0vd: 6.040000
par1vd: 65.600000
par0va: 1.100000
par1va: 66.900000
par0rbia: 13.500000
par1rbia: 1.070000
par0tbia: 3.990000
par1tbia: 0.257000
par2tbia: -0.000261
par0ia: 0.762100
par1ia: 3.435000
par2ia: 0.036220
ROC:           BPix_BmO_SEC1_LYR2_LDR2F_MOD1_ROC4
par0vd: -1.670000
par1vd: 68.700000
par0va: -0.865000
par1va: 67.700000
par0rbia: 8.840000
par1rbia: 1.080000
par0tbia: 3.890000
par1tbia: 0.228000
par2tbia: -0.000173
par0ia: -4.500000
par1ia: 3.971000
par2ia: 0.034330
ROC:           BPix_BmO_SEC1_LYR2_LDR2F_MOD1_ROC5
par0vd: -2.790000
par1vd: 70.300000
par0va: -0.786000
par1va: 68.500000
par0rbia: 7.800000
par1rbia: 1.060000
par0tbia: 4.000000
par1tbia: 0.253000
par2tbia: -0.000194
par0ia: -3.701000
par1ia: 3.467000
par2ia: 0.028120
ROC:           BPix_BmO_SEC1_LYR2_LDR2F_MOD1_ROC6
par0vd: -4.540000
par1vd: 67.200000
par0va: -4.820000
par1va: 67.000000
par0rbia: 16.400000
par1rbia: 1.120000
par0tbia: 4.100000
par1tbia: 0.281000
par2tbia: -0.000258
par0ia: -5.409000
par1ia: 4.224000
par2ia: 0.013220
ROC:           BPix_BmO_SEC1_LYR2_LDR2F_MOD1_ROC7
par0vd: -3.290000
par1vd: 69.600000
par0va: -0.256000
par1va: 67.200000
par0rbia: 12.100000
par1rbia: 1.090000
par0tbia: 4.100000
par1tbia: 0.254000
par2tbia: -0.000204
par0ia: -4.361000
par1ia: 3.952000
par2ia: 0.022800
ROC:           BPix_BmO_SEC1_LYR2_LDR2F_MOD1_ROC8
par0vd: 8.230000
par1vd: 63.000000
par0va: -2.780000
par1va: 67.900000
par0rbia: 14.100000
par1rbia: 1.070000
par0tbia: 4.070000
par1tbia: 0.251000
par2tbia: -0.000189
par0ia: -2.075000
par1ia: 3.960000
par2ia: 0.021210
ROC:           BPix_BmO_SEC1_LYR2_LDR2F_MOD1_ROC9
par0vd: -3.920000
par1vd: 65.700000
par0va: -2.130000
par1va: 64.600000
par0rbia: 17.000000
par1rbia: 1.110000
par0tbia: 4.020000
par1tbia: 0.281000
par2tbia: -0.000244
par0ia: -4.332000
par1ia: 4.233000
par2ia: 0.011350
ROC:           BPix_BmO_SEC1_LYR2_LDR2F_MOD1_ROC10
par0vd: -0.579000
par1vd: 65.000000
par0va: 5.330000
par1va: 61.100000
par0rbia: 15.500000
par1rbia: 1.090000
par0tbia: 4.070000
par1tbia: 0.251000
par2tbia: -0.000189
par0ia: -3.339000
par1ia: 4.257000
par2ia: 0.017130
ROC:           BPix_BmO_SEC1_LYR2_LDR2F_MOD1_ROC11
par0vd: -7.680000
par1vd: 69.500000
par0va: 0.763000
par1va: 64.600000
par0rbia: 15.700000
par1rbia: 1.130000
par0tbia: 4.160000
par1tbia: 0.247000
par2tbia: -0.000199
par0ia: -8.679000
par1ia: 4.866000
par2ia: 0.012970
ROC:           BPix_BmO_SEC1_LYR2_LDR2F_MOD1_ROC12
par0vd: 1.880000
par1vd: 63.500000
par0va: 0.437000
par1va: 63.300000
par0rbia: 11.100000
par1rbia: 1.080000
par0tbia: 4.160000
par1tbia: 0.246000
par2tbia: -0.000170
par0ia: -3.795000
par1ia: 3.888000
par2ia: 0.023310
ROC:           BPix_BmO_SEC1_LYR2_LDR2F_MOD1_ROC13
par0vd: 2.040000
par1vd: 64.100000
par0va: 4.650000
par1va: 61.600000
par0rbia: 12.900000
par1rbia: 1.100000
par0tbia: 4.250000
par1tbia: 0.289000
par2tbia: -0.000282
par0ia: -2.881000
par1ia: 3.485000
par2ia: 0.022770
ROC:           BPix_BmO_SEC1_LYR2_LDR2F_MOD1_ROC14
par0vd: -3.320000
par1vd: 68.000000
par0va: -1.440000
par1va: 67.200000
par0rbia: 11.600000
par1rbia: 1.040000
par0tbia: 4.100000
par1tbia: 0.246000
par2tbia: -0.000212
par0ia: -0.897300
par1ia: 3.490000
par2ia: 0.032330
ROC:           BPix_BmO_SEC1_LYR2_LDR2F_MOD1_ROC15
par0vd: -0.768000
par1vd: 66.100000
par0va: -0.260000
par1va: 65.700000
par0rbia: 10.600000
par1rbia: 1.060000
par0tbia: 4.450000
par1tbia: 0.280000
par2tbia: -0.000263
par0ia: -0.887700
par1ia: 3.023000
par2ia: 0.029240
