ROC:           BPix_BpI_SEC4_LYR4_LDR16F_MOD3_ROC0
par0vd: 1.490000
par1vd: 60.700000
par0va: -4.560000
par1va: 62.300000
par0rbia: 7.040000
par1rbia: 1.050000
par0tbia: 3.750000
par1tbia: 0.209000
par2tbia: -0.000120
par0ia: -7.707000
par1ia: 4.401000
par2ia: 0.027280
ROC:           BPix_BpI_SEC4_LYR4_LDR16F_MOD3_ROC1
par0vd: -0.374000
par1vd: 66.500000
par0va: -0.043800
par1va: 65.500000
par0rbia: 15.800000
par1rbia: 1.100000
par0tbia: 4.020000
par1tbia: 0.251000
par2tbia: -0.000189
par0ia: -4.236000
par1ia: 4.414000
par2ia: 0.015260
ROC:           BPix_BpI_SEC4_LYR4_LDR16F_MOD3_ROC2
par0vd: -8.150000
par1vd: 66.600000
par0va: -4.650000
par1va: 64.600000
par0rbia: 9.000000
par1rbia: 1.090000
par0tbia: 3.920000
par1tbia: 0.230000
par2tbia: -0.000153
par0ia: -7.463000
par1ia: 4.341000
par2ia: 0.023440
ROC:           BPix_BpI_SEC4_LYR4_LDR16F_MOD3_ROC3
par0vd: 3.280000
par1vd: 61.200000
par0va: -0.661000
par1va: 62.500000
par0rbia: 12.600000
par1rbia: 1.080000
par0tbia: 3.600000
par1tbia: 0.256000
par2tbia: -0.000223
par0ia: -0.575500
par1ia: 3.764000
par2ia: 0.026730
ROC:           BPix_BpI_SEC4_LYR4_LDR16F_MOD3_ROC4
par0vd: 1.910000
par1vd: 64.200000
par0va: -4.730000
par1va: 67.200000
par0rbia: 12.900000
par1rbia: 1.100000
par0tbia: 4.060000
par1tbia: 0.242000
par2tbia: -0.000179
par0ia: -5.517000
par1ia: 4.326000
par2ia: 0.020140
ROC:           BPix_BpI_SEC4_LYR4_LDR16F_MOD3_ROC5
par0vd: -2.490000
par1vd: 66.200000
par0va: -0.510000
par1va: 64.500000
par0rbia: 13.100000
par1rbia: 1.090000
par0tbia: 3.920000
par1tbia: 0.230000
par2tbia: -0.000153
par0ia: -5.834000
par1ia: 4.587000
par2ia: 0.018520
ROC:           BPix_BpI_SEC4_LYR4_LDR16F_MOD3_ROC6
par0vd: -9.840000
par1vd: 64.900000
par0va: -2.370000
par1va: 61.000000
par0rbia: 16.800000
par1rbia: 1.190000
par0tbia: 4.120000
par1tbia: 0.234000
par2tbia: -0.000128
par0ia: -11.140000
par1ia: 5.942000
par2ia: -0.008127
ROC:           BPix_BpI_SEC4_LYR4_LDR16F_MOD3_ROC7
par0vd: -1.120000
par1vd: 67.600000
par0va: -4.900000
par1va: 68.800000
par0rbia: 10.900000
par1rbia: 1.110000
par0tbia: 3.860000
par1tbia: 0.231000
par2tbia: -0.000143
par0ia: -9.040000
par1ia: 4.792000
par2ia: 0.014790
ROC:           BPix_BpI_SEC4_LYR4_LDR16F_MOD3_ROC8
par0vd: -6.000000
par1vd: 65.900000
par0va: 0.857000
par1va: 62.200000
par0rbia: 13.400000
par1rbia: 1.070000
par0tbia: 4.220000
par1tbia: 0.236000
par2tbia: -0.000155
par0ia: -3.397000
par1ia: 4.136000
par2ia: 0.021670
ROC:           BPix_BpI_SEC4_LYR4_LDR16F_MOD3_ROC9
par0vd: -5.420000
par1vd: 60.200000
par0va: -3.220000
par1va: 58.600000
par0rbia: 8.740000
par1rbia: 1.030000
par0tbia: 3.810000
par1tbia: 0.227000
par2tbia: -0.000124
par0ia: -5.196000
par1ia: 4.055000
par2ia: 0.020630
ROC:           BPix_BpI_SEC4_LYR4_LDR16F_MOD3_ROC10
par0vd: 2.820000
par1vd: 59.300000
par0va: -1.410000
par1va: 60.400000
par0rbia: 11.600000
par1rbia: 1.090000
par0tbia: 3.370000
par1tbia: 0.240000
par2tbia: -0.000177
par0ia: -1.991000
par1ia: 4.163000
par2ia: 0.023830
ROC:           BPix_BpI_SEC4_LYR4_LDR16F_MOD3_ROC11
par0vd: -6.250000
par1vd: 67.400000
par0va: -3.730000
par1va: 66.700000
par0rbia: 11.200000
par1rbia: 1.060000
par0tbia: 3.660000
par1tbia: 0.214000
par2tbia: -0.000109
par0ia: -3.778000
par1ia: 4.490000
par2ia: 0.022370
ROC:           BPix_BpI_SEC4_LYR4_LDR16F_MOD3_ROC12
par0vd: -2.710000
par1vd: 62.900000
par0va: -3.940000
par1va: 63.700000
par0rbia: 11.400000
par1rbia: 1.090000
par0tbia: 3.370000
par1tbia: 0.245000
par2tbia: -0.000177
par0ia: -2.372000
par1ia: 4.151000
par2ia: 0.021800
ROC:           BPix_BpI_SEC4_LYR4_LDR16F_MOD3_ROC13
par0vd: -2.460000
par1vd: 65.900000
par0va: -4.920000
par1va: 67.400000
par0rbia: 9.160000
par1rbia: 1.060000
par0tbia: 3.470000
par1tbia: 0.230000
par2tbia: -0.000167
par0ia: -3.922000
par1ia: 4.092000
par2ia: 0.027400
ROC:           BPix_BpI_SEC4_LYR4_LDR16F_MOD3_ROC14
par0vd: -7.880000
par1vd: 65.100000
par0va: -4.950000
par1va: 64.300000
par0rbia: 7.440000
par1rbia: 1.040000
par0tbia: 3.770000
par1tbia: 0.209000
par2tbia: -0.000080
par0ia: -6.976000
par1ia: 4.428000
par2ia: 0.020150
ROC:           BPix_BpI_SEC4_LYR4_LDR16F_MOD3_ROC15
par0vd: 0.651000
par1vd: 67.000000
par0va: 1.980000
par1va: 66.300000
par0rbia: 9.940000
par1rbia: 1.110000
par0tbia: 3.880000
par1tbia: 0.225000
par2tbia: -0.000119
par0ia: -9.311000
par1ia: 4.809000
par2ia: 0.014420
