ROC:           BPix_BpO_SEC8_LYR3_LDR21F_MOD3_ROC0
par0vd: -3.290000
par1vd: 67.600000
par0va: -5.910000
par1va: 67.000000
par0rbia: 12.600000
par1rbia: 1.100000
par0tbia: 4.190000
par1tbia: 0.247000
par2tbia: -0.000143
par0ia: -6.820000
par1ia: 4.383000
par2ia: 0.012570
ROC:           BPix_BpO_SEC8_LYR3_LDR21F_MOD3_ROC1
par0vd: -4.230000
par1vd: 66.000000
par0va: -9.550000
par1va: 66.600000
par0rbia: 9.600000
par1rbia: 1.090000
par0tbia: 4.220000
par1tbia: 0.232000
par2tbia: -0.000143
par0ia: -7.190000
par1ia: 4.223000
par2ia: 0.022300
ROC:           BPix_BpO_SEC8_LYR3_LDR21F_MOD3_ROC2
par0vd: -3.380000
par1vd: 62.000000
par0va: -8.180000
par1va: 63.000000
par0rbia: 13.600000
par1rbia: 1.090000
par0tbia: 4.260000
par1tbia: 0.261000
par2tbia: -0.000194
par0ia: -3.851000
par1ia: 3.953000
par2ia: 0.018000
ROC:           BPix_BpO_SEC8_LYR3_LDR21F_MOD3_ROC3
par0vd: -10.900000
par1vd: 63.700000
par0va: -12.600000
par1va: 63.500000
par0rbia: 7.710000
par1rbia: 1.020000
par0tbia: 3.650000
par1tbia: 0.260000
par2tbia: -0.000221
par0ia: -2.798000
par1ia: 3.318000
par2ia: 0.027210
ROC:           BPix_BpO_SEC8_LYR3_LDR21F_MOD3_ROC4
par0vd: -6.830000
par1vd: 65.300000
par0va: -9.290000
par1va: 65.200000
par0rbia: 8.010000
par1rbia: 1.080000
par0tbia: 3.280000
par1tbia: 0.264000
par2tbia: -0.000225
par0ia: 1.540000
par1ia: 3.154000
par2ia: 0.033420
ROC:           BPix_BpO_SEC8_LYR3_LDR21F_MOD3_ROC5
par0vd: -4.370000
par1vd: 64.700000
par0va: -7.240000
par1va: 65.000000
par0rbia: 14.300000
par1rbia: 1.080000
par0tbia: 3.760000
par1tbia: 0.248000
par2tbia: -0.000192
par0ia: -0.633100
par1ia: 4.001000
par2ia: 0.022950
ROC:           BPix_BpO_SEC8_LYR3_LDR21F_MOD3_ROC6
par0vd: 1.610000
par1vd: 64.100000
par0va: -4.130000
par1va: 64.600000
par0rbia: 14.500000
par1rbia: 1.090000
par0tbia: 3.770000
par1tbia: 0.251000
par2tbia: -0.000192
par0ia: -2.433000
par1ia: 4.198000
par2ia: 0.018570
ROC:           BPix_BpO_SEC8_LYR3_LDR21F_MOD3_ROC7
par0vd: -1.920000
par1vd: 62.000000
par0va: -2.250000
par1va: 59.900000
par0rbia: 12.400000
par1rbia: 1.080000
par0tbia: 3.670000
par1tbia: 0.222000
par2tbia: -0.000133
par0ia: -3.759000
par1ia: 4.506000
par2ia: 0.021190
ROC:           BPix_BpO_SEC8_LYR3_LDR21F_MOD3_ROC8
par0vd: -3.490000
par1vd: 65.600000
par0va: -13.700000
par1va: 68.800000
par0rbia: 4.930000
par1rbia: 1.020000
par0tbia: 3.390000
par1tbia: 0.219000
par2tbia: -0.000141
par0ia: -6.527000
par1ia: 4.010000
par2ia: 0.028420
ROC:           BPix_BpO_SEC8_LYR3_LDR21F_MOD3_ROC9
par0vd: -2.580000
par1vd: 63.600000
par0va: -7.840000
par1va: 64.800000
par0rbia: 9.820000
par1rbia: 1.080000
par0tbia: 3.770000
par1tbia: 0.242000
par2tbia: -0.000167
par0ia: -3.767000
par1ia: 3.957000
par2ia: 0.024240
ROC:           BPix_BpO_SEC8_LYR3_LDR21F_MOD3_ROC10
par0vd: -0.185000
par1vd: 59.300000
par0va: -7.580000
par1va: 61.500000
par0rbia: 9.630000
par1rbia: 1.060000
par0tbia: 3.850000
par1tbia: 0.256000
par2tbia: -0.000187
par0ia: -1.691000
par1ia: 3.514000
par2ia: 0.025140
ROC:           BPix_BpO_SEC8_LYR3_LDR21F_MOD3_ROC11
par0vd: -10.800000
par1vd: 64.600000
par0va: -9.980000
par1va: 63.300000
par0rbia: 7.120000
par1rbia: 1.030000
par0tbia: 3.800000
par1tbia: 0.273000
par2tbia: -0.000255
par0ia: -2.063000
par1ia: 3.020000
par2ia: 0.029980
ROC:           BPix_BpO_SEC8_LYR3_LDR21F_MOD3_ROC12
par0vd: -4.300000
par1vd: 67.400000
par0va: -8.760000
par1va: 69.300000
par0rbia: 13.300000
par1rbia: 1.080000
par0tbia: 4.260000
par1tbia: 0.240000
par2tbia: -0.000162
par0ia: -3.849000
par1ia: 4.118000
par2ia: 0.021150
ROC:           BPix_BpO_SEC8_LYR3_LDR21F_MOD3_ROC13
par0vd: -6.340000
par1vd: 65.900000
par0va: -5.660000
par1va: 64.600000
par0rbia: 12.400000
par1rbia: 1.100000
par0tbia: 3.710000
par1tbia: 0.264000
par2tbia: -0.000240
par0ia: -2.804000
par1ia: 3.878000
par2ia: 0.024510
ROC:           BPix_BpO_SEC8_LYR3_LDR21F_MOD3_ROC14
par0vd: -7.660000
par1vd: 65.400000
par0va: -9.200000
par1va: 65.800000
par0rbia: 15.300000
par1rbia: 1.100000
par0tbia: 3.820000
par1tbia: 0.247000
par2tbia: -0.000172
par0ia: -5.173000
par1ia: 4.624000
par2ia: 0.011840
ROC:           BPix_BpO_SEC8_LYR3_LDR21F_MOD3_ROC15
par0vd: -12.700000
par1vd: 68.000000
par0va: -12.300000
par1va: 67.500000
par0rbia: 11.000000
par1rbia: 1.060000
par0tbia: 3.770000
par1tbia: 0.213000
par2tbia: -0.000112
par0ia: -3.611000
par1ia: 4.387000
par2ia: 0.024890
