ROC:           BPix_BpI_SEC2_LYR2_LDR3F_MOD3_ROC0
par0vd: 7.610000
par1vd: 63.100000
par0va: 8.690000
par1va: 59.900000
par0rbia: 15.600000
par1rbia: 1.110000
par0tbia: 4.300000
par1tbia: 0.264000
par2tbia: -0.000208
par0ia: -8.182000
par1ia: 4.533000
par2ia: 0.010140
ROC:           BPix_BpI_SEC2_LYR2_LDR3F_MOD3_ROC1
par0vd: -1.020000
par1vd: 64.100000
par0va: 1.410000
par1va: 62.100000
par0rbia: 11.600000
par1rbia: 1.080000
par0tbia: 4.360000
par1tbia: 0.262000
par2tbia: -0.000221
par0ia: -3.012000
par1ia: 3.567000
par2ia: 0.026010
ROC:           BPix_BpI_SEC2_LYR2_LDR3F_MOD3_ROC2
par0vd: -7.640000
par1vd: 68.200000
par0va: -0.921000
par1va: 65.300000
par0rbia: 13.100000
par1rbia: 1.090000
par0tbia: 4.560000
par1tbia: 0.249000
par2tbia: -0.000167
par0ia: -6.779000
par1ia: 4.196000
par2ia: 0.016610
ROC:           BPix_BpI_SEC2_LYR2_LDR3F_MOD3_ROC3
par0vd: 2.570000
par1vd: 63.600000
par0va: 5.620000
par1va: 61.300000
par0rbia: 12.300000
par1rbia: 1.090000
par0tbia: 4.390000
par1tbia: 0.260000
par2tbia: -0.000194
par0ia: -6.224000
par1ia: 4.007000
par2ia: 0.017560
ROC:           BPix_BpI_SEC2_LYR2_LDR3F_MOD3_ROC4
par0vd: 4.760000
par1vd: 62.700000
par0va: 1.710000
par1va: 62.800000
par0rbia: 17.300000
par1rbia: 1.110000
par0tbia: 4.310000
par1tbia: 0.252000
par2tbia: -0.000167
par0ia: -7.072000
par1ia: 4.743000
par2ia: 0.007433
ROC:           BPix_BpI_SEC2_LYR2_LDR3F_MOD3_ROC5
par0vd: -6.750000
par1vd: 67.900000
par0va: -1.790000
par1va: 65.000000
par0rbia: 9.980000
par1rbia: 1.090000
par0tbia: 4.620000
par1tbia: 0.247000
par2tbia: -0.000172
par0ia: -8.149000
par1ia: 4.010000
par2ia: 0.021460
ROC:           BPix_BpI_SEC2_LYR2_LDR3F_MOD3_ROC6
par0vd: 2.470000
par1vd: 64.400000
par0va: 1.170000
par1va: 63.700000
par0rbia: 8.210000
par1rbia: 1.060000
par0tbia: 4.350000
par1tbia: 0.269000
par2tbia: -0.000242
par0ia: -3.493000
par1ia: 3.179000
par2ia: 0.030220
ROC:           BPix_BpI_SEC2_LYR2_LDR3F_MOD3_ROC7
par0vd: 4.230000
par1vd: 64.200000
par0va: 5.100000
par1va: 62.000000
par0rbia: 11.600000
par1rbia: 1.090000
par0tbia: 4.650000
par1tbia: 0.256000
par2tbia: -0.000187
par0ia: -5.590000
par1ia: 3.814000
par2ia: 0.021520
ROC:           BPix_BpI_SEC2_LYR2_LDR3F_MOD3_ROC8
par0vd: 4.350000
par1vd: 63.200000
par0va: 1.040000
par1va: 64.500000
par0rbia: 16.500000
par1rbia: 1.090000
par0tbia: 3.630000
par1tbia: 0.245000
par2tbia: -0.000192
par0ia: -1.203000
par1ia: 4.396000
par2ia: 0.018570
ROC:           BPix_BpI_SEC2_LYR2_LDR3F_MOD3_ROC9
par0vd: -4.370000
par1vd: 60.400000
par0va: 0.505000
par1va: 57.500000
par0rbia: 13.000000
par1rbia: 1.070000
par0tbia: 4.190000
par1tbia: 0.248000
par2tbia: -0.000182
par0ia: -2.006000
par1ia: 3.821000
par2ia: 0.024300
ROC:           BPix_BpI_SEC2_LYR2_LDR3F_MOD3_ROC10
par0vd: -1.510000
par1vd: 65.700000
par0va: 6.830000
par1va: 61.100000
par0rbia: 14.300000
par1rbia: 1.080000
par0tbia: 4.190000
par1tbia: 0.248000
par2tbia: -0.000182
par0ia: -3.272000
par1ia: 4.081000
par2ia: 0.020010
ROC:           BPix_BpI_SEC2_LYR2_LDR3F_MOD3_ROC11
par0vd: -6.340000
par1vd: 65.500000
par0va: -3.770000
par1va: 64.800000
par0rbia: 7.470000
par1rbia: 1.090000
par0tbia: 4.200000
par1tbia: 0.245000
par2tbia: -0.000167
par0ia: -6.373000
par1ia: 3.804000
par2ia: 0.026280
ROC:           BPix_BpI_SEC2_LYR2_LDR3F_MOD3_ROC12
par0vd: 0.969000
par1vd: 67.800000
par0va: -0.815000
par1va: 68.300000
par0rbia: 11.900000
par1rbia: 1.080000
par0tbia: 4.370000
par1tbia: 0.228000
par2tbia: -0.000148
par0ia: -5.589000
par1ia: 4.218000
par2ia: 0.024360
ROC:           BPix_BpI_SEC2_LYR2_LDR3F_MOD3_ROC13
par0vd: -2.800000
par1vd: 66.700000
par0va: -0.934000
par1va: 66.300000
par0rbia: 10.100000
par1rbia: 1.090000
par0tbia: 4.620000
par1tbia: 0.247000
par2tbia: -0.000172
par0ia: -8.096000
par1ia: 4.013000
par2ia: 0.021440
ROC:           BPix_BpI_SEC2_LYR2_LDR3F_MOD3_ROC14
par0vd: 1.250000
par1vd: 63.700000
par0va: 3.030000
par1va: 61.900000
par0rbia: 9.460000
par1rbia: 1.070000
par0tbia: 4.220000
par1tbia: 0.232000
par2tbia: -0.000143
par0ia: -4.660000
par1ia: 3.915000
par2ia: 0.026440
ROC:           BPix_BpI_SEC2_LYR2_LDR3F_MOD3_ROC15
par0vd: -4.180000
par1vd: 65.700000
par0va: 3.740000
par1va: 60.900000
par0rbia: 8.820000
par1rbia: 1.040000
par0tbia: 4.290000
par1tbia: 0.202000
par2tbia: -0.000122
par0ia: -8.503000
par1ia: 4.441000
par2ia: 0.031450
