ROC:           BPix_BpI_SEC7_LYR1_LDR5F_MOD2_ROC0
par0vd: 5.690000
par1vd: 64.600000
par0va: 8.680000
par1va: 65.200000
par0rbia: 9.350000
par1rbia: 1.070000
par0tbia: 4.590000
par1tbia: 0.260000
par2tbia: -0.000125
par0ia: -4.282000
par1ia: 3.557000
par2ia: 0.017230
ROC:           BPix_BpI_SEC7_LYR1_LDR5F_MOD2_ROC1
par0vd: 6.210000
par1vd: 63.000000
par0va: 8.650000
par1va: 63.800000
par0rbia: 10.500000
par1rbia: 1.010000
par0tbia: 4.600000
par1tbia: 0.257000
par2tbia: -0.000155
par0ia: -2.780000
par1ia: 3.364000
par2ia: 0.020110
ROC:           BPix_BpI_SEC7_LYR1_LDR5F_MOD2_ROC2
par0vd: 7.930000
par1vd: 65.000000
par0va: 12.200000
par1va: 64.400000
par0rbia: 12.400000
par1rbia: 1.100000
par0tbia: 4.470000
par1tbia: 0.301000
par2tbia: -0.000210
par0ia: -3.000000
par1ia: 3.426000
par2ia: 0.013460
ROC:           BPix_BpI_SEC7_LYR1_LDR5F_MOD2_ROC3
par0vd: 2.020000
par1vd: 62.600000
par0va: 5.370000
par1va: 62.600000
par0rbia: 7.880000
par1rbia: 1.070000
par0tbia: 4.440000
par1tbia: 0.265000
par2tbia: -0.000154
par0ia: -4.420000
par1ia: 3.404000
par2ia: 0.019830
ROC:           BPix_BpI_SEC7_LYR1_LDR5F_MOD2_ROC12
par0vd: -1.120000
par1vd: 68.500000
par0va: 8.220000
par1va: 66.300000
par0rbia: 10.200000
par1rbia: 1.090000
par0tbia: 4.860000
par1tbia: 0.316000
par2tbia: -0.000259
par0ia: -3.564000
par1ia: 3.029000
par2ia: 0.017280
ROC:           BPix_BpI_SEC7_LYR1_LDR5F_MOD2_ROC13
par0vd: -0.082800
par1vd: 63.300000
par0va: 3.720000
par1va: 63.700000
par0rbia: 8.190000
par1rbia: 1.040000
par0tbia: 3.870000
par1tbia: 0.315000
par2tbia: -0.000278
par0ia: 0.795600
par1ia: 2.650000
par2ia: 0.022110
ROC:           BPix_BpI_SEC7_LYR1_LDR5F_MOD2_ROC14
par0vd: 3.570000
par1vd: 63.300000
par0va: 5.740000
par1va: 64.100000
par0rbia: 9.540000
par1rbia: 1.070000
par0tbia: 4.590000
par1tbia: 0.299000
par2tbia: -0.000244
par0ia: -2.329000
par1ia: 3.006000
par2ia: 0.020930
ROC:           BPix_BpI_SEC7_LYR1_LDR5F_MOD2_ROC15
par0vd: -0.564000
par1vd: 63.900000
par0va: 8.010000
par1va: 62.100000
par0rbia: 11.200000
par1rbia: 1.070000
par0tbia: 4.730000
par1tbia: 0.285000
par2tbia: -0.000195
par0ia: -1.367000
par1ia: 3.156000
par2ia: 0.019410
