ROC:           BPix_BmO_SEC2_LYR1_LDR1F_MOD1_ROC0
par0vd: 1.390000
par1vd: 67.300000
par0va: 16.100000
par1va: 62.800000
par0rbia: 15.800000
par1rbia: 1.080000
par0tbia: 4.560000
par1tbia: 0.283000
par2tbia: -0.000219
par0ia: -1.090000
par1ia: 3.578000
par2ia: 0.016460
ROC:           BPix_BmO_SEC2_LYR1_LDR1F_MOD1_ROC1
par0vd: -9.050000
par1vd: 66.100000
par0va: 10.000000
par1va: 60.200000
par0rbia: 8.210000
par1rbia: 1.060000
par0tbia: 4.310000
par1tbia: 0.229000
par2tbia: -0.000080
par0ia: -7.731000
par1ia: 4.180000
par2ia: 0.015470
ROC:           BPix_BmO_SEC2_LYR1_LDR1F_MOD1_ROC2
par0vd: -0.493000
par1vd: 65.000000
par0va: 6.710000
par1va: 64.600000
par0rbia: 9.840000
par1rbia: 1.060000
par0tbia: 4.430000
par1tbia: 0.291000
par2tbia: -0.000218
par0ia: -1.243000
par1ia: 3.030000
par2ia: 0.020520
ROC:           BPix_BmO_SEC2_LYR1_LDR1F_MOD1_ROC3
par0vd: 3.910000
par1vd: 65.700000
par0va: 11.100000
par1va: 64.800000
par0rbia: 9.200000
par1rbia: 1.090000
par0tbia: 4.210000
par1tbia: 0.228000
par2tbia: -0.000070
par0ia: -8.228000
par1ia: 4.451000
par2ia: 0.012030
ROC:           BPix_BmO_SEC2_LYR1_LDR1F_MOD1_ROC12
par0vd: -4.660000
par1vd: 66.900000
par0va: 11.100000
par1va: 62.300000
par0rbia: 6.190000
par1rbia: 0.998000
par0tbia: 4.100000
par1tbia: 0.216000
par2tbia: -0.000080
par0ia: -8.410000
par1ia: 4.098000
par2ia: 0.017910
ROC:           BPix_BmO_SEC2_LYR1_LDR1F_MOD1_ROC13
par0vd: -3.720000
par1vd: 63.200000
par0va: 6.190000
par1va: 61.500000
par0rbia: 6.980000
par1rbia: 1.010000
par0tbia: 4.670000
par1tbia: 0.272000
par2tbia: -0.000156
par0ia: -4.507000
par1ia: 3.101000
par2ia: 0.018640
ROC:           BPix_BmO_SEC2_LYR1_LDR1F_MOD1_ROC14
par0vd: -7.490000
par1vd: 65.900000
par0va: 6.640000
par1va: 62.100000
par0rbia: 8.250000
par1rbia: 1.070000
par0tbia: 4.300000
par1tbia: 0.254000
par2tbia: -0.000127
par0ia: -4.261000
par1ia: 3.584000
par2ia: 0.019200
ROC:           BPix_BmO_SEC2_LYR1_LDR1F_MOD1_ROC15
par0vd: 3.780000
par1vd: 65.700000
par0va: 10.500000
par1va: 65.900000
par0rbia: 14.000000
par1rbia: 1.100000
par0tbia: 4.590000
par1tbia: 0.294000
par2tbia: -0.000218
par0ia: -4.744000
par1ia: 3.713000
par2ia: 0.012140
