ROC:           BPix_BpO_SEC8_LYR2_LDR14F_MOD4_ROC0
par0vd: 7.520000
par1vd: 59.800000
par0va: 4.300000
par1va: 59.400000
par0rbia: 18.800000
par1rbia: 1.070000
par0tbia: 4.310000
par1tbia: 0.266000
par2tbia: -0.000199
par0ia: 0.747000
par1ia: 3.906000
par2ia: 0.015650
ROC:           BPix_BpO_SEC8_LYR2_LDR14F_MOD4_ROC1
par0vd: -8.150000
par1vd: 62.900000
par0va: -3.700000
par1va: 59.500000
par0rbia: 11.200000
par1rbia: 1.100000
par0tbia: 4.010000
par1tbia: 0.264000
par2tbia: -0.000242
par0ia: -3.474000
par1ia: 3.681000
par2ia: 0.027470
ROC:           BPix_BpO_SEC8_LYR2_LDR14F_MOD4_ROC2
par0vd: 1.570000
par1vd: 67.000000
par0va: 0.391000
par1va: 66.600000
par0rbia: 14.600000
par1rbia: 1.080000
par0tbia: 4.340000
par1tbia: 0.256000
par2tbia: -0.000232
par0ia: -1.844000
par1ia: 3.762000
par2ia: 0.027780
ROC:           BPix_BpO_SEC8_LYR2_LDR14F_MOD4_ROC3
par0vd: -3.160000
par1vd: 64.400000
par0va: -2.010000
par1va: 62.600000
par0rbia: 10.200000
par1rbia: 1.070000
par0tbia: 3.900000
par1tbia: 0.253000
par2tbia: -0.000213
par0ia: -2.394000
par1ia: 3.588000
par2ia: 0.029180
ROC:           BPix_BpO_SEC8_LYR2_LDR14F_MOD4_ROC4
par0vd: -0.905000
par1vd: 67.400000
par0va: -3.280000
par1va: 67.400000
par0rbia: 10.700000
par1rbia: 1.090000
par0tbia: 4.200000
par1tbia: 0.255000
par2tbia: -0.000208
par0ia: -5.335000
par1ia: 3.863000
par2ia: 0.024360
ROC:           BPix_BpO_SEC8_LYR2_LDR14F_MOD4_ROC5
par0vd: -6.520000
par1vd: 69.800000
par0va: 1.010000
par1va: 64.800000
par0rbia: 13.700000
par1rbia: 1.100000
par0tbia: 4.040000
par1tbia: 0.273000
par2tbia: -0.000257
par0ia: -3.229000
par1ia: 3.806000
par2ia: 0.022350
ROC:           BPix_BpO_SEC8_LYR2_LDR14F_MOD4_ROC6
par0vd: -6.610000
par1vd: 69.500000
par0va: 0.749000
par1va: 64.700000
par0rbia: 13.900000
par1rbia: 1.100000
par0tbia: 3.960000
par1tbia: 0.254000
par2tbia: -0.000205
par0ia: -4.924000
par1ia: 4.264000
par2ia: 0.018120
ROC:           BPix_BpO_SEC8_LYR2_LDR14F_MOD4_ROC7
par0vd: 6.570000
par1vd: 59.800000
par0va: 0.709000
par1va: 61.500000
par0rbia: 14.500000
par1rbia: 1.090000
par0tbia: 4.160000
par1tbia: 0.264000
par2tbia: -0.000218
par0ia: -3.201000
par1ia: 3.956000
par2ia: 0.019560
ROC:           BPix_BpO_SEC8_LYR2_LDR14F_MOD4_ROC8
par0vd: -3.100000
par1vd: 65.500000
par0va: 1.700000
par1va: 62.600000
par0rbia: 13.200000
par1rbia: 1.080000
par0tbia: 4.010000
par1tbia: 0.269000
par2tbia: -0.000233
par0ia: 0.291200
par1ia: 3.461000
par2ia: 0.025570
ROC:           BPix_BpO_SEC8_LYR2_LDR14F_MOD4_ROC9
par0vd: 8.450000
par1vd: 60.300000
par0va: 1.920000
par1va: 61.900000
par0rbia: 11.500000
par1rbia: 1.080000
par0tbia: 3.870000
par1tbia: 0.227000
par2tbia: -0.000138
par0ia: -3.238000
par1ia: 4.202000
par2ia: 0.024440
ROC:           BPix_BpO_SEC8_LYR2_LDR14F_MOD4_ROC10
par0vd: -9.780000
par1vd: 67.200000
par0va: -1.610000
par1va: 63.000000
par0rbia: 15.900000
par1rbia: 1.100000
par0tbia: 3.850000
par1tbia: 0.286000
par2tbia: -0.000272
par0ia: 0.020920
par1ia: 3.665000
par2ia: 0.019980
ROC:           BPix_BpO_SEC8_LYR2_LDR14F_MOD4_ROC11
par0vd: 1.910000
par1vd: 62.400000
par0va: -5.570000
par1va: 65.000000
par0rbia: 11.100000
par1rbia: 1.090000
par0tbia: 4.310000
par1tbia: 0.256000
par2tbia: -0.000184
par0ia: -5.818000
par1ia: 3.946000
par2ia: 0.019870
ROC:           BPix_BpO_SEC8_LYR2_LDR14F_MOD4_ROC12
par0vd: 2.100000
par1vd: 64.900000
par0va: 2.180000
par1va: 63.800000
par0rbia: 13.100000
par1rbia: 1.100000
par0tbia: 4.180000
par1tbia: 0.251000
par2tbia: -0.000194
par0ia: -5.510000
par1ia: 4.197000
par2ia: 0.019210
ROC:           BPix_BpO_SEC8_LYR2_LDR14F_MOD4_ROC13
par0vd: -3.330000
par1vd: 64.400000
par0va: -5.050000
par1va: 64.900000
par0rbia: 13.400000
par1rbia: 1.110000
par0tbia: 4.200000
par1tbia: 0.271000
par2tbia: -0.000238
par0ia: -5.487000
par1ia: 3.992000
par2ia: 0.018340
ROC:           BPix_BpO_SEC8_LYR2_LDR14F_MOD4_ROC14
par0vd: 0.029400
par1vd: 63.900000
par0va: -1.160000
par1va: 63.700000
par0rbia: 12.600000
par1rbia: 1.100000
par0tbia: 4.260000
par1tbia: 0.254000
par2tbia: -0.000213
par0ia: -5.465000
par1ia: 4.039000
par2ia: 0.022650
ROC:           BPix_BpO_SEC8_LYR2_LDR14F_MOD4_ROC15
par0vd: 7.650000
par1vd: 63.000000
par0va: 3.860000
par1va: 62.900000
par0rbia: 17.200000
par1rbia: 1.120000
par0tbia: 4.160000
par1tbia: 0.264000
par2tbia: -0.000218
par0ia: -6.471000
par1ia: 4.583000
par2ia: 0.010740
