ROC:           BPix_BpO_SEC5_LYR2_LDR9F_MOD3_ROC0
par0vd: -3.140000
par1vd: 60.000000
par0va: -0.207000
par1va: 60.200000
par0rbia: 10.900000
par1rbia: 1.040000
par0tbia: 5.500000
par1tbia: 0.249000
par2tbia: -0.000192
par0ia: -5.855000
par1ia: 3.371000
par2ia: 0.028040
ROC:           BPix_BpO_SEC5_LYR2_LDR9F_MOD3_ROC1
par0vd: -4.720000
par1vd: 63.900000
par0va: -1.100000
par1va: 63.900000
par0rbia: 10.200000
par1rbia: 1.070000
par0tbia: 5.650000
par1tbia: 0.258000
par2tbia: -0.000215
par0ia: -6.280000
par1ia: 3.271000
par2ia: 0.030690
ROC:           BPix_BpO_SEC5_LYR2_LDR9F_MOD3_ROC2
par0vd: -6.670000
par1vd: 62.400000
par0va: -3.790000
par1va: 63.500000
par0rbia: 9.530000
par1rbia: 1.050000
par0tbia: 5.090000
par1tbia: 0.244000
par2tbia: -0.000175
par0ia: -6.535000
par1ia: 3.555000
par2ia: 0.027620
ROC:           BPix_BpO_SEC5_LYR2_LDR9F_MOD3_ROC3
par0vd: 2.780000
par1vd: 63.000000
par0va: 2.230000
par1va: 65.500000
par0rbia: 14.100000
par1rbia: 1.060000
par0tbia: 5.690000
par1tbia: 0.265000
par2tbia: -0.000234
par0ia: -3.196000
par1ia: 3.240000
par2ia: 0.028620
ROC:           BPix_BpO_SEC5_LYR2_LDR9F_MOD3_ROC4
par0vd: -6.480000
par1vd: 62.800000
par0va: -6.810000
par1va: 65.500000
par0rbia: 13.100000
par1rbia: 1.090000
par0tbia: 5.420000
par1tbia: 0.248000
par2tbia: -0.000187
par0ia: -10.500000
par1ia: 4.144000
par2ia: 0.019420
ROC:           BPix_BpO_SEC5_LYR2_LDR9F_MOD3_ROC5
par0vd: -4.810000
par1vd: 64.600000
par0va: -1.610000
par1va: 65.300000
par0rbia: 10.500000
par1rbia: 1.040000
par0tbia: 5.280000
par1tbia: 0.269000
par2tbia: -0.000273
par0ia: -2.530000
par1ia: 2.861000
par2ia: 0.036130
ROC:           BPix_BpO_SEC5_LYR2_LDR9F_MOD3_ROC6
par0vd: -10.900000
par1vd: 64.800000
par0va: -6.340000
par1va: 65.200000
par0rbia: 9.210000
par1rbia: 1.080000
par0tbia: 5.760000
par1tbia: 0.252000
par2tbia: -0.000201
par0ia: -9.660000
par1ia: 3.511000
par2ia: 0.028430
ROC:           BPix_BpO_SEC5_LYR2_LDR9F_MOD3_ROC7
par0vd: -12.000000
par1vd: 64.000000
par0va: -3.700000
par1va: 62.400000
par0rbia: 8.520000
par1rbia: 1.060000
par0tbia: 5.150000
par1tbia: 0.276000
par2tbia: -0.000258
par0ia: -3.576000
par1ia: 2.883000
par2ia: 0.032650
ROC:           BPix_BpO_SEC5_LYR2_LDR9F_MOD3_ROC8
par0vd: -12.800000
par1vd: 62.900000
par0va: -0.816000
par1va: 59.300000
par0rbia: 13.200000
par1rbia: 1.070000
par0tbia: 4.940000
par1tbia: 0.247000
par2tbia: -0.000196
par0ia: -5.025000
par1ia: 3.797000
par2ia: 0.026520
ROC:           BPix_BpO_SEC5_LYR2_LDR9F_MOD3_ROC9
par0vd: -9.830000
par1vd: 64.400000
par0va: 1.140000
par1va: 61.600000
par0rbia: 14.100000
par1rbia: 1.090000
par0tbia: 5.410000
par1tbia: 0.247000
par2tbia: -0.000182
par0ia: -10.490000
par1ia: 4.253000
par2ia: 0.017380
ROC:           BPix_BpO_SEC5_LYR2_LDR9F_MOD3_ROC10
par0vd: -2.580000
par1vd: 63.300000
par0va: -4.280000
par1va: 66.200000
par0rbia: 12.700000
par1rbia: 1.070000
par0tbia: 5.780000
par1tbia: 0.249000
par2tbia: -0.000176
par0ia: -8.293000
par1ia: 3.748000
par2ia: 0.022840
ROC:           BPix_BpO_SEC5_LYR2_LDR9F_MOD3_ROC11
par0vd: -13.200000
par1vd: 64.600000
par0va: -2.170000
par1va: 61.400000
par0rbia: 10.200000
par1rbia: 1.080000
par0tbia: 5.750000
par1tbia: 0.264000
par2tbia: -0.000215
par0ia: -8.101000
par1ia: 3.391000
par2ia: 0.026400
ROC:           BPix_BpO_SEC5_LYR2_LDR9F_MOD3_ROC12
par0vd: -9.880000
par1vd: 65.900000
par0va: -1.730000
par1va: 65.000000
par0rbia: 13.500000
par1rbia: 1.080000
par0tbia: 5.290000
par1tbia: 0.296000
par2tbia: -0.000321
par0ia: -1.481000
par1ia: 2.918000
par2ia: 0.029980
ROC:           BPix_BpO_SEC5_LYR2_LDR9F_MOD3_ROC13
par0vd: -4.630000
par1vd: 61.700000
par0va: -2.350000
par1va: 63.100000
par0rbia: 11.200000
par1rbia: 1.080000
par0tbia: 4.880000
par1tbia: 0.260000
par2tbia: -0.000230
par0ia: -3.572000
par1ia: 3.355000
par2ia: 0.031010
ROC:           BPix_BpO_SEC5_LYR2_LDR9F_MOD3_ROC14
par0vd: -7.110000
par1vd: 64.200000
par0va: -3.580000
par1va: 64.800000
par0rbia: 11.200000
par1rbia: 1.080000
par0tbia: 5.230000
par1tbia: 0.251000
par2tbia: -0.000216
par0ia: -8.034000
par1ia: 3.730000
par2ia: 0.027880
ROC:           BPix_BpO_SEC5_LYR2_LDR9F_MOD3_ROC15
par0vd: -19.000000
par1vd: 69.000000
par0va: -4.020000
par1va: 65.200000
par0rbia: 10.400000
par1rbia: 1.090000
par0tbia: 5.140000
par1tbia: 0.291000
par2tbia: -0.000307
par0ia: -4.254000
par1ia: 2.995000
par2ia: 0.030480
