ROC:           BPix_BmI_SEC1_LYR4_LDR1F_MOD3_ROC0
par0vd: -9.750000
par1vd: 69.000000
par0va: 3.080000
par1va: 63.400000
par0rbia: 18.000000
par1rbia: 1.110000
par0tbia: 3.510000
par1tbia: 0.259000
par2tbia: -0.000206
par0ia: -3.165000
par1ia: 4.687000
par2ia: 0.009163
ROC:           BPix_BmI_SEC1_LYR4_LDR1F_MOD3_ROC1
par0vd: -8.150000
par1vd: 61.700000
par0va: -4.400000
par1va: 60.300000
par0rbia: 10.300000
par1rbia: 1.040000
par0tbia: 3.740000
par1tbia: 0.280000
par2tbia: -0.000240
par0ia: 0.714300
par1ia: 3.104000
par2ia: 0.025060
ROC:           BPix_BmI_SEC1_LYR4_LDR1F_MOD3_ROC2
par0vd: 1.140000
par1vd: 62.700000
par0va: -2.690000
par1va: 64.800000
par0rbia: 8.920000
par1rbia: 1.030000
par0tbia: 3.870000
par1tbia: 0.231000
par2tbia: -0.000156
par0ia: -4.063000
par1ia: 3.822000
par2ia: 0.026370
ROC:           BPix_BmI_SEC1_LYR4_LDR1F_MOD3_ROC3
par0vd: -7.920000
par1vd: 65.500000
par0va: -2.740000
par1va: 63.900000
par0rbia: 11.200000
par1rbia: 1.090000
par0tbia: 3.900000
par1tbia: 0.263000
par2tbia: -0.000216
par0ia: -2.351000
par1ia: 3.660000
par2ia: 0.024430
ROC:           BPix_BmI_SEC1_LYR4_LDR1F_MOD3_ROC4
par0vd: -10.200000
par1vd: 65.700000
par0va: -6.380000
par1va: 65.000000
par0rbia: 10.700000
par1rbia: 1.080000
par0tbia: 3.560000
par1tbia: 0.253000
par2tbia: -0.000196
par0ia: -1.195000
par1ia: 3.722000
par2ia: 0.025710
ROC:           BPix_BmI_SEC1_LYR4_LDR1F_MOD3_ROC5
par0vd: -5.180000
par1vd: 62.300000
par0va: -3.900000
par1va: 62.000000
par0rbia: 10.200000
par1rbia: 1.030000
par0tbia: 3.570000
par1tbia: 0.221000
par2tbia: -0.000116
par0ia: -3.832000
par1ia: 4.259000
par2ia: 0.019950
ROC:           BPix_BmI_SEC1_LYR4_LDR1F_MOD3_ROC6
par0vd: -3.200000
par1vd: 62.900000
par0va: -1.480000
par1va: 62.100000
par0rbia: 9.770000
par1rbia: 1.040000
par0tbia: 3.680000
par1tbia: 0.239000
par2tbia: -0.000182
par0ia: -1.165000
par1ia: 3.608000
par2ia: 0.030370
ROC:           BPix_BmI_SEC1_LYR4_LDR1F_MOD3_ROC7
par0vd: -2.230000
par1vd: 65.100000
par0va: 2.360000
par1va: 63.100000
par0rbia: 16.400000
par1rbia: 1.090000
par0tbia: 3.550000
par1tbia: 0.265000
par2tbia: -0.000235
par0ia: 0.876500
par1ia: 3.959000
par2ia: 0.020730
ROC:           BPix_BmI_SEC1_LYR4_LDR1F_MOD3_ROC8
par0vd: -8.330000
par1vd: 64.600000
par0va: -1.280000
par1va: 61.700000
par0rbia: 9.340000
par1rbia: 1.030000
par0tbia: 3.280000
par1tbia: 0.211000
par2tbia: -0.000141
par0ia: -3.434000
par1ia: 4.316000
par2ia: 0.029410
ROC:           BPix_BmI_SEC1_LYR4_LDR1F_MOD3_ROC9
par0vd: -6.370000
par1vd: 63.800000
par0va: -1.740000
par1va: 62.000000
par0rbia: 10.900000
par1rbia: 1.060000
par0tbia: 3.700000
par1tbia: 0.227000
par2tbia: -0.000156
par0ia: -2.776000
par1ia: 4.108000
par2ia: 0.027660
ROC:           BPix_BmI_SEC1_LYR4_LDR1F_MOD3_ROC10
par0vd: -9.020000
par1vd: 64.700000
par0va: -3.810000
par1va: 63.400000
par0rbia: 9.810000
par1rbia: 1.080000
par0tbia: 3.820000
par1tbia: 0.242000
par2tbia: -0.000172
par0ia: -3.643000
par1ia: 3.907000
par2ia: 0.025570
ROC:           BPix_BmI_SEC1_LYR4_LDR1F_MOD3_ROC11
par0vd: -4.090000
par1vd: 63.700000
par0va: -2.110000
par1va: 63.400000
par0rbia: 9.960000
par1rbia: 1.090000
par0tbia: 3.620000
par1tbia: 0.263000
par2tbia: -0.000230
par0ia: -1.530000
par1ia: 3.549000
par2ia: 0.028420
ROC:           BPix_BmI_SEC1_LYR4_LDR1F_MOD3_ROC12
par0vd: -2.090000
par1vd: 65.100000
par0va: 2.610000
par1va: 63.000000
par0rbia: 13.700000
par1rbia: 1.090000
par0tbia: 3.570000
par1tbia: 0.234000
par2tbia: -0.000180
par0ia: -3.408000
par1ia: 4.500000
par2ia: 0.021960
ROC:           BPix_BmI_SEC1_LYR4_LDR1F_MOD3_ROC13
par0vd: -5.560000
par1vd: 66.800000
par0va: -1.450000
par1va: 66.400000
par0rbia: 9.730000
par1rbia: 1.060000
par0tbia: 3.840000
par1tbia: 0.217000
par2tbia: -0.000107
par0ia: -4.193000
par1ia: 4.247000
par2ia: 0.023860
ROC:           BPix_BmI_SEC1_LYR4_LDR1F_MOD3_ROC14
par0vd: -12.900000
par1vd: 69.700000
par0va: -5.420000
par1va: 68.800000
par0rbia: 11.200000
par1rbia: 1.070000
par0tbia: 3.780000
par1tbia: 0.235000
par2tbia: -0.000153
par0ia: -1.786000
par1ia: 3.952000
par2ia: 0.025830
ROC:           BPix_BmI_SEC1_LYR4_LDR1F_MOD3_ROC15
par0vd: -7.890000
par1vd: 65.200000
par0va: -1.960000
par1va: 63.900000
par0rbia: 13.200000
par1rbia: 1.080000
par0tbia: 3.500000
par1tbia: 0.230000
par2tbia: -0.000150
par0ia: -1.554000
par1ia: 4.338000
par2ia: 0.022200
