ROC:           BPix_BmO_SEC6_LYR4_LDR24F_MOD4_ROC0
par0vd: -12.000000
par1vd: 64.900000
par0va: -1.430000
par1va: 62.400000
par0rbia: 8.650000
par1rbia: 1.060000
par0tbia: 4.850000
par1tbia: 0.248000
par2tbia: -0.000165
par0ia: -6.843000
par1ia: 3.605000
par2ia: 0.024070
ROC:           BPix_BmO_SEC6_LYR4_LDR24F_MOD4_ROC1
par0vd: -10.900000
par1vd: 68.800000
par0va: 0.825000
par1va: 65.500000
par0rbia: 11.400000
par1rbia: 1.090000
par0tbia: 4.050000
par1tbia: 0.251000
par2tbia: -0.000222
par0ia: -3.100000
par1ia: 3.751000
par2ia: 0.030070
ROC:           BPix_BmO_SEC6_LYR4_LDR24F_MOD4_ROC2
par0vd: -8.510000
par1vd: 65.600000
par0va: 0.307000
par1va: 64.000000
par0rbia: 9.910000
par1rbia: 1.060000
par0tbia: 4.350000
par1tbia: 0.260000
par2tbia: -0.000208
par0ia: -1.944000
par1ia: 3.307000
par2ia: 0.028870
ROC:           BPix_BmO_SEC6_LYR4_LDR24F_MOD4_ROC3
par0vd: -9.340000
par1vd: 64.200000
par0va: 0.319000
par1va: 62.100000
par0rbia: 9.400000
par1rbia: 1.100000
par0tbia: 3.900000
par1tbia: 0.265000
par2tbia: -0.000204
par0ia: -5.120000
par1ia: 3.799000
par2ia: 0.020760
ROC:           BPix_BmO_SEC6_LYR4_LDR24F_MOD4_ROC4
par0vd: -9.960000
par1vd: 63.900000
par0va: -2.300000
par1va: 63.100000
par0rbia: 9.130000
par1rbia: 0.974000
par0tbia: 4.250000
par1tbia: 0.241000
par2tbia: -0.000170
par0ia: -1.935000
par1ia: 3.256000
par2ia: 0.027640
ROC:           BPix_BmO_SEC6_LYR4_LDR24F_MOD4_ROC5
par0vd: -7.660000
par1vd: 62.900000
par0va: -2.980000
par1va: 63.100000
par0rbia: 7.260000
par1rbia: 1.010000
par0tbia: 4.030000
par1tbia: 0.243000
par2tbia: -0.000178
par0ia: -5.091000
par1ia: 3.533000
par2ia: 0.026640
ROC:           BPix_BmO_SEC6_LYR4_LDR24F_MOD4_ROC6
par0vd: -8.780000
par1vd: 66.100000
par0va: -3.320000
par1va: 66.200000
par0rbia: 9.830000
par1rbia: 1.040000
par0tbia: 4.070000
par1tbia: 0.251000
par2tbia: -0.000208
par0ia: -2.924000
par1ia: 3.492000
par2ia: 0.028600
ROC:           BPix_BmO_SEC6_LYR4_LDR24F_MOD4_ROC7
par0vd: -11.600000
par1vd: 63.600000
par0va: -0.960000
par1va: 61.100000
par0rbia: 11.100000
par1rbia: 1.090000
par0tbia: 4.230000
par1tbia: 0.297000
par2tbia: -0.000287
par0ia: -1.293000
par1ia: 3.119000
par2ia: 0.024680
ROC:           BPix_BmO_SEC6_LYR4_LDR24F_MOD4_ROC8
par0vd: 1.000000
par1vd: 65.400000
par0va: -0.032000
par1va: 68.800000
par0rbia: 16.600000
par1rbia: 1.110000
par0tbia: 4.000000
par1tbia: 0.263000
par2tbia: -0.000213
par0ia: -5.088000
par1ia: 4.461000
par2ia: 0.011830
ROC:           BPix_BmO_SEC6_LYR4_LDR24F_MOD4_ROC9
par0vd: -7.880000
par1vd: 63.300000
par0va: -5.660000
par1va: 65.200000
par0rbia: 7.720000
par1rbia: 1.030000
par0tbia: 4.550000
par1tbia: 0.239000
par2tbia: -0.000160
par0ia: -7.304000
par1ia: 3.678000
par2ia: 0.024240
ROC:           BPix_BmO_SEC6_LYR4_LDR24F_MOD4_ROC10
par0vd: 1.560000
par1vd: 65.700000
par0va: -1.540000
par1va: 70.500000
par0rbia: 11.300000
par1rbia: 1.070000
par0tbia: 4.250000
par1tbia: 0.261000
par2tbia: -0.000223
par0ia: -1.044000
par1ia: 3.380000
par2ia: 0.029720
ROC:           BPix_BmO_SEC6_LYR4_LDR24F_MOD4_ROC11
par0vd: -5.550000
par1vd: 64.600000
par0va: 3.840000
par1va: 63.000000
par0rbia: 15.700000
par1rbia: 1.070000
par0tbia: 4.250000
par1tbia: 0.260000
par2tbia: -0.000213
par0ia: 1.588000
par1ia: 3.554000
par2ia: 0.025420
ROC:           BPix_BmO_SEC6_LYR4_LDR24F_MOD4_ROC12
par0vd: -7.670000
par1vd: 70.400000
par0va: -0.132000
par1va: 70.600000
par0rbia: 16.200000
par1rbia: 1.110000
par0tbia: 4.370000
par1tbia: 0.252000
par2tbia: -0.000184
par0ia: -7.059000
par1ia: 4.590000
par2ia: 0.011770
ROC:           BPix_BmO_SEC6_LYR4_LDR24F_MOD4_ROC13
par0vd: 2.100000
par1vd: 67.600000
par0va: 3.550000
par1va: 69.500000
par0rbia: 11.000000
par1rbia: 1.080000
par0tbia: 4.020000
par1tbia: 0.245000
par2tbia: -0.000212
par0ia: -1.668000
par1ia: 3.626000
par2ia: 0.034010
ROC:           BPix_BmO_SEC6_LYR4_LDR24F_MOD4_ROC14
par0vd: -7.480000
par1vd: 65.200000
par0va: 1.430000
par1va: 64.200000
par0rbia: 9.480000
par1rbia: 1.010000
par0tbia: 4.470000
par1tbia: 0.254000
par2tbia: -0.000208
par0ia: -2.157000
par1ia: 3.167000
par2ia: 0.030180
ROC:           BPix_BmO_SEC6_LYR4_LDR24F_MOD4_ROC15
par0vd: -2.320000
par1vd: 61.700000
par0va: -0.227000
par1va: 63.300000
par0rbia: 8.240000
par1rbia: 1.010000
par0tbia: 3.750000
par1tbia: 0.240000
par2tbia: -0.000184
par0ia: -1.851000
par1ia: 3.421000
par2ia: 0.031290
