ROC:           BPix_BpI_SEC1_LYR2_LDR1F_MOD2_ROC0
Vdd:           6
Vana:          90
Vsh:           30
Vcomp:         12
VwllPr:        150
VwllSh:        150
VHldDel:       250
Vtrim:         94
VcThr:         87
VIbias_bus:    30
PHOffset:      139
Vcomp_ADC:     50
PHScale:       83
VIColOr:       100
Vcal:          200
CalDel:        156
TempRange:     0
WBC:           98
ChipContReg:   0
Readback:      1
ROC:           BPix_BpI_SEC1_LYR2_LDR1F_MOD2_ROC1
Vdd:           6
Vana:          78
Vsh:           30
Vcomp:         12
VwllPr:        150
VwllSh:        150
VHldDel:       250
Vtrim:         87
VcThr:         82
VIbias_bus:    30
PHOffset:      143
Vcomp_ADC:     50
PHScale:       90
VIColOr:       100
Vcal:          200
CalDel:        172
TempRange:     0
WBC:           98
ChipContReg:   0
Readback:      1
ROC:           BPix_BpI_SEC1_LYR2_LDR1F_MOD2_ROC2
Vdd:           6
Vana:          75
Vsh:           30
Vcomp:         12
VwllPr:        150
VwllSh:        150
VHldDel:       250
Vtrim:         98
VcThr:         83
VIbias_bus:    30
PHOffset:      155
Vcomp_ADC:     50
PHScale:       85
VIColOr:       100
Vcal:          200
CalDel:        177
TempRange:     0
WBC:           98
ChipContReg:   0
Readback:      1
ROC:           BPix_BpI_SEC1_LYR2_LDR1F_MOD2_ROC3
Vdd:           6
Vana:          83
Vsh:           30
Vcomp:         12
VwllPr:        150
VwllSh:        150
VHldDel:       250
Vtrim:         96
VcThr:         91
VIbias_bus:    30
PHOffset:      156
Vcomp_ADC:     50
PHScale:       94
VIColOr:       100
Vcal:          200
CalDel:        152
TempRange:     0
WBC:           98
ChipContReg:   0
Readback:      1
ROC:           BPix_BpI_SEC1_LYR2_LDR1F_MOD2_ROC4
Vdd:           6
Vana:          85
Vsh:           30
Vcomp:         12
VwllPr:        150
VwllSh:        150
VHldDel:       250
Vtrim:         87
VcThr:         82
VIbias_bus:    30
PHOffset:      147
Vcomp_ADC:     50
PHScale:       89
VIColOr:       100
Vcal:          200
CalDel:        203
TempRange:     0
WBC:           98
ChipContReg:   0
Readback:      1
ROC:           BPix_BpI_SEC1_LYR2_LDR1F_MOD2_ROC5
Vdd:           6
Vana:          80
Vsh:           30
Vcomp:         12
VwllPr:        150
VwllSh:        150
VHldDel:       250
Vtrim:         101
VcThr:         84
VIbias_bus:    30
PHOffset:      159
Vcomp_ADC:     50
PHScale:       91
VIColOr:       100
Vcal:          200
CalDel:        144
TempRange:     0
WBC:           98
ChipContReg:   0
Readback:      1
ROC:           BPix_BpI_SEC1_LYR2_LDR1F_MOD2_ROC6
Vdd:           6
Vana:          70
Vsh:           30
Vcomp:         12
VwllPr:        150
VwllSh:        150
VHldDel:       250
Vtrim:         106
VcThr:         98
VIbias_bus:    30
PHOffset:      165
Vcomp_ADC:     50
PHScale:       77
VIColOr:       100
Vcal:          200
CalDel:        154
TempRange:     0
WBC:           98
ChipContReg:   0
Readback:      1
ROC:           BPix_BpI_SEC1_LYR2_LDR1F_MOD2_ROC7
Vdd:           6
Vana:          75
Vsh:           30
Vcomp:         12
VwllPr:        150
VwllSh:        150
VHldDel:       250
Vtrim:         82
VcThr:         84
VIbias_bus:    30
PHOffset:      139
Vcomp_ADC:     50
PHScale:       92
VIColOr:       100
Vcal:          200
CalDel:        165
TempRange:     0
WBC:           98
ChipContReg:   0
Readback:      1
ROC:           BPix_BpI_SEC1_LYR2_LDR1F_MOD2_ROC8
Vdd:           6
Vana:          88
Vsh:           30
Vcomp:         12
VwllPr:        150
VwllSh:        150
VHldDel:       250
Vtrim:         85
VcThr:         81
VIbias_bus:    30
PHOffset:      135
Vcomp_ADC:     50
PHScale:       84
VIColOr:       100
Vcal:          200
CalDel:        173
TempRange:     0
WBC:           98
ChipContReg:   0
Readback:      1
ROC:           BPix_BpI_SEC1_LYR2_LDR1F_MOD2_ROC9
Vdd:           6
Vana:          80
Vsh:           30
Vcomp:         12
VwllPr:        150
VwllSh:        150
VHldDel:       250
Vtrim:         97
VcThr:         89
VIbias_bus:    30
PHOffset:      154
Vcomp_ADC:     50
PHScale:       75
VIColOr:       100
Vcal:          200
CalDel:        155
TempRange:     0
WBC:           98
ChipContReg:   0
Readback:      1
ROC:           BPix_BpI_SEC1_LYR2_LDR1F_MOD2_ROC10
Vdd:           6
Vana:          80
Vsh:           30
Vcomp:         12
VwllPr:        150
VwllSh:        150
VHldDel:       250
Vtrim:         116
VcThr:         96
VIbias_bus:    30
PHOffset:      144
Vcomp_ADC:     50
PHScale:       80
VIColOr:       100
Vcal:          200
CalDel:        134
TempRange:     0
WBC:           98
ChipContReg:   0
Readback:      1
ROC:           BPix_BpI_SEC1_LYR2_LDR1F_MOD2_ROC11
Vdd:           6
Vana:          78
Vsh:           30
Vcomp:         12
VwllPr:        150
VwllSh:        150
VHldDel:       250
Vtrim:         88
VcThr:         97
VIbias_bus:    30
PHOffset:      161
Vcomp_ADC:     50
PHScale:       79
VIColOr:       100
Vcal:          200
CalDel:        171
TempRange:     0
WBC:           98
ChipContReg:   0
Readback:      1
ROC:           BPix_BpI_SEC1_LYR2_LDR1F_MOD2_ROC12
Vdd:           6
Vana:          88
Vsh:           30
Vcomp:         12
VwllPr:        150
VwllSh:        150
VHldDel:       250
Vtrim:         109
VcThr:         97
VIbias_bus:    30
PHOffset:      156
Vcomp_ADC:     50
PHScale:       87
VIColOr:       100
Vcal:          200
CalDel:        144
TempRange:     0
WBC:           98
ChipContReg:   0
Readback:      1
ROC:           BPix_BpI_SEC1_LYR2_LDR1F_MOD2_ROC13
Vdd:           6
Vana:          78
Vsh:           30
Vcomp:         12
VwllPr:        150
VwllSh:        150
VHldDel:       250
Vtrim:         108
VcThr:         91
VIbias_bus:    30
PHOffset:      146
Vcomp_ADC:     50
PHScale:       80
VIColOr:       100
Vcal:          200
CalDel:        147
TempRange:     0
WBC:           98
ChipContReg:   0
Readback:      1
ROC:           BPix_BpI_SEC1_LYR2_LDR1F_MOD2_ROC14
Vdd:           6
Vana:          78
Vsh:           30
Vcomp:         12
VwllPr:        150
VwllSh:        150
VHldDel:       250
Vtrim:         98
VcThr:         95
VIbias_bus:    30
PHOffset:      149
Vcomp_ADC:     50
PHScale:       85
VIColOr:       100
Vcal:          200
CalDel:        163
TempRange:     0
WBC:           98
ChipContReg:   0
Readback:      1
ROC:           BPix_BpI_SEC1_LYR2_LDR1F_MOD2_ROC15
Vdd:           6
Vana:          80
Vsh:           30
Vcomp:         12
VwllPr:        150
VwllSh:        150
VHldDel:       250
Vtrim:         110
VcThr:         92
VIbias_bus:    30
PHOffset:      151
Vcomp_ADC:     50
PHScale:       78
VIColOr:       100
Vcal:          200
CalDel:        152
TempRange:     0
WBC:           98
ChipContReg:   0
Readback:      1
