ROC:           BPix_BmO_SEC8_LYR3_LDR22F_MOD3_ROC0
Vdd:           6
Vana:          77
Vsh:           30
Vcomp:         12
VwllPr:        150
VwllSh:        150
VHldDel:       250
Vtrim:         82
VcThr:         84
VIbias_bus:    30
PHOffset:      147
Vcomp_ADC:     50
PHScale:       82
VIColOr:       100
Vcal:          255
CalDel:        153
TempRange:     0
WBC:           98
ChipContReg:   0
Readback:      1
ROC:           BPix_BmO_SEC8_LYR3_LDR22F_MOD3_ROC1
Vdd:           6
Vana:          84
Vsh:           30
Vcomp:         12
VwllPr:        150
VwllSh:        150
VHldDel:       250
Vtrim:         99
VcThr:         100
VIbias_bus:    30
PHOffset:      141
Vcomp_ADC:     50
PHScale:       79
VIColOr:       100
Vcal:          255
CalDel:        128
TempRange:     0
WBC:           98
ChipContReg:   0
Readback:      1
ROC:           BPix_BmO_SEC8_LYR3_LDR22F_MOD3_ROC2
Vdd:           6
Vana:          87
Vsh:           30
Vcomp:         12
VwllPr:        150
VwllSh:        150
VHldDel:       250
Vtrim:         92
VcThr:         101
VIbias_bus:    30
PHOffset:      158
Vcomp_ADC:     50
PHScale:       75
VIColOr:       100
Vcal:          255
CalDel:        169
TempRange:     0
WBC:           98
ChipContReg:   0
Readback:      1
ROC:           BPix_BmO_SEC8_LYR3_LDR22F_MOD3_ROC3
Vdd:           6
Vana:          78
Vsh:           30
Vcomp:         12
VwllPr:        150
VwllSh:        150
VHldDel:       250
Vtrim:         99
VcThr:         96
VIbias_bus:    30
PHOffset:      156
Vcomp_ADC:     50
PHScale:       67
VIColOr:       100
Vcal:          255
CalDel:        142
TempRange:     0
WBC:           98
ChipContReg:   0
Readback:      1
ROC:           BPix_BmO_SEC8_LYR3_LDR22F_MOD3_ROC4
Vdd:           6
Vana:          73
Vsh:           30
Vcomp:         12
VwllPr:        150
VwllSh:        150
VHldDel:       250
Vtrim:         105
VcThr:         96
VIbias_bus:    30
PHOffset:      151
Vcomp_ADC:     50
PHScale:       75
VIColOr:       100
Vcal:          255
CalDel:        170
TempRange:     0
WBC:           98
ChipContReg:   0
Readback:      1
ROC:           BPix_BmO_SEC8_LYR3_LDR22F_MOD3_ROC5
Vdd:           6
Vana:          97
Vsh:           30
Vcomp:         12
VwllPr:        150
VwllSh:        150
VHldDel:       250
Vtrim:         84
VcThr:         98
VIbias_bus:    30
PHOffset:      159
Vcomp_ADC:     50
PHScale:       76
VIColOr:       100
Vcal:          255
CalDel:        132
TempRange:     0
WBC:           98
ChipContReg:   0
Readback:      1
ROC:           BPix_BmO_SEC8_LYR3_LDR22F_MOD3_ROC6
Vdd:           6
Vana:          73
Vsh:           30
Vcomp:         12
VwllPr:        150
VwllSh:        150
VHldDel:       250
Vtrim:         109
VcThr:         100
VIbias_bus:    30
PHOffset:      155
Vcomp_ADC:     50
PHScale:       61
VIColOr:       100
Vcal:          255
CalDel:        191
TempRange:     0
WBC:           98
ChipContReg:   0
Readback:      1
ROC:           BPix_BmO_SEC8_LYR3_LDR22F_MOD3_ROC7
Vdd:           6
Vana:          82
Vsh:           30
Vcomp:         12
VwllPr:        150
VwllSh:        150
VHldDel:       250
Vtrim:         105
VcThr:         101
VIbias_bus:    30
PHOffset:      166
Vcomp_ADC:     50
PHScale:       70
VIColOr:       100
Vcal:          255
CalDel:        158
TempRange:     0
WBC:           98
ChipContReg:   0
Readback:      1
ROC:           BPix_BmO_SEC8_LYR3_LDR22F_MOD3_ROC8
Vdd:           6
Vana:          83
Vsh:           30
Vcomp:         12
VwllPr:        150
VwllSh:        150
VHldDel:       250
Vtrim:         82
VcThr:         97
VIbias_bus:    30
PHOffset:      138
Vcomp_ADC:     50
PHScale:       76
VIColOr:       100
Vcal:          255
CalDel:        133
TempRange:     0
WBC:           98
ChipContReg:   0
Readback:      1
ROC:           BPix_BmO_SEC8_LYR3_LDR22F_MOD3_ROC9
Vdd:           6
Vana:          88
Vsh:           30
Vcomp:         12
VwllPr:        150
VwllSh:        150
VHldDel:       250
Vtrim:         104
VcThr:         88
VIbias_bus:    30
PHOffset:      155
Vcomp_ADC:     50
PHScale:       75
VIColOr:       100
Vcal:          255
CalDel:        136
TempRange:     0
WBC:           98
ChipContReg:   0
Readback:      1
ROC:           BPix_BmO_SEC8_LYR3_LDR22F_MOD3_ROC10
Vdd:           6
Vana:          73
Vsh:           30
Vcomp:         12
VwllPr:        150
VwllSh:        150
VHldDel:       250
Vtrim:         98
VcThr:         83
VIbias_bus:    30
PHOffset:      140
Vcomp_ADC:     50
PHScale:       91
VIColOr:       100
Vcal:          255
CalDel:        123
TempRange:     0
WBC:           98
ChipContReg:   0
Readback:      1
ROC:           BPix_BmO_SEC8_LYR3_LDR22F_MOD3_ROC11
Vdd:           6
Vana:          77
Vsh:           30
Vcomp:         12
VwllPr:        150
VwllSh:        150
VHldDel:       250
Vtrim:         97
VcThr:         99
VIbias_bus:    30
PHOffset:      153
Vcomp_ADC:     50
PHScale:       80
VIColOr:       100
Vcal:          255
CalDel:        143
TempRange:     0
WBC:           98
ChipContReg:   0
Readback:      1
ROC:           BPix_BmO_SEC8_LYR3_LDR22F_MOD3_ROC12
Vdd:           6
Vana:          77
Vsh:           30
Vcomp:         12
VwllPr:        150
VwllSh:        150
VHldDel:       250
Vtrim:         89
VcThr:         82
VIbias_bus:    30
PHOffset:      156
Vcomp_ADC:     50
PHScale:       78
VIColOr:       100
Vcal:          255
CalDel:        146
TempRange:     0
WBC:           98
ChipContReg:   0
Readback:      1
ROC:           BPix_BmO_SEC8_LYR3_LDR22F_MOD3_ROC13
Vdd:           6
Vana:          83
Vsh:           30
Vcomp:         12
VwllPr:        150
VwllSh:        150
VHldDel:       250
Vtrim:         92
VcThr:         100
VIbias_bus:    30
PHOffset:      148
Vcomp_ADC:     50
PHScale:       79
VIColOr:       100
Vcal:          255
CalDel:        124
TempRange:     0
WBC:           98
ChipContReg:   0
Readback:      1
ROC:           BPix_BmO_SEC8_LYR3_LDR22F_MOD3_ROC14
Vdd:           6
Vana:          80
Vsh:           30
Vcomp:         12
VwllPr:        150
VwllSh:        150
VHldDel:       250
Vtrim:         87
VcThr:         92
VIbias_bus:    30
PHOffset:      154
Vcomp_ADC:     50
PHScale:       90
VIColOr:       100
Vcal:          255
CalDel:        147
TempRange:     0
WBC:           98
ChipContReg:   0
Readback:      1
ROC:           BPix_BmO_SEC8_LYR3_LDR22F_MOD3_ROC15
Vdd:           6
Vana:          81
Vsh:           30
Vcomp:         12
VwllPr:        150
VwllSh:        150
VHldDel:       250
Vtrim:         107
VcThr:         88
VIbias_bus:    30
PHOffset:      147
Vcomp_ADC:     50
PHScale:       80
VIColOr:       100
Vcal:          255
CalDel:        154
TempRange:     0
WBC:           98
ChipContReg:   0
Readback:      1
