ROC:           BPix_BpI_SEC4_LYR4_LDR15F_MOD2_ROC0
Vdd:           6
Vana:          82
Vsh:           30
Vcomp:         12
VwllPr:        150
VwllSh:        150
VHldDel:       250
Vtrim:         95
VcThr:         93
VIbias_bus:    30
PHOffset:      156
Vcomp_ADC:     50
PHScale:       78
VIColOr:       100
Vcal:          255
CalDel:        129
TempRange:     0
WBC:           98
ChipContReg:   0
Readback:      1
ROC:           BPix_BpI_SEC4_LYR4_LDR15F_MOD2_ROC1
Vdd:           6
Vana:          78
Vsh:           30
Vcomp:         12
VwllPr:        150
VwllSh:        150
VHldDel:       250
Vtrim:         93
VcThr:         94
VIbias_bus:    30
PHOffset:      158
Vcomp_ADC:     50
PHScale:       85
VIColOr:       100
Vcal:          255
CalDel:        141
TempRange:     0
WBC:           98
ChipContReg:   0
Readback:      1
ROC:           BPix_BpI_SEC4_LYR4_LDR15F_MOD2_ROC2
Vdd:           6
Vana:          80
Vsh:           30
Vcomp:         12
VwllPr:        150
VwllSh:        150
VHldDel:       250
Vtrim:         119
VcThr:         95
VIbias_bus:    30
PHOffset:      171
Vcomp_ADC:     50
PHScale:       78
VIColOr:       100
Vcal:          255
CalDel:        127
TempRange:     0
WBC:           98
ChipContReg:   0
Readback:      1
ROC:           BPix_BpI_SEC4_LYR4_LDR15F_MOD2_ROC3
Vdd:           6
Vana:          78
Vsh:           30
Vcomp:         12
VwllPr:        150
VwllSh:        150
VHldDel:       250
Vtrim:         122
VcThr:         94
VIbias_bus:    30
PHOffset:      165
Vcomp_ADC:     50
PHScale:       73
VIColOr:       100
Vcal:          255
CalDel:        140
TempRange:     0
WBC:           98
ChipContReg:   0
Readback:      1
ROC:           BPix_BpI_SEC4_LYR4_LDR15F_MOD2_ROC4
Vdd:           6
Vana:          78
Vsh:           30
Vcomp:         12
VwllPr:        150
VwllSh:        150
VHldDel:       250
Vtrim:         116
VcThr:         95
VIbias_bus:    30
PHOffset:      147
Vcomp_ADC:     50
PHScale:       80
VIColOr:       100
Vcal:          255
CalDel:        157
TempRange:     0
WBC:           98
ChipContReg:   0
Readback:      1
ROC:           BPix_BpI_SEC4_LYR4_LDR15F_MOD2_ROC5
Vdd:           6
Vana:          86
Vsh:           30
Vcomp:         12
VwllPr:        150
VwllSh:        150
VHldDel:       250
Vtrim:         115
VcThr:         91
VIbias_bus:    30
PHOffset:      163
Vcomp_ADC:     50
PHScale:       78
VIColOr:       100
Vcal:          255
CalDel:        154
TempRange:     0
WBC:           98
ChipContReg:   0
Readback:      1
ROC:           BPix_BpI_SEC4_LYR4_LDR15F_MOD2_ROC6
Vdd:           6
Vana:          77
Vsh:           30
Vcomp:         12
VwllPr:        150
VwllSh:        150
VHldDel:       250
Vtrim:         138
VcThr:         104
VIbias_bus:    30
PHOffset:      173
Vcomp_ADC:     50
PHScale:       70
VIColOr:       100
Vcal:          255
CalDel:        142
TempRange:     0
WBC:           98
ChipContReg:   0
Readback:      1
ROC:           BPix_BpI_SEC4_LYR4_LDR15F_MOD2_ROC7
Vdd:           6
Vana:          68
Vsh:           30
Vcomp:         12
VwllPr:        150
VwllSh:        150
VHldDel:       250
Vtrim:         112
VcThr:         95
VIbias_bus:    30
PHOffset:      161
Vcomp_ADC:     50
PHScale:       80
VIColOr:       100
Vcal:          255
CalDel:        133
TempRange:     0
WBC:           98
ChipContReg:   0
Readback:      1
ROC:           BPix_BpI_SEC4_LYR4_LDR15F_MOD2_ROC8
Vdd:           6
Vana:          78
Vsh:           30
Vcomp:         12
VwllPr:        150
VwllSh:        150
VHldDel:       250
Vtrim:         98
VcThr:         89
VIbias_bus:    30
PHOffset:      150
Vcomp_ADC:     50
PHScale:       91
VIColOr:       100
Vcal:          255
CalDel:        139
TempRange:     0
WBC:           98
ChipContReg:   0
Readback:      1
ROC:           BPix_BpI_SEC4_LYR4_LDR15F_MOD2_ROC9
Vdd:           6
Vana:          85
Vsh:           30
Vcomp:         12
VwllPr:        150
VwllSh:        150
VHldDel:       250
Vtrim:         116
VcThr:         97
VIbias_bus:    30
PHOffset:      158
Vcomp_ADC:     50
PHScale:       81
VIColOr:       100
Vcal:          255
CalDel:        122
TempRange:     0
WBC:           98
ChipContReg:   0
Readback:      1
ROC:           BPix_BpI_SEC4_LYR4_LDR15F_MOD2_ROC10
Vdd:           6
Vana:          76
Vsh:           30
Vcomp:         12
VwllPr:        150
VwllSh:        150
VHldDel:       250
Vtrim:         103
VcThr:         101
VIbias_bus:    30
PHOffset:      162
Vcomp_ADC:     50
PHScale:       79
VIColOr:       100
Vcal:          255
CalDel:        137
TempRange:     0
WBC:           98
ChipContReg:   0
Readback:      1
ROC:           BPix_BpI_SEC4_LYR4_LDR15F_MOD2_ROC11
Vdd:           6
Vana:          81
Vsh:           30
Vcomp:         12
VwllPr:        150
VwllSh:        150
VHldDel:       250
Vtrim:         111
VcThr:         90
VIbias_bus:    30
PHOffset:      157
Vcomp_ADC:     50
PHScale:       87
VIColOr:       100
Vcal:          255
CalDel:        124
TempRange:     0
WBC:           98
ChipContReg:   0
Readback:      1
ROC:           BPix_BpI_SEC4_LYR4_LDR15F_MOD2_ROC12
Vdd:           6
Vana:          82
Vsh:           30
Vcomp:         12
VwllPr:        150
VwllSh:        150
VHldDel:       250
Vtrim:         117
VcThr:         90
VIbias_bus:    30
PHOffset:      175
Vcomp_ADC:     50
PHScale:       79
VIColOr:       100
Vcal:          255
CalDel:        145
TempRange:     0
WBC:           98
ChipContReg:   0
Readback:      1
ROC:           BPix_BpI_SEC4_LYR4_LDR15F_MOD2_ROC13
Vdd:           6
Vana:          78
Vsh:           30
Vcomp:         12
VwllPr:        150
VwllSh:        150
VHldDel:       250
Vtrim:         115
VcThr:         91
VIbias_bus:    30
PHOffset:      155
Vcomp_ADC:     50
PHScale:       82
VIColOr:       100
Vcal:          255
CalDel:        153
TempRange:     0
WBC:           98
ChipContReg:   0
Readback:      1
ROC:           BPix_BpI_SEC4_LYR4_LDR15F_MOD2_ROC14
Vdd:           6
Vana:          77
Vsh:           30
Vcomp:         12
VwllPr:        150
VwllSh:        150
VHldDel:       250
Vtrim:         125
VcThr:         97
VIbias_bus:    30
PHOffset:      166
Vcomp_ADC:     50
PHScale:       79
VIColOr:       100
Vcal:          255
CalDel:        149
TempRange:     0
WBC:           98
ChipContReg:   0
Readback:      1
ROC:           BPix_BpI_SEC4_LYR4_LDR15F_MOD2_ROC15
Vdd:           6
Vana:          71
Vsh:           30
Vcomp:         12
VwllPr:        150
VwllSh:        150
VHldDel:       250
Vtrim:         103
VcThr:         92
VIbias_bus:    30
PHOffset:      141
Vcomp_ADC:     50
PHScale:       80
VIColOr:       100
Vcal:          255
CalDel:        149
TempRange:     0
WBC:           98
ChipContReg:   0
Readback:      1
