ROC:           BPix_BpO_SEC5_LYR3_LDR13F_MOD2_ROC0
Vdd:           6
Vana:          78
Vsh:           30
Vcomp:         12
VwllPr:        150
VwllSh:        150
VHldDel:       250
Vtrim:         97
VcThr:         98
VIbias_bus:    30
PHOffset:      165
Vcomp_ADC:     50
PHScale:       77
VIColOr:       100
Vcal:          255
CalDel:        139
TempRange:     0
WBC:           98
ChipContReg:   0
Readback:      1
ROC:           BPix_BpO_SEC5_LYR3_LDR13F_MOD2_ROC1
Vdd:           6
Vana:          88
Vsh:           30
Vcomp:         12
VwllPr:        150
VwllSh:        150
VHldDel:       250
Vtrim:         97
VcThr:         88
VIbias_bus:    30
PHOffset:      171
Vcomp_ADC:     50
PHScale:       80
VIColOr:       100
Vcal:          255
CalDel:        154
TempRange:     0
WBC:           98
ChipContReg:   0
Readback:      1
ROC:           BPix_BpO_SEC5_LYR3_LDR13F_MOD2_ROC2
Vdd:           6
Vana:          80
Vsh:           30
Vcomp:         12
VwllPr:        150
VwllSh:        150
VHldDel:       250
Vtrim:         83
VcThr:         91
VIbias_bus:    30
PHOffset:      155
Vcomp_ADC:     50
PHScale:       80
VIColOr:       100
Vcal:          255
CalDel:        140
TempRange:     0
WBC:           98
ChipContReg:   0
Readback:      1
ROC:           BPix_BpO_SEC5_LYR3_LDR13F_MOD2_ROC3
Vdd:           6
Vana:          78
Vsh:           30
Vcomp:         12
VwllPr:        150
VwllSh:        150
VHldDel:       250
Vtrim:         97
VcThr:         96
VIbias_bus:    30
PHOffset:      162
Vcomp_ADC:     50
PHScale:       78
VIColOr:       100
Vcal:          255
CalDel:        130
TempRange:     0
WBC:           98
ChipContReg:   0
Readback:      1
ROC:           BPix_BpO_SEC5_LYR3_LDR13F_MOD2_ROC4
Vdd:           6
Vana:          75
Vsh:           30
Vcomp:         12
VwllPr:        150
VwllSh:        150
VHldDel:       250
Vtrim:         107
VcThr:         95
VIbias_bus:    30
PHOffset:      145
Vcomp_ADC:     50
PHScale:       88
VIColOr:       100
Vcal:          255
CalDel:        155
TempRange:     0
WBC:           98
ChipContReg:   0
Readback:      1
ROC:           BPix_BpO_SEC5_LYR3_LDR13F_MOD2_ROC5
Vdd:           6
Vana:          75
Vsh:           30
Vcomp:         12
VwllPr:        150
VwllSh:        150
VHldDel:       250
Vtrim:         107
VcThr:         95
VIbias_bus:    30
PHOffset:      158
Vcomp_ADC:     50
PHScale:       78
VIColOr:       100
Vcal:          255
CalDel:        157
TempRange:     0
WBC:           98
ChipContReg:   0
Readback:      1
ROC:           BPix_BpO_SEC5_LYR3_LDR13F_MOD2_ROC6
Vdd:           6
Vana:          78
Vsh:           30
Vcomp:         12
VwllPr:        150
VwllSh:        150
VHldDel:       250
Vtrim:         99
VcThr:         94
VIbias_bus:    30
PHOffset:      166
Vcomp_ADC:     50
PHScale:       78
VIColOr:       100
Vcal:          255
CalDel:        174
TempRange:     0
WBC:           98
ChipContReg:   0
Readback:      1
ROC:           BPix_BpO_SEC5_LYR3_LDR13F_MOD2_ROC7
Vdd:           6
Vana:          75
Vsh:           30
Vcomp:         12
VwllPr:        150
VwllSh:        150
VHldDel:       250
Vtrim:         106
VcThr:         102
VIbias_bus:    30
PHOffset:      176
Vcomp_ADC:     50
PHScale:       74
VIColOr:       100
Vcal:          255
CalDel:        153
TempRange:     0
WBC:           98
ChipContReg:   0
Readback:      1
ROC:           BPix_BpO_SEC5_LYR3_LDR13F_MOD2_ROC8
Vdd:           6
Vana:          75
Vsh:           30
Vcomp:         12
VwllPr:        150
VwllSh:        150
VHldDel:       250
Vtrim:         96
VcThr:         96
VIbias_bus:    30
PHOffset:      165
Vcomp_ADC:     50
PHScale:       77
VIColOr:       100
Vcal:          255
CalDel:        161
TempRange:     0
WBC:           98
ChipContReg:   0
Readback:      1
ROC:           BPix_BpO_SEC5_LYR3_LDR13F_MOD2_ROC9
Vdd:           6
Vana:          89
Vsh:           30
Vcomp:         12
VwllPr:        150
VwllSh:        150
VHldDel:       250
Vtrim:         99
VcThr:         93
VIbias_bus:    30
PHOffset:      159
Vcomp_ADC:     50
PHScale:       80
VIColOr:       100
Vcal:          255
CalDel:        159
TempRange:     0
WBC:           98
ChipContReg:   0
Readback:      1
ROC:           BPix_BpO_SEC5_LYR3_LDR13F_MOD2_ROC10
Vdd:           6
Vana:          78
Vsh:           30
Vcomp:         12
VwllPr:        150
VwllSh:        150
VHldDel:       250
Vtrim:         95
VcThr:         83
VIbias_bus:    30
PHOffset:      155
Vcomp_ADC:     50
PHScale:       81
VIColOr:       100
Vcal:          255
CalDel:        145
TempRange:     0
WBC:           98
ChipContReg:   0
Readback:      1
ROC:           BPix_BpO_SEC5_LYR3_LDR13F_MOD2_ROC11
Vdd:           6
Vana:          80
Vsh:           30
Vcomp:         12
VwllPr:        150
VwllSh:        150
VHldDel:       250
Vtrim:         116
VcThr:         88
VIbias_bus:    30
PHOffset:      150
Vcomp_ADC:     50
PHScale:       80
VIColOr:       100
Vcal:          255
CalDel:        151
TempRange:     0
WBC:           98
ChipContReg:   0
Readback:      1
ROC:           BPix_BpO_SEC5_LYR3_LDR13F_MOD2_ROC12
Vdd:           6
Vana:          90
Vsh:           30
Vcomp:         12
VwllPr:        150
VwllSh:        150
VHldDel:       250
Vtrim:         98
VcThr:         84
VIbias_bus:    30
PHOffset:      156
Vcomp_ADC:     50
PHScale:       80
VIColOr:       100
Vcal:          255
CalDel:        160
TempRange:     0
WBC:           98
ChipContReg:   0
Readback:      1
ROC:           BPix_BpO_SEC5_LYR3_LDR13F_MOD2_ROC13
Vdd:           6
Vana:          75
Vsh:           30
Vcomp:         12
VwllPr:        150
VwllSh:        150
VHldDel:       250
Vtrim:         111
VcThr:         103
VIbias_bus:    30
PHOffset:      170
Vcomp_ADC:     50
PHScale:       68
VIColOr:       100
Vcal:          255
CalDel:        137
TempRange:     0
WBC:           98
ChipContReg:   0
Readback:      1
ROC:           BPix_BpO_SEC5_LYR3_LDR13F_MOD2_ROC14
Vdd:           6
Vana:          70
Vsh:           30
Vcomp:         12
VwllPr:        150
VwllSh:        150
VHldDel:       250
Vtrim:         96
VcThr:         88
VIbias_bus:    30
PHOffset:      172
Vcomp_ADC:     50
PHScale:       68
VIColOr:       100
Vcal:          255
CalDel:        179
TempRange:     0
WBC:           98
ChipContReg:   0
Readback:      1
ROC:           BPix_BpO_SEC5_LYR3_LDR13F_MOD2_ROC15
Vdd:           6
Vana:          80
Vsh:           30
Vcomp:         12
VwllPr:        150
VwllSh:        150
VHldDel:       250
Vtrim:         85
VcThr:         99
VIbias_bus:    30
PHOffset:      163
Vcomp_ADC:     50
PHScale:       80
VIColOr:       100
Vcal:          255
CalDel:        149
TempRange:     0
WBC:           98
ChipContReg:   0
Readback:      1
