ROC:           BPix_BpI_SEC4_LYR4_LDR13F_MOD1_ROC0
Vdd:           6
Vana:          82
Vsh:           30
Vcomp:         12
VwllPr:        150
VwllSh:        150
VHldDel:       250
Vtrim:         91
VcThr:         95
VIbias_bus:    30
PHOffset:      174
Vcomp_ADC:     50
PHScale:       82
VIColOr:       100
Vcal:          255
CalDel:        138
TempRange:     0
WBC:           98
ChipContReg:   0
Readback:      1
ROC:           BPix_BpI_SEC4_LYR4_LDR13F_MOD1_ROC1
Vdd:           6
Vana:          75
Vsh:           30
Vcomp:         12
VwllPr:        150
VwllSh:        150
VHldDel:       250
Vtrim:         104
VcThr:         98
VIbias_bus:    30
PHOffset:      175
Vcomp_ADC:     50
PHScale:       65
VIColOr:       100
Vcal:          255
CalDel:        137
TempRange:     0
WBC:           98
ChipContReg:   0
Readback:      1
ROC:           BPix_BpI_SEC4_LYR4_LDR13F_MOD1_ROC2
Vdd:           6
Vana:          90
Vsh:           30
Vcomp:         12
VwllPr:        150
VwllSh:        150
VHldDel:       250
Vtrim:         93
VcThr:         95
VIbias_bus:    30
PHOffset:      163
Vcomp_ADC:     50
PHScale:       73
VIColOr:       100
Vcal:          255
CalDel:        155
TempRange:     0
WBC:           98
ChipContReg:   0
Readback:      1
ROC:           BPix_BpI_SEC4_LYR4_LDR13F_MOD1_ROC3
Vdd:           6
Vana:          75
Vsh:           30
Vcomp:         12
VwllPr:        150
VwllSh:        150
VHldDel:       250
Vtrim:         96
VcThr:         89
VIbias_bus:    30
PHOffset:      146
Vcomp_ADC:     50
PHScale:       94
VIColOr:       100
Vcal:          255
CalDel:        127
TempRange:     0
WBC:           98
ChipContReg:   0
Readback:      1
ROC:           BPix_BpI_SEC4_LYR4_LDR13F_MOD1_ROC4
Vdd:           6
Vana:          75
Vsh:           30
Vcomp:         12
VwllPr:        150
VwllSh:        150
VHldDel:       250
Vtrim:         113
VcThr:         92
VIbias_bus:    30
PHOffset:      159
Vcomp_ADC:     50
PHScale:       82
VIColOr:       100
Vcal:          255
CalDel:        134
TempRange:     0
WBC:           98
ChipContReg:   0
Readback:      1
ROC:           BPix_BpI_SEC4_LYR4_LDR13F_MOD1_ROC5
Vdd:           6
Vana:          78
Vsh:           30
Vcomp:         12
VwllPr:        150
VwllSh:        150
VHldDel:       250
Vtrim:         89
VcThr:         91
VIbias_bus:    30
PHOffset:      162
Vcomp_ADC:     50
PHScale:       86
VIColOr:       100
Vcal:          255
CalDel:        141
TempRange:     0
WBC:           98
ChipContReg:   0
Readback:      1
ROC:           BPix_BpI_SEC4_LYR4_LDR13F_MOD1_ROC6
Vdd:           6
Vana:          75
Vsh:           30
Vcomp:         12
VwllPr:        150
VwllSh:        150
VHldDel:       250
Vtrim:         116
VcThr:         93
VIbias_bus:    30
PHOffset:      170
Vcomp_ADC:     50
PHScale:       74
VIColOr:       100
Vcal:          255
CalDel:        159
TempRange:     0
WBC:           98
ChipContReg:   0
Readback:      1
ROC:           BPix_BpI_SEC4_LYR4_LDR13F_MOD1_ROC7
Vdd:           6
Vana:          78
Vsh:           30
Vcomp:         12
VwllPr:        150
VwllSh:        150
VHldDel:       250
Vtrim:         110
VcThr:         99
VIbias_bus:    30
PHOffset:      166
Vcomp_ADC:     50
PHScale:       78
VIColOr:       100
Vcal:          255
CalDel:        143
TempRange:     0
WBC:           98
ChipContReg:   0
Readback:      1
ROC:           BPix_BpI_SEC4_LYR4_LDR13F_MOD1_ROC8
Vdd:           6
Vana:          81
Vsh:           30
Vcomp:         12
VwllPr:        150
VwllSh:        150
VHldDel:       250
Vtrim:         113
VcThr:         90
VIbias_bus:    30
PHOffset:      150
Vcomp_ADC:     50
PHScale:       80
VIColOr:       100
Vcal:          255
CalDel:        135
TempRange:     0
WBC:           98
ChipContReg:   0
Readback:      1
ROC:           BPix_BpI_SEC4_LYR4_LDR13F_MOD1_ROC9
Vdd:           6
Vana:          70
Vsh:           30
Vcomp:         12
VwllPr:        150
VwllSh:        150
VHldDel:       250
Vtrim:         115
VcThr:         109
VIbias_bus:    30
PHOffset:      156
Vcomp_ADC:     50
PHScale:       80
VIColOr:       100
Vcal:          255
CalDel:        140
TempRange:     0
WBC:           98
ChipContReg:   0
Readback:      1
ROC:           BPix_BpI_SEC4_LYR4_LDR13F_MOD1_ROC10
Vdd:           6
Vana:          68
Vsh:           30
Vcomp:         12
VwllPr:        150
VwllSh:        150
VHldDel:       250
Vtrim:         102
VcThr:         95
VIbias_bus:    30
PHOffset:      171
Vcomp_ADC:     50
PHScale:       80
VIColOr:       100
Vcal:          255
CalDel:        136
TempRange:     0
WBC:           98
ChipContReg:   0
Readback:      1
ROC:           BPix_BpI_SEC4_LYR4_LDR13F_MOD1_ROC11
Vdd:           6
Vana:          84
Vsh:           30
Vcomp:         12
VwllPr:        150
VwllSh:        150
VHldDel:       250
Vtrim:         92
VcThr:         89
VIbias_bus:    30
PHOffset:      170
Vcomp_ADC:     50
PHScale:       71
VIColOr:       100
Vcal:          255
CalDel:        154
TempRange:     0
WBC:           98
ChipContReg:   0
Readback:      1
ROC:           BPix_BpI_SEC4_LYR4_LDR13F_MOD1_ROC12
Vdd:           6
Vana:          87
Vsh:           30
Vcomp:         12
VwllPr:        150
VwllSh:        150
VHldDel:       250
Vtrim:         92
VcThr:         94
VIbias_bus:    30
PHOffset:      157
Vcomp_ADC:     50
PHScale:       69
VIColOr:       100
Vcal:          255
CalDel:        128
TempRange:     0
WBC:           98
ChipContReg:   0
Readback:      1
ROC:           BPix_BpI_SEC4_LYR4_LDR13F_MOD1_ROC13
Vdd:           6
Vana:          70
Vsh:           30
Vcomp:         12
VwllPr:        150
VwllSh:        150
VHldDel:       250
Vtrim:         102
VcThr:         102
VIbias_bus:    30
PHOffset:      162
Vcomp_ADC:     50
PHScale:       67
VIColOr:       100
Vcal:          255
CalDel:        153
TempRange:     0
WBC:           98
ChipContReg:   0
Readback:      1
ROC:           BPix_BpI_SEC4_LYR4_LDR13F_MOD1_ROC14
Vdd:           6
Vana:          85
Vsh:           30
Vcomp:         12
VwllPr:        150
VwllSh:        150
VHldDel:       250
Vtrim:         119
VcThr:         84
VIbias_bus:    30
PHOffset:      159
Vcomp_ADC:     50
PHScale:       68
VIColOr:       100
Vcal:          255
CalDel:        181
TempRange:     0
WBC:           98
ChipContReg:   0
Readback:      1
ROC:           BPix_BpI_SEC4_LYR4_LDR13F_MOD1_ROC15
Vdd:           6
Vana:          75
Vsh:           30
Vcomp:         12
VwllPr:        150
VwllSh:        150
VHldDel:       250
Vtrim:         95
VcThr:         87
VIbias_bus:    30
PHOffset:      156
Vcomp_ADC:     50
PHScale:       84
VIColOr:       100
Vcal:          255
CalDel:        124
TempRange:     0
WBC:           98
ChipContReg:   0
Readback:      1
