ROC:           BPix_BmI_SEC8_LYR1_LDR6H_MOD1_ROC4
Vdd:           6
Vana:          72
Vsh:           30
Vcomp:         12
VwllPr:        150
VwllSh:        150
VHldDel:       250
Vtrim:         94
VcThr:         72
VIbias_bus:    30
PHOffset:      112
Vcomp_ADC:     50
PHScale:       46
VIColOr:       100
Vcal:          200
CalDel:        164
TempRange:     0
WBC:           164
ChipContReg:   16
Readback:      1
ROC:           BPix_BmI_SEC8_LYR1_LDR6H_MOD1_ROC5
Vdd:           6
Vana:          79
Vsh:           30
Vcomp:         12
VwllPr:        150
VwllSh:        150
VHldDel:       250
Vtrim:         96
VcThr:         73
VIbias_bus:    30
PHOffset:      124
Vcomp_ADC:     50
PHScale:       56
VIColOr:       100
Vcal:          200
CalDel:        188
TempRange:     0
WBC:           164
ChipContReg:   16
Readback:      1
ROC:           BPix_BmI_SEC8_LYR1_LDR6H_MOD1_ROC6
Vdd:           6
Vana:          70
Vsh:           30
Vcomp:         12
VwllPr:        150
VwllSh:        150
VHldDel:       250
Vtrim:         93
VcThr:         81
VIbias_bus:    30
PHOffset:      105
Vcomp_ADC:     50
PHScale:       41
VIColOr:       100
Vcal:          200
CalDel:        189
TempRange:     0
WBC:           164
ChipContReg:   16
Readback:      1
ROC:           BPix_BmI_SEC8_LYR1_LDR6H_MOD1_ROC7
Vdd:           6
Vana:          79
Vsh:           30
Vcomp:         12
VwllPr:        150
VwllSh:        150
VHldDel:       250
Vtrim:         113
VcThr:         84
VIbias_bus:    30
PHOffset:      95
Vcomp_ADC:     50
PHScale:       39
VIColOr:       100
Vcal:          200
CalDel:        196
TempRange:     0
WBC:           164
ChipContReg:   16
Readback:      1
ROC:           BPix_BmI_SEC8_LYR1_LDR6H_MOD1_ROC8
Vdd:           6
Vana:          80
Vsh:           30
Vcomp:         12
VwllPr:        150
VwllSh:        150
VHldDel:       250
Vtrim:         121
VcThr:         75
VIbias_bus:    30
PHOffset:      126
Vcomp_ADC:     50
PHScale:       57
VIColOr:       100
Vcal:          200
CalDel:        180
TempRange:     0
WBC:           164
ChipContReg:   16
Readback:      1
ROC:           BPix_BmI_SEC8_LYR1_LDR6H_MOD1_ROC9
Vdd:           6
Vana:          75
Vsh:           30
Vcomp:         12
VwllPr:        150
VwllSh:        150
VHldDel:       250
Vtrim:         93
VcThr:         78
VIbias_bus:    30
PHOffset:      114
Vcomp_ADC:     50
PHScale:       41
VIColOr:       100
Vcal:          200
CalDel:        206
TempRange:     0
WBC:           164
ChipContReg:   16
Readback:      1
ROC:           BPix_BmI_SEC8_LYR1_LDR6H_MOD1_ROC10
Vdd:           6
Vana:          69
Vsh:           30
Vcomp:         12
VwllPr:        150
VwllSh:        150
VHldDel:       250
Vtrim:         117
VcThr:         69
VIbias_bus:    30
PHOffset:      119
Vcomp_ADC:     50
PHScale:       36
VIColOr:       100
Vcal:          200
CalDel:        141
TempRange:     0
WBC:           164
ChipContReg:   16
Readback:      1
ROC:           BPix_BmI_SEC8_LYR1_LDR6H_MOD1_ROC11
Vdd:           6
Vana:          84
Vsh:           30
Vcomp:         12
VwllPr:        150
VwllSh:        150
VHldDel:       250
Vtrim:         122
VcThr:         69
VIbias_bus:    30
PHOffset:      99
Vcomp_ADC:     50
PHScale:       35
VIColOr:       100
Vcal:          200
CalDel:        206
TempRange:     0
WBC:           164
ChipContReg:   16
Readback:      1
