ROC:           BPix_BpO_SEC5_LYR4_LDR17F_MOD1_ROC0
Vdd:           6
Vana:          83
Vsh:           30
Vcomp:         12
VwllPr:        150
VwllSh:        150
VHldDel:       250
Vtrim:         94
VcThr:         93
VIbias_bus:    30
PHOffset:      142
Vcomp_ADC:     50
PHScale:       86
VIColOr:       100
Vcal:          200
CalDel:        135
TempRange:     0
WBC:           164
ChipContReg:   0
Readback:      1
ROC:           BPix_BpO_SEC5_LYR4_LDR17F_MOD1_ROC1
Vdd:           6
Vana:          89
Vsh:           30
Vcomp:         12
VwllPr:        150
VwllSh:        150
VHldDel:       250
Vtrim:         106
VcThr:         105
VIbias_bus:    30
PHOffset:      162
Vcomp_ADC:     50
PHScale:       85
VIColOr:       100
Vcal:          200
CalDel:        126
TempRange:     0
WBC:           164
ChipContReg:   0
Readback:      1
ROC:           BPix_BpO_SEC5_LYR4_LDR17F_MOD1_ROC2
Vdd:           6
Vana:          79
Vsh:           30
Vcomp:         12
VwllPr:        150
VwllSh:        150
VHldDel:       250
Vtrim:         95
VcThr:         96
VIbias_bus:    30
PHOffset:      131
Vcomp_ADC:     50
PHScale:       91
VIColOr:       100
Vcal:          200
CalDel:        137
TempRange:     0
WBC:           164
ChipContReg:   0
Readback:      1
ROC:           BPix_BpO_SEC5_LYR4_LDR17F_MOD1_ROC3
Vdd:           6
Vana:          80
Vsh:           30
Vcomp:         12
VwllPr:        150
VwllSh:        150
VHldDel:       250
Vtrim:         107
VcThr:         114
VIbias_bus:    30
PHOffset:      179
Vcomp_ADC:     50
PHScale:       74
VIColOr:       100
Vcal:          200
CalDel:        114
TempRange:     0
WBC:           164
ChipContReg:   0
Readback:      1
ROC:           BPix_BpO_SEC5_LYR4_LDR17F_MOD1_ROC4
Vdd:           6
Vana:          80
Vsh:           30
Vcomp:         12
VwllPr:        150
VwllSh:        150
VHldDel:       250
Vtrim:         94
VcThr:         100
VIbias_bus:    30
PHOffset:      147
Vcomp_ADC:     50
PHScale:       83
VIColOr:       100
Vcal:          200
CalDel:        162
TempRange:     0
WBC:           164
ChipContReg:   0
Readback:      1
ROC:           BPix_BpO_SEC5_LYR4_LDR17F_MOD1_ROC5
Vdd:           6
Vana:          79
Vsh:           30
Vcomp:         12
VwllPr:        150
VwllSh:        150
VHldDel:       250
Vtrim:         106
VcThr:         110
VIbias_bus:    30
PHOffset:      145
Vcomp_ADC:     50
PHScale:       79
VIColOr:       100
Vcal:          200
CalDel:        130
TempRange:     0
WBC:           164
ChipContReg:   0
Readback:      1
ROC:           BPix_BpO_SEC5_LYR4_LDR17F_MOD1_ROC6
Vdd:           6
Vana:          78
Vsh:           30
Vcomp:         12
VwllPr:        150
VwllSh:        150
VHldDel:       250
Vtrim:         163
VcThr:         95
VIbias_bus:    30
PHOffset:      141
Vcomp_ADC:     50
PHScale:       77
VIColOr:       100
Vcal:          200
CalDel:        134
TempRange:     0
WBC:           164
ChipContReg:   0
Readback:      1
ROC:           BPix_BpO_SEC5_LYR4_LDR17F_MOD1_ROC7
Vdd:           6
Vana:          84
Vsh:           30
Vcomp:         12
VwllPr:        150
VwllSh:        150
VHldDel:       250
Vtrim:         99
VcThr:         97
VIbias_bus:    30
PHOffset:      169
Vcomp_ADC:     50
PHScale:       81
VIColOr:       100
Vcal:          200
CalDel:        132
TempRange:     0
WBC:           164
ChipContReg:   0
Readback:      1
ROC:           BPix_BpO_SEC5_LYR4_LDR17F_MOD1_ROC8
Vdd:           6
Vana:          78
Vsh:           30
Vcomp:         12
VwllPr:        150
VwllSh:        150
VHldDel:       250
Vtrim:         108
VcThr:         98
VIbias_bus:    30
PHOffset:      158
Vcomp_ADC:     50
PHScale:       78
VIColOr:       100
Vcal:          200
CalDel:        147
TempRange:     0
WBC:           164
ChipContReg:   0
Readback:      1
ROC:           BPix_BpO_SEC5_LYR4_LDR17F_MOD1_ROC9
Vdd:           6
Vana:          74
Vsh:           30
Vcomp:         12
VwllPr:        150
VwllSh:        150
VHldDel:       250
Vtrim:         105
VcThr:         98
VIbias_bus:    30
PHOffset:      151
Vcomp_ADC:     50
PHScale:       85
VIColOr:       100
Vcal:          200
CalDel:        139
TempRange:     0
WBC:           164
ChipContReg:   0
Readback:      1
ROC:           BPix_BpO_SEC5_LYR4_LDR17F_MOD1_ROC10
Vdd:           6
Vana:          78
Vsh:           30
Vcomp:         12
VwllPr:        150
VwllSh:        150
VHldDel:       250
Vtrim:         101
VcThr:         103
VIbias_bus:    30
PHOffset:      147
Vcomp_ADC:     50
PHScale:       83
VIColOr:       100
Vcal:          200
CalDel:        134
TempRange:     0
WBC:           164
ChipContReg:   0
Readback:      1
ROC:           BPix_BpO_SEC5_LYR4_LDR17F_MOD1_ROC11
Vdd:           6
Vana:          88
Vsh:           30
Vcomp:         12
VwllPr:        150
VwllSh:        150
VHldDel:       250
Vtrim:         109
VcThr:         95
VIbias_bus:    30
PHOffset:      145
Vcomp_ADC:     50
PHScale:       80
VIColOr:       100
Vcal:          200
CalDel:        135
TempRange:     0
WBC:           164
ChipContReg:   0
Readback:      1
ROC:           BPix_BpO_SEC5_LYR4_LDR17F_MOD1_ROC12
Vdd:           6
Vana:          78
Vsh:           30
Vcomp:         12
VwllPr:        150
VwllSh:        150
VHldDel:       250
Vtrim:         87
VcThr:         92
VIbias_bus:    30
PHOffset:      150
Vcomp_ADC:     50
PHScale:       82
VIColOr:       100
Vcal:          200
CalDel:        146
TempRange:     0
WBC:           164
ChipContReg:   0
Readback:      1
ROC:           BPix_BpO_SEC5_LYR4_LDR17F_MOD1_ROC13
Vdd:           6
Vana:          78
Vsh:           30
Vcomp:         12
VwllPr:        150
VwllSh:        150
VHldDel:       250
Vtrim:         157
VcThr:         108
VIbias_bus:    30
PHOffset:      159
Vcomp_ADC:     50
PHScale:       81
VIColOr:       100
Vcal:          200
CalDel:        134
TempRange:     0
WBC:           164
ChipContReg:   0
Readback:      1
ROC:           BPix_BpO_SEC5_LYR4_LDR17F_MOD1_ROC14
Vdd:           6
Vana:          88
Vsh:           30
Vcomp:         12
VwllPr:        150
VwllSh:        150
VHldDel:       250
Vtrim:         88
VcThr:         87
VIbias_bus:    30
PHOffset:      169
Vcomp_ADC:     50
PHScale:       72
VIColOr:       100
Vcal:          200
CalDel:        138
TempRange:     0
WBC:           164
ChipContReg:   0
Readback:      1
ROC:           BPix_BpO_SEC5_LYR4_LDR17F_MOD1_ROC15
Vdd:           6
Vana:          70
Vsh:           30
Vcomp:         12
VwllPr:        150
VwllSh:        150
VHldDel:       250
Vtrim:         116
VcThr:         108
VIbias_bus:    30
PHOffset:      149
Vcomp_ADC:     50
PHScale:       81
VIColOr:       100
Vcal:          200
CalDel:        139
TempRange:     0
WBC:           164
ChipContReg:   0
Readback:      1
