ROC:           BPix_BmI_SEC2_LYR1_LDR2H_MOD4_ROC4
Vdd:           6
Vana:          74
Vsh:           30
Vcomp:         12
VwllPr:        150
VwllSh:        150
VHldDel:       250
Vtrim:         100
VcThr:         85
VIbias_bus:    30
PHOffset:      94
Vcomp_ADC:     50
PHScale:       43
VIColOr:       100
Vcal:          200
CalDel:        171
TempRange:     0
WBC:           164
ChipContReg:   16
Readback:      1
ROC:           BPix_BmI_SEC2_LYR1_LDR2H_MOD4_ROC5
Vdd:           6
Vana:          74
Vsh:           30
Vcomp:         12
VwllPr:        150
VwllSh:        150
VHldDel:       250
Vtrim:         107
VcThr:         78
VIbias_bus:    30
PHOffset:      101
Vcomp_ADC:     50
PHScale:       39
VIColOr:       100
Vcal:          200
CalDel:        190
TempRange:     0
WBC:           164
ChipContReg:   16
Readback:      1
ROC:           BPix_BmI_SEC2_LYR1_LDR2H_MOD4_ROC6
Vdd:           6
Vana:          79
Vsh:           30
Vcomp:         12
VwllPr:        150
VwllSh:        150
VHldDel:       250
Vtrim:         109
VcThr:         82
VIbias_bus:    30
PHOffset:      124
Vcomp_ADC:     50
PHScale:       54
VIColOr:       100
Vcal:          200
CalDel:        162
TempRange:     0
WBC:           164
ChipContReg:   16
Readback:      1
ROC:           BPix_BmI_SEC2_LYR1_LDR2H_MOD4_ROC7
Vdd:           6
Vana:          66
Vsh:           30
Vcomp:         12
VwllPr:        150
VwllSh:        150
VHldDel:       250
Vtrim:         112
VcThr:         91
VIbias_bus:    30
PHOffset:      123
Vcomp_ADC:     50
PHScale:       55
VIColOr:       100
Vcal:          200
CalDel:        177
TempRange:     0
WBC:           164
ChipContReg:   16
Readback:      1
ROC:           BPix_BmI_SEC2_LYR1_LDR2H_MOD4_ROC8
Vdd:           6
Vana:          66
Vsh:           30
Vcomp:         12
VwllPr:        150
VwllSh:        150
VHldDel:       250
Vtrim:         113
VcThr:         81
VIbias_bus:    30
PHOffset:      113
Vcomp_ADC:     50
PHScale:       49
VIColOr:       100
Vcal:          200
CalDel:        178
TempRange:     0
WBC:           164
ChipContReg:   16
Readback:      1
ROC:           BPix_BmI_SEC2_LYR1_LDR2H_MOD4_ROC9
Vdd:           6
Vana:          66
Vsh:           30
Vcomp:         12
VwllPr:        150
VwllSh:        150
VHldDel:       250
Vtrim:         118
VcThr:         74
VIbias_bus:    30
PHOffset:      110
Vcomp_ADC:     50
PHScale:       55
VIColOr:       100
Vcal:          200
CalDel:        174
TempRange:     0
WBC:           164
ChipContReg:   16
Readback:      1
ROC:           BPix_BmI_SEC2_LYR1_LDR2H_MOD4_ROC10
Vdd:           6
Vana:          79
Vsh:           30
Vcomp:         12
VwllPr:        150
VwllSh:        150
VHldDel:       250
Vtrim:         94
VcThr:         76
VIbias_bus:    30
PHOffset:      101
Vcomp_ADC:     50
PHScale:       36
VIColOr:       100
Vcal:          200
CalDel:        174
TempRange:     0
WBC:           164
ChipContReg:   16
Readback:      1
ROC:           BPix_BmI_SEC2_LYR1_LDR2H_MOD4_ROC11
Vdd:           6
Vana:          74
Vsh:           30
Vcomp:         12
VwllPr:        150
VwllSh:        150
VHldDel:       250
Vtrim:         117
VcThr:         75
VIbias_bus:    30
PHOffset:      110
Vcomp_ADC:     50
PHScale:       48
VIColOr:       100
Vcal:          200
CalDel:        195
TempRange:     0
WBC:           164
ChipContReg:   16
Readback:      1
