Name: BPix_BmO_SEC8_PRT2
Type: ph1bpix
TKFECID: tkfec2
ringAddress: 0x2
ccuAddress: 0x7e
channelAddress: 0x13
i2cSpeed: 0x64
PLL_CTR2: 0x20
PLL_CTR5: 0x0
Delay25_GCR: 0x40
Delay25_SCL: 0x40
Delay25_TRG: 0x40
Delay25_SDA: 0x5a
Delay25_RCL: 0x54
Delay25_RDA: 0x58
DOH_Ch0Bias_CLK: 0x20
DOH_Dummy: 0x0
DOH_Ch1Bias_Data: 0x20
DOH_Gain_SEU: 0x11
POH1_Bias1: 0x1E
POH1_Bias2: 0x1E
POH1_Bias3: 0x1E
POH1_Bias4: 0x1E
POH1_Gain12: 0x22
POH1_Gain34: 0x22
POH2_Bias1: 0x1E
POH2_Bias2: 0x1E
POH2_Bias3: 0x1E
POH2_Bias4: 0x1E
POH2_Gain12: 0x22
POH2_Gain34: 0x22
POH3_Bias1: 0x1E
POH3_Bias2: 0x1E
POH3_Bias3: 0x1E
POH3_Bias4: 0x1E
POH3_Gain12: 0x22
POH3_Gain34: 0x22
POH4_Bias1: 0x1E
POH4_Bias2: 0x1E
POH4_Bias3: 0x1E
POH4_Bias4: 0x1E
POH4_Gain12: 0x22
POH4_Gain34: 0x22
POH5_Bias1: 0x1E
POH5_Bias2: 0x1E
POH5_Bias3: 0x1E
POH5_Bias4: 0x1E
POH5_Gain12: 0x22
POH5_Gain34: 0x22
POH6_Bias1: 0x1E
POH6_Bias2: 0x1E
POH6_Bias3: 0x1E
POH6_Bias4: 0x1E
POH6_Gain12: 0x22
POH6_Gain34: 0x22
