ROC:           BPix_BmO_SEC5_LYR4_LDR18F_MOD2_ROC0
Vdd:           0
Vana:          0
Vsh:           30
Vcomp:         12
VwllPr:        150
VwllSh:        150
VHldDel:       250
Vtrim:         115
VcThr:         0
VIbias_bus:    30
PHOffset:      162
Vcomp_ADC:     50
PHScale:       79
VIColOr:       100
Vcal:          200
CalDel:        158
TempRange:     0
WBC:           98
ChipContReg:   2
Readback:      1
ROC:           BPix_BmO_SEC5_LYR4_LDR18F_MOD2_ROC1
Vdd:           0
Vana:          0
Vsh:           30
Vcomp:         12
VwllPr:        150
VwllSh:        150
VHldDel:       250
Vtrim:         112
VcThr:         0
VIbias_bus:    30
PHOffset:      166
Vcomp_ADC:     50
PHScale:       90
VIColOr:       100
Vcal:          200
CalDel:        161
TempRange:     0
WBC:           98
ChipContReg:   2
Readback:      1
ROC:           BPix_BmO_SEC5_LYR4_LDR18F_MOD2_ROC2
Vdd:           0
Vana:          0
Vsh:           30
Vcomp:         12
VwllPr:        150
VwllSh:        150
VHldDel:       250
Vtrim:         100
VcThr:         0
VIbias_bus:    30
PHOffset:      180
Vcomp_ADC:     50
PHScale:       77
VIColOr:       100
Vcal:          200
CalDel:        170
TempRange:     0
WBC:           98
ChipContReg:   2
Readback:      1
ROC:           BPix_BmO_SEC5_LYR4_LDR18F_MOD2_ROC3
Vdd:           0
Vana:          0
Vsh:           30
Vcomp:         12
VwllPr:        150
VwllSh:        150
VHldDel:       250
Vtrim:         109
VcThr:         0
VIbias_bus:    30
PHOffset:      171
Vcomp_ADC:     50
PHScale:       82
VIColOr:       100
Vcal:          200
CalDel:        175
TempRange:     0
WBC:           98
ChipContReg:   2
Readback:      1
ROC:           BPix_BmO_SEC5_LYR4_LDR18F_MOD2_ROC4
Vdd:           0
Vana:          0
Vsh:           30
Vcomp:         12
VwllPr:        150
VwllSh:        150
VHldDel:       250
Vtrim:         108
VcThr:         0
VIbias_bus:    30
PHOffset:      167
Vcomp_ADC:     50
PHScale:       84
VIColOr:       100
Vcal:          200
CalDel:        158
TempRange:     0
WBC:           98
ChipContReg:   2
Readback:      1
ROC:           BPix_BmO_SEC5_LYR4_LDR18F_MOD2_ROC5
Vdd:           0
Vana:          0
Vsh:           30
Vcomp:         12
VwllPr:        150
VwllSh:        150
VHldDel:       250
Vtrim:         109
VcThr:         0
VIbias_bus:    30
PHOffset:      158
Vcomp_ADC:     50
PHScale:       79
VIColOr:       100
Vcal:          200
CalDel:        155
TempRange:     0
WBC:           98
ChipContReg:   2
Readback:      1
ROC:           BPix_BmO_SEC5_LYR4_LDR18F_MOD2_ROC6
Vdd:           0
Vana:          0
Vsh:           30
Vcomp:         12
VwllPr:        150
VwllSh:        150
VHldDel:       250
Vtrim:         98
VcThr:         0
VIbias_bus:    30
PHOffset:      162
Vcomp_ADC:     50
PHScale:       87
VIColOr:       100
Vcal:          200
CalDel:        157
TempRange:     0
WBC:           98
ChipContReg:   2
Readback:      1
ROC:           BPix_BmO_SEC5_LYR4_LDR18F_MOD2_ROC7
Vdd:           0
Vana:          0
Vsh:           30
Vcomp:         12
VwllPr:        150
VwllSh:        150
VHldDel:       250
Vtrim:         88
VcThr:         0
VIbias_bus:    30
PHOffset:      166
Vcomp_ADC:     50
PHScale:       81
VIColOr:       100
Vcal:          200
CalDel:        159
TempRange:     0
WBC:           98
ChipContReg:   2
Readback:      1
ROC:           BPix_BmO_SEC5_LYR4_LDR18F_MOD2_ROC8
Vdd:           0
Vana:          0
Vsh:           30
Vcomp:         12
VwllPr:        150
VwllSh:        150
VHldDel:       250
Vtrim:         111
VcThr:         0
VIbias_bus:    30
PHOffset:      165
Vcomp_ADC:     50
PHScale:       88
VIColOr:       100
Vcal:          200
CalDel:        150
TempRange:     0
WBC:           98
ChipContReg:   2
Readback:      1
ROC:           BPix_BmO_SEC5_LYR4_LDR18F_MOD2_ROC9
Vdd:           0
Vana:          0
Vsh:           30
Vcomp:         12
VwllPr:        150
VwllSh:        150
VHldDel:       250
Vtrim:         93
VcThr:         0
VIbias_bus:    30
PHOffset:      151
Vcomp_ADC:     50
PHScale:       81
VIColOr:       100
Vcal:          200
CalDel:        165
TempRange:     0
WBC:           98
ChipContReg:   2
Readback:      1
ROC:           BPix_BmO_SEC5_LYR4_LDR18F_MOD2_ROC10
Vdd:           0
Vana:          0
Vsh:           30
Vcomp:         12
VwllPr:        150
VwllSh:        150
VHldDel:       250
Vtrim:         95
VcThr:         0
VIbias_bus:    30
PHOffset:      150
Vcomp_ADC:     50
PHScale:       88
VIColOr:       100
Vcal:          200
CalDel:        140
TempRange:     0
WBC:           98
ChipContReg:   2
Readback:      1
ROC:           BPix_BmO_SEC5_LYR4_LDR18F_MOD2_ROC11
Vdd:           0
Vana:          0
Vsh:           30
Vcomp:         12
VwllPr:        150
VwllSh:        150
VHldDel:       250
Vtrim:         111
VcThr:         0
VIbias_bus:    30
PHOffset:      160
Vcomp_ADC:     50
PHScale:       85
VIColOr:       100
Vcal:          200
CalDel:        160
TempRange:     0
WBC:           98
ChipContReg:   2
Readback:      1
ROC:           BPix_BmO_SEC5_LYR4_LDR18F_MOD2_ROC12
Vdd:           0
Vana:          0
Vsh:           30
Vcomp:         12
VwllPr:        150
VwllSh:        150
VHldDel:       250
Vtrim:         115
VcThr:         0
VIbias_bus:    30
PHOffset:      157
Vcomp_ADC:     50
PHScale:       85
VIColOr:       100
Vcal:          200
CalDel:        131
TempRange:     0
WBC:           98
ChipContReg:   2
Readback:      1
ROC:           BPix_BmO_SEC5_LYR4_LDR18F_MOD2_ROC13
Vdd:           0
Vana:          0
Vsh:           30
Vcomp:         12
VwllPr:        150
VwllSh:        150
VHldDel:       250
Vtrim:         117
VcThr:         0
VIbias_bus:    30
PHOffset:      179
Vcomp_ADC:     50
PHScale:       75
VIColOr:       100
Vcal:          200
CalDel:        142
TempRange:     0
WBC:           98
ChipContReg:   2
Readback:      1
ROC:           BPix_BmO_SEC5_LYR4_LDR18F_MOD2_ROC14
Vdd:           0
Vana:          0
Vsh:           30
Vcomp:         12
VwllPr:        150
VwllSh:        150
VHldDel:       250
Vtrim:         96
VcThr:         0
VIbias_bus:    30
PHOffset:      161
Vcomp_ADC:     50
PHScale:       80
VIColOr:       100
Vcal:          200
CalDel:        130
TempRange:     0
WBC:           98
ChipContReg:   2
Readback:      1
ROC:           BPix_BmO_SEC5_LYR4_LDR18F_MOD2_ROC15
Vdd:           0
Vana:          0
Vsh:           30
Vcomp:         12
VwllPr:        150
VwllSh:        150
VHldDel:       250
Vtrim:         111
VcThr:         0
VIbias_bus:    30
PHOffset:      144
Vcomp_ADC:     50
PHScale:       80
VIColOr:       100
Vcal:          200
CalDel:        174
TempRange:     0
WBC:           98
ChipContReg:   2
Readback:      1
