ROC:           BPix_BmO_SEC6_LYR4_LDR23F_MOD1_ROC0
Vdd:           6
Vana:          75
Vsh:           30
Vcomp:         12
VwllPr:        150
VwllSh:        150
VHldDel:       250
Vtrim:         92
VcThr:         78
VIbias_bus:    30
PHOffset:      132
Vcomp_ADC:     50
PHScale:       98
VIColOr:       100
Vcal:          200
CalDel:        142
TempRange:     0
WBC:           98
ChipContReg:   0
Readback:      1
ROC:           BPix_BmO_SEC6_LYR4_LDR23F_MOD1_ROC1
Vdd:           6
Vana:          97
Vsh:           30
Vcomp:         12
VwllPr:        150
VwllSh:        150
VHldDel:       250
Vtrim:         96
VcThr:         82
VIbias_bus:    30
PHOffset:      140
Vcomp_ADC:     50
PHScale:       87
VIColOr:       100
Vcal:          200
CalDel:        146
TempRange:     0
WBC:           98
ChipContReg:   0
Readback:      1
ROC:           BPix_BmO_SEC6_LYR4_LDR23F_MOD1_ROC2
Vdd:           6
Vana:          85
Vsh:           30
Vcomp:         12
VwllPr:        150
VwllSh:        150
VHldDel:       250
Vtrim:         102
VcThr:         98
VIbias_bus:    30
PHOffset:      151
Vcomp_ADC:     50
PHScale:       80
VIColOr:       100
Vcal:          200
CalDel:        139
TempRange:     0
WBC:           98
ChipContReg:   0
Readback:      1
ROC:           BPix_BmO_SEC6_LYR4_LDR23F_MOD1_ROC3
Vdd:           6
Vana:          75
Vsh:           30
Vcomp:         12
VwllPr:        150
VwllSh:        150
VHldDel:       250
Vtrim:         94
VcThr:         73
VIbias_bus:    30
PHOffset:      148
Vcomp_ADC:     50
PHScale:       81
VIColOr:       100
Vcal:          200
CalDel:        144
TempRange:     0
WBC:           98
ChipContReg:   0
Readback:      1
ROC:           BPix_BmO_SEC6_LYR4_LDR23F_MOD1_ROC4
Vdd:           6
Vana:          87
Vsh:           30
Vcomp:         12
VwllPr:        150
VwllSh:        150
VHldDel:       250
Vtrim:         99
VcThr:         97
VIbias_bus:    30
PHOffset:      145
Vcomp_ADC:     50
PHScale:       75
VIColOr:       100
Vcal:          200
CalDel:        149
TempRange:     0
WBC:           98
ChipContReg:   0
Readback:      1
ROC:           BPix_BmO_SEC6_LYR4_LDR23F_MOD1_ROC5
Vdd:           6
Vana:          81
Vsh:           30
Vcomp:         12
VwllPr:        150
VwllSh:        150
VHldDel:       250
Vtrim:         107
VcThr:         99
VIbias_bus:    30
PHOffset:      144
Vcomp_ADC:     50
PHScale:       80
VIColOr:       100
Vcal:          200
CalDel:        142
TempRange:     0
WBC:           98
ChipContReg:   0
Readback:      1
ROC:           BPix_BmO_SEC6_LYR4_LDR23F_MOD1_ROC6
Vdd:           6
Vana:          73
Vsh:           30
Vcomp:         12
VwllPr:        150
VwllSh:        150
VHldDel:       250
Vtrim:         99
VcThr:         98
VIbias_bus:    30
PHOffset:      148
Vcomp_ADC:     50
PHScale:       80
VIColOr:       100
Vcal:          200
CalDel:        153
TempRange:     0
WBC:           98
ChipContReg:   0
Readback:      1
ROC:           BPix_BmO_SEC6_LYR4_LDR23F_MOD1_ROC7
Vdd:           6
Vana:          85
Vsh:           30
Vcomp:         12
VwllPr:        150
VwllSh:        150
VHldDel:       250
Vtrim:         98
VcThr:         90
VIbias_bus:    30
PHOffset:      144
Vcomp_ADC:     50
PHScale:       81
VIColOr:       100
Vcal:          200
CalDel:        149
TempRange:     0
WBC:           98
ChipContReg:   0
Readback:      1
ROC:           BPix_BmO_SEC6_LYR4_LDR23F_MOD1_ROC8
Vdd:           6
Vana:          81
Vsh:           30
Vcomp:         12
VwllPr:        150
VwllSh:        150
VHldDel:       250
Vtrim:         87
VcThr:         92
VIbias_bus:    30
PHOffset:      158
Vcomp_ADC:     50
PHScale:       73
VIColOr:       100
Vcal:          200
CalDel:        146
TempRange:     0
WBC:           98
ChipContReg:   0
Readback:      1
ROC:           BPix_BmO_SEC6_LYR4_LDR23F_MOD1_ROC9
Vdd:           6
Vana:          84
Vsh:           30
Vcomp:         12
VwllPr:        150
VwllSh:        150
VHldDel:       250
Vtrim:         94
VcThr:         86
VIbias_bus:    30
PHOffset:      163
Vcomp_ADC:     50
PHScale:       87
VIColOr:       100
Vcal:          200
CalDel:        144
TempRange:     0
WBC:           98
ChipContReg:   0
Readback:      1
ROC:           BPix_BmO_SEC6_LYR4_LDR23F_MOD1_ROC10
Vdd:           6
Vana:          75
Vsh:           30
Vcomp:         12
VwllPr:        150
VwllSh:        150
VHldDel:       250
Vtrim:         88
VcThr:         86
VIbias_bus:    30
PHOffset:      157
Vcomp_ADC:     50
PHScale:       80
VIColOr:       100
Vcal:          200
CalDel:        144
TempRange:     0
WBC:           98
ChipContReg:   0
Readback:      1
ROC:           BPix_BmO_SEC6_LYR4_LDR23F_MOD1_ROC11
Vdd:           6
Vana:          70
Vsh:           30
Vcomp:         12
VwllPr:        150
VwllSh:        150
VHldDel:       250
Vtrim:         91
VcThr:         97
VIbias_bus:    30
PHOffset:      161
Vcomp_ADC:     50
PHScale:       80
VIColOr:       100
Vcal:          200
CalDel:        136
TempRange:     0
WBC:           98
ChipContReg:   0
Readback:      1
ROC:           BPix_BmO_SEC6_LYR4_LDR23F_MOD1_ROC12
Vdd:           6
Vana:          85
Vsh:           30
Vcomp:         12
VwllPr:        150
VwllSh:        150
VHldDel:       250
Vtrim:         96
VcThr:         97
VIbias_bus:    30
PHOffset:      160
Vcomp_ADC:     50
PHScale:       73
VIColOr:       100
Vcal:          200
CalDel:        146
TempRange:     0
WBC:           98
ChipContReg:   0
Readback:      1
ROC:           BPix_BmO_SEC6_LYR4_LDR23F_MOD1_ROC13
Vdd:           6
Vana:          78
Vsh:           30
Vcomp:         12
VwllPr:        150
VwllSh:        150
VHldDel:       250
Vtrim:         82
VcThr:         86
VIbias_bus:    30
PHOffset:      160
Vcomp_ADC:     50
PHScale:       79
VIColOr:       100
Vcal:          200
CalDel:        133
TempRange:     0
WBC:           98
ChipContReg:   0
Readback:      1
ROC:           BPix_BmO_SEC6_LYR4_LDR23F_MOD1_ROC14
Vdd:           6
Vana:          73
Vsh:           30
Vcomp:         12
VwllPr:        150
VwllSh:        150
VHldDel:       250
Vtrim:         92
VcThr:         81
VIbias_bus:    30
PHOffset:      150
Vcomp_ADC:     50
PHScale:       79
VIColOr:       100
Vcal:          200
CalDel:        175
TempRange:     0
WBC:           98
ChipContReg:   0
Readback:      1
ROC:           BPix_BmO_SEC6_LYR4_LDR23F_MOD1_ROC15
Vdd:           6
Vana:          79
Vsh:           30
Vcomp:         12
VwllPr:        150
VwllSh:        150
VHldDel:       250
Vtrim:         105
VcThr:         92
VIbias_bus:    30
PHOffset:      176
Vcomp_ADC:     50
PHScale:       75
VIColOr:       100
Vcal:          200
CalDel:        175
TempRange:     0
WBC:           98
ChipContReg:   0
Readback:      1
