ROC:           BPix_BpO_SEC5_LYR2_LDR8F_MOD1_ROC0
Vdd:           6
Vana:          79
Vsh:           30
Vcomp:         12
VwllPr:        150
VwllSh:        150
VHldDel:       250
Vtrim:         102
VcThr:         92
VIbias_bus:    30
PHOffset:      160
Vcomp_ADC:     50
PHScale:       76
VIColOr:       100
Vcal:          200
CalDel:        143
TempRange:     0
WBC:           98
ChipContReg:   0
Readback:      1
ROC:           BPix_BpO_SEC5_LYR2_LDR8F_MOD1_ROC1
Vdd:           6
Vana:          70
Vsh:           30
Vcomp:         12
VwllPr:        150
VwllSh:        150
VHldDel:       250
Vtrim:         140
VcThr:         86
VIbias_bus:    30
PHOffset:      161
Vcomp_ADC:     50
PHScale:       82
VIColOr:       100
Vcal:          200
CalDel:        137
TempRange:     0
WBC:           98
ChipContReg:   0
Readback:      1
ROC:           BPix_BpO_SEC5_LYR2_LDR8F_MOD1_ROC2
Vdd:           6
Vana:          78
Vsh:           30
Vcomp:         12
VwllPr:        150
VwllSh:        150
VHldDel:       250
Vtrim:         109
VcThr:         83
VIbias_bus:    30
PHOffset:      151
Vcomp_ADC:     50
PHScale:       97
VIColOr:       100
Vcal:          200
CalDel:        154
TempRange:     0
WBC:           98
ChipContReg:   0
Readback:      1
ROC:           BPix_BpO_SEC5_LYR2_LDR8F_MOD1_ROC3
Vdd:           6
Vana:          70
Vsh:           30
Vcomp:         12
VwllPr:        150
VwllSh:        150
VHldDel:       250
Vtrim:         111
VcThr:         98
VIbias_bus:    30
PHOffset:      164
Vcomp_ADC:     50
PHScale:       77
VIColOr:       100
Vcal:          200
CalDel:        148
TempRange:     0
WBC:           98
ChipContReg:   0
Readback:      1
ROC:           BPix_BpO_SEC5_LYR2_LDR8F_MOD1_ROC4
Vdd:           6
Vana:          65
Vsh:           30
Vcomp:         12
VwllPr:        150
VwllSh:        150
VHldDel:       250
Vtrim:         120
VcThr:         91
VIbias_bus:    30
PHOffset:      166
Vcomp_ADC:     50
PHScale:       86
VIColOr:       100
Vcal:          200
CalDel:        162
TempRange:     0
WBC:           98
ChipContReg:   0
Readback:      1
ROC:           BPix_BpO_SEC5_LYR2_LDR8F_MOD1_ROC5
Vdd:           6
Vana:          78
Vsh:           30
Vcomp:         12
VwllPr:        150
VwllSh:        150
VHldDel:       250
Vtrim:         120
VcThr:         85
VIbias_bus:    30
PHOffset:      155
Vcomp_ADC:     50
PHScale:       80
VIColOr:       100
Vcal:          200
CalDel:        183
TempRange:     0
WBC:           98
ChipContReg:   0
Readback:      1
ROC:           BPix_BpO_SEC5_LYR2_LDR8F_MOD1_ROC6
Vdd:           6
Vana:          74
Vsh:           30
Vcomp:         12
VwllPr:        150
VwllSh:        150
VHldDel:       250
Vtrim:         103
VcThr:         82
VIbias_bus:    30
PHOffset:      155
Vcomp_ADC:     50
PHScale:       78
VIColOr:       100
Vcal:          200
CalDel:        165
TempRange:     0
WBC:           98
ChipContReg:   0
Readback:      1
ROC:           BPix_BpO_SEC5_LYR2_LDR8F_MOD1_ROC7
Vdd:           6
Vana:          74
Vsh:           30
Vcomp:         12
VwllPr:        150
VwllSh:        150
VHldDel:       250
Vtrim:         107
VcThr:         78
VIbias_bus:    30
PHOffset:      138
Vcomp_ADC:     50
PHScale:       82
VIColOr:       100
Vcal:          200
CalDel:        165
TempRange:     0
WBC:           98
ChipContReg:   0
Readback:      1
ROC:           BPix_BpO_SEC5_LYR2_LDR8F_MOD1_ROC8
Vdd:           6
Vana:          78
Vsh:           30
Vcomp:         12
VwllPr:        150
VwllSh:        150
VHldDel:       250
Vtrim:         120
VcThr:         96
VIbias_bus:    30
PHOffset:      162
Vcomp_ADC:     50
PHScale:       77
VIColOr:       100
Vcal:          200
CalDel:        144
TempRange:     0
WBC:           98
ChipContReg:   0
Readback:      1
ROC:           BPix_BpO_SEC5_LYR2_LDR8F_MOD1_ROC9
Vdd:           6
Vana:          83
Vsh:           30
Vcomp:         12
VwllPr:        150
VwllSh:        150
VHldDel:       250
Vtrim:         112
VcThr:         83
VIbias_bus:    30
PHOffset:      154
Vcomp_ADC:     50
PHScale:       83
VIColOr:       100
Vcal:          200
CalDel:        156
TempRange:     0
WBC:           98
ChipContReg:   0
Readback:      1
ROC:           BPix_BpO_SEC5_LYR2_LDR8F_MOD1_ROC10
Vdd:           6
Vana:          97
Vsh:           30
Vcomp:         12
VwllPr:        150
VwllSh:        150
VHldDel:       250
Vtrim:         99
VcThr:         84
VIbias_bus:    30
PHOffset:      160
Vcomp_ADC:     50
PHScale:       84
VIColOr:       100
Vcal:          200
CalDel:        144
TempRange:     0
WBC:           98
ChipContReg:   0
Readback:      1
ROC:           BPix_BpO_SEC5_LYR2_LDR8F_MOD1_ROC11
Vdd:           6
Vana:          89
Vsh:           30
Vcomp:         12
VwllPr:        150
VwllSh:        150
VHldDel:       250
Vtrim:         112
VcThr:         78
VIbias_bus:    30
PHOffset:      163
Vcomp_ADC:     50
PHScale:       83
VIColOr:       100
Vcal:          200
CalDel:        144
TempRange:     0
WBC:           98
ChipContReg:   0
Readback:      1
ROC:           BPix_BpO_SEC5_LYR2_LDR8F_MOD1_ROC12
Vdd:           6
Vana:          84
Vsh:           30
Vcomp:         12
VwllPr:        150
VwllSh:        150
VHldDel:       250
Vtrim:         115
VcThr:         83
VIbias_bus:    30
PHOffset:      157
Vcomp_ADC:     50
PHScale:       76
VIColOr:       100
Vcal:          200
CalDel:        134
TempRange:     0
WBC:           98
ChipContReg:   0
Readback:      1
ROC:           BPix_BpO_SEC5_LYR2_LDR8F_MOD1_ROC13
Vdd:           6
Vana:          78
Vsh:           30
Vcomp:         12
VwllPr:        150
VwllSh:        150
VHldDel:       250
Vtrim:         115
VcThr:         77
VIbias_bus:    30
PHOffset:      141
Vcomp_ADC:     50
PHScale:       92
VIColOr:       100
Vcal:          200
CalDel:        169
TempRange:     0
WBC:           98
ChipContReg:   0
Readback:      1
ROC:           BPix_BpO_SEC5_LYR2_LDR8F_MOD1_ROC14
Vdd:           6
Vana:          79
Vsh:           30
Vcomp:         12
VwllPr:        150
VwllSh:        150
VHldDel:       250
Vtrim:         110
VcThr:         82
VIbias_bus:    30
PHOffset:      150
Vcomp_ADC:     50
PHScale:       81
VIColOr:       100
Vcal:          200
CalDel:        141
TempRange:     0
WBC:           98
ChipContReg:   0
Readback:      1
ROC:           BPix_BpO_SEC5_LYR2_LDR8F_MOD1_ROC15
Vdd:           6
Vana:          79
Vsh:           30
Vcomp:         12
VwllPr:        150
VwllSh:        150
VHldDel:       250
Vtrim:         108
VcThr:         81
VIbias_bus:    30
PHOffset:      147
Vcomp_ADC:     50
PHScale:       86
VIColOr:       100
Vcal:          200
CalDel:        141
TempRange:     0
WBC:           98
ChipContReg:   0
Readback:      1
