ROC:           BPix_BmI_SEC7_LYR1_LDR5H_MOD1_ROC4
Vdd:           6
Vana:          78
Vsh:           30
Vcomp:         12
VwllPr:        150
VwllSh:        150
VHldDel:       250
Vtrim:         112
VcThr:         72
VIbias_bus:    30
PHOffset:      160
Vcomp_ADC:     50
PHScale:       90
VIColOr:       100
Vcal:          200
CalDel:        181
TempRange:     0
WBC:           98
ChipContReg:   16
Readback:      1
ROC:           BPix_BmI_SEC7_LYR1_LDR5H_MOD1_ROC5
Vdd:           6
Vana:          77
Vsh:           30
Vcomp:         12
VwllPr:        150
VwllSh:        150
VHldDel:       250
Vtrim:         121
VcThr:         76
VIbias_bus:    30
PHOffset:      160
Vcomp_ADC:     50
PHScale:       90
VIColOr:       100
Vcal:          200
CalDel:        206
TempRange:     0
WBC:           98
ChipContReg:   16
Readback:      1
ROC:           BPix_BmI_SEC7_LYR1_LDR5H_MOD1_ROC6
Vdd:           6
Vana:          83
Vsh:           30
Vcomp:         12
VwllPr:        150
VwllSh:        150
VHldDel:       250
Vtrim:         103
VcThr:         80
VIbias_bus:    30
PHOffset:      160
Vcomp_ADC:     50
PHScale:       90
VIColOr:       100
Vcal:          200
CalDel:        202
TempRange:     0
WBC:           98
ChipContReg:   16
Readback:      1
ROC:           BPix_BmI_SEC7_LYR1_LDR5H_MOD1_ROC7
Vdd:           6
Vana:          73
Vsh:           30
Vcomp:         12
VwllPr:        150
VwllSh:        150
VHldDel:       250
Vtrim:         116
VcThr:         74
VIbias_bus:    30
PHOffset:      160
Vcomp_ADC:     50
PHScale:       90
VIColOr:       100
Vcal:          200
CalDel:        188
TempRange:     0
WBC:           98
ChipContReg:   16
Readback:      1
ROC:           BPix_BmI_SEC7_LYR1_LDR5H_MOD1_ROC8
Vdd:           6
Vana:          80
Vsh:           30
Vcomp:         12
VwllPr:        150
VwllSh:        150
VHldDel:       250
Vtrim:         99
VcThr:         67
VIbias_bus:    30
PHOffset:      160
Vcomp_ADC:     50
PHScale:       90
VIColOr:       100
Vcal:          200
CalDel:        120
TempRange:     0
WBC:           98
ChipContReg:   16
Readback:      1
ROC:           BPix_BmI_SEC7_LYR1_LDR5H_MOD1_ROC9
Vdd:           6
Vana:          80
Vsh:           30
Vcomp:         12
VwllPr:        150
VwllSh:        150
VHldDel:       250
Vtrim:         114
VcThr:         76
VIbias_bus:    30
PHOffset:      160
Vcomp_ADC:     50
PHScale:       90
VIColOr:       100
Vcal:          200
CalDel:        185
TempRange:     0
WBC:           98
ChipContReg:   16
Readback:      1
ROC:           BPix_BmI_SEC7_LYR1_LDR5H_MOD1_ROC10
Vdd:           6
Vana:          77
Vsh:           30
Vcomp:         12
VwllPr:        150
VwllSh:        150
VHldDel:       250
Vtrim:         125
VcThr:         71
VIbias_bus:    30
PHOffset:      160
Vcomp_ADC:     50
PHScale:       90
VIColOr:       100
Vcal:          200
CalDel:        207
TempRange:     0
WBC:           98
ChipContReg:   16
Readback:      1
ROC:           BPix_BmI_SEC7_LYR1_LDR5H_MOD1_ROC11
Vdd:           6
Vana:          84
Vsh:           30
Vcomp:         12
VwllPr:        150
VwllSh:        150
VHldDel:       250
Vtrim:         105
VcThr:         65
VIbias_bus:    30
PHOffset:      160
Vcomp_ADC:     50
PHScale:       90
VIColOr:       100
Vcal:          200
CalDel:        206
TempRange:     0
WBC:           98
ChipContReg:   16
Readback:      1
