ROC:           BPix_BpO_SEC4_LYR4_LDR13F_MOD2_ROC0
Vdd:           6
Vana:          99
Vsh:           30
Vcomp:         12
VwllPr:        150
VwllSh:        150
VHldDel:       250
Vtrim:         108
VcThr:         95
VIbias_bus:    30
PHOffset:      152
Vcomp_ADC:     50
PHScale:       78
VIColOr:       100
Vcal:          200
CalDel:        107
TempRange:     0
WBC:           100
ChipContReg:   0
Readback:      1
ROC:           BPix_BpO_SEC4_LYR4_LDR13F_MOD2_ROC1
Vdd:           6
Vana:          91
Vsh:           30
Vcomp:         12
VwllPr:        150
VwllSh:        150
VHldDel:       250
Vtrim:         110
VcThr:         102
VIbias_bus:    30
PHOffset:      159
Vcomp_ADC:     50
PHScale:       67
VIColOr:       100
Vcal:          200
CalDel:        103
TempRange:     0
WBC:           100
ChipContReg:   0
Readback:      1
ROC:           BPix_BpO_SEC4_LYR4_LDR13F_MOD2_ROC2
Vdd:           6
Vana:          82
Vsh:           30
Vcomp:         12
VwllPr:        150
VwllSh:        150
VHldDel:       250
Vtrim:         90
VcThr:         101
VIbias_bus:    30
PHOffset:      179
Vcomp_ADC:     50
PHScale:       80
VIColOr:       100
Vcal:          200
CalDel:        122
TempRange:     0
WBC:           100
ChipContReg:   0
Readback:      1
ROC:           BPix_BpO_SEC4_LYR4_LDR13F_MOD2_ROC3
Vdd:           6
Vana:          80
Vsh:           30
Vcomp:         12
VwllPr:        150
VwllSh:        150
VHldDel:       250
Vtrim:         92
VcThr:         100
VIbias_bus:    30
PHOffset:      157
Vcomp_ADC:     50
PHScale:       74
VIColOr:       100
Vcal:          200
CalDel:        128
TempRange:     0
WBC:           100
ChipContReg:   0
Readback:      1
ROC:           BPix_BpO_SEC4_LYR4_LDR13F_MOD2_ROC4
Vdd:           6
Vana:          97
Vsh:           30
Vcomp:         12
VwllPr:        150
VwllSh:        150
VHldDel:       250
Vtrim:         129
VcThr:         102
VIbias_bus:    30
PHOffset:      164
Vcomp_ADC:     50
PHScale:       77
VIColOr:       100
Vcal:          200
CalDel:        123
TempRange:     0
WBC:           100
ChipContReg:   0
Readback:      1
ROC:           BPix_BpO_SEC4_LYR4_LDR13F_MOD2_ROC5
Vdd:           6
Vana:          84
Vsh:           30
Vcomp:         12
VwllPr:        150
VwllSh:        150
VHldDel:       250
Vtrim:         99
VcThr:         97
VIbias_bus:    30
PHOffset:      162
Vcomp_ADC:     50
PHScale:       77
VIColOr:       100
Vcal:          200
CalDel:        113
TempRange:     0
WBC:           100
ChipContReg:   0
Readback:      1
ROC:           BPix_BpO_SEC4_LYR4_LDR13F_MOD2_ROC6
Vdd:           6
Vana:          79
Vsh:           30
Vcomp:         12
VwllPr:        150
VwllSh:        150
VHldDel:       250
Vtrim:         104
VcThr:         101
VIbias_bus:    30
PHOffset:      151
Vcomp_ADC:     50
PHScale:       78
VIColOr:       100
Vcal:          200
CalDel:        109
TempRange:     0
WBC:           100
ChipContReg:   0
Readback:      1
ROC:           BPix_BpO_SEC4_LYR4_LDR13F_MOD2_ROC7
Vdd:           6
Vana:          81
Vsh:           30
Vcomp:         12
VwllPr:        150
VwllSh:        150
VHldDel:       250
Vtrim:         105
VcThr:         105
VIbias_bus:    30
PHOffset:      159
Vcomp_ADC:     50
PHScale:       71
VIColOr:       100
Vcal:          200
CalDel:        118
TempRange:     0
WBC:           100
ChipContReg:   0
Readback:      1
ROC:           BPix_BpO_SEC4_LYR4_LDR13F_MOD2_ROC8
Vdd:           6
Vana:          86
Vsh:           30
Vcomp:         12
VwllPr:        150
VwllSh:        150
VHldDel:       250
Vtrim:         95
VcThr:         88
VIbias_bus:    30
PHOffset:      156
Vcomp_ADC:     50
PHScale:       78
VIColOr:       100
Vcal:          200
CalDel:        115
TempRange:     0
WBC:           100
ChipContReg:   0
Readback:      1
ROC:           BPix_BpO_SEC4_LYR4_LDR13F_MOD2_ROC9
Vdd:           6
Vana:          79
Vsh:           30
Vcomp:         12
VwllPr:        150
VwllSh:        150
VHldDel:       250
Vtrim:         92
VcThr:         84
VIbias_bus:    30
PHOffset:      144
Vcomp_ADC:     50
PHScale:       82
VIColOr:       100
Vcal:          200
CalDel:        113
TempRange:     0
WBC:           100
ChipContReg:   0
Readback:      1
ROC:           BPix_BpO_SEC4_LYR4_LDR13F_MOD2_ROC10
Vdd:           6
Vana:          79
Vsh:           30
Vcomp:         12
VwllPr:        150
VwllSh:        150
VHldDel:       250
Vtrim:         102
VcThr:         96
VIbias_bus:    30
PHOffset:      154
Vcomp_ADC:     50
PHScale:       70
VIColOr:       100
Vcal:          200
CalDel:        126
TempRange:     0
WBC:           100
ChipContReg:   0
Readback:      1
ROC:           BPix_BpO_SEC4_LYR4_LDR13F_MOD2_ROC11
Vdd:           6
Vana:          89
Vsh:           30
Vcomp:         12
VwllPr:        150
VwllSh:        150
VHldDel:       250
Vtrim:         115
VcThr:         100
VIbias_bus:    30
PHOffset:      172
Vcomp_ADC:     50
PHScale:       82
VIColOr:       100
Vcal:          200
CalDel:        110
TempRange:     0
WBC:           100
ChipContReg:   0
Readback:      1
ROC:           BPix_BpO_SEC4_LYR4_LDR13F_MOD2_ROC12
Vdd:           6
Vana:          86
Vsh:           30
Vcomp:         12
VwllPr:        150
VwllSh:        150
VHldDel:       250
Vtrim:         95
VcThr:         95
VIbias_bus:    30
PHOffset:      143
Vcomp_ADC:     50
PHScale:       78
VIColOr:       100
Vcal:          200
CalDel:        119
TempRange:     0
WBC:           100
ChipContReg:   0
Readback:      1
ROC:           BPix_BpO_SEC4_LYR4_LDR13F_MOD2_ROC13
Vdd:           6
Vana:          81
Vsh:           30
Vcomp:         12
VwllPr:        150
VwllSh:        150
VHldDel:       250
Vtrim:         98
VcThr:         95
VIbias_bus:    30
PHOffset:      165
Vcomp_ADC:     50
PHScale:       82
VIColOr:       100
Vcal:          200
CalDel:        121
TempRange:     0
WBC:           100
ChipContReg:   0
Readback:      1
ROC:           BPix_BpO_SEC4_LYR4_LDR13F_MOD2_ROC14
Vdd:           6
Vana:          79
Vsh:           30
Vcomp:         12
VwllPr:        150
VwllSh:        150
VHldDel:       250
Vtrim:         84
VcThr:         81
VIbias_bus:    30
PHOffset:      160
Vcomp_ADC:     50
PHScale:       79
VIColOr:       100
Vcal:          200
CalDel:        156
TempRange:     0
WBC:           100
ChipContReg:   0
Readback:      1
ROC:           BPix_BpO_SEC4_LYR4_LDR13F_MOD2_ROC15
Vdd:           6
Vana:          69
Vsh:           30
Vcomp:         12
VwllPr:        150
VwllSh:        150
VHldDel:       250
Vtrim:         99
VcThr:         90
VIbias_bus:    30
PHOffset:      153
Vcomp_ADC:     50
PHScale:       79
VIColOr:       100
Vcal:          200
CalDel:        135
TempRange:     0
WBC:           100
ChipContReg:   0
Readback:      1
