ROC:           BPix_BpO_SEC3_LYR3_LDR6F_MOD3_ROC0
Vdd:           6
Vana:          68
Vsh:           30
Vcomp:         12
VwllPr:        150
VwllSh:        150
VHldDel:       250
Vtrim:         89
VcThr:         92
VIbias_bus:    30
PHOffset:      157
Vcomp_ADC:     50
PHScale:       76
VIColOr:       100
Vcal:          255
CalDel:        151
TempRange:     0
WBC:           100
ChipContReg:   0
Readback:      1
ROC:           BPix_BpO_SEC3_LYR3_LDR6F_MOD3_ROC1
Vdd:           6
Vana:          86
Vsh:           30
Vcomp:         12
VwllPr:        150
VwllSh:        150
VHldDel:       250
Vtrim:         80
VcThr:         101
VIbias_bus:    30
PHOffset:      158
Vcomp_ADC:     50
PHScale:       80
VIColOr:       100
Vcal:          255
CalDel:        150
TempRange:     0
WBC:           100
ChipContReg:   0
Readback:      1
ROC:           BPix_BpO_SEC3_LYR3_LDR6F_MOD3_ROC2
Vdd:           6
Vana:          78
Vsh:           30
Vcomp:         12
VwllPr:        150
VwllSh:        150
VHldDel:       250
Vtrim:         89
VcThr:         86
VIbias_bus:    30
PHOffset:      144
Vcomp_ADC:     50
PHScale:       80
VIColOr:       100
Vcal:          255
CalDel:        152
TempRange:     0
WBC:           100
ChipContReg:   0
Readback:      1
ROC:           BPix_BpO_SEC3_LYR3_LDR6F_MOD3_ROC3
Vdd:           6
Vana:          78
Vsh:           30
Vcomp:         12
VwllPr:        150
VwllSh:        150
VHldDel:       250
Vtrim:         96
VcThr:         92
VIbias_bus:    30
PHOffset:      144
Vcomp_ADC:     50
PHScale:       80
VIColOr:       100
Vcal:          255
CalDel:        140
TempRange:     0
WBC:           100
ChipContReg:   0
Readback:      1
ROC:           BPix_BpO_SEC3_LYR3_LDR6F_MOD3_ROC4
Vdd:           6
Vana:          78
Vsh:           30
Vcomp:         12
VwllPr:        150
VwllSh:        150
VHldDel:       250
Vtrim:         108
VcThr:         108
VIbias_bus:    30
PHOffset:      161
Vcomp_ADC:     50
PHScale:       81
VIColOr:       100
Vcal:          255
CalDel:        127
TempRange:     0
WBC:           100
ChipContReg:   0
Readback:      1
ROC:           BPix_BpO_SEC3_LYR3_LDR6F_MOD3_ROC5
Vdd:           6
Vana:          81
Vsh:           30
Vcomp:         12
VwllPr:        150
VwllSh:        150
VHldDel:       250
Vtrim:         83
VcThr:         91
VIbias_bus:    30
PHOffset:      167
Vcomp_ADC:     50
PHScale:       80
VIColOr:       100
Vcal:          255
CalDel:        171
TempRange:     0
WBC:           100
ChipContReg:   0
Readback:      1
ROC:           BPix_BpO_SEC3_LYR3_LDR6F_MOD3_ROC6
Vdd:           6
Vana:          91
Vsh:           30
Vcomp:         12
VwllPr:        150
VwllSh:        150
VHldDel:       250
Vtrim:         206
VcThr:         89
VIbias_bus:    30
PHOffset:      149
Vcomp_ADC:     50
PHScale:       71
VIColOr:       100
Vcal:          255
CalDel:        154
TempRange:     0
WBC:           100
ChipContReg:   0
Readback:      1
ROC:           BPix_BpO_SEC3_LYR3_LDR6F_MOD3_ROC7
Vdd:           6
Vana:          72
Vsh:           30
Vcomp:         12
VwllPr:        150
VwllSh:        150
VHldDel:       250
Vtrim:         94
VcThr:         91
VIbias_bus:    30
PHOffset:      147
Vcomp_ADC:     50
PHScale:       79
VIColOr:       100
Vcal:          255
CalDel:        141
TempRange:     0
WBC:           100
ChipContReg:   0
Readback:      1
ROC:           BPix_BpO_SEC3_LYR3_LDR6F_MOD3_ROC8
Vdd:           6
Vana:          78
Vsh:           30
Vcomp:         12
VwllPr:        150
VwllSh:        150
VHldDel:       250
Vtrim:         96
VcThr:         90
VIbias_bus:    30
PHOffset:      150
Vcomp_ADC:     50
PHScale:       78
VIColOr:       100
Vcal:          255
CalDel:        156
TempRange:     0
WBC:           100
ChipContReg:   0
Readback:      1
ROC:           BPix_BpO_SEC3_LYR3_LDR6F_MOD3_ROC9
Vdd:           6
Vana:          78
Vsh:           30
Vcomp:         12
VwllPr:        150
VwllSh:        150
VHldDel:       250
Vtrim:         97
VcThr:         89
VIbias_bus:    30
PHOffset:      143
Vcomp_ADC:     50
PHScale:       79
VIColOr:       100
Vcal:          255
CalDel:        126
TempRange:     0
WBC:           100
ChipContReg:   0
Readback:      1
ROC:           BPix_BpO_SEC3_LYR3_LDR6F_MOD3_ROC10
Vdd:           6
Vana:          77
Vsh:           30
Vcomp:         12
VwllPr:        150
VwllSh:        150
VHldDel:       250
Vtrim:         96
VcThr:         98
VIbias_bus:    30
PHOffset:      145
Vcomp_ADC:     50
PHScale:       82
VIColOr:       100
Vcal:          255
CalDel:        117
TempRange:     0
WBC:           100
ChipContReg:   0
Readback:      1
ROC:           BPix_BpO_SEC3_LYR3_LDR6F_MOD3_ROC11
Vdd:           6
Vana:          82
Vsh:           30
Vcomp:         12
VwllPr:        150
VwllSh:        150
VHldDel:       250
Vtrim:         103
VcThr:         94
VIbias_bus:    30
PHOffset:      157
Vcomp_ADC:     50
PHScale:       73
VIColOr:       100
Vcal:          255
CalDel:        157
TempRange:     0
WBC:           100
ChipContReg:   0
Readback:      1
ROC:           BPix_BpO_SEC3_LYR3_LDR6F_MOD3_ROC12
Vdd:           6
Vana:          78
Vsh:           30
Vcomp:         12
VwllPr:        150
VwllSh:        150
VHldDel:       250
Vtrim:         94
VcThr:         84
VIbias_bus:    30
PHOffset:      146
Vcomp_ADC:     50
PHScale:       82
VIColOr:       100
Vcal:          255
CalDel:        150
TempRange:     0
WBC:           100
ChipContReg:   0
Readback:      1
ROC:           BPix_BpO_SEC3_LYR3_LDR6F_MOD3_ROC13
Vdd:           6
Vana:          73
Vsh:           30
Vcomp:         12
VwllPr:        150
VwllSh:        150
VHldDel:       250
Vtrim:         79
VcThr:         84
VIbias_bus:    30
PHOffset:      141
Vcomp_ADC:     50
PHScale:       82
VIColOr:       100
Vcal:          255
CalDel:        163
TempRange:     0
WBC:           100
ChipContReg:   0
Readback:      1
ROC:           BPix_BpO_SEC3_LYR3_LDR6F_MOD3_ROC14
Vdd:           6
Vana:          68
Vsh:           30
Vcomp:         12
VwllPr:        150
VwllSh:        150
VHldDel:       250
Vtrim:         87
VcThr:         88
VIbias_bus:    30
PHOffset:      147
Vcomp_ADC:     50
PHScale:       78
VIColOr:       100
Vcal:          255
CalDel:        162
TempRange:     0
WBC:           100
ChipContReg:   0
Readback:      1
ROC:           BPix_BpO_SEC3_LYR3_LDR6F_MOD3_ROC15
Vdd:           6
Vana:          81
Vsh:           30
Vcomp:         12
VwllPr:        150
VwllSh:        150
VHldDel:       250
Vtrim:         88
VcThr:         96
VIbias_bus:    30
PHOffset:      159
Vcomp_ADC:     50
PHScale:       79
VIColOr:       100
Vcal:          255
CalDel:        129
TempRange:     0
WBC:           100
ChipContReg:   0
Readback:      1
