ROC:           BPix_BpI_SEC2_LYR4_LDR8F_MOD3_ROC0
Vdd:           6
Vana:          106
Vsh:           30
Vcomp:         12
VwllPr:        150
VwllSh:        150
VHldDel:       250
Vtrim:         137
VcThr:         102
VIbias_bus:    30
PHOffset:      175
Vcomp_ADC:     50
PHScale:       82
VIColOr:       100
Vcal:          200
CalDel:        121
TempRange:     0
WBC:           100
ChipContReg:   0
Readback:      1
ROC:           BPix_BpI_SEC2_LYR4_LDR8F_MOD3_ROC1
Vdd:           6
Vana:          94
Vsh:           30
Vcomp:         12
VwllPr:        150
VwllSh:        150
VHldDel:       250
Vtrim:         106
VcThr:         101
VIbias_bus:    30
PHOffset:      148
Vcomp_ADC:     50
PHScale:       68
VIColOr:       100
Vcal:          200
CalDel:        129
TempRange:     0
WBC:           100
ChipContReg:   0
Readback:      1
ROC:           BPix_BpI_SEC2_LYR4_LDR8F_MOD3_ROC2
Vdd:           6
Vana:          82
Vsh:           30
Vcomp:         12
VwllPr:        150
VwllSh:        150
VHldDel:       250
Vtrim:         110
VcThr:         109
VIbias_bus:    30
PHOffset:      163
Vcomp_ADC:     50
PHScale:       83
VIColOr:       100
Vcal:          200
CalDel:        135
TempRange:     0
WBC:           100
ChipContReg:   0
Readback:      1
ROC:           BPix_BpI_SEC2_LYR4_LDR8F_MOD3_ROC3
Vdd:           6
Vana:          96
Vsh:           30
Vcomp:         12
VwllPr:        150
VwllSh:        150
VHldDel:       250
Vtrim:         122
VcThr:         109
VIbias_bus:    30
PHOffset:      160
Vcomp_ADC:     50
PHScale:       69
VIColOr:       100
Vcal:          200
CalDel:        132
TempRange:     0
WBC:           100
ChipContReg:   0
Readback:      1
ROC:           BPix_BpI_SEC2_LYR4_LDR8F_MOD3_ROC4
Vdd:           6
Vana:          98
Vsh:           30
Vcomp:         12
VwllPr:        150
VwllSh:        150
VHldDel:       250
Vtrim:         102
VcThr:         94
VIbias_bus:    30
PHOffset:      157
Vcomp_ADC:     50
PHScale:       80
VIColOr:       100
Vcal:          200
CalDel:        148
TempRange:     0
WBC:           100
ChipContReg:   0
Readback:      1
ROC:           BPix_BpI_SEC2_LYR4_LDR8F_MOD3_ROC5
Vdd:           6
Vana:          92
Vsh:           30
Vcomp:         12
VwllPr:        150
VwllSh:        150
VHldDel:       250
Vtrim:         118
VcThr:         108
VIbias_bus:    30
PHOffset:      161
Vcomp_ADC:     50
PHScale:       77
VIColOr:       100
Vcal:          200
CalDel:        137
TempRange:     0
WBC:           100
ChipContReg:   0
Readback:      1
ROC:           BPix_BpI_SEC2_LYR4_LDR8F_MOD3_ROC6
Vdd:           6
Vana:          93
Vsh:           30
Vcomp:         12
VwllPr:        150
VwllSh:        150
VHldDel:       250
Vtrim:         96
VcThr:         98
VIbias_bus:    30
PHOffset:      180
Vcomp_ADC:     50
PHScale:       76
VIColOr:       100
Vcal:          200
CalDel:        135
TempRange:     0
WBC:           100
ChipContReg:   0
Readback:      1
ROC:           BPix_BpI_SEC2_LYR4_LDR8F_MOD3_ROC7
Vdd:           6
Vana:          93
Vsh:           30
Vcomp:         12
VwllPr:        150
VwllSh:        150
VHldDel:       250
Vtrim:         100
VcThr:         105
VIbias_bus:    30
PHOffset:      161
Vcomp_ADC:     50
PHScale:       78
VIColOr:       100
Vcal:          200
CalDel:        139
TempRange:     0
WBC:           100
ChipContReg:   0
Readback:      1
ROC:           BPix_BpI_SEC2_LYR4_LDR8F_MOD3_ROC8
Vdd:           6
Vana:          80
Vsh:           30
Vcomp:         12
VwllPr:        150
VwllSh:        150
VHldDel:       250
Vtrim:         104
VcThr:         99
VIbias_bus:    30
PHOffset:      148
Vcomp_ADC:     50
PHScale:       77
VIColOr:       100
Vcal:          200
CalDel:        162
TempRange:     0
WBC:           100
ChipContReg:   0
Readback:      1
ROC:           BPix_BpI_SEC2_LYR4_LDR8F_MOD3_ROC9
Vdd:           6
Vana:          91
Vsh:           30
Vcomp:         12
VwllPr:        150
VwllSh:        150
VHldDel:       250
Vtrim:         111
VcThr:         103
VIbias_bus:    30
PHOffset:      186
Vcomp_ADC:     50
PHScale:       75
VIColOr:       100
Vcal:          200
CalDel:        133
TempRange:     0
WBC:           100
ChipContReg:   0
Readback:      1
ROC:           BPix_BpI_SEC2_LYR4_LDR8F_MOD3_ROC10
Vdd:           6
Vana:          93
Vsh:           30
Vcomp:         12
VwllPr:        150
VwllSh:        150
VHldDel:       250
Vtrim:         115
VcThr:         108
VIbias_bus:    30
PHOffset:      164
Vcomp_ADC:     50
PHScale:       82
VIColOr:       100
Vcal:          200
CalDel:        129
TempRange:     0
WBC:           100
ChipContReg:   0
Readback:      1
ROC:           BPix_BpI_SEC2_LYR4_LDR8F_MOD3_ROC11
Vdd:           6
Vana:          87
Vsh:           30
Vcomp:         12
VwllPr:        150
VwllSh:        150
VHldDel:       250
Vtrim:         148
VcThr:         111
VIbias_bus:    30
PHOffset:      163
Vcomp_ADC:     50
PHScale:       71
VIColOr:       100
Vcal:          200
CalDel:        126
TempRange:     0
WBC:           100
ChipContReg:   0
Readback:      1
ROC:           BPix_BpI_SEC2_LYR4_LDR8F_MOD3_ROC12
Vdd:           6
Vana:          98
Vsh:           30
Vcomp:         12
VwllPr:        150
VwllSh:        150
VHldDel:       250
Vtrim:         119
VcThr:         105
VIbias_bus:    30
PHOffset:      163
Vcomp_ADC:     50
PHScale:       70
VIColOr:       100
Vcal:          200
CalDel:        116
TempRange:     0
WBC:           100
ChipContReg:   0
Readback:      1
ROC:           BPix_BpI_SEC2_LYR4_LDR8F_MOD3_ROC13
Vdd:           6
Vana:          91
Vsh:           30
Vcomp:         12
VwllPr:        150
VwllSh:        150
VHldDel:       250
Vtrim:         101
VcThr:         95
VIbias_bus:    30
PHOffset:      147
Vcomp_ADC:     50
PHScale:       80
VIColOr:       100
Vcal:          200
CalDel:        137
TempRange:     0
WBC:           100
ChipContReg:   0
Readback:      1
ROC:           BPix_BpI_SEC2_LYR4_LDR8F_MOD3_ROC14
Vdd:           6
Vana:          76
Vsh:           30
Vcomp:         12
VwllPr:        150
VwllSh:        150
VHldDel:       250
Vtrim:         118
VcThr:         90
VIbias_bus:    30
PHOffset:      158
Vcomp_ADC:     50
PHScale:       80
VIColOr:       100
Vcal:          200
CalDel:        131
TempRange:     0
WBC:           100
ChipContReg:   0
Readback:      1
ROC:           BPix_BpI_SEC2_LYR4_LDR8F_MOD3_ROC15
Vdd:           6
Vana:          84
Vsh:           30
Vcomp:         12
VwllPr:        150
VwllSh:        150
VHldDel:       250
Vtrim:         115
VcThr:         98
VIbias_bus:    30
PHOffset:      175
Vcomp_ADC:     50
PHScale:       74
VIColOr:       100
Vcal:          200
CalDel:        132
TempRange:     0
WBC:           100
ChipContReg:   0
Readback:      1
