ROC:           BPix_BpI_SEC6_LYR1_LDR5H_MOD4_ROC4
Vdd:           6
Vana:          78
Vsh:           30
Vcomp:         12
VwllPr:        150
VwllSh:        150
VHldDel:       250
Vtrim:         168
VcThr:         129
VIbias_bus:    30
PHOffset:      111
Vcomp_ADC:     50
PHScale:       55
VIColOr:       100
Vcal:          200
CalDel:        81
TempRange:     0
WBC:           100
ChipContReg:   0
Readback:      1
ROC:           BPix_BpI_SEC6_LYR1_LDR5H_MOD4_ROC5
Vdd:           6
Vana:          73
Vsh:           30
Vcomp:         12
VwllPr:        150
VwllSh:        150
VHldDel:       250
Vtrim:         140
VcThr:         122
VIbias_bus:    30
PHOffset:      112
Vcomp_ADC:     50
PHScale:       64
VIColOr:       100
Vcal:          200
CalDel:        91
TempRange:     0
WBC:           100
ChipContReg:   0
Readback:      1
ROC:           BPix_BpI_SEC6_LYR1_LDR5H_MOD4_ROC6
Vdd:           6
Vana:          73
Vsh:           30
Vcomp:         12
VwllPr:        150
VwllSh:        150
VHldDel:       250
Vtrim:         140
VcThr:         109
VIbias_bus:    30
PHOffset:      115
Vcomp_ADC:     50
PHScale:       69
VIColOr:       100
Vcal:          200
CalDel:        115
TempRange:     0
WBC:           100
ChipContReg:   0
Readback:      1
ROC:           BPix_BpI_SEC6_LYR1_LDR5H_MOD4_ROC7
Vdd:           6
Vana:          73
Vsh:           30
Vcomp:         12
VwllPr:        150
VwllSh:        150
VHldDel:       250
Vtrim:         168
VcThr:         109
VIbias_bus:    30
PHOffset:      101
Vcomp_ADC:     50
PHScale:       48
VIColOr:       100
Vcal:          200
CalDel:        106
TempRange:     0
WBC:           100
ChipContReg:   0
Readback:      1
ROC:           BPix_BpI_SEC6_LYR1_LDR5H_MOD4_ROC8
Vdd:           6
Vana:          69
Vsh:           30
Vcomp:         12
VwllPr:        150
VwllSh:        150
VHldDel:       250
Vtrim:         165
VcThr:         131
VIbias_bus:    30
PHOffset:      96
Vcomp_ADC:     50
PHScale:       53
VIColOr:       100
Vcal:          200
CalDel:        101
TempRange:     0
WBC:           100
ChipContReg:   0
Readback:      1
ROC:           BPix_BpI_SEC6_LYR1_LDR5H_MOD4_ROC9
Vdd:           6
Vana:          78
Vsh:           30
Vcomp:         12
VwllPr:        150
VwllSh:        150
VHldDel:       250
Vtrim:         132
VcThr:         110
VIbias_bus:    30
PHOffset:      111
Vcomp_ADC:     50
PHScale:       52
VIColOr:       100
Vcal:          200
CalDel:        103
TempRange:     0
WBC:           100
ChipContReg:   0
Readback:      1
ROC:           BPix_BpI_SEC6_LYR1_LDR5H_MOD4_ROC10
Vdd:           6
Vana:          77
Vsh:           30
Vcomp:         12
VwllPr:        150
VwllSh:        150
VHldDel:       250
Vtrim:         149
VcThr:         117
VIbias_bus:    30
PHOffset:      110
Vcomp_ADC:     50
PHScale:       55
VIColOr:       100
Vcal:          200
CalDel:        106
TempRange:     0
WBC:           100
ChipContReg:   0
Readback:      1
ROC:           BPix_BpI_SEC6_LYR1_LDR5H_MOD4_ROC11
Vdd:           6
Vana:          77
Vsh:           30
Vcomp:         12
VwllPr:        150
VwllSh:        150
VHldDel:       250
Vtrim:         130
VcThr:         117
VIbias_bus:    30
PHOffset:      98
Vcomp_ADC:     50
PHScale:       48
VIColOr:       100
Vcal:          200
CalDel:        95
TempRange:     0
WBC:           100
ChipContReg:   0
Readback:      1
