ROC:           BPix_BpO_SEC7_LYR3_LDR20F_MOD4_ROC0
Vdd:           6
Vana:          73
Vsh:           30
Vcomp:         12
VwllPr:        150
VwllSh:        150
VHldDel:       250
Vtrim:         123
VcThr:         105
VIbias_bus:    30
PHOffset:      164
Vcomp_ADC:     50
PHScale:       80
VIColOr:       100
Vcal:          255
CalDel:        132
TempRange:     0
WBC:           100
ChipContReg:   0
Readback:      1
ROC:           BPix_BpO_SEC7_LYR3_LDR20F_MOD4_ROC1
Vdd:           6
Vana:          83
Vsh:           30
Vcomp:         12
VwllPr:        150
VwllSh:        150
VHldDel:       250
Vtrim:         95
VcThr:         100
VIbias_bus:    30
PHOffset:      162
Vcomp_ADC:     50
PHScale:       87
VIColOr:       100
Vcal:          255
CalDel:        97
TempRange:     0
WBC:           100
ChipContReg:   0
Readback:      1
ROC:           BPix_BpO_SEC7_LYR3_LDR20F_MOD4_ROC2
Vdd:           6
Vana:          77
Vsh:           30
Vcomp:         12
VwllPr:        150
VwllSh:        150
VHldDel:       250
Vtrim:         95
VcThr:         82
VIbias_bus:    30
PHOffset:      160
Vcomp_ADC:     50
PHScale:       77
VIColOr:       100
Vcal:          255
CalDel:        159
TempRange:     0
WBC:           100
ChipContReg:   0
Readback:      1
ROC:           BPix_BpO_SEC7_LYR3_LDR20F_MOD4_ROC3
Vdd:           6
Vana:          92
Vsh:           30
Vcomp:         12
VwllPr:        150
VwllSh:        150
VHldDel:       250
Vtrim:         99
VcThr:         83
VIbias_bus:    30
PHOffset:      154
Vcomp_ADC:     50
PHScale:       92
VIColOr:       100
Vcal:          255
CalDel:        141
TempRange:     0
WBC:           100
ChipContReg:   0
Readback:      1
ROC:           BPix_BpO_SEC7_LYR3_LDR20F_MOD4_ROC4
Vdd:           6
Vana:          77
Vsh:           30
Vcomp:         12
VwllPr:        150
VwllSh:        150
VHldDel:       250
Vtrim:         126
VcThr:         101
VIbias_bus:    30
PHOffset:      174
Vcomp_ADC:     50
PHScale:       78
VIColOr:       100
Vcal:          255
CalDel:        137
TempRange:     0
WBC:           100
ChipContReg:   0
Readback:      1
ROC:           BPix_BpO_SEC7_LYR3_LDR20F_MOD4_ROC5
Vdd:           6
Vana:          83
Vsh:           30
Vcomp:         12
VwllPr:        150
VwllSh:        150
VHldDel:       250
Vtrim:         102
VcThr:         98
VIbias_bus:    30
PHOffset:      159
Vcomp_ADC:     50
PHScale:       95
VIColOr:       100
Vcal:          255
CalDel:        121
TempRange:     0
WBC:           100
ChipContReg:   0
Readback:      1
ROC:           BPix_BpO_SEC7_LYR3_LDR20F_MOD4_ROC6
Vdd:           6
Vana:          77
Vsh:           30
Vcomp:         12
VwllPr:        150
VwllSh:        150
VHldDel:       250
Vtrim:         107
VcThr:         89
VIbias_bus:    30
PHOffset:      157
Vcomp_ADC:     50
PHScale:       83
VIColOr:       100
Vcal:          255
CalDel:        144
TempRange:     0
WBC:           100
ChipContReg:   0
Readback:      1
ROC:           BPix_BpO_SEC7_LYR3_LDR20F_MOD4_ROC7
Vdd:           6
Vana:          84
Vsh:           30
Vcomp:         12
VwllPr:        150
VwllSh:        150
VHldDel:       250
Vtrim:         100
VcThr:         89
VIbias_bus:    30
PHOffset:      159
Vcomp_ADC:     50
PHScale:       85
VIColOr:       100
Vcal:          255
CalDel:        145
TempRange:     0
WBC:           100
ChipContReg:   0
Readback:      1
ROC:           BPix_BpO_SEC7_LYR3_LDR20F_MOD4_ROC8
Vdd:           6
Vana:          88
Vsh:           30
Vcomp:         12
VwllPr:        150
VwllSh:        150
VHldDel:       250
Vtrim:         97
VcThr:         99
VIbias_bus:    30
PHOffset:      151
Vcomp_ADC:     50
PHScale:       86
VIColOr:       100
Vcal:          255
CalDel:        115
TempRange:     0
WBC:           100
ChipContReg:   0
Readback:      1
ROC:           BPix_BpO_SEC7_LYR3_LDR20F_MOD4_ROC9
Vdd:           6
Vana:          87
Vsh:           30
Vcomp:         12
VwllPr:        150
VwllSh:        150
VHldDel:       250
Vtrim:         101
VcThr:         91
VIbias_bus:    30
PHOffset:      160
Vcomp_ADC:     50
PHScale:       83
VIColOr:       100
Vcal:          255
CalDel:        132
TempRange:     0
WBC:           100
ChipContReg:   0
Readback:      1
ROC:           BPix_BpO_SEC7_LYR3_LDR20F_MOD4_ROC10
Vdd:           6
Vana:          73
Vsh:           30
Vcomp:         12
VwllPr:        150
VwllSh:        150
VHldDel:       250
Vtrim:         99
VcThr:         96
VIbias_bus:    30
PHOffset:      144
Vcomp_ADC:     50
PHScale:       99
VIColOr:       100
Vcal:          255
CalDel:        121
TempRange:     0
WBC:           100
ChipContReg:   0
Readback:      1
ROC:           BPix_BpO_SEC7_LYR3_LDR20F_MOD4_ROC11
Vdd:           6
Vana:          87
Vsh:           30
Vcomp:         12
VwllPr:        150
VwllSh:        150
VHldDel:       250
Vtrim:         98
VcThr:         89
VIbias_bus:    30
PHOffset:      167
Vcomp_ADC:     50
PHScale:       91
VIColOr:       100
Vcal:          255
CalDel:        126
TempRange:     0
WBC:           100
ChipContReg:   0
Readback:      1
ROC:           BPix_BpO_SEC7_LYR3_LDR20F_MOD4_ROC12
Vdd:           6
Vana:          92
Vsh:           30
Vcomp:         12
VwllPr:        150
VwllSh:        150
VHldDel:       250
Vtrim:         110
VcThr:         93
VIbias_bus:    30
PHOffset:      153
Vcomp_ADC:     50
PHScale:       86
VIColOr:       100
Vcal:          255
CalDel:        132
TempRange:     0
WBC:           100
ChipContReg:   0
Readback:      1
ROC:           BPix_BpO_SEC7_LYR3_LDR20F_MOD4_ROC13
Vdd:           6
Vana:          78
Vsh:           30
Vcomp:         12
VwllPr:        150
VwllSh:        150
VHldDel:       250
Vtrim:         99
VcThr:         87
VIbias_bus:    30
PHOffset:      151
Vcomp_ADC:     50
PHScale:       89
VIColOr:       100
Vcal:          255
CalDel:        150
TempRange:     0
WBC:           100
ChipContReg:   0
Readback:      1
ROC:           BPix_BpO_SEC7_LYR3_LDR20F_MOD4_ROC14
Vdd:           6
Vana:          78
Vsh:           30
Vcomp:         12
VwllPr:        150
VwllSh:        150
VHldDel:       250
Vtrim:         111
VcThr:         91
VIbias_bus:    30
PHOffset:      153
Vcomp_ADC:     50
PHScale:       82
VIColOr:       100
Vcal:          255
CalDel:        128
TempRange:     0
WBC:           100
ChipContReg:   0
Readback:      1
ROC:           BPix_BpO_SEC7_LYR3_LDR20F_MOD4_ROC15
Vdd:           6
Vana:          77
Vsh:           30
Vcomp:         12
VwllPr:        150
VwllSh:        150
VHldDel:       250
Vtrim:         93
VcThr:         88
VIbias_bus:    30
PHOffset:      144
Vcomp_ADC:     50
PHScale:       86
VIColOr:       100
Vcal:          255
CalDel:        139
TempRange:     0
WBC:           100
ChipContReg:   0
Readback:      1
