ROC:           BPix_BmO_SEC3_LYR4_LDR10F_MOD1_ROC0
Vdd:           6
Vana:          75
Vsh:           30
Vcomp:         12
VwllPr:        150
VwllSh:        150
VHldDel:       250
Vtrim:         103
VcThr:         90
VIbias_bus:    30
PHOffset:      159
Vcomp_ADC:     50
PHScale:       80
VIColOr:       100
Vcal:          200
CalDel:        146
TempRange:     0
WBC:           100
ChipContReg:   0
Readback:      1
ROC:           BPix_BmO_SEC3_LYR4_LDR10F_MOD1_ROC1
Vdd:           6
Vana:          80
Vsh:           30
Vcomp:         12
VwllPr:        150
VwllSh:        150
VHldDel:       250
Vtrim:         93
VcThr:         94
VIbias_bus:    30
PHOffset:      153
Vcomp_ADC:     50
PHScale:       74
VIColOr:       100
Vcal:          200
CalDel:        153
TempRange:     0
WBC:           100
ChipContReg:   0
Readback:      1
ROC:           BPix_BmO_SEC3_LYR4_LDR10F_MOD1_ROC2
Vdd:           6
Vana:          85
Vsh:           30
Vcomp:         12
VwllPr:        150
VwllSh:        150
VHldDel:       250
Vtrim:         104
VcThr:         89
VIbias_bus:    30
PHOffset:      153
Vcomp_ADC:     50
PHScale:       78
VIColOr:       100
Vcal:          200
CalDel:        160
TempRange:     0
WBC:           100
ChipContReg:   0
Readback:      1
ROC:           BPix_BmO_SEC3_LYR4_LDR10F_MOD1_ROC3
Vdd:           6
Vana:          82
Vsh:           30
Vcomp:         12
VwllPr:        150
VwllSh:        150
VHldDel:       250
Vtrim:         117
VcThr:         92
VIbias_bus:    30
PHOffset:      147
Vcomp_ADC:     50
PHScale:       76
VIColOr:       100
Vcal:          200
CalDel:        157
TempRange:     0
WBC:           100
ChipContReg:   0
Readback:      1
ROC:           BPix_BmO_SEC3_LYR4_LDR10F_MOD1_ROC4
Vdd:           6
Vana:          80
Vsh:           30
Vcomp:         12
VwllPr:        150
VwllSh:        150
VHldDel:       250
Vtrim:         104
VcThr:         86
VIbias_bus:    30
PHOffset:      154
Vcomp_ADC:     50
PHScale:       75
VIColOr:       100
Vcal:          200
CalDel:        147
TempRange:     0
WBC:           100
ChipContReg:   0
Readback:      1
ROC:           BPix_BmO_SEC3_LYR4_LDR10F_MOD1_ROC5
Vdd:           6
Vana:          75
Vsh:           30
Vcomp:         12
VwllPr:        150
VwllSh:        150
VHldDel:       250
Vtrim:         109
VcThr:         83
VIbias_bus:    30
PHOffset:      155
Vcomp_ADC:     50
PHScale:       79
VIColOr:       100
Vcal:          200
CalDel:        173
TempRange:     0
WBC:           100
ChipContReg:   0
Readback:      1
ROC:           BPix_BmO_SEC3_LYR4_LDR10F_MOD1_ROC6
Vdd:           6
Vana:          78
Vsh:           30
Vcomp:         12
VwllPr:        150
VwllSh:        150
VHldDel:       250
Vtrim:         98
VcThr:         87
VIbias_bus:    30
PHOffset:      159
Vcomp_ADC:     50
PHScale:       77
VIColOr:       100
Vcal:          200
CalDel:        154
TempRange:     0
WBC:           100
ChipContReg:   0
Readback:      1
ROC:           BPix_BmO_SEC3_LYR4_LDR10F_MOD1_ROC7
Vdd:           6
Vana:          82
Vsh:           30
Vcomp:         12
VwllPr:        150
VwllSh:        150
VHldDel:       250
Vtrim:         95
VcThr:         92
VIbias_bus:    30
PHOffset:      156
Vcomp_ADC:     50
PHScale:       80
VIColOr:       100
Vcal:          200
CalDel:        126
TempRange:     0
WBC:           100
ChipContReg:   0
Readback:      1
ROC:           BPix_BmO_SEC3_LYR4_LDR10F_MOD1_ROC8
Vdd:           6
Vana:          90
Vsh:           30
Vcomp:         12
VwllPr:        150
VwllSh:        150
VHldDel:       250
Vtrim:         109
VcThr:         103
VIbias_bus:    30
PHOffset:      181
Vcomp_ADC:     50
PHScale:       79
VIColOr:       100
Vcal:          200
CalDel:        143
TempRange:     0
WBC:           100
ChipContReg:   0
Readback:      1
ROC:           BPix_BmO_SEC3_LYR4_LDR10F_MOD1_ROC9
Vdd:           6
Vana:          82
Vsh:           30
Vcomp:         12
VwllPr:        150
VwllSh:        150
VHldDel:       250
Vtrim:         83
VcThr:         81
VIbias_bus:    30
PHOffset:      160
Vcomp_ADC:     50
PHScale:       82
VIColOr:       100
Vcal:          200
CalDel:        144
TempRange:     0
WBC:           100
ChipContReg:   0
Readback:      1
ROC:           BPix_BmO_SEC3_LYR4_LDR10F_MOD1_ROC10
Vdd:           6
Vana:          72
Vsh:           30
Vcomp:         12
VwllPr:        150
VwllSh:        150
VHldDel:       250
Vtrim:         133
VcThr:         91
VIbias_bus:    30
PHOffset:      165
Vcomp_ADC:     50
PHScale:       85
VIColOr:       100
Vcal:          200
CalDel:        143
TempRange:     0
WBC:           100
ChipContReg:   0
Readback:      1
ROC:           BPix_BmO_SEC3_LYR4_LDR10F_MOD1_ROC11
Vdd:           6
Vana:          75
Vsh:           30
Vcomp:         12
VwllPr:        150
VwllSh:        150
VHldDel:       250
Vtrim:         107
VcThr:         88
VIbias_bus:    30
PHOffset:      157
Vcomp_ADC:     50
PHScale:       83
VIColOr:       100
Vcal:          200
CalDel:        149
TempRange:     0
WBC:           100
ChipContReg:   0
Readback:      1
ROC:           BPix_BmO_SEC3_LYR4_LDR10F_MOD1_ROC12
Vdd:           6
Vana:          70
Vsh:           30
Vcomp:         12
VwllPr:        150
VwllSh:        150
VHldDel:       250
Vtrim:         108
VcThr:         90
VIbias_bus:    30
PHOffset:      182
Vcomp_ADC:     50
PHScale:       75
VIColOr:       100
Vcal:          200
CalDel:        151
TempRange:     0
WBC:           100
ChipContReg:   0
Readback:      1
ROC:           BPix_BmO_SEC3_LYR4_LDR10F_MOD1_ROC13
Vdd:           6
Vana:          88
Vsh:           30
Vcomp:         12
VwllPr:        150
VwllSh:        150
VHldDel:       250
Vtrim:         93
VcThr:         84
VIbias_bus:    30
PHOffset:      171
Vcomp_ADC:     50
PHScale:       82
VIColOr:       100
Vcal:          200
CalDel:        147
TempRange:     0
WBC:           100
ChipContReg:   0
Readback:      1
ROC:           BPix_BmO_SEC3_LYR4_LDR10F_MOD1_ROC14
Vdd:           6
Vana:          88
Vsh:           30
Vcomp:         12
VwllPr:        150
VwllSh:        150
VHldDel:       250
Vtrim:         106
VcThr:         94
VIbias_bus:    30
PHOffset:      161
Vcomp_ADC:     50
PHScale:       89
VIColOr:       100
Vcal:          200
CalDel:        123
TempRange:     0
WBC:           100
ChipContReg:   0
Readback:      1
ROC:           BPix_BmO_SEC3_LYR4_LDR10F_MOD1_ROC15
Vdd:           6
Vana:          78
Vsh:           30
Vcomp:         12
VwllPr:        150
VwllSh:        150
VHldDel:       250
Vtrim:         110
VcThr:         87
VIbias_bus:    30
PHOffset:      144
Vcomp_ADC:     50
PHScale:       78
VIColOr:       100
Vcal:          200
CalDel:        143
TempRange:     0
WBC:           100
ChipContReg:   0
Readback:      1
