ROC:           BPix_BpI_SEC4_LYR3_LDR11F_MOD2_ROC0
Vdd:           6
Vana:          80
Vsh:           30
Vcomp:         12
VwllPr:        150
VwllSh:        150
VHldDel:       250
Vtrim:         100
VcThr:         94
VIbias_bus:    30
PHOffset:      153
Vcomp_ADC:     50
PHScale:       82
VIColOr:       100
Vcal:          200
CalDel:        147
TempRange:     0
WBC:           100
ChipContReg:   0
Readback:      1
ROC:           BPix_BpI_SEC4_LYR3_LDR11F_MOD2_ROC1
Vdd:           6
Vana:          86
Vsh:           30
Vcomp:         12
VwllPr:        150
VwllSh:        150
VHldDel:       250
Vtrim:         97
VcThr:         100
VIbias_bus:    30
PHOffset:      179
Vcomp_ADC:     50
PHScale:       82
VIColOr:       100
Vcal:          200
CalDel:        145
TempRange:     0
WBC:           100
ChipContReg:   0
Readback:      1
ROC:           BPix_BpI_SEC4_LYR3_LDR11F_MOD2_ROC2
Vdd:           6
Vana:          86
Vsh:           30
Vcomp:         12
VwllPr:        150
VwllSh:        150
VHldDel:       250
Vtrim:         112
VcThr:         106
VIbias_bus:    30
PHOffset:      152
Vcomp_ADC:     50
PHScale:       70
VIColOr:       100
Vcal:          200
CalDel:        124
TempRange:     0
WBC:           100
ChipContReg:   0
Readback:      1
ROC:           BPix_BpI_SEC4_LYR3_LDR11F_MOD2_ROC3
Vdd:           6
Vana:          85
Vsh:           30
Vcomp:         12
VwllPr:        150
VwllSh:        150
VHldDel:       250
Vtrim:         114
VcThr:         95
VIbias_bus:    30
PHOffset:      158
Vcomp_ADC:     50
PHScale:       80
VIColOr:       100
Vcal:          200
CalDel:        141
TempRange:     0
WBC:           100
ChipContReg:   0
Readback:      1
ROC:           BPix_BpI_SEC4_LYR3_LDR11F_MOD2_ROC4
Vdd:           6
Vana:          89
Vsh:           30
Vcomp:         12
VwllPr:        150
VwllSh:        150
VHldDel:       250
Vtrim:         123
VcThr:         102
VIbias_bus:    30
PHOffset:      159
Vcomp_ADC:     50
PHScale:       73
VIColOr:       100
Vcal:          200
CalDel:        131
TempRange:     0
WBC:           100
ChipContReg:   0
Readback:      1
ROC:           BPix_BpI_SEC4_LYR3_LDR11F_MOD2_ROC5
Vdd:           6
Vana:          84
Vsh:           30
Vcomp:         12
VwllPr:        150
VwllSh:        150
VHldDel:       250
Vtrim:         115
VcThr:         100
VIbias_bus:    30
PHOffset:      156
Vcomp_ADC:     50
PHScale:       76
VIColOr:       100
Vcal:          200
CalDel:        113
TempRange:     0
WBC:           100
ChipContReg:   0
Readback:      1
ROC:           BPix_BpI_SEC4_LYR3_LDR11F_MOD2_ROC6
Vdd:           6
Vana:          98
Vsh:           30
Vcomp:         12
VwllPr:        150
VwllSh:        150
VHldDel:       250
Vtrim:         101
VcThr:         96
VIbias_bus:    30
PHOffset:      173
Vcomp_ADC:     50
PHScale:       78
VIColOr:       100
Vcal:          200
CalDel:        154
TempRange:     0
WBC:           100
ChipContReg:   0
Readback:      1
ROC:           BPix_BpI_SEC4_LYR3_LDR11F_MOD2_ROC7
Vdd:           6
Vana:          71
Vsh:           30
Vcomp:         12
VwllPr:        150
VwllSh:        150
VHldDel:       250
Vtrim:         130
VcThr:         102
VIbias_bus:    30
PHOffset:      150
Vcomp_ADC:     50
PHScale:       83
VIColOr:       100
Vcal:          200
CalDel:        119
TempRange:     0
WBC:           100
ChipContReg:   0
Readback:      1
ROC:           BPix_BpI_SEC4_LYR3_LDR11F_MOD2_ROC8
Vdd:           6
Vana:          89
Vsh:           30
Vcomp:         12
VwllPr:        150
VwllSh:        150
VHldDel:       250
Vtrim:         128
VcThr:         92
VIbias_bus:    30
PHOffset:      151
Vcomp_ADC:     50
PHScale:       78
VIColOr:       100
Vcal:          200
CalDel:        120
TempRange:     0
WBC:           100
ChipContReg:   0
Readback:      1
ROC:           BPix_BpI_SEC4_LYR3_LDR11F_MOD2_ROC9
Vdd:           6
Vana:          85
Vsh:           30
Vcomp:         12
VwllPr:        150
VwllSh:        150
VHldDel:       250
Vtrim:         129
VcThr:         100
VIbias_bus:    30
PHOffset:      169
Vcomp_ADC:     50
PHScale:       73
VIColOr:       100
Vcal:          200
CalDel:        108
TempRange:     0
WBC:           100
ChipContReg:   0
Readback:      1
ROC:           BPix_BpI_SEC4_LYR3_LDR11F_MOD2_ROC10
Vdd:           6
Vana:          94
Vsh:           30
Vcomp:         12
VwllPr:        150
VwllSh:        150
VHldDel:       250
Vtrim:         104
VcThr:         96
VIbias_bus:    30
PHOffset:      157
Vcomp_ADC:     50
PHScale:       74
VIColOr:       100
Vcal:          200
CalDel:        133
TempRange:     0
WBC:           100
ChipContReg:   0
Readback:      1
ROC:           BPix_BpI_SEC4_LYR3_LDR11F_MOD2_ROC11
Vdd:           6
Vana:          85
Vsh:           30
Vcomp:         12
VwllPr:        150
VwllSh:        150
VHldDel:       250
Vtrim:         149
VcThr:         108
VIbias_bus:    30
PHOffset:      176
Vcomp_ADC:     50
PHScale:       73
VIColOr:       100
Vcal:          200
CalDel:        126
TempRange:     0
WBC:           100
ChipContReg:   0
Readback:      1
ROC:           BPix_BpI_SEC4_LYR3_LDR11F_MOD2_ROC12
Vdd:           6
Vana:          90
Vsh:           30
Vcomp:         12
VwllPr:        150
VwllSh:        150
VHldDel:       250
Vtrim:         107
VcThr:         91
VIbias_bus:    30
PHOffset:      149
Vcomp_ADC:     50
PHScale:       85
VIColOr:       100
Vcal:          200
CalDel:        145
TempRange:     0
WBC:           100
ChipContReg:   0
Readback:      1
ROC:           BPix_BpI_SEC4_LYR3_LDR11F_MOD2_ROC13
Vdd:           6
Vana:          93
Vsh:           30
Vcomp:         12
VwllPr:        150
VwllSh:        150
VHldDel:       250
Vtrim:         102
VcThr:         94
VIbias_bus:    30
PHOffset:      179
Vcomp_ADC:     50
PHScale:       80
VIColOr:       100
Vcal:          200
CalDel:        144
TempRange:     0
WBC:           100
ChipContReg:   0
Readback:      1
ROC:           BPix_BpI_SEC4_LYR3_LDR11F_MOD2_ROC14
Vdd:           6
Vana:          90
Vsh:           30
Vcomp:         12
VwllPr:        150
VwllSh:        150
VHldDel:       250
Vtrim:         107
VcThr:         76
VIbias_bus:    30
PHOffset:      161
Vcomp_ADC:     50
PHScale:       82
VIColOr:       100
Vcal:          200
CalDel:        149
TempRange:     0
WBC:           100
ChipContReg:   0
Readback:      1
ROC:           BPix_BpI_SEC4_LYR3_LDR11F_MOD2_ROC15
Vdd:           6
Vana:          80
Vsh:           30
Vcomp:         12
VwllPr:        150
VwllSh:        150
VHldDel:       250
Vtrim:         97
VcThr:         93
VIbias_bus:    30
PHOffset:      154
Vcomp_ADC:     50
PHScale:       80
VIColOr:       100
Vcal:          200
CalDel:        134
TempRange:     0
WBC:           100
ChipContReg:   0
Readback:      1
