ROC:           BPix_BmI_SEC1_LYR4_LDR2F_MOD2_ROC0
Vdd:           6
Vana:          85
Vsh:           30
Vcomp:         12
VwllPr:        150
VwllSh:        150
VHldDel:       250
Vtrim:         123
VcThr:         110
VIbias_bus:    30
PHOffset:      176
Vcomp_ADC:     50
PHScale:       74
VIColOr:       100
Vcal:          200
CalDel:        134
TempRange:     0
WBC:           100
ChipContReg:   0
Readback:      1
ROC:           BPix_BmI_SEC1_LYR4_LDR2F_MOD2_ROC1
Vdd:           6
Vana:          89
Vsh:           30
Vcomp:         12
VwllPr:        150
VwllSh:        150
VHldDel:       250
Vtrim:         97
VcThr:         101
VIbias_bus:    30
PHOffset:      159
Vcomp_ADC:     50
PHScale:       78
VIColOr:       100
Vcal:          200
CalDel:        148
TempRange:     0
WBC:           100
ChipContReg:   0
Readback:      1
ROC:           BPix_BmI_SEC1_LYR4_LDR2F_MOD2_ROC2
Vdd:           6
Vana:          79
Vsh:           30
Vcomp:         12
VwllPr:        150
VwllSh:        150
VHldDel:       250
Vtrim:         111
VcThr:         103
VIbias_bus:    30
PHOffset:      173
Vcomp_ADC:     50
PHScale:       74
VIColOr:       100
Vcal:          200
CalDel:        139
TempRange:     0
WBC:           100
ChipContReg:   0
Readback:      1
ROC:           BPix_BmI_SEC1_LYR4_LDR2F_MOD2_ROC3
Vdd:           6
Vana:          99
Vsh:           30
Vcomp:         12
VwllPr:        150
VwllSh:        150
VHldDel:       250
Vtrim:         109
VcThr:         105
VIbias_bus:    30
PHOffset:      152
Vcomp_ADC:     50
PHScale:       80
VIColOr:       100
Vcal:          200
CalDel:        142
TempRange:     0
WBC:           100
ChipContReg:   0
Readback:      1
ROC:           BPix_BmI_SEC1_LYR4_LDR2F_MOD2_ROC4
Vdd:           6
Vana:          82
Vsh:           30
Vcomp:         12
VwllPr:        150
VwllSh:        150
VHldDel:       250
Vtrim:         84
VcThr:         103
VIbias_bus:    30
PHOffset:      149
Vcomp_ADC:     50
PHScale:       77
VIColOr:       100
Vcal:          200
CalDel:        146
TempRange:     0
WBC:           100
ChipContReg:   0
Readback:      1
ROC:           BPix_BmI_SEC1_LYR4_LDR2F_MOD2_ROC5
Vdd:           6
Vana:          85
Vsh:           30
Vcomp:         12
VwllPr:        150
VwllSh:        150
VHldDel:       250
Vtrim:         95
VcThr:         99
VIbias_bus:    30
PHOffset:      176
Vcomp_ADC:     50
PHScale:       73
VIColOr:       100
Vcal:          200
CalDel:        143
TempRange:     0
WBC:           100
ChipContReg:   0
Readback:      1
ROC:           BPix_BmI_SEC1_LYR4_LDR2F_MOD2_ROC6
Vdd:           6
Vana:          81
Vsh:           30
Vcomp:         12
VwllPr:        150
VwllSh:        150
VHldDel:       250
Vtrim:         96
VcThr:         101
VIbias_bus:    30
PHOffset:      164
Vcomp_ADC:     50
PHScale:       80
VIColOr:       100
Vcal:          200
CalDel:        130
TempRange:     0
WBC:           100
ChipContReg:   0
Readback:      1
ROC:           BPix_BmI_SEC1_LYR4_LDR2F_MOD2_ROC7
Vdd:           6
Vana:          75
Vsh:           30
Vcomp:         12
VwllPr:        150
VwllSh:        150
VHldDel:       250
Vtrim:         93
VcThr:         91
VIbias_bus:    30
PHOffset:      166
Vcomp_ADC:     50
PHScale:       80
VIColOr:       100
Vcal:          200
CalDel:        132
TempRange:     0
WBC:           100
ChipContReg:   0
Readback:      1
ROC:           BPix_BmI_SEC1_LYR4_LDR2F_MOD2_ROC8
Vdd:           6
Vana:          84
Vsh:           30
Vcomp:         12
VwllPr:        150
VwllSh:        150
VHldDel:       250
Vtrim:         144
VcThr:         110
VIbias_bus:    30
PHOffset:      176
Vcomp_ADC:     50
PHScale:       75
VIColOr:       100
Vcal:          200
CalDel:        143
TempRange:     0
WBC:           100
ChipContReg:   0
Readback:      1
ROC:           BPix_BmI_SEC1_LYR4_LDR2F_MOD2_ROC9
Vdd:           6
Vana:          82
Vsh:           30
Vcomp:         12
VwllPr:        150
VwllSh:        150
VHldDel:       250
Vtrim:         107
VcThr:         102
VIbias_bus:    30
PHOffset:      176
Vcomp_ADC:     50
PHScale:       76
VIColOr:       100
Vcal:          200
CalDel:        125
TempRange:     0
WBC:           100
ChipContReg:   0
Readback:      1
ROC:           BPix_BmI_SEC1_LYR4_LDR2F_MOD2_ROC10
Vdd:           6
Vana:          89
Vsh:           30
Vcomp:         12
VwllPr:        150
VwllSh:        150
VHldDel:       250
Vtrim:         93
VcThr:         98
VIbias_bus:    30
PHOffset:      153
Vcomp_ADC:     50
PHScale:       79
VIColOr:       100
Vcal:          200
CalDel:        131
TempRange:     0
WBC:           100
ChipContReg:   0
Readback:      1
ROC:           BPix_BmI_SEC1_LYR4_LDR2F_MOD2_ROC11
Vdd:           6
Vana:          78
Vsh:           30
Vcomp:         12
VwllPr:        150
VwllSh:        150
VHldDel:       250
Vtrim:         95
VcThr:         90
VIbias_bus:    30
PHOffset:      156
Vcomp_ADC:     50
PHScale:       82
VIColOr:       100
Vcal:          200
CalDel:        131
TempRange:     0
WBC:           100
ChipContReg:   0
Readback:      1
ROC:           BPix_BmI_SEC1_LYR4_LDR2F_MOD2_ROC12
Vdd:           6
Vana:          82
Vsh:           30
Vcomp:         12
VwllPr:        150
VwllSh:        150
VHldDel:       250
Vtrim:         103
VcThr:         103
VIbias_bus:    30
PHOffset:      160
Vcomp_ADC:     50
PHScale:       73
VIColOr:       100
Vcal:          200
CalDel:        142
TempRange:     0
WBC:           100
ChipContReg:   0
Readback:      1
ROC:           BPix_BmI_SEC1_LYR4_LDR2F_MOD2_ROC13
Vdd:           6
Vana:          85
Vsh:           30
Vcomp:         12
VwllPr:        150
VwllSh:        150
VHldDel:       250
Vtrim:         105
VcThr:         100
VIbias_bus:    30
PHOffset:      166
Vcomp_ADC:     50
PHScale:       79
VIColOr:       100
Vcal:          200
CalDel:        138
TempRange:     0
WBC:           100
ChipContReg:   0
Readback:      1
ROC:           BPix_BmI_SEC1_LYR4_LDR2F_MOD2_ROC14
Vdd:           6
Vana:          91
Vsh:           30
Vcomp:         12
VwllPr:        150
VwllSh:        150
VHldDel:       250
Vtrim:         110
VcThr:         95
VIbias_bus:    30
PHOffset:      170
Vcomp_ADC:     50
PHScale:       80
VIColOr:       100
Vcal:          200
CalDel:        155
TempRange:     0
WBC:           100
ChipContReg:   0
Readback:      1
ROC:           BPix_BmI_SEC1_LYR4_LDR2F_MOD2_ROC15
Vdd:           6
Vana:          79
Vsh:           30
Vcomp:         12
VwllPr:        150
VwllSh:        150
VHldDel:       250
Vtrim:         95
VcThr:         95
VIbias_bus:    30
PHOffset:      156
Vcomp_ADC:     50
PHScale:       79
VIColOr:       100
Vcal:          200
CalDel:        144
TempRange:     0
WBC:           100
ChipContReg:   0
Readback:      1
