ROC:           BPix_BmI_SEC6_LYR4_LDR22F_MOD3_ROC0
Vdd:           6
Vana:          97
Vsh:           30
Vcomp:         12
VwllPr:        150
VwllSh:        150
VHldDel:       250
Vtrim:         114
VcThr:         105
VIbias_bus:    30
PHOffset:      174
Vcomp_ADC:     50
PHScale:       84
VIColOr:       100
Vcal:          200
CalDel:        142
TempRange:     0
WBC:           100
ChipContReg:   0
Readback:      1
ROC:           BPix_BmI_SEC6_LYR4_LDR22F_MOD3_ROC1
Vdd:           6
Vana:          82
Vsh:           30
Vcomp:         12
VwllPr:        150
VwllSh:        150
VHldDel:       250
Vtrim:         98
VcThr:         108
VIbias_bus:    30
PHOffset:      144
Vcomp_ADC:     50
PHScale:       84
VIColOr:       100
Vcal:          200
CalDel:        135
TempRange:     0
WBC:           100
ChipContReg:   0
Readback:      1
ROC:           BPix_BmI_SEC6_LYR4_LDR22F_MOD3_ROC2
Vdd:           6
Vana:          96
Vsh:           30
Vcomp:         12
VwllPr:        150
VwllSh:        150
VHldDel:       250
Vtrim:         119
VcThr:         103
VIbias_bus:    30
PHOffset:      147
Vcomp_ADC:     50
PHScale:       80
VIColOr:       100
Vcal:          200
CalDel:        125
TempRange:     0
WBC:           100
ChipContReg:   0
Readback:      1
ROC:           BPix_BmI_SEC6_LYR4_LDR22F_MOD3_ROC3
Vdd:           6
Vana:          92
Vsh:           30
Vcomp:         12
VwllPr:        150
VwllSh:        150
VHldDel:       250
Vtrim:         89
VcThr:         95
VIbias_bus:    30
PHOffset:      145
Vcomp_ADC:     50
PHScale:       94
VIColOr:       100
Vcal:          200
CalDel:        141
TempRange:     0
WBC:           100
ChipContReg:   0
Readback:      1
ROC:           BPix_BmI_SEC6_LYR4_LDR22F_MOD3_ROC4
Vdd:           6
Vana:          91
Vsh:           30
Vcomp:         12
VwllPr:        150
VwllSh:        150
VHldDel:       250
Vtrim:         149
VcThr:         119
VIbias_bus:    30
PHOffset:      176
Vcomp_ADC:     50
PHScale:       76
VIColOr:       100
Vcal:          200
CalDel:        146
TempRange:     0
WBC:           100
ChipContReg:   0
Readback:      1
ROC:           BPix_BmI_SEC6_LYR4_LDR22F_MOD3_ROC5
Vdd:           6
Vana:          85
Vsh:           30
Vcomp:         12
VwllPr:        150
VwllSh:        150
VHldDel:       250
Vtrim:         119
VcThr:         112
VIbias_bus:    30
PHOffset:      158
Vcomp_ADC:     50
PHScale:       85
VIColOr:       100
Vcal:          200
CalDel:        136
TempRange:     0
WBC:           100
ChipContReg:   0
Readback:      1
ROC:           BPix_BmI_SEC6_LYR4_LDR22F_MOD3_ROC6
Vdd:           6
Vana:          88
Vsh:           30
Vcomp:         12
VwllPr:        150
VwllSh:        150
VHldDel:       250
Vtrim:         117
VcThr:         104
VIbias_bus:    30
PHOffset:      170
Vcomp_ADC:     50
PHScale:       82
VIColOr:       100
Vcal:          200
CalDel:        137
TempRange:     0
WBC:           100
ChipContReg:   0
Readback:      1
ROC:           BPix_BmI_SEC6_LYR4_LDR22F_MOD3_ROC7
Vdd:           6
Vana:          94
Vsh:           30
Vcomp:         12
VwllPr:        150
VwllSh:        150
VHldDel:       250
Vtrim:         130
VcThr:         110
VIbias_bus:    30
PHOffset:      165
Vcomp_ADC:     50
PHScale:       75
VIColOr:       100
Vcal:          200
CalDel:        122
TempRange:     0
WBC:           100
ChipContReg:   0
Readback:      1
ROC:           BPix_BmI_SEC6_LYR4_LDR22F_MOD3_ROC8
Vdd:           6
Vana:          93
Vsh:           30
Vcomp:         12
VwllPr:        150
VwllSh:        150
VHldDel:       250
Vtrim:         102
VcThr:         102
VIbias_bus:    30
PHOffset:      171
Vcomp_ADC:     50
PHScale:       78
VIColOr:       100
Vcal:          200
CalDel:        131
TempRange:     0
WBC:           100
ChipContReg:   0
Readback:      1
ROC:           BPix_BmI_SEC6_LYR4_LDR22F_MOD3_ROC9
Vdd:           6
Vana:          88
Vsh:           30
Vcomp:         12
VwllPr:        150
VwllSh:        150
VHldDel:       250
Vtrim:         108
VcThr:         101
VIbias_bus:    30
PHOffset:      166
Vcomp_ADC:     50
PHScale:       71
VIColOr:       100
Vcal:          200
CalDel:        138
TempRange:     0
WBC:           100
ChipContReg:   0
Readback:      1
ROC:           BPix_BmI_SEC6_LYR4_LDR22F_MOD3_ROC10
Vdd:           6
Vana:          83
Vsh:           30
Vcomp:         12
VwllPr:        150
VwllSh:        150
VHldDel:       250
Vtrim:         107
VcThr:         101
VIbias_bus:    30
PHOffset:      163
Vcomp_ADC:     50
PHScale:       80
VIColOr:       100
Vcal:          200
CalDel:        133
TempRange:     0
WBC:           100
ChipContReg:   0
Readback:      1
ROC:           BPix_BmI_SEC6_LYR4_LDR22F_MOD3_ROC11
Vdd:           6
Vana:          83
Vsh:           30
Vcomp:         12
VwllPr:        150
VwllSh:        150
VHldDel:       250
Vtrim:         117
VcThr:         96
VIbias_bus:    30
PHOffset:      170
Vcomp_ADC:     50
PHScale:       68
VIColOr:       100
Vcal:          200
CalDel:        155
TempRange:     0
WBC:           100
ChipContReg:   0
Readback:      1
ROC:           BPix_BmI_SEC6_LYR4_LDR22F_MOD3_ROC12
Vdd:           6
Vana:          86
Vsh:           30
Vcomp:         12
VwllPr:        150
VwllSh:        150
VHldDel:       250
Vtrim:         103
VcThr:         102
VIbias_bus:    30
PHOffset:      164
Vcomp_ADC:     50
PHScale:       73
VIColOr:       100
Vcal:          200
CalDel:        160
TempRange:     0
WBC:           100
ChipContReg:   0
Readback:      1
ROC:           BPix_BmI_SEC6_LYR4_LDR22F_MOD3_ROC13
Vdd:           6
Vana:          93
Vsh:           30
Vcomp:         12
VwllPr:        150
VwllSh:        150
VHldDel:       250
Vtrim:         109
VcThr:         105
VIbias_bus:    30
PHOffset:      161
Vcomp_ADC:     50
PHScale:       71
VIColOr:       100
Vcal:          200
CalDel:        146
TempRange:     0
WBC:           100
ChipContReg:   0
Readback:      1
ROC:           BPix_BmI_SEC6_LYR4_LDR22F_MOD3_ROC14
Vdd:           6
Vana:          81
Vsh:           30
Vcomp:         12
VwllPr:        150
VwllSh:        150
VHldDel:       250
Vtrim:         108
VcThr:         102
VIbias_bus:    30
PHOffset:      159
Vcomp_ADC:     50
PHScale:       78
VIColOr:       100
Vcal:          200
CalDel:        149
TempRange:     0
WBC:           100
ChipContReg:   0
Readback:      1
ROC:           BPix_BmI_SEC6_LYR4_LDR22F_MOD3_ROC15
Vdd:           6
Vana:          93
Vsh:           30
Vcomp:         12
VwllPr:        150
VwllSh:        150
VHldDel:       250
Vtrim:         103
VcThr:         106
VIbias_bus:    30
PHOffset:      178
Vcomp_ADC:     50
PHScale:       71
VIColOr:       100
Vcal:          200
CalDel:        153
TempRange:     0
WBC:           100
ChipContReg:   0
Readback:      1
