ROC:           BPix_BpI_SEC3_LYR1_LDR2H_MOD2_ROC4
Vdd:           6
Vana:          86
Vsh:           30
Vcomp:         12
VwllPr:        150
VwllSh:        150
VHldDel:       250
Vtrim:         136
VcThr:         122
VIbias_bus:    30
PHOffset:      78
Vcomp_ADC:     50
PHScale:       49
VIColOr:       100
Vcal:          200
CalDel:        82
TempRange:     0
WBC:           100
ChipContReg:   0
Readback:      1
ROC:           BPix_BpI_SEC3_LYR1_LDR2H_MOD2_ROC5
Vdd:           6
Vana:          66
Vsh:           30
Vcomp:         12
VwllPr:        150
VwllSh:        150
VHldDel:       250
Vtrim:         141
VcThr:         131
VIbias_bus:    30
PHOffset:      117
Vcomp_ADC:     50
PHScale:       58
VIColOr:       100
Vcal:          200
CalDel:        108
TempRange:     0
WBC:           100
ChipContReg:   0
Readback:      1
ROC:           BPix_BpI_SEC3_LYR1_LDR2H_MOD2_ROC6
Vdd:           6
Vana:          81
Vsh:           30
Vcomp:         12
VwllPr:        150
VwllSh:        150
VHldDel:       250
Vtrim:         104
VcThr:         115
VIbias_bus:    30
PHOffset:      101
Vcomp_ADC:     50
PHScale:       44
VIColOr:       100
Vcal:          200
CalDel:        86
TempRange:     0
WBC:           100
ChipContReg:   0
Readback:      1
ROC:           BPix_BpI_SEC3_LYR1_LDR2H_MOD2_ROC7
Vdd:           6
Vana:          75
Vsh:           30
Vcomp:         12
VwllPr:        150
VwllSh:        150
VHldDel:       250
Vtrim:         135
VcThr:         108
VIbias_bus:    30
PHOffset:      111
Vcomp_ADC:     50
PHScale:       48
VIColOr:       100
Vcal:          200
CalDel:        91
TempRange:     0
WBC:           100
ChipContReg:   0
Readback:      1
ROC:           BPix_BpI_SEC3_LYR1_LDR2H_MOD2_ROC8
Vdd:           6
Vana:          85
Vsh:           30
Vcomp:         12
VwllPr:        150
VwllSh:        150
VHldDel:       250
Vtrim:         143
VcThr:         119
VIbias_bus:    30
PHOffset:      117
Vcomp_ADC:     50
PHScale:       65
VIColOr:       100
Vcal:          200
CalDel:        87
TempRange:     0
WBC:           100
ChipContReg:   0
Readback:      1
ROC:           BPix_BpI_SEC3_LYR1_LDR2H_MOD2_ROC9
Vdd:           6
Vana:          76
Vsh:           30
Vcomp:         12
VwllPr:        150
VwllSh:        150
VHldDel:       250
Vtrim:         131
VcThr:         101
VIbias_bus:    30
PHOffset:      114
Vcomp_ADC:     50
PHScale:       45
VIColOr:       100
Vcal:          200
CalDel:        112
TempRange:     0
WBC:           100
ChipContReg:   0
Readback:      1
ROC:           BPix_BpI_SEC3_LYR1_LDR2H_MOD2_ROC10
Vdd:           6
Vana:          81
Vsh:           30
Vcomp:         12
VwllPr:        150
VwllSh:        150
VHldDel:       250
Vtrim:         116
VcThr:         126
VIbias_bus:    30
PHOffset:      109
Vcomp_ADC:     50
PHScale:       52
VIColOr:       100
Vcal:          200
CalDel:        87
TempRange:     0
WBC:           100
ChipContReg:   0
Readback:      1
ROC:           BPix_BpI_SEC3_LYR1_LDR2H_MOD2_ROC11
Vdd:           6
Vana:          72
Vsh:           30
Vcomp:         12
VwllPr:        150
VwllSh:        150
VHldDel:       250
Vtrim:         120
VcThr:         111
VIbias_bus:    30
PHOffset:      127
Vcomp_ADC:     50
PHScale:       65
VIColOr:       100
Vcal:          200
CalDel:        109
TempRange:     0
WBC:           100
ChipContReg:   0
Readback:      1
