ROC:           BPix_BpI_SEC6_LYR3_LDR17F_MOD4_ROC0
Vdd:           6
Vana:          76
Vsh:           30
Vcomp:         12
VwllPr:        150
VwllSh:        150
VHldDel:       250
Vtrim:         111
VcThr:         103
VIbias_bus:    30
PHOffset:      176
Vcomp_ADC:     50
PHScale:       73
VIColOr:       100
Vcal:          255
CalDel:        174
TempRange:     0
WBC:           100
ChipContReg:   0
Readback:      1
ROC:           BPix_BpI_SEC6_LYR3_LDR17F_MOD4_ROC1
Vdd:           6
Vana:          77
Vsh:           30
Vcomp:         12
VwllPr:        150
VwllSh:        150
VHldDel:       250
Vtrim:         105
VcThr:         85
VIbias_bus:    30
PHOffset:      144
Vcomp_ADC:     50
PHScale:       71
VIColOr:       100
Vcal:          255
CalDel:        165
TempRange:     0
WBC:           100
ChipContReg:   0
Readback:      1
ROC:           BPix_BpI_SEC6_LYR3_LDR17F_MOD4_ROC2
Vdd:           6
Vana:          79
Vsh:           30
Vcomp:         12
VwllPr:        150
VwllSh:        150
VHldDel:       250
Vtrim:         85
VcThr:         89
VIbias_bus:    30
PHOffset:      163
Vcomp_ADC:     50
PHScale:       80
VIColOr:       100
Vcal:          255
CalDel:        144
TempRange:     0
WBC:           100
ChipContReg:   0
Readback:      1
ROC:           BPix_BpI_SEC6_LYR3_LDR17F_MOD4_ROC3
Vdd:           6
Vana:          79
Vsh:           30
Vcomp:         12
VwllPr:        150
VwllSh:        150
VHldDel:       250
Vtrim:         103
VcThr:         88
VIbias_bus:    30
PHOffset:      165
Vcomp_ADC:     50
PHScale:       73
VIColOr:       100
Vcal:          255
CalDel:        164
TempRange:     0
WBC:           100
ChipContReg:   0
Readback:      1
ROC:           BPix_BpI_SEC6_LYR3_LDR17F_MOD4_ROC4
Vdd:           6
Vana:          80
Vsh:           30
Vcomp:         12
VwllPr:        150
VwllSh:        150
VHldDel:       250
Vtrim:         108
VcThr:         104
VIbias_bus:    30
PHOffset:      164
Vcomp_ADC:     50
PHScale:       71
VIColOr:       100
Vcal:          255
CalDel:        134
TempRange:     0
WBC:           100
ChipContReg:   0
Readback:      1
ROC:           BPix_BpI_SEC6_LYR3_LDR17F_MOD4_ROC5
Vdd:           6
Vana:          75
Vsh:           30
Vcomp:         12
VwllPr:        150
VwllSh:        150
VHldDel:       250
Vtrim:         96
VcThr:         94
VIbias_bus:    30
PHOffset:      161
Vcomp_ADC:     50
PHScale:       78
VIColOr:       100
Vcal:          255
CalDel:        139
TempRange:     0
WBC:           100
ChipContReg:   0
Readback:      1
ROC:           BPix_BpI_SEC6_LYR3_LDR17F_MOD4_ROC6
Vdd:           6
Vana:          80
Vsh:           30
Vcomp:         12
VwllPr:        150
VwllSh:        150
VHldDel:       250
Vtrim:         96
VcThr:         98
VIbias_bus:    30
PHOffset:      171
Vcomp_ADC:     50
PHScale:       79
VIColOr:       100
Vcal:          255
CalDel:        140
TempRange:     0
WBC:           100
ChipContReg:   0
Readback:      1
ROC:           BPix_BpI_SEC6_LYR3_LDR17F_MOD4_ROC7
Vdd:           6
Vana:          89
Vsh:           30
Vcomp:         12
VwllPr:        150
VwllSh:        150
VHldDel:       250
Vtrim:         108
VcThr:         90
VIbias_bus:    30
PHOffset:      157
Vcomp_ADC:     50
PHScale:       71
VIColOr:       100
Vcal:          255
CalDel:        143
TempRange:     0
WBC:           100
ChipContReg:   0
Readback:      1
ROC:           BPix_BpI_SEC6_LYR3_LDR17F_MOD4_ROC8
Vdd:           6
Vana:          80
Vsh:           30
Vcomp:         12
VwllPr:        150
VwllSh:        150
VHldDel:       250
Vtrim:         94
VcThr:         94
VIbias_bus:    30
PHOffset:      163
Vcomp_ADC:     50
PHScale:       79
VIColOr:       100
Vcal:          255
CalDel:        145
TempRange:     0
WBC:           100
ChipContReg:   0
Readback:      1
ROC:           BPix_BpI_SEC6_LYR3_LDR17F_MOD4_ROC9
Vdd:           6
Vana:          92
Vsh:           30
Vcomp:         12
VwllPr:        150
VwllSh:        150
VHldDel:       250
Vtrim:         93
VcThr:         89
VIbias_bus:    30
PHOffset:      158
Vcomp_ADC:     50
PHScale:       81
VIColOr:       100
Vcal:          255
CalDel:        142
TempRange:     0
WBC:           100
ChipContReg:   0
Readback:      1
ROC:           BPix_BpI_SEC6_LYR3_LDR17F_MOD4_ROC10
Vdd:           6
Vana:          84
Vsh:           30
Vcomp:         12
VwllPr:        150
VwllSh:        150
VHldDel:       250
Vtrim:         81
VcThr:         89
VIbias_bus:    30
PHOffset:      160
Vcomp_ADC:     50
PHScale:       76
VIColOr:       100
Vcal:          255
CalDel:        134
TempRange:     0
WBC:           100
ChipContReg:   0
Readback:      1
ROC:           BPix_BpI_SEC6_LYR3_LDR17F_MOD4_ROC11
Vdd:           6
Vana:          76
Vsh:           30
Vcomp:         12
VwllPr:        150
VwllSh:        150
VHldDel:       250
Vtrim:         109
VcThr:         102
VIbias_bus:    30
PHOffset:      171
Vcomp_ADC:     50
PHScale:       63
VIColOr:       100
Vcal:          255
CalDel:        141
TempRange:     0
WBC:           100
ChipContReg:   0
Readback:      1
ROC:           BPix_BpI_SEC6_LYR3_LDR17F_MOD4_ROC12
Vdd:           6
Vana:          89
Vsh:           30
Vcomp:         12
VwllPr:        150
VwllSh:        150
VHldDel:       250
Vtrim:         88
VcThr:         82
VIbias_bus:    30
PHOffset:      150
Vcomp_ADC:     50
PHScale:       77
VIColOr:       100
Vcal:          255
CalDel:        170
TempRange:     0
WBC:           100
ChipContReg:   0
Readback:      1
ROC:           BPix_BpI_SEC6_LYR3_LDR17F_MOD4_ROC13
Vdd:           6
Vana:          79
Vsh:           30
Vcomp:         12
VwllPr:        150
VwllSh:        150
VHldDel:       250
Vtrim:         92
VcThr:         87
VIbias_bus:    30
PHOffset:      176
Vcomp_ADC:     50
PHScale:       75
VIColOr:       100
Vcal:          255
CalDel:        149
TempRange:     0
WBC:           100
ChipContReg:   0
Readback:      1
ROC:           BPix_BpI_SEC6_LYR3_LDR17F_MOD4_ROC14
Vdd:           6
Vana:          79
Vsh:           30
Vcomp:         12
VwllPr:        150
VwllSh:        150
VHldDel:       250
Vtrim:         109
VcThr:         93
VIbias_bus:    30
PHOffset:      183
Vcomp_ADC:     50
PHScale:       65
VIColOr:       100
Vcal:          255
CalDel:        144
TempRange:     0
WBC:           100
ChipContReg:   0
Readback:      1
ROC:           BPix_BpI_SEC6_LYR3_LDR17F_MOD4_ROC15
Vdd:           6
Vana:          89
Vsh:           30
Vcomp:         12
VwllPr:        150
VwllSh:        150
VHldDel:       250
Vtrim:         118
VcThr:         89
VIbias_bus:    30
PHOffset:      169
Vcomp_ADC:     50
PHScale:       79
VIColOr:       100
Vcal:          255
CalDel:        135
TempRange:     0
WBC:           100
ChipContReg:   0
Readback:      1
