ROC:           BPix_BpI_SEC8_LYR2_LDR13F_MOD2_ROC0
Vdd:           6
Vana:          76
Vsh:           30
Vcomp:         12
VwllPr:        150
VwllSh:        150
VHldDel:       250
Vtrim:         90
VcThr:         83
VIbias_bus:    30
PHOffset:      138
Vcomp_ADC:     50
PHScale:       90
VIColOr:       100
Vcal:          200
CalDel:        146
TempRange:     0
WBC:           100
ChipContReg:   0
Readback:      1
ROC:           BPix_BpI_SEC8_LYR2_LDR13F_MOD2_ROC1
Vdd:           6
Vana:          84
Vsh:           30
Vcomp:         12
VwllPr:        150
VwllSh:        150
VHldDel:       250
Vtrim:         100
VcThr:         89
VIbias_bus:    30
PHOffset:      160
Vcomp_ADC:     50
PHScale:       84
VIColOr:       100
Vcal:          200
CalDel:        145
TempRange:     0
WBC:           100
ChipContReg:   0
Readback:      1
ROC:           BPix_BpI_SEC8_LYR2_LDR13F_MOD2_ROC2
Vdd:           6
Vana:          61
Vsh:           30
Vcomp:         12
VwllPr:        150
VwllSh:        150
VHldDel:       250
Vtrim:         112
VcThr:         98
VIbias_bus:    30
PHOffset:      165
Vcomp_ADC:     50
PHScale:       78
VIColOr:       100
Vcal:          200
CalDel:        157
TempRange:     0
WBC:           100
ChipContReg:   0
Readback:      1
ROC:           BPix_BpI_SEC8_LYR2_LDR13F_MOD2_ROC3
Vdd:           6
Vana:          75
Vsh:           30
Vcomp:         12
VwllPr:        150
VwllSh:        150
VHldDel:       250
Vtrim:         108
VcThr:         81
VIbias_bus:    30
PHOffset:      148
Vcomp_ADC:     50
PHScale:       80
VIColOr:       100
Vcal:          200
CalDel:        142
TempRange:     0
WBC:           100
ChipContReg:   0
Readback:      1
ROC:           BPix_BpI_SEC8_LYR2_LDR13F_MOD2_ROC4
Vdd:           6
Vana:          71
Vsh:           30
Vcomp:         12
VwllPr:        150
VwllSh:        150
VHldDel:       250
Vtrim:         91
VcThr:         83
VIbias_bus:    30
PHOffset:      143
Vcomp_ADC:     50
PHScale:       85
VIColOr:       100
Vcal:          200
CalDel:        145
TempRange:     0
WBC:           100
ChipContReg:   0
Readback:      1
ROC:           BPix_BpI_SEC8_LYR2_LDR13F_MOD2_ROC5
Vdd:           6
Vana:          76
Vsh:           30
Vcomp:         12
VwllPr:        150
VwllSh:        150
VHldDel:       250
Vtrim:         99
VcThr:         97
VIbias_bus:    30
PHOffset:      163
Vcomp_ADC:     50
PHScale:       77
VIColOr:       100
Vcal:          200
CalDel:        141
TempRange:     0
WBC:           100
ChipContReg:   0
Readback:      1
ROC:           BPix_BpI_SEC8_LYR2_LDR13F_MOD2_ROC6
Vdd:           6
Vana:          81
Vsh:           30
Vcomp:         12
VwllPr:        150
VwllSh:        150
VHldDel:       250
Vtrim:         105
VcThr:         96
VIbias_bus:    30
PHOffset:      156
Vcomp_ADC:     50
PHScale:       92
VIColOr:       100
Vcal:          200
CalDel:        131
TempRange:     0
WBC:           100
ChipContReg:   0
Readback:      1
ROC:           BPix_BpI_SEC8_LYR2_LDR13F_MOD2_ROC7
Vdd:           6
Vana:          85
Vsh:           30
Vcomp:         12
VwllPr:        150
VwllSh:        150
VHldDel:       250
Vtrim:         180
VcThr:         74
VIbias_bus:    30
PHOffset:      144
Vcomp_ADC:     50
PHScale:       95
VIColOr:       100
Vcal:          200
CalDel:        144
TempRange:     0
WBC:           100
ChipContReg:   0
Readback:      1
ROC:           BPix_BpI_SEC8_LYR2_LDR13F_MOD2_ROC8
Vdd:           6
Vana:          94
Vsh:           30
Vcomp:         12
VwllPr:        150
VwllSh:        150
VHldDel:       250
Vtrim:         85
VcThr:         76
VIbias_bus:    30
PHOffset:      144
Vcomp_ADC:     50
PHScale:       99
VIColOr:       100
Vcal:          200
CalDel:        144
TempRange:     0
WBC:           100
ChipContReg:   0
Readback:      1
ROC:           BPix_BpI_SEC8_LYR2_LDR13F_MOD2_ROC9
Vdd:           6
Vana:          85
Vsh:           30
Vcomp:         12
VwllPr:        150
VwllSh:        150
VHldDel:       250
Vtrim:         92
VcThr:         82
VIbias_bus:    30
PHOffset:      138
Vcomp_ADC:     50
PHScale:       98
VIColOr:       100
Vcal:          200
CalDel:        177
TempRange:     0
WBC:           100
ChipContReg:   0
Readback:      1
ROC:           BPix_BpI_SEC8_LYR2_LDR13F_MOD2_ROC10
Vdd:           6
Vana:          81
Vsh:           30
Vcomp:         12
VwllPr:        150
VwllSh:        150
VHldDel:       250
Vtrim:         87
VcThr:         88
VIbias_bus:    30
PHOffset:      132
Vcomp_ADC:     50
PHScale:       99
VIColOr:       100
Vcal:          200
CalDel:        120
TempRange:     0
WBC:           100
ChipContReg:   0
Readback:      1
ROC:           BPix_BpI_SEC8_LYR2_LDR13F_MOD2_ROC11
Vdd:           6
Vana:          75
Vsh:           30
Vcomp:         12
VwllPr:        150
VwllSh:        150
VHldDel:       250
Vtrim:         103
VcThr:         96
VIbias_bus:    30
PHOffset:      147
Vcomp_ADC:     50
PHScale:       91
VIColOr:       100
Vcal:          200
CalDel:        147
TempRange:     0
WBC:           100
ChipContReg:   0
Readback:      1
ROC:           BPix_BpI_SEC8_LYR2_LDR13F_MOD2_ROC12
Vdd:           6
Vana:          76
Vsh:           30
Vcomp:         12
VwllPr:        150
VwllSh:        150
VHldDel:       250
Vtrim:         111
VcThr:         77
VIbias_bus:    30
PHOffset:      145
Vcomp_ADC:     50
PHScale:       92
VIColOr:       100
Vcal:          200
CalDel:        154
TempRange:     0
WBC:           100
ChipContReg:   0
Readback:      1
ROC:           BPix_BpI_SEC8_LYR2_LDR13F_MOD2_ROC13
Vdd:           6
Vana:          93
Vsh:           30
Vcomp:         12
VwllPr:        150
VwllSh:        150
VHldDel:       250
Vtrim:         97
VcThr:         89
VIbias_bus:    30
PHOffset:      150
Vcomp_ADC:     50
PHScale:       87
VIColOr:       100
Vcal:          200
CalDel:        151
TempRange:     0
WBC:           100
ChipContReg:   0
Readback:      1
ROC:           BPix_BpI_SEC8_LYR2_LDR13F_MOD2_ROC14
Vdd:           6
Vana:          88
Vsh:           30
Vcomp:         12
VwllPr:        150
VwllSh:        150
VHldDel:       250
Vtrim:         94
VcThr:         88
VIbias_bus:    30
PHOffset:      153
Vcomp_ADC:     50
PHScale:       102
VIColOr:       100
Vcal:          200
CalDel:        130
TempRange:     0
WBC:           100
ChipContReg:   0
Readback:      1
ROC:           BPix_BpI_SEC8_LYR2_LDR13F_MOD2_ROC15
Vdd:           6
Vana:          81
Vsh:           30
Vcomp:         12
VwllPr:        150
VwllSh:        150
VHldDel:       250
Vtrim:         80
VcThr:         85
VIbias_bus:    30
PHOffset:      155
Vcomp_ADC:     50
PHScale:       92
VIColOr:       100
Vcal:          200
CalDel:        145
TempRange:     0
WBC:           100
ChipContReg:   0
Readback:      1
