%!PS-Adobe-2.0 EPSF-2.0
%%BoundingBox:  0 0 567 384
%%Title: VcThr.eps: c1
%%Creator: ROOT Version 5.34/14
%%CreationDate: Tue Mar 21 17:33:10 2017
%%EndComments
%%BeginProlog
80 dict begin
/s {stroke} def /l {lineto} def /m {moveto} def /t {translate} def
/r {rotate} def /rl {roll}  def /R {repeat} def
/d {rlineto} def /rm {rmoveto} def /gr {grestore} def /f {eofill} def
/c {setrgbcolor} def /black {0 setgray} def /sd {setdash} def
/cl {closepath} def /sf {scalefont setfont} def /lw {setlinewidth} def
/box {m dup 0 exch d exch 0 d 0 exch neg d cl} def
/NC{systemdict begin initclip end}def/C{NC box clip newpath}def
/bl {box s} def /bf {box f} def /Y { 0 exch d} def /X { 0 d} def 
/K {{pop pop 0 moveto} exch kshow} bind def
/ita {/ang 15 def gsave [1 0 ang dup sin exch cos div 1 0 0] concat} def 
/mp {newpath /y exch def /x exch def} def
/side {[w .77 mul w .23 mul] .385 w mul sd w 0 l currentpoint t -144 r} def
/mr {mp x y w2 0 360 arc} def /m24 {mr s} def /m20 {mr f} def
/mb {mp x y w2 add m w2 neg 0 d 0 w neg d w 0 d 0 w d cl} def
/mt {mp x y w2 add m w2 neg w neg d w 0 d cl} def
/m21 {mb f} def /m25 {mb s} def /m22 {mt f} def /m26{mt s} def
/m23 {mp x y w2 sub m w2 w d w neg 0 d cl f} def
/m27 {mp x y w2 add m w3 neg w2 neg d w3 w2 neg d w3 w2 d cl s} def
/m28 {mp x w2 sub y w2 sub w3 add m w3 0 d  0 w3 neg d w3 0 d 0 w3 d w3 0 d  0 w3 d w3 neg 0 d 0 w3 d w3 neg 0 d 0 w3 neg d w3 neg 0 d cl s } def
/m29 {mp gsave x w2 sub y w2 add w3 sub m currentpoint t 4 {side} repeat cl fill gr} def
/m30 {mp gsave x w2 sub y w2 add w3 sub m currentpoint t 4 {side} repeat cl s gr} def
/m31 {mp x y w2 sub m 0 w d x w2 sub y m w 0 d x w2 sub y w2 add m w w neg d x w2 sub y w2 sub m w w d s} def
/m32 {mp x y w2 sub m w2 w d w neg 0 d cl s} def
/m33 {mp x y w2 add m w3 neg w2 neg d w3 w2 neg d w3 w2 d cl f} def
/m34 {mp x w2 sub y w2 sub w3 add m w3 0 d  0 w3 neg d w3 0 d 0 w3 d w3 0 d  0 w3 d w3 neg 0 d 0 w3 d w3 neg 0 d 0 w3 neg d w3 neg 0 d cl f } def
/m2 {mp x y w2 sub m 0 w d x w2 sub y m w 0 d s} def
/m5 {mp x w2 sub y w2 sub m w w d x w2 sub y w2 add m w w neg d s} def
/reEncode {exch findfont dup length dict begin {1 index /FID eq  {pop pop} {def} ifelse } forall /Encoding exch def currentdict end dup /FontName get exch definefont pop } def [/Times-Bold /Times-Italic /Times-BoldItalic /Helvetica /Helvetica-Oblique
 /Helvetica-Bold /Helvetica-BoldOblique /Courier /Courier-Oblique /Courier-Bold /Courier-BoldOblique /Times-Roman /AvantGarde-Book /AvantGarde-BookOblique /AvantGarde-Demi /AvantGarde-DemiOblique /Bookman-Demi /Bookman-DemiItalic /Bookman-Light
 /Bookman-LightItalic /Helvetica-Narrow /Helvetica-Narrow-Bold /Helvetica-Narrow-BoldOblique /Helvetica-Narrow-Oblique /NewCenturySchlbk-Roman /NewCenturySchlbk-Bold /NewCenturySchlbk-BoldItalic /NewCenturySchlbk-Italic /Palatino-Bold
 /Palatino-BoldItalic /Palatino-Italic /Palatino-Roman ] {ISOLatin1Encoding reEncode } forall
%%EndProlog
%%BeginSetup
%%EndSetup
newpath  gsave  .25 .25 scale  gsave  0 0 t black[  ] 0 sd 3 lw 1 1 1 c 2268 1538 0 0 bf black 1 1 1 c 1814 1230 227 154 bf black 1814 1230 227 154 bl 0 0 0.6 c 1 1 1 c black 0 0 0.6 c 227 154 m 503 X 1 Y 7 X 13 Y 7 X 10 Y 7 X 14 Y 7 X 29 Y 7 X 28 Y
 7 X 24 Y 8 X 46 Y 7 X 62 Y 7 X 84 Y 7 X 73 Y 7 X 7 Y 7 X 134 Y 7 X 181 Y 7 X 1 Y 7 X 164 Y 7 X 69 Y 7 X 60 Y 7 X 40 Y 8 X 73 Y 7 X 47 Y 7 X 12 Y 7 X -106 Y 7 X 11 Y 7 X -7 Y 7 X -73 Y 7 X 52 Y 7 X -18 Y 7 X -11 Y 7 X -41 Y 8 X -87 Y 7 X -81 Y 7 X
 -93 Y 7 X -141 Y 7 X -30 Y 7 X -150 Y 7 X -48 Y 7 X -8 Y 7 X -38 Y 7 X -72 Y 7 X -52 Y 7 X 14 Y 8 X -54 Y 7 X -31 Y 7 X 17 Y 7 X -9 Y 7 X -5 Y 7 X -16 Y 7 X -19 Y 14 X -2 Y 7 X 10 Y 7 X -4 Y 8 X -14 Y 7 X 11 Y 7 X -10 Y 7 X -14 Y 7 X 6 Y 7 X -9 Y 7
 X 10 Y 7 X -3 Y 7 X -8 Y 7 X -31 Y 7 X -7 Y 15 X -8 Y 7 X -2 Y 7 X -1 Y 7 X 3 Y 7 X -2 Y 7 X -1 Y 815 X s black 227 154 m 1814 X s 227 191 m -37 Y s 298 172 m -18 Y s 369 172 m -18 Y s 439 172 m -18 Y s 510 172 m -18 Y s 581 191 m -37 Y s 652 172 m
 -18 Y s 723 172 m -18 Y s 794 172 m -18 Y s 865 172 m -18 Y s 935 191 m -37 Y s 1006 172 m -18 Y s 1077 172 m -18 Y s 1148 172 m -18 Y s 1219 172 m -18 Y s 1290 191 m -37 Y s 1361 172 m -18 Y s 1431 172 m -18 Y s 1502 172 m -18 Y s 1573 172 m -18 Y
 s 1644 191 m -37 Y s 1715 172 m -18 Y s 1786 172 m -18 Y s 1857 172 m -18 Y s 1928 172 m -18 Y s 1998 191 m -37 Y s 1998 191 m -37 Y s
 gsave  2268 1538 0 0 C 211.784 104.263 t 0 r /Helvetica findfont 48.8732 sf 0 0 m (0) show NC gr 
 gsave  2268 1538 0 0 C 553.896 104.263 t 0 r /Helvetica findfont 48.8732 sf 0 0 m (50) show NC gr 
 gsave  2268 1538 0 0 C 892.75 104.263 t 0 r /Helvetica findfont 48.8732 sf 0 0 m (100) show NC gr 
 gsave  2268 1538 0 0 C 1244.64 104.263 t 0 r /Helvetica findfont 48.8732 sf 0 0 m (150) show NC gr 
 gsave  2268 1538 0 0 C 1599.78 104.263 t 0 r /Helvetica findfont 48.8732 sf 0 0 m (200) show NC gr 
 gsave  2268 1538 0 0 C 1954.93 104.263 t 0 r /Helvetica findfont 48.8732 sf 0 0 m (250) show NC gr  227 154 m 1230 Y s 281 154 m -54 X s 254 182 m -27 X s 254 210 m -27 X s 254 238 m -27 X s 254 266 m -27 X s 281 294 m -54 X s 254 322 m -27 X s 254
 350 m -27 X s 254 378 m -27 X s 254 406 m -27 X s 281 434 m -54 X s 254 463 m -27 X s 254 491 m -27 X s 254 519 m -27 X s 254 547 m -27 X s 281 575 m -54 X s 254 603 m -27 X s 254 631 m -27 X s 254 659 m -27 X s 254 687 m -27 X s 281 715 m -54 X s
 254 743 m -27 X s 254 771 m -27 X s 254 799 m -27 X s 254 827 m -27 X s 281 855 m -54 X s 254 883 m -27 X s 254 912 m -27 X s 254 940 m -27 X s 254 968 m -27 X s 281 996 m -54 X s 254 1024 m -27 X s 254 1052 m -27 X s 254 1080 m -27 X s 254 1108 m
 -27 X s 281 1136 m -54 X s 254 1164 m -27 X s 254 1192 m -27 X s 254 1220 m -27 X s 254 1248 m -27 X s 281 1276 m -54 X s 281 1276 m -54 X s 254 1304 m -27 X s 254 1333 m -27 X s 254 1361 m -27 X s
 gsave  2268 1538 0 0 C 188.976 136.845 t 0 r /Helvetica findfont 48.8732 sf 0 0 m (0) show NC gr 
 gsave  2268 1538 0 0 C 133.587 276.948 t 0 r /Helvetica findfont 48.8732 sf 0 0 m (100) show NC gr 
 gsave  2268 1538 0 0 C 133.587 417.051 t 0 r /Helvetica findfont 48.8732 sf 0 0 m (200) show NC gr 
 gsave  2268 1538 0 0 C 133.587 557.154 t 0 r /Helvetica findfont 48.8732 sf 0 0 m (300) show NC gr 
 gsave  2268 1538 0 0 C 133.587 697.258 t 0 r /Helvetica findfont 48.8732 sf 0 0 m (400) show NC gr 
 gsave  2268 1538 0 0 C 133.587 837.361 t 0 r /Helvetica findfont 48.8732 sf 0 0 m (500) show NC gr 
 gsave  2268 1538 0 0 C 133.587 977.464 t 0 r /Helvetica findfont 48.8732 sf 0 0 m (600) show NC gr 
 gsave  2268 1538 0 0 C 133.587 1117.57 t 0 r /Helvetica findfont 48.8732 sf 0 0 m (700) show NC gr 
 gsave  2268 1538 0 0 C 133.587 1257.67 t 0 r /Helvetica findfont 48.8732 sf 0 0 m (800) show NC gr  1 1 1 c black
 gsave  2268 1538 0 0 C 1042.63 1462.94 t 0 r /Helvetica findfont 68.4225 sf 0 0 m (VcThr) show NC gr  1 1 1 c 453 246 1769 1192 bf black 1769 1192 m 453 X s 2222 1192 m 246 Y s 2222 1438 m -453 X s 1769 1438 m -246 Y s 1 1 1 c black
 gsave  2268 1538 0 0 C 1922.35 1388 t 0 r /Helvetica findfont 52.1314 sf 0 0 m (VcThr) show NC gr  1769 1376 m 453 X s
 gsave  2268 1538 0 0 C 1788.76 1326.09 t 0 r /Helvetica findfont 52.1314 sf 0 0 m (Entries ) show NC gr 
 gsave  2268 1538 0 0 C 2039.64 1326.09 t 0 r /Helvetica findfont 52.1314 sf 0 0 m ( 18944) show NC gr 
 gsave  2268 1538 0 0 C 1788.76 1267.44 t 0 r /Helvetica findfont 52.1314 sf 0 0 m (Mean  ) show NC gr 
 gsave  2268 1538 0 0 C 2039.64 1267.44 t 0 r /Helvetica findfont 52.1314 sf 0 0 m (  95.68) show NC gr 
 gsave  2268 1538 0 0 C 1788.76 1205.54 t 0 r /Helvetica findfont 52.1314 sf 0 0 m (RMS   ) show NC gr 
 gsave  2268 1538 0 0 C 2039.64 1205.54 t 0 r /Helvetica findfont 52.1314 sf 0 0 m (  10.28) show NC gr  1 1 1 c black
 gsave  2268 1538 0 0 C 1042.63 1462.94 t 0 r /Helvetica findfont 68.4225 sf 0 0 m (VcThr) show NC gr 
 gr  gr showpage
end
%%EOF
