%!PS-Adobe-2.0 EPSF-2.0
%%BoundingBox:  0 0 567 384
%%Title: VwllPr.eps: c1
%%Creator: ROOT Version 5.34/14
%%CreationDate: Tue Mar 21 17:33:10 2017
%%EndComments
%%BeginProlog
80 dict begin
/s {stroke} def /l {lineto} def /m {moveto} def /t {translate} def
/r {rotate} def /rl {roll}  def /R {repeat} def
/d {rlineto} def /rm {rmoveto} def /gr {grestore} def /f {eofill} def
/c {setrgbcolor} def /black {0 setgray} def /sd {setdash} def
/cl {closepath} def /sf {scalefont setfont} def /lw {setlinewidth} def
/box {m dup 0 exch d exch 0 d 0 exch neg d cl} def
/NC{systemdict begin initclip end}def/C{NC box clip newpath}def
/bl {box s} def /bf {box f} def /Y { 0 exch d} def /X { 0 d} def 
/K {{pop pop 0 moveto} exch kshow} bind def
/ita {/ang 15 def gsave [1 0 ang dup sin exch cos div 1 0 0] concat} def 
/mp {newpath /y exch def /x exch def} def
/side {[w .77 mul w .23 mul] .385 w mul sd w 0 l currentpoint t -144 r} def
/mr {mp x y w2 0 360 arc} def /m24 {mr s} def /m20 {mr f} def
/mb {mp x y w2 add m w2 neg 0 d 0 w neg d w 0 d 0 w d cl} def
/mt {mp x y w2 add m w2 neg w neg d w 0 d cl} def
/m21 {mb f} def /m25 {mb s} def /m22 {mt f} def /m26{mt s} def
/m23 {mp x y w2 sub m w2 w d w neg 0 d cl f} def
/m27 {mp x y w2 add m w3 neg w2 neg d w3 w2 neg d w3 w2 d cl s} def
/m28 {mp x w2 sub y w2 sub w3 add m w3 0 d  0 w3 neg d w3 0 d 0 w3 d w3 0 d  0 w3 d w3 neg 0 d 0 w3 d w3 neg 0 d 0 w3 neg d w3 neg 0 d cl s } def
/m29 {mp gsave x w2 sub y w2 add w3 sub m currentpoint t 4 {side} repeat cl fill gr} def
/m30 {mp gsave x w2 sub y w2 add w3 sub m currentpoint t 4 {side} repeat cl s gr} def
/m31 {mp x y w2 sub m 0 w d x w2 sub y m w 0 d x w2 sub y w2 add m w w neg d x w2 sub y w2 sub m w w d s} def
/m32 {mp x y w2 sub m w2 w d w neg 0 d cl s} def
/m33 {mp x y w2 add m w3 neg w2 neg d w3 w2 neg d w3 w2 d cl f} def
/m34 {mp x w2 sub y w2 sub w3 add m w3 0 d  0 w3 neg d w3 0 d 0 w3 d w3 0 d  0 w3 d w3 neg 0 d 0 w3 d w3 neg 0 d 0 w3 neg d w3 neg 0 d cl f } def
/m2 {mp x y w2 sub m 0 w d x w2 sub y m w 0 d s} def
/m5 {mp x w2 sub y w2 sub m w w d x w2 sub y w2 add m w w neg d s} def
/reEncode {exch findfont dup length dict begin {1 index /FID eq  {pop pop} {def} ifelse } forall /Encoding exch def currentdict end dup /FontName get exch definefont pop } def [/Times-Bold /Times-Italic /Times-BoldItalic /Helvetica /Helvetica-Oblique
 /Helvetica-Bold /Helvetica-BoldOblique /Courier /Courier-Oblique /Courier-Bold /Courier-BoldOblique /Times-Roman /AvantGarde-Book /AvantGarde-BookOblique /AvantGarde-Demi /AvantGarde-DemiOblique /Bookman-Demi /Bookman-DemiItalic /Bookman-Light
 /Bookman-LightItalic /Helvetica-Narrow /Helvetica-Narrow-Bold /Helvetica-Narrow-BoldOblique /Helvetica-Narrow-Oblique /NewCenturySchlbk-Roman /NewCenturySchlbk-Bold /NewCenturySchlbk-BoldItalic /NewCenturySchlbk-Italic /Palatino-Bold
 /Palatino-BoldItalic /Palatino-Italic /Palatino-Roman ] {ISOLatin1Encoding reEncode } forall
%%EndProlog
%%BeginSetup
%%EndSetup
newpath  gsave  .25 .25 scale  gsave  0 0 t black[  ] 0 sd 3 lw 1 1 1 c 2268 1538 0 0 bf black 1 1 1 c 1814 1230 227 154 bf black 1814 1230 227 154 bl 0 0 0.6 c 1 1 1 c black 0 0 0.6 c 227 154 m 1063 X 1172 Y 7 X -1172 Y 744 X s black 227 154 m 1814
 X s 227 191 m -37 Y s 298 172 m -18 Y s 369 172 m -18 Y s 439 172 m -18 Y s 510 172 m -18 Y s 581 191 m -37 Y s 652 172 m -18 Y s 723 172 m -18 Y s 794 172 m -18 Y s 865 172 m -18 Y s 935 191 m -37 Y s 1006 172 m -18 Y s 1077 172 m -18 Y s 1148 172
 m -18 Y s 1219 172 m -18 Y s 1290 191 m -37 Y s 1361 172 m -18 Y s 1431 172 m -18 Y s 1502 172 m -18 Y s 1573 172 m -18 Y s 1644 191 m -37 Y s 1715 172 m -18 Y s 1786 172 m -18 Y s 1857 172 m -18 Y s 1928 172 m -18 Y s 1998 191 m -37 Y s 1998 191 m
 -37 Y s
 gsave  2268 1538 0 0 C 211.784 104.263 t 0 r /Helvetica findfont 48.8732 sf 0 0 m (0) show NC gr 
 gsave  2268 1538 0 0 C 553.896 104.263 t 0 r /Helvetica findfont 48.8732 sf 0 0 m (50) show NC gr 
 gsave  2268 1538 0 0 C 892.75 104.263 t 0 r /Helvetica findfont 48.8732 sf 0 0 m (100) show NC gr 
 gsave  2268 1538 0 0 C 1244.64 104.263 t 0 r /Helvetica findfont 48.8732 sf 0 0 m (150) show NC gr 
 gsave  2268 1538 0 0 C 1599.78 104.263 t 0 r /Helvetica findfont 48.8732 sf 0 0 m (200) show NC gr 
 gsave  2268 1538 0 0 C 1954.93 104.263 t 0 r /Helvetica findfont 48.8732 sf 0 0 m (250) show NC gr  227 154 m 1230 Y s 281 154 m -54 X s 254 185 m -27 X s 254 216 m -27 X s 254 247 m -27 X s 281 277 m -54 X s 254 308 m -27 X s 254 339 m -27 X s 254
 370 m -27 X s 281 401 m -54 X s 254 432 m -27 X s 254 463 m -27 X s 254 494 m -27 X s 281 525 m -54 X s 254 556 m -27 X s 254 587 m -27 X s 254 618 m -27 X s 281 649 m -54 X s 254 680 m -27 X s 254 710 m -27 X s 254 741 m -27 X s 281 772 m -54 X s
 254 803 m -27 X s 254 834 m -27 X s 254 865 m -27 X s 281 896 m -54 X s 254 927 m -27 X s 254 958 m -27 X s 254 989 m -27 X s 281 1020 m -54 X s 254 1051 m -27 X s 254 1082 m -27 X s 254 1112 m -27 X s 281 1143 m -54 X s 254 1174 m -27 X s 254 1205
 m -27 X s 254 1236 m -27 X s 281 1267 m -54 X s 281 1267 m -54 X s 254 1298 m -27 X s 254 1329 m -27 X s 254 1360 m -27 X s
 gsave  2268 1538 0 0 C 188.976 136.845 t 0 r /Helvetica findfont 48.8732 sf 0 0 m (0) show NC gr 
 gsave  2268 1538 0 0 C 107.521 260.657 t 0 r /Helvetica findfont 48.8732 sf 0 0 m (2000) show NC gr 
 gsave  2268 1538 0 0 C 107.521 384.469 t 0 r /Helvetica findfont 48.8732 sf 0 0 m (4000) show NC gr 
 gsave  2268 1538 0 0 C 107.521 508.281 t 0 r /Helvetica findfont 48.8732 sf 0 0 m (6000) show NC gr 
 gsave  2268 1538 0 0 C 107.521 632.093 t 0 r /Helvetica findfont 48.8732 sf 0 0 m (8000) show NC gr 
 gsave  2268 1538 0 0 C 81.4553 755.906 t 0 r /Helvetica findfont 48.8732 sf 0 0 m (10000) show NC gr 
 gsave  2268 1538 0 0 C 81.4553 876.459 t 0 r /Helvetica findfont 48.8732 sf 0 0 m (12000) show NC gr 
 gsave  2268 1538 0 0 C 81.4553 1000.27 t 0 r /Helvetica findfont 48.8732 sf 0 0 m (14000) show NC gr 
 gsave  2268 1538 0 0 C 81.4553 1124.08 t 0 r /Helvetica findfont 48.8732 sf 0 0 m (16000) show NC gr 
 gsave  2268 1538 0 0 C 81.4553 1247.9 t 0 r /Helvetica findfont 48.8732 sf 0 0 m (18000) show NC gr  1 1 1 c black
 gsave  2268 1538 0 0 C 1036.11 1459.68 t 0 r /Helvetica findfont 68.4225 sf 0 0 m (VwllPr) show NC gr  1 1 1 c 453 246 1769 1192 bf black 1769 1192 m 453 X s 2222 1192 m 246 Y s 2222 1438 m -453 X s 1769 1438 m -246 Y s 1 1 1 c black
 gsave  2268 1538 0 0 C 1919.09 1384.74 t 0 r /Helvetica findfont 52.1314 sf 0 0 m (VwllPr) show NC gr  1769 1376 m 453 X s
 gsave  2268 1538 0 0 C 1788.76 1326.09 t 0 r /Helvetica findfont 52.1314 sf 0 0 m (Entries ) show NC gr 
 gsave  2268 1538 0 0 C 2039.64 1326.09 t 0 r /Helvetica findfont 52.1314 sf 0 0 m ( 18944) show NC gr 
 gsave  2268 1538 0 0 C 1788.76 1267.44 t 0 r /Helvetica findfont 52.1314 sf 0 0 m (Mean  ) show NC gr 
 gsave  2268 1538 0 0 C 2055.93 1267.44 t 0 r /Helvetica findfont 52.1314 sf 0 0 m (    150) show NC gr 
 gsave  2268 1538 0 0 C 1788.76 1205.54 t 0 r /Helvetica findfont 52.1314 sf 0 0 m (RMS   ) show NC gr 
 gsave  2268 1538 0 0 C 2085.26 1205.54 t 0 r /Helvetica findfont 52.1314 sf 0 0 m (      0) show NC gr  1 1 1 c black
 gsave  2268 1538 0 0 C 1036.11 1459.68 t 0 r /Helvetica findfont 68.4225 sf 0 0 m (VwllPr) show NC gr 
 gr  gr showpage
end
%%EOF
