ROC:           BPix_BpI_SEC2_LYR4_LDR5F_MOD1_ROC0
Vdd:           6
Vana:          77
Vsh:           30
Vcomp:         12
VwllPr:        150
VwllSh:        150
VHldDel:       250
Vtrim:         126
VcThr:         105
VIbias_bus:    30
PHOffset:      157
Vcomp_ADC:     50
PHScale:       90
VIColOr:       100
Vcal:          255
CalDel:        135
TempRange:     0
WBC:           164
ChipContReg:   0
Readback:      1
ROC:           BPix_BpI_SEC2_LYR4_LDR5F_MOD1_ROC1
Vdd:           6
Vana:          84
Vsh:           30
Vcomp:         12
VwllPr:        150
VwllSh:        150
VHldDel:       250
Vtrim:         107
VcThr:         84
VIbias_bus:    30
PHOffset:      153
Vcomp_ADC:     50
PHScale:       92
VIColOr:       100
Vcal:          255
CalDel:        135
TempRange:     0
WBC:           164
ChipContReg:   0
Readback:      1
ROC:           BPix_BpI_SEC2_LYR4_LDR5F_MOD1_ROC2
Vdd:           6
Vana:          81
Vsh:           30
Vcomp:         12
VwllPr:        150
VwllSh:        150
VHldDel:       250
Vtrim:         92
VcThr:         95
VIbias_bus:    30
PHOffset:      171
Vcomp_ADC:     50
PHScale:       87
VIColOr:       100
Vcal:          255
CalDel:        114
TempRange:     0
WBC:           164
ChipContReg:   0
Readback:      1
ROC:           BPix_BpI_SEC2_LYR4_LDR5F_MOD1_ROC3
Vdd:           6
Vana:          79
Vsh:           30
Vcomp:         12
VwllPr:        150
VwllSh:        150
VHldDel:       250
Vtrim:         92
VcThr:         84
VIbias_bus:    30
PHOffset:      161
Vcomp_ADC:     50
PHScale:       80
VIColOr:       100
Vcal:          255
CalDel:        131
TempRange:     0
WBC:           164
ChipContReg:   0
Readback:      1
ROC:           BPix_BpI_SEC2_LYR4_LDR5F_MOD1_ROC4
Vdd:           6
Vana:          74
Vsh:           30
Vcomp:         12
VwllPr:        150
VwllSh:        150
VHldDel:       250
Vtrim:         86
VcThr:         79
VIbias_bus:    30
PHOffset:      160
Vcomp_ADC:     50
PHScale:       80
VIColOr:       100
Vcal:          255
CalDel:        147
TempRange:     0
WBC:           164
ChipContReg:   0
Readback:      1
ROC:           BPix_BpI_SEC2_LYR4_LDR5F_MOD1_ROC5
Vdd:           6
Vana:          84
Vsh:           30
Vcomp:         12
VwllPr:        150
VwllSh:        150
VHldDel:       250
Vtrim:         104
VcThr:         99
VIbias_bus:    30
PHOffset:      168
Vcomp_ADC:     50
PHScale:       75
VIColOr:       100
Vcal:          255
CalDel:        118
TempRange:     0
WBC:           164
ChipContReg:   0
Readback:      1
ROC:           BPix_BpI_SEC2_LYR4_LDR5F_MOD1_ROC6
Vdd:           6
Vana:          81
Vsh:           30
Vcomp:         12
VwllPr:        150
VwllSh:        150
VHldDel:       250
Vtrim:         94
VcThr:         100
VIbias_bus:    30
PHOffset:      165
Vcomp_ADC:     50
PHScale:       72
VIColOr:       100
Vcal:          255
CalDel:        125
TempRange:     0
WBC:           164
ChipContReg:   0
Readback:      1
ROC:           BPix_BpI_SEC2_LYR4_LDR5F_MOD1_ROC7
Vdd:           6
Vana:          87
Vsh:           30
Vcomp:         12
VwllPr:        150
VwllSh:        150
VHldDel:       250
Vtrim:         103
VcThr:         104
VIbias_bus:    30
PHOffset:      151
Vcomp_ADC:     50
PHScale:       70
VIColOr:       100
Vcal:          255
CalDel:        136
TempRange:     0
WBC:           164
ChipContReg:   0
Readback:      1
ROC:           BPix_BpI_SEC2_LYR4_LDR5F_MOD1_ROC8
Vdd:           6
Vana:          84
Vsh:           30
Vcomp:         12
VwllPr:        150
VwllSh:        150
VHldDel:       250
Vtrim:         137
VcThr:         86
VIbias_bus:    30
PHOffset:      166
Vcomp_ADC:     50
PHScale:       80
VIColOr:       100
Vcal:          255
CalDel:        182
TempRange:     0
WBC:           164
ChipContReg:   0
Readback:      1
ROC:           BPix_BpI_SEC2_LYR4_LDR5F_MOD1_ROC9
Vdd:           6
Vana:          79
Vsh:           30
Vcomp:         12
VwllPr:        150
VwllSh:        150
VHldDel:       250
Vtrim:         104
VcThr:         96
VIbias_bus:    30
PHOffset:      167
Vcomp_ADC:     50
PHScale:       79
VIColOr:       100
Vcal:          255
CalDel:        131
TempRange:     0
WBC:           164
ChipContReg:   0
Readback:      1
ROC:           BPix_BpI_SEC2_LYR4_LDR5F_MOD1_ROC10
Vdd:           6
Vana:          69
Vsh:           30
Vcomp:         12
VwllPr:        150
VwllSh:        150
VHldDel:       250
Vtrim:         102
VcThr:         78
VIbias_bus:    30
PHOffset:      152
Vcomp_ADC:     50
PHScale:       78
VIColOr:       100
Vcal:          255
CalDel:        176
TempRange:     0
WBC:           164
ChipContReg:   0
Readback:      1
ROC:           BPix_BpI_SEC2_LYR4_LDR5F_MOD1_ROC11
Vdd:           6
Vana:          82
Vsh:           30
Vcomp:         12
VwllPr:        150
VwllSh:        150
VHldDel:       250
Vtrim:         125
VcThr:         88
VIbias_bus:    30
PHOffset:      167
Vcomp_ADC:     50
PHScale:       77
VIColOr:       100
Vcal:          255
CalDel:        143
TempRange:     0
WBC:           164
ChipContReg:   0
Readback:      1
ROC:           BPix_BpI_SEC2_LYR4_LDR5F_MOD1_ROC12
Vdd:           6
Vana:          82
Vsh:           30
Vcomp:         12
VwllPr:        150
VwllSh:        150
VHldDel:       250
Vtrim:         144
VcThr:         88
VIbias_bus:    30
PHOffset:      180
Vcomp_ADC:     50
PHScale:       84
VIColOr:       100
Vcal:          255
CalDel:        152
TempRange:     0
WBC:           164
ChipContReg:   0
Readback:      1
ROC:           BPix_BpI_SEC2_LYR4_LDR5F_MOD1_ROC13
Vdd:           6
Vana:          84
Vsh:           30
Vcomp:         12
VwllPr:        150
VwllSh:        150
VHldDel:       250
Vtrim:         104
VcThr:         93
VIbias_bus:    30
PHOffset:      152
Vcomp_ADC:     50
PHScale:       88
VIColOr:       100
Vcal:          255
CalDel:        123
TempRange:     0
WBC:           164
ChipContReg:   0
Readback:      1
ROC:           BPix_BpI_SEC2_LYR4_LDR5F_MOD1_ROC14
Vdd:           6
Vana:          74
Vsh:           30
Vcomp:         12
VwllPr:        150
VwllSh:        150
VHldDel:       250
Vtrim:         111
VcThr:         95
VIbias_bus:    30
PHOffset:      162
Vcomp_ADC:     50
PHScale:       86
VIColOr:       100
Vcal:          255
CalDel:        160
TempRange:     0
WBC:           164
ChipContReg:   0
Readback:      1
ROC:           BPix_BpI_SEC2_LYR4_LDR5F_MOD1_ROC15
Vdd:           6
Vana:          71
Vsh:           30
Vcomp:         12
VwllPr:        150
VwllSh:        150
VHldDel:       250
Vtrim:         103
VcThr:         88
VIbias_bus:    30
PHOffset:      151
Vcomp_ADC:     50
PHScale:       82
VIColOr:       100
Vcal:          255
CalDel:        140
TempRange:     0
WBC:           164
ChipContReg:   0
Readback:      1
