ROC:           BPix_BmO_SEC7_LYR1_LDR5H_MOD2_ROC4
Vdd:           6
Vana:          81
Vsh:           8
Vcomp:         12
VwllPr:        150
VwllSh:        150
VHldDel:       250
Vtrim:         109
VcThr:         52
VIbias_bus:    250
PHOffset:      154
Vcomp_ADC:     50
PHScale:       70
VIColOr:       100
Vcal:          200
CalDel:        166
TempRange:     0
WBC:           164
ChipContReg:   16
Readback:      1
ROC:           BPix_BmO_SEC7_LYR1_LDR5H_MOD2_ROC5
Vdd:           6
Vana:          70
Vsh:           8
Vcomp:         12
VwllPr:        150
VwllSh:        150
VHldDel:       250
Vtrim:         100
VcThr:         64
VIbias_bus:    250
PHOffset:      152
Vcomp_ADC:     50
PHScale:       70
VIColOr:       100
Vcal:          200
CalDel:        179
TempRange:     0
WBC:           164
ChipContReg:   16
Readback:      1
ROC:           BPix_BmO_SEC7_LYR1_LDR5H_MOD2_ROC6
Vdd:           6
Vana:          66
Vsh:           8
Vcomp:         12
VwllPr:        150
VwllSh:        150
VHldDel:       250
Vtrim:         108
VcThr:         76
VIbias_bus:    250
PHOffset:      152
Vcomp_ADC:     50
PHScale:       70
VIColOr:       100
Vcal:          200
CalDel:        168
TempRange:     0
WBC:           164
ChipContReg:   16
Readback:      1
ROC:           BPix_BmO_SEC7_LYR1_LDR5H_MOD2_ROC7
Vdd:           6
Vana:          74
Vsh:           8
Vcomp:         12
VwllPr:        150
VwllSh:        150
VHldDel:       250
Vtrim:         103
VcThr:         78
VIbias_bus:    250
PHOffset:      141
Vcomp_ADC:     50
PHScale:       70
VIColOr:       100
Vcal:          200
CalDel:        187
TempRange:     0
WBC:           164
ChipContReg:   16
Readback:      1
ROC:           BPix_BmO_SEC7_LYR1_LDR5H_MOD2_ROC8
Vdd:           6
Vana:          87
Vsh:           8
Vcomp:         12
VwllPr:        150
VwllSh:        150
VHldDel:       250
Vtrim:         94
VcThr:         46
VIbias_bus:    250
PHOffset:      137
Vcomp_ADC:     50
PHScale:       70
VIColOr:       100
Vcal:          200
CalDel:        182
TempRange:     0
WBC:           164
ChipContReg:   16
Readback:      1
ROC:           BPix_BmO_SEC7_LYR1_LDR5H_MOD2_ROC9
Vdd:           6
Vana:          72
Vsh:           8
Vcomp:         12
VwllPr:        150
VwllSh:        150
VHldDel:       250
Vtrim:         109
VcThr:         60
VIbias_bus:    250
PHOffset:      162
Vcomp_ADC:     50
PHScale:       70
VIColOr:       100
Vcal:          200
CalDel:        206
TempRange:     0
WBC:           164
ChipContReg:   16
Readback:      1
ROC:           BPix_BmO_SEC7_LYR1_LDR5H_MOD2_ROC10
Vdd:           6
Vana:          69
Vsh:           8
Vcomp:         12
VwllPr:        150
VwllSh:        150
VHldDel:       250
Vtrim:         105
VcThr:         63
VIbias_bus:    250
PHOffset:      137
Vcomp_ADC:     50
PHScale:       70
VIColOr:       100
Vcal:          200
CalDel:        193
TempRange:     0
WBC:           164
ChipContReg:   16
Readback:      1
ROC:           BPix_BmO_SEC7_LYR1_LDR5H_MOD2_ROC11
Vdd:           6
Vana:          84
Vsh:           8
Vcomp:         12
VwllPr:        150
VwllSh:        150
VHldDel:       250
Vtrim:         110
VcThr:         49
VIbias_bus:    250
PHOffset:      169
Vcomp_ADC:     50
PHScale:       70
VIColOr:       100
Vcal:          200
CalDel:        204
TempRange:     0
WBC:           164
ChipContReg:   16
Readback:      1
