ROC:           BPix_BpO_SEC1_LYR1_LDR1F_MOD4_ROC0
Vdd:           6
Vana:          78
Vsh:           8
Vcomp:         12
VwllPr:        150
VwllSh:        150
VHldDel:       250
Vtrim:         110
VcThr:         69
VIbias_bus:    250
PHOffset:      156
Vcomp_ADC:     50
PHScale:       70
VIColOr:       100
Vcal:          200
CalDel:        191
TempRange:     0
WBC:           164
ChipContReg:   16
Readback:      1
ROC:           BPix_BpO_SEC1_LYR1_LDR1F_MOD4_ROC1
Vdd:           6
Vana:          82
Vsh:           8
Vcomp:         12
VwllPr:        150
VwllSh:        150
VHldDel:       250
Vtrim:         101
VcThr:         58
VIbias_bus:    250
PHOffset:      171
Vcomp_ADC:     50
PHScale:       70
VIColOr:       100
Vcal:          200
CalDel:        171
TempRange:     0
WBC:           164
ChipContReg:   16
Readback:      1
ROC:           BPix_BpO_SEC1_LYR1_LDR1F_MOD4_ROC2
Vdd:           6
Vana:          75
Vsh:           8
Vcomp:         12
VwllPr:        150
VwllSh:        150
VHldDel:       250
Vtrim:         88
VcThr:         45
VIbias_bus:    250
PHOffset:      180
Vcomp_ADC:     50
PHScale:       70
VIColOr:       100
Vcal:          200
CalDel:        122
TempRange:     0
WBC:           164
ChipContReg:   16
Readback:      1
ROC:           BPix_BpO_SEC1_LYR1_LDR1F_MOD4_ROC3
Vdd:           6
Vana:          80
Vsh:           8
Vcomp:         12
VwllPr:        150
VwllSh:        150
VHldDel:       250
Vtrim:         96
VcThr:         48
VIbias_bus:    250
PHOffset:      155
Vcomp_ADC:     50
PHScale:       70
VIColOr:       100
Vcal:          200
CalDel:        175
TempRange:     0
WBC:           164
ChipContReg:   16
Readback:      1
ROC:           BPix_BpO_SEC1_LYR1_LDR1F_MOD4_ROC12
Vdd:           6
Vana:          76
Vsh:           8
Vcomp:         12
VwllPr:        150
VwllSh:        150
VHldDel:       250
Vtrim:         104
VcThr:         70
VIbias_bus:    250
PHOffset:      169
Vcomp_ADC:     50
PHScale:       70
VIColOr:       100
Vcal:          200
CalDel:        178
TempRange:     0
WBC:           164
ChipContReg:   16
Readback:      1
ROC:           BPix_BpO_SEC1_LYR1_LDR1F_MOD4_ROC13
Vdd:           6
Vana:          77
Vsh:           8
Vcomp:         12
VwllPr:        150
VwllSh:        150
VHldDel:       250
Vtrim:         105
VcThr:         51
VIbias_bus:    250
PHOffset:      160
Vcomp_ADC:     50
PHScale:       70
VIColOr:       100
Vcal:          200
CalDel:        166
TempRange:     0
WBC:           164
ChipContReg:   16
Readback:      1
ROC:           BPix_BpO_SEC1_LYR1_LDR1F_MOD4_ROC14
Vdd:           6
Vana:          70
Vsh:           8
Vcomp:         12
VwllPr:        150
VwllSh:        150
VHldDel:       250
Vtrim:         114
VcThr:         71
VIbias_bus:    250
PHOffset:      159
Vcomp_ADC:     50
PHScale:       70
VIColOr:       100
Vcal:          200
CalDel:        153
TempRange:     0
WBC:           164
ChipContReg:   16
Readback:      1
ROC:           BPix_BpO_SEC1_LYR1_LDR1F_MOD4_ROC15
Vdd:           6
Vana:          80
Vsh:           8
Vcomp:         12
VwllPr:        150
VwllSh:        150
VHldDel:       250
Vtrim:         102
VcThr:         74
VIbias_bus:    250
PHOffset:      170
Vcomp_ADC:     50
PHScale:       70
VIColOr:       100
Vcal:          200
CalDel:        176
TempRange:     0
WBC:           164
ChipContReg:   16
Readback:      1
