ROC:           BPix_BpI_SEC1_LYR1_LDR1H_MOD3_ROC4
Vdd:           6
Vana:          75
Vsh:           8
Vcomp:         12
VwllPr:        150
VwllSh:        150
VHldDel:       250
Vtrim:         87
VcThr:         52
VIbias_bus:    250
PHOffset:      165
Vcomp_ADC:     50
PHScale:       70
VIColOr:       100
Vcal:          200
CalDel:        158
TempRange:     0
WBC:           164
ChipContReg:   16
Readback:      1
ROC:           BPix_BpI_SEC1_LYR1_LDR1H_MOD3_ROC5
Vdd:           6
Vana:          90
Vsh:           8
Vcomp:         12
VwllPr:        150
VwllSh:        150
VHldDel:       250
Vtrim:         108
VcThr:         42
VIbias_bus:    250
PHOffset:      145
Vcomp_ADC:     50
PHScale:       70
VIColOr:       100
Vcal:          200
CalDel:        181
TempRange:     0
WBC:           164
ChipContReg:   16
Readback:      1
ROC:           BPix_BpI_SEC1_LYR1_LDR1H_MOD3_ROC6
Vdd:           6
Vana:          75
Vsh:           8
Vcomp:         12
VwllPr:        150
VwllSh:        150
VHldDel:       250
Vtrim:         105
VcThr:         59
VIbias_bus:    250
PHOffset:      146
Vcomp_ADC:     50
PHScale:       70
VIColOr:       100
Vcal:          200
CalDel:        210
TempRange:     0
WBC:           164
ChipContReg:   16
Readback:      1
ROC:           BPix_BpI_SEC1_LYR1_LDR1H_MOD3_ROC7
Vdd:           6
Vana:          65
Vsh:           8
Vcomp:         12
VwllPr:        150
VwllSh:        150
VHldDel:       250
Vtrim:         103
VcThr:         68
VIbias_bus:    250
PHOffset:      156
Vcomp_ADC:     50
PHScale:       70
VIColOr:       100
Vcal:          200
CalDel:        179
TempRange:     0
WBC:           164
ChipContReg:   16
Readback:      1
ROC:           BPix_BpI_SEC1_LYR1_LDR1H_MOD3_ROC8
Vdd:           6
Vana:          72
Vsh:           8
Vcomp:         12
VwllPr:        150
VwllSh:        150
VHldDel:       250
Vtrim:         76
VcThr:         46
VIbias_bus:    250
PHOffset:      176
Vcomp_ADC:     50
PHScale:       70
VIColOr:       100
Vcal:          200
CalDel:        183
TempRange:     0
WBC:           164
ChipContReg:   16
Readback:      1
ROC:           BPix_BpI_SEC1_LYR1_LDR1H_MOD3_ROC9
Vdd:           6
Vana:          73
Vsh:           8
Vcomp:         12
VwllPr:        150
VwllSh:        150
VHldDel:       250
Vtrim:         110
VcThr:         57
VIbias_bus:    250
PHOffset:      146
Vcomp_ADC:     50
PHScale:       70
VIColOr:       100
Vcal:          200
CalDel:        200
TempRange:     0
WBC:           164
ChipContReg:   16
Readback:      1
ROC:           BPix_BpI_SEC1_LYR1_LDR1H_MOD3_ROC10
Vdd:           6
Vana:          73
Vsh:           8
Vcomp:         12
VwllPr:        150
VwllSh:        150
VHldDel:       250
Vtrim:         85
VcThr:         45
VIbias_bus:    250
PHOffset:      156
Vcomp_ADC:     50
PHScale:       70
VIColOr:       100
Vcal:          200
CalDel:        174
TempRange:     0
WBC:           164
ChipContReg:   16
Readback:      1
ROC:           BPix_BpI_SEC1_LYR1_LDR1H_MOD3_ROC11
Vdd:           6
Vana:          65
Vsh:           8
Vcomp:         12
VwllPr:        150
VwllSh:        150
VHldDel:       250
Vtrim:         86
VcThr:         49
VIbias_bus:    250
PHOffset:      174
Vcomp_ADC:     50
PHScale:       70
VIColOr:       100
Vcal:          200
CalDel:        160
TempRange:     0
WBC:           164
ChipContReg:   16
Readback:      1
