ROC:           BPix_BpO_SEC1_LYR1_LDR1H_MOD2_ROC4
Vdd:           6
Vana:          85
Vsh:           30
Vcomp:         12
VwllPr:        150
VwllSh:        150
VHldDel:       250
Vtrim:         103
VcThr:         59
VIbias_bus:    30
PHOffset:      150
Vcomp_ADC:     50
PHScale:       90
VIColOr:       100
Vcal:          200
CalDel:        167
TempRange:     0
WBC:           164
ChipContReg:   16
Readback:      1
ROC:           BPix_BpO_SEC1_LYR1_LDR1H_MOD2_ROC5
Vdd:           6
Vana:          85
Vsh:           30
Vcomp:         12
VwllPr:        150
VwllSh:        150
VHldDel:       250
Vtrim:         107
VcThr:         80
VIbias_bus:    30
PHOffset:      150
Vcomp_ADC:     50
PHScale:       90
VIColOr:       100
Vcal:          200
CalDel:        174
TempRange:     0
WBC:           164
ChipContReg:   16
Readback:      1
ROC:           BPix_BpO_SEC1_LYR1_LDR1H_MOD2_ROC6
Vdd:           6
Vana:          75
Vsh:           30
Vcomp:         12
VwllPr:        150
VwllSh:        150
VHldDel:       250
Vtrim:         98
VcThr:         75
VIbias_bus:    30
PHOffset:      150
Vcomp_ADC:     50
PHScale:       90
VIColOr:       100
Vcal:          200
CalDel:        172
TempRange:     0
WBC:           164
ChipContReg:   16
Readback:      1
ROC:           BPix_BpO_SEC1_LYR1_LDR1H_MOD2_ROC7
Vdd:           6
Vana:          75
Vsh:           30
Vcomp:         12
VwllPr:        150
VwllSh:        150
VHldDel:       250
Vtrim:         97
VcThr:         67
VIbias_bus:    30
PHOffset:      150
Vcomp_ADC:     50
PHScale:       90
VIColOr:       100
Vcal:          200
CalDel:        183
TempRange:     0
WBC:           164
ChipContReg:   16
Readback:      1
ROC:           BPix_BpO_SEC1_LYR1_LDR1H_MOD2_ROC8
Vdd:           6
Vana:          75
Vsh:           30
Vcomp:         12
VwllPr:        150
VwllSh:        150
VHldDel:       250
Vtrim:         91
VcThr:         70
VIbias_bus:    30
PHOffset:      150
Vcomp_ADC:     50
PHScale:       90
VIColOr:       100
Vcal:          200
CalDel:        176
TempRange:     0
WBC:           164
ChipContReg:   16
Readback:      1
ROC:           BPix_BpO_SEC1_LYR1_LDR1H_MOD2_ROC9
Vdd:           6
Vana:          78
Vsh:           30
Vcomp:         12
VwllPr:        150
VwllSh:        150
VHldDel:       250
Vtrim:         90
VcThr:         69
VIbias_bus:    30
PHOffset:      150
Vcomp_ADC:     50
PHScale:       90
VIColOr:       100
Vcal:          200
CalDel:        172
TempRange:     0
WBC:           164
ChipContReg:   16
Readback:      1
ROC:           BPix_BpO_SEC1_LYR1_LDR1H_MOD2_ROC10
Vdd:           6
Vana:          83
Vsh:           30
Vcomp:         12
VwllPr:        150
VwllSh:        150
VHldDel:       250
Vtrim:         102
VcThr:         75
VIbias_bus:    30
PHOffset:      150
Vcomp_ADC:     50
PHScale:       90
VIColOr:       100
Vcal:          200
CalDel:        175
TempRange:     0
WBC:           164
ChipContReg:   16
Readback:      1
ROC:           BPix_BpO_SEC1_LYR1_LDR1H_MOD2_ROC11
Vdd:           6
Vana:          81
Vsh:           30
Vcomp:         12
VwllPr:        150
VwllSh:        150
VHldDel:       250
Vtrim:         100
VcThr:         79
VIbias_bus:    30
PHOffset:      150
Vcomp_ADC:     50
PHScale:       90
VIColOr:       100
Vcal:          200
CalDel:        151
TempRange:     0
WBC:           164
ChipContReg:   16
Readback:      1
