ROC:           BPix_BmI_SEC5_LYR2_LDR9F_MOD4_ROC0
Vdd:           6
Vana:          74
Vsh:           30
Vcomp:         12
VwllPr:        150
VwllSh:        150
VHldDel:       250
Vtrim:         91
VcThr:         96
VIbias_bus:    30
PHOffset:      156
Vcomp_ADC:     50
PHScale:       78
VIColOr:       100
Vcal:          200
CalDel:        132
TempRange:     0
WBC:           164
ChipContReg:   0
Readback:      1
ROC:           BPix_BmI_SEC5_LYR2_LDR9F_MOD4_ROC1
Vdd:           6
Vana:          92
Vsh:           30
Vcomp:         12
VwllPr:        150
VwllSh:        150
VHldDel:       250
Vtrim:         92
VcThr:         84
VIbias_bus:    30
PHOffset:      153
Vcomp_ADC:     50
PHScale:       81
VIColOr:       100
Vcal:          200
CalDel:        143
TempRange:     0
WBC:           164
ChipContReg:   0
Readback:      1
ROC:           BPix_BmI_SEC5_LYR2_LDR9F_MOD4_ROC2
Vdd:           6
Vana:          80
Vsh:           30
Vcomp:         12
VwllPr:        150
VwllSh:        150
VHldDel:       250
Vtrim:         109
VcThr:         98
VIbias_bus:    30
PHOffset:      169
Vcomp_ADC:     50
PHScale:       77
VIColOr:       100
Vcal:          200
CalDel:        155
TempRange:     0
WBC:           164
ChipContReg:   0
Readback:      1
ROC:           BPix_BmI_SEC5_LYR2_LDR9F_MOD4_ROC3
Vdd:           6
Vana:          87
Vsh:           30
Vcomp:         12
VwllPr:        150
VwllSh:        150
VHldDel:       250
Vtrim:         96
VcThr:         92
VIbias_bus:    30
PHOffset:      155
Vcomp_ADC:     50
PHScale:       77
VIColOr:       100
Vcal:          200
CalDel:        174
TempRange:     0
WBC:           164
ChipContReg:   0
Readback:      1
ROC:           BPix_BmI_SEC5_LYR2_LDR9F_MOD4_ROC4
Vdd:           6
Vana:          78
Vsh:           30
Vcomp:         12
VwllPr:        150
VwllSh:        150
VHldDel:       250
Vtrim:         93
VcThr:         93
VIbias_bus:    30
PHOffset:      165
Vcomp_ADC:     50
PHScale:       75
VIColOr:       100
Vcal:          200
CalDel:        160
TempRange:     0
WBC:           164
ChipContReg:   0
Readback:      1
ROC:           BPix_BmI_SEC5_LYR2_LDR9F_MOD4_ROC5
Vdd:           6
Vana:          75
Vsh:           30
Vcomp:         12
VwllPr:        150
VwllSh:        150
VHldDel:       250
Vtrim:         111
VcThr:         91
VIbias_bus:    30
PHOffset:      145
Vcomp_ADC:     50
PHScale:       82
VIColOr:       100
Vcal:          200
CalDel:        179
TempRange:     0
WBC:           164
ChipContReg:   0
Readback:      1
ROC:           BPix_BmI_SEC5_LYR2_LDR9F_MOD4_ROC6
Vdd:           6
Vana:          85
Vsh:           30
Vcomp:         12
VwllPr:        150
VwllSh:        150
VHldDel:       250
Vtrim:         99
VcThr:         91
VIbias_bus:    30
PHOffset:      148
Vcomp_ADC:     50
PHScale:       92
VIColOr:       100
Vcal:          200
CalDel:        148
TempRange:     0
WBC:           164
ChipContReg:   0
Readback:      1
ROC:           BPix_BmI_SEC5_LYR2_LDR9F_MOD4_ROC7
Vdd:           6
Vana:          83
Vsh:           30
Vcomp:         12
VwllPr:        150
VwllSh:        150
VHldDel:       250
Vtrim:         102
VcThr:         97
VIbias_bus:    30
PHOffset:      164
Vcomp_ADC:     50
PHScale:       80
VIColOr:       100
Vcal:          200
CalDel:        155
TempRange:     0
WBC:           164
ChipContReg:   0
Readback:      1
ROC:           BPix_BmI_SEC5_LYR2_LDR9F_MOD4_ROC8
Vdd:           6
Vana:          78
Vsh:           30
Vcomp:         12
VwllPr:        150
VwllSh:        150
VHldDel:       250
Vtrim:         91
VcThr:         101
VIbias_bus:    30
PHOffset:      161
Vcomp_ADC:     50
PHScale:       80
VIColOr:       100
Vcal:          200
CalDel:        147
TempRange:     0
WBC:           164
ChipContReg:   0
Readback:      1
ROC:           BPix_BmI_SEC5_LYR2_LDR9F_MOD4_ROC9
Vdd:           6
Vana:          98
Vsh:           30
Vcomp:         12
VwllPr:        150
VwllSh:        150
VHldDel:       250
Vtrim:         107
VcThr:         87
VIbias_bus:    30
PHOffset:      160
Vcomp_ADC:     50
PHScale:       80
VIColOr:       100
Vcal:          200
CalDel:        164
TempRange:     0
WBC:           164
ChipContReg:   0
Readback:      1
ROC:           BPix_BmI_SEC5_LYR2_LDR9F_MOD4_ROC10
Vdd:           6
Vana:          80
Vsh:           30
Vcomp:         12
VwllPr:        150
VwllSh:        150
VHldDel:       250
Vtrim:         98
VcThr:         89
VIbias_bus:    30
PHOffset:      160
Vcomp_ADC:     50
PHScale:       85
VIColOr:       100
Vcal:          200
CalDel:        139
TempRange:     0
WBC:           164
ChipContReg:   0
Readback:      1
ROC:           BPix_BmI_SEC5_LYR2_LDR9F_MOD4_ROC11
Vdd:           6
Vana:          80
Vsh:           30
Vcomp:         12
VwllPr:        150
VwllSh:        150
VHldDel:       250
Vtrim:         108
VcThr:         88
VIbias_bus:    30
PHOffset:      157
Vcomp_ADC:     50
PHScale:       80
VIColOr:       100
Vcal:          200
CalDel:        155
TempRange:     0
WBC:           164
ChipContReg:   0
Readback:      1
ROC:           BPix_BmI_SEC5_LYR2_LDR9F_MOD4_ROC12
Vdd:           6
Vana:          78
Vsh:           30
Vcomp:         12
VwllPr:        150
VwllSh:        150
VHldDel:       250
Vtrim:         105
VcThr:         82
VIbias_bus:    30
PHOffset:      144
Vcomp_ADC:     50
PHScale:       83
VIColOr:       100
Vcal:          200
CalDel:        153
TempRange:     0
WBC:           164
ChipContReg:   0
Readback:      1
ROC:           BPix_BmI_SEC5_LYR2_LDR9F_MOD4_ROC13
Vdd:           6
Vana:          78
Vsh:           30
Vcomp:         12
VwllPr:        150
VwllSh:        150
VHldDel:       250
Vtrim:         106
VcThr:         101
VIbias_bus:    30
PHOffset:      165
Vcomp_ADC:     50
PHScale:       80
VIColOr:       100
Vcal:          200
CalDel:        156
TempRange:     0
WBC:           164
ChipContReg:   0
Readback:      1
ROC:           BPix_BmI_SEC5_LYR2_LDR9F_MOD4_ROC14
Vdd:           6
Vana:          94
Vsh:           30
Vcomp:         12
VwllPr:        150
VwllSh:        150
VHldDel:       250
Vtrim:         92
VcThr:         93
VIbias_bus:    30
PHOffset:      160
Vcomp_ADC:     50
PHScale:       85
VIColOr:       100
Vcal:          200
CalDel:        130
TempRange:     0
WBC:           164
ChipContReg:   0
Readback:      1
ROC:           BPix_BmI_SEC5_LYR2_LDR9F_MOD4_ROC15
Vdd:           6
Vana:          82
Vsh:           30
Vcomp:         12
VwllPr:        150
VwllSh:        150
VHldDel:       250
Vtrim:         103
VcThr:         88
VIbias_bus:    30
PHOffset:      170
Vcomp_ADC:     50
PHScale:       85
VIColOr:       100
Vcal:          200
CalDel:        136
TempRange:     0
WBC:           164
ChipContReg:   0
Readback:      1
