ROC:           BPix_BmI_SEC1_LYR1_LDR1H_MOD2_ROC4
Vdd:           6
Vana:          74
Vsh:           30
Vcomp:         12
VwllPr:        150
VwllSh:        150
VHldDel:       250
Vtrim:         107
VcThr:         81
VIbias_bus:    30
PHOffset:      160
Vcomp_ADC:     50
PHScale:       90
VIColOr:       100
Vcal:          200
CalDel:        174
TempRange:     0
WBC:           164
ChipContReg:   16
Readback:      1
ROC:           BPix_BmI_SEC1_LYR1_LDR1H_MOD2_ROC5
Vdd:           6
Vana:          83
Vsh:           30
Vcomp:         12
VwllPr:        150
VwllSh:        150
VHldDel:       250
Vtrim:         97
VcThr:         74
VIbias_bus:    30
PHOffset:      160
Vcomp_ADC:     50
PHScale:       90
VIColOr:       100
Vcal:          200
CalDel:        158
TempRange:     0
WBC:           164
ChipContReg:   16
Readback:      1
ROC:           BPix_BmI_SEC1_LYR1_LDR1H_MOD2_ROC6
Vdd:           6
Vana:          74
Vsh:           30
Vcomp:         12
VwllPr:        150
VwllSh:        150
VHldDel:       250
Vtrim:         93
VcThr:         76
VIbias_bus:    30
PHOffset:      160
Vcomp_ADC:     50
PHScale:       90
VIColOr:       100
Vcal:          200
CalDel:        177
TempRange:     0
WBC:           164
ChipContReg:   16
Readback:      1
ROC:           BPix_BmI_SEC1_LYR1_LDR1H_MOD2_ROC7
Vdd:           6
Vana:          64
Vsh:           30
Vcomp:         12
VwllPr:        150
VwllSh:        150
VHldDel:       250
Vtrim:         86
VcThr:         74
VIbias_bus:    30
PHOffset:      160
Vcomp_ADC:     50
PHScale:       90
VIColOr:       100
Vcal:          200
CalDel:        187
TempRange:     0
WBC:           164
ChipContReg:   16
Readback:      1
ROC:           BPix_BmI_SEC1_LYR1_LDR1H_MOD2_ROC8
Vdd:           6
Vana:          74
Vsh:           30
Vcomp:         12
VwllPr:        150
VwllSh:        150
VHldDel:       250
Vtrim:         103
VcThr:         89
VIbias_bus:    30
PHOffset:      160
Vcomp_ADC:     50
PHScale:       90
VIColOr:       100
Vcal:          200
CalDel:        174
TempRange:     0
WBC:           164
ChipContReg:   16
Readback:      1
ROC:           BPix_BmI_SEC1_LYR1_LDR1H_MOD2_ROC9
Vdd:           6
Vana:          78
Vsh:           30
Vcomp:         12
VwllPr:        150
VwllSh:        150
VHldDel:       250
Vtrim:         114
VcThr:         84
VIbias_bus:    30
PHOffset:      160
Vcomp_ADC:     50
PHScale:       90
VIColOr:       100
Vcal:          200
CalDel:        180
TempRange:     0
WBC:           164
ChipContReg:   16
Readback:      1
ROC:           BPix_BmI_SEC1_LYR1_LDR1H_MOD2_ROC10
Vdd:           6
Vana:          79
Vsh:           30
Vcomp:         12
VwllPr:        150
VwllSh:        150
VHldDel:       250
Vtrim:         115
VcThr:         77
VIbias_bus:    30
PHOffset:      160
Vcomp_ADC:     50
PHScale:       90
VIColOr:       100
Vcal:          200
CalDel:        177
TempRange:     0
WBC:           164
ChipContReg:   16
Readback:      1
ROC:           BPix_BmI_SEC1_LYR1_LDR1H_MOD2_ROC11
Vdd:           6
Vana:          69
Vsh:           30
Vcomp:         12
VwllPr:        150
VwllSh:        150
VHldDel:       250
Vtrim:         124
VcThr:         77
VIbias_bus:    30
PHOffset:      160
Vcomp_ADC:     50
PHScale:       90
VIColOr:       100
Vcal:          200
CalDel:        179
TempRange:     0
WBC:           164
ChipContReg:   16
Readback:      1
