BPix_BmI_SEC5_LYR2_LDR9F_MOD4_ROC0
TBMABase0: 0
TBMBBase0: 0
TBMAAutoReset: 0
TBMBAutoReset: 0
TBMANoTokenPass: 0
TBMBNoTokenPass: 0
TBMADisablePKAMCounter: 1
TBMBDisablePKAMCounter: 1
TBMAPKAMCount: 5
TBMBPKAMCount: 5
TBMPLLDelay: 24
TBMADelay: 237
TBMBDelay: 237
