BPix_BmI_SEC1_LYR2_LDR1F_MOD1_ROC0
TBMABase0: 0
TBMBBase0: 0
TBMAAutoReset: 0
TBMBAutoReset: 0
TBMANoTokenPass: 0
TBMBNoTokenPass: 0
TBMADisablePKAMCounter: 1
TBMBDisablePKAMCounter: 1
TBMAPKAMCount: 5
TBMBPKAMCount: 5
TBMPLLDelay: 52
TBMADelay: 100
TBMBDelay: 100
