ROC:           BPix_BpI_SEC5_LYR4_LDR20F_MOD2_ROC0
Vdd:           6
Vana:          91
Vsh:           30
Vcomp:         12
VwllPr:        150
VwllSh:        150
VHldDel:       250
Vtrim:         105
VcThr:         106
VIbias_bus:    30
PHOffset:      158
Vcomp_ADC:     50
PHScale:       84
VIColOr:       100
Vcal:          200
CalDel:        148
TempRange:     0
WBC:           164
ChipContReg:   0
Readback:      1
ROC:           BPix_BpI_SEC5_LYR4_LDR20F_MOD2_ROC1
Vdd:           6
Vana:          89
Vsh:           30
Vcomp:         12
VwllPr:        150
VwllSh:        150
VHldDel:       250
Vtrim:         144
VcThr:         102
VIbias_bus:    30
PHOffset:      170
Vcomp_ADC:     50
PHScale:       74
VIColOr:       100
Vcal:          200
CalDel:        167
TempRange:     0
WBC:           164
ChipContReg:   0
Readback:      1
ROC:           BPix_BpI_SEC5_LYR4_LDR20F_MOD2_ROC2
Vdd:           6
Vana:          96
Vsh:           30
Vcomp:         12
VwllPr:        150
VwllSh:        150
VHldDel:       250
Vtrim:         103
VcThr:         98
VIbias_bus:    30
PHOffset:      154
Vcomp_ADC:     50
PHScale:       82
VIColOr:       100
Vcal:          200
CalDel:        145
TempRange:     0
WBC:           164
ChipContReg:   0
Readback:      1
ROC:           BPix_BpI_SEC5_LYR4_LDR20F_MOD2_ROC3
Vdd:           6
Vana:          99
Vsh:           30
Vcomp:         12
VwllPr:        150
VwllSh:        150
VHldDel:       250
Vtrim:         103
VcThr:         100
VIbias_bus:    30
PHOffset:      163
Vcomp_ADC:     50
PHScale:       80
VIColOr:       100
Vcal:          200
CalDel:        157
TempRange:     0
WBC:           164
ChipContReg:   0
Readback:      1
ROC:           BPix_BpI_SEC5_LYR4_LDR20F_MOD2_ROC4
Vdd:           6
Vana:          85
Vsh:           30
Vcomp:         12
VwllPr:        150
VwllSh:        150
VHldDel:       250
Vtrim:         119
VcThr:         102
VIbias_bus:    30
PHOffset:      167
Vcomp_ADC:     50
PHScale:       70
VIColOr:       100
Vcal:          200
CalDel:        186
TempRange:     0
WBC:           164
ChipContReg:   0
Readback:      1
ROC:           BPix_BpI_SEC5_LYR4_LDR20F_MOD2_ROC5
Vdd:           6
Vana:          102
Vsh:           30
Vcomp:         12
VwllPr:        150
VwllSh:        150
VHldDel:       250
Vtrim:         108
VcThr:         92
VIbias_bus:    30
PHOffset:      161
Vcomp_ADC:     50
PHScale:       92
VIColOr:       100
Vcal:          200
CalDel:        160
TempRange:     0
WBC:           164
ChipContReg:   0
Readback:      1
ROC:           BPix_BpI_SEC5_LYR4_LDR20F_MOD2_ROC6
Vdd:           6
Vana:          97
Vsh:           30
Vcomp:         12
VwllPr:        150
VwllSh:        150
VHldDel:       250
Vtrim:         143
VcThr:         111
VIbias_bus:    30
PHOffset:      173
Vcomp_ADC:     50
PHScale:       77
VIColOr:       100
Vcal:          200
CalDel:        164
TempRange:     0
WBC:           164
ChipContReg:   0
Readback:      1
ROC:           BPix_BpI_SEC5_LYR4_LDR20F_MOD2_ROC7
Vdd:           6
Vana:          101
Vsh:           30
Vcomp:         12
VwllPr:        150
VwllSh:        150
VHldDel:       250
Vtrim:         139
VcThr:         105
VIbias_bus:    30
PHOffset:      176
Vcomp_ADC:     50
PHScale:       78
VIColOr:       100
Vcal:          200
CalDel:        154
TempRange:     0
WBC:           164
ChipContReg:   0
Readback:      1
ROC:           BPix_BpI_SEC5_LYR4_LDR20F_MOD2_ROC8
Vdd:           6
Vana:          86
Vsh:           30
Vcomp:         12
VwllPr:        150
VwllSh:        150
VHldDel:       250
Vtrim:         127
VcThr:         111
VIbias_bus:    30
PHOffset:      182
Vcomp_ADC:     50
PHScale:       77
VIColOr:       100
Vcal:          200
CalDel:        145
TempRange:     0
WBC:           164
ChipContReg:   0
Readback:      1
ROC:           BPix_BpI_SEC5_LYR4_LDR20F_MOD2_ROC9
Vdd:           6
Vana:          97
Vsh:           30
Vcomp:         12
VwllPr:        150
VwllSh:        150
VHldDel:       250
Vtrim:         147
VcThr:         108
VIbias_bus:    30
PHOffset:      160
Vcomp_ADC:     50
PHScale:       78
VIColOr:       100
Vcal:          200
CalDel:        143
TempRange:     0
WBC:           164
ChipContReg:   0
Readback:      1
ROC:           BPix_BpI_SEC5_LYR4_LDR20F_MOD2_ROC10
Vdd:           6
Vana:          93
Vsh:           30
Vcomp:         12
VwllPr:        150
VwllSh:        150
VHldDel:       250
Vtrim:         111
VcThr:         95
VIbias_bus:    30
PHOffset:      158
Vcomp_ADC:     50
PHScale:       77
VIColOr:       100
Vcal:          200
CalDel:        168
TempRange:     0
WBC:           164
ChipContReg:   0
Readback:      1
ROC:           BPix_BpI_SEC5_LYR4_LDR20F_MOD2_ROC11
Vdd:           6
Vana:          89
Vsh:           30
Vcomp:         12
VwllPr:        150
VwllSh:        150
VHldDel:       250
Vtrim:         122
VcThr:         98
VIbias_bus:    30
PHOffset:      158
Vcomp_ADC:     50
PHScale:       96
VIColOr:       100
Vcal:          200
CalDel:        158
TempRange:     0
WBC:           164
ChipContReg:   0
Readback:      1
ROC:           BPix_BpI_SEC5_LYR4_LDR20F_MOD2_ROC12
Vdd:           6
Vana:          89
Vsh:           30
Vcomp:         12
VwllPr:        150
VwllSh:        150
VHldDel:       250
Vtrim:         113
VcThr:         100
VIbias_bus:    30
PHOffset:      167
Vcomp_ADC:     50
PHScale:       77
VIColOr:       100
Vcal:          200
CalDel:        159
TempRange:     0
WBC:           164
ChipContReg:   0
Readback:      1
ROC:           BPix_BpI_SEC5_LYR4_LDR20F_MOD2_ROC13
Vdd:           6
Vana:          93
Vsh:           30
Vcomp:         12
VwllPr:        150
VwllSh:        150
VHldDel:       250
Vtrim:         116
VcThr:         88
VIbias_bus:    30
PHOffset:      157
Vcomp_ADC:     50
PHScale:       71
VIColOr:       100
Vcal:          200
CalDel:        162
TempRange:     0
WBC:           164
ChipContReg:   0
Readback:      1
ROC:           BPix_BpI_SEC5_LYR4_LDR20F_MOD2_ROC14
Vdd:           6
Vana:          91
Vsh:           30
Vcomp:         12
VwllPr:        150
VwllSh:        150
VHldDel:       250
Vtrim:         106
VcThr:         101
VIbias_bus:    30
PHOffset:      162
Vcomp_ADC:     50
PHScale:       70
VIColOr:       100
Vcal:          200
CalDel:        172
TempRange:     0
WBC:           164
ChipContReg:   0
Readback:      1
ROC:           BPix_BpI_SEC5_LYR4_LDR20F_MOD2_ROC15
Vdd:           6
Vana:          78
Vsh:           30
Vcomp:         12
VwllPr:        150
VwllSh:        150
VHldDel:       250
Vtrim:         114
VcThr:         105
VIbias_bus:    30
PHOffset:      165
Vcomp_ADC:     50
PHScale:       93
VIColOr:       100
Vcal:          200
CalDel:        161
TempRange:     0
WBC:           164
ChipContReg:   0
Readback:      1
