ROC:           BPix_BmO_SEC1_LYR2_LDR1F_MOD2_ROC0
Vdd:           6
Vana:          78
Vsh:           30
Vcomp:         12
VwllPr:        150
VwllSh:        150
VHldDel:       250
Vtrim:         107
VcThr:         97
VIbias_bus:    30
PHOffset:      162
Vcomp_ADC:     50
PHScale:       77
VIColOr:       100
Vcal:          200
CalDel:        141
TempRange:     0
WBC:           164
ChipContReg:   0
Readback:      1
ROC:           BPix_BmO_SEC1_LYR2_LDR1F_MOD2_ROC1
Vdd:           6
Vana:          78
Vsh:           30
Vcomp:         12
VwllPr:        150
VwllSh:        150
VHldDel:       250
Vtrim:         112
VcThr:         90
VIbias_bus:    30
PHOffset:      148
Vcomp_ADC:     50
PHScale:       91
VIColOr:       100
Vcal:          200
CalDel:        167
TempRange:     0
WBC:           164
ChipContReg:   0
Readback:      1
ROC:           BPix_BmO_SEC1_LYR2_LDR1F_MOD2_ROC2
Vdd:           6
Vana:          78
Vsh:           30
Vcomp:         12
VwllPr:        150
VwllSh:        150
VHldDel:       250
Vtrim:         103
VcThr:         90
VIbias_bus:    30
PHOffset:      149
Vcomp_ADC:     50
PHScale:       84
VIColOr:       100
Vcal:          200
CalDel:        153
TempRange:     0
WBC:           164
ChipContReg:   0
Readback:      1
ROC:           BPix_BmO_SEC1_LYR2_LDR1F_MOD2_ROC3
Vdd:           6
Vana:          78
Vsh:           30
Vcomp:         12
VwllPr:        150
VwllSh:        150
VHldDel:       250
Vtrim:         103
VcThr:         101
VIbias_bus:    30
PHOffset:      156
Vcomp_ADC:     50
PHScale:       80
VIColOr:       100
Vcal:          200
CalDel:        152
TempRange:     0
WBC:           164
ChipContReg:   0
Readback:      1
ROC:           BPix_BmO_SEC1_LYR2_LDR1F_MOD2_ROC4
Vdd:           6
Vana:          83
Vsh:           30
Vcomp:         12
VwllPr:        150
VwllSh:        150
VHldDel:       250
Vtrim:         102
VcThr:         91
VIbias_bus:    30
PHOffset:      150
Vcomp_ADC:     50
PHScale:       79
VIColOr:       100
Vcal:          200
CalDel:        144
TempRange:     0
WBC:           164
ChipContReg:   0
Readback:      1
ROC:           BPix_BmO_SEC1_LYR2_LDR1F_MOD2_ROC5
Vdd:           6
Vana:          84
Vsh:           30
Vcomp:         12
VwllPr:        150
VwllSh:        150
VHldDel:       250
Vtrim:         106
VcThr:         84
VIbias_bus:    30
PHOffset:      140
Vcomp_ADC:     50
PHScale:       87
VIColOr:       100
Vcal:          200
CalDel:        148
TempRange:     0
WBC:           164
ChipContReg:   0
Readback:      1
ROC:           BPix_BmO_SEC1_LYR2_LDR1F_MOD2_ROC6
Vdd:           6
Vana:          78
Vsh:           30
Vcomp:         12
VwllPr:        150
VwllSh:        150
VHldDel:       250
Vtrim:         104
VcThr:         83
VIbias_bus:    30
PHOffset:      160
Vcomp_ADC:     50
PHScale:       84
VIColOr:       100
Vcal:          200
CalDel:        169
TempRange:     0
WBC:           164
ChipContReg:   0
Readback:      1
ROC:           BPix_BmO_SEC1_LYR2_LDR1F_MOD2_ROC7
Vdd:           6
Vana:          88
Vsh:           30
Vcomp:         12
VwllPr:        150
VwllSh:        150
VHldDel:       250
Vtrim:         112
VcThr:         91
VIbias_bus:    30
PHOffset:      160
Vcomp_ADC:     50
PHScale:       80
VIColOr:       100
Vcal:          200
CalDel:        160
TempRange:     0
WBC:           164
ChipContReg:   0
Readback:      1
ROC:           BPix_BmO_SEC1_LYR2_LDR1F_MOD2_ROC8
Vdd:           6
Vana:          74
Vsh:           30
Vcomp:         12
VwllPr:        150
VwllSh:        150
VHldDel:       250
Vtrim:         103
VcThr:         83
VIbias_bus:    30
PHOffset:      156
Vcomp_ADC:     50
PHScale:       82
VIColOr:       100
Vcal:          200
CalDel:        167
TempRange:     0
WBC:           164
ChipContReg:   0
Readback:      1
ROC:           BPix_BmO_SEC1_LYR2_LDR1F_MOD2_ROC9
Vdd:           6
Vana:          80
Vsh:           30
Vcomp:         12
VwllPr:        150
VwllSh:        150
VHldDel:       250
Vtrim:         105
VcThr:         96
VIbias_bus:    30
PHOffset:      172
Vcomp_ADC:     50
PHScale:       80
VIColOr:       100
Vcal:          200
CalDel:        156
TempRange:     0
WBC:           164
ChipContReg:   0
Readback:      1
ROC:           BPix_BmO_SEC1_LYR2_LDR1F_MOD2_ROC10
Vdd:           6
Vana:          83
Vsh:           30
Vcomp:         12
VwllPr:        150
VwllSh:        150
VHldDel:       250
Vtrim:         117
VcThr:         94
VIbias_bus:    30
PHOffset:      156
Vcomp_ADC:     50
PHScale:       85
VIColOr:       100
Vcal:          200
CalDel:        158
TempRange:     0
WBC:           164
ChipContReg:   0
Readback:      1
ROC:           BPix_BmO_SEC1_LYR2_LDR1F_MOD2_ROC11
Vdd:           6
Vana:          92
Vsh:           30
Vcomp:         12
VwllPr:        150
VwllSh:        150
VHldDel:       250
Vtrim:         111
VcThr:         86
VIbias_bus:    30
PHOffset:      144
Vcomp_ADC:     50
PHScale:       83
VIColOr:       100
Vcal:          200
CalDel:        143
TempRange:     0
WBC:           164
ChipContReg:   0
Readback:      1
ROC:           BPix_BmO_SEC1_LYR2_LDR1F_MOD2_ROC12
Vdd:           6
Vana:          74
Vsh:           30
Vcomp:         12
VwllPr:        150
VwllSh:        150
VHldDel:       250
Vtrim:         104
VcThr:         89
VIbias_bus:    30
PHOffset:      166
Vcomp_ADC:     50
PHScale:       89
VIColOr:       100
Vcal:          200
CalDel:        126
TempRange:     0
WBC:           164
ChipContReg:   0
Readback:      1
ROC:           BPix_BmO_SEC1_LYR2_LDR1F_MOD2_ROC13
Vdd:           6
Vana:          88
Vsh:           30
Vcomp:         12
VwllPr:        150
VwllSh:        150
VHldDel:       250
Vtrim:         106
VcThr:         87
VIbias_bus:    30
PHOffset:      175
Vcomp_ADC:     50
PHScale:       86
VIColOr:       100
Vcal:          200
CalDel:        175
TempRange:     0
WBC:           164
ChipContReg:   0
Readback:      1
ROC:           BPix_BmO_SEC1_LYR2_LDR1F_MOD2_ROC14
Vdd:           6
Vana:          78
Vsh:           30
Vcomp:         12
VwllPr:        150
VwllSh:        150
VHldDel:       250
Vtrim:         99
VcThr:         104
VIbias_bus:    30
PHOffset:      160
Vcomp_ADC:     50
PHScale:       78
VIColOr:       100
Vcal:          200
CalDel:        141
TempRange:     0
WBC:           164
ChipContReg:   0
Readback:      1
ROC:           BPix_BmO_SEC1_LYR2_LDR1F_MOD2_ROC15
Vdd:           6
Vana:          83
Vsh:           30
Vcomp:         12
VwllPr:        150
VwllSh:        150
VHldDel:       250
Vtrim:         101
VcThr:         93
VIbias_bus:    30
PHOffset:      146
Vcomp_ADC:     50
PHScale:       80
VIColOr:       100
Vcal:          200
CalDel:        151
TempRange:     0
WBC:           164
ChipContReg:   0
Readback:      1
