ROC:           BPix_BpI_SEC2_LYR2_LDR4F_MOD4_ROC0
Vdd:          6
Vana:          89
Vsh:           30
Vcomp:         12
VwllPr:        150
VwllSh:        150
VHldDel:       250
Vtrim:         117
VcThr:         93
VIbias_bus:     30
PHOffset:      165
Vcomp_ADC:     50
PHScale:       77
VIColOr:       10
Vcal:          200
CalDel:        154
TempRange:     0
WBC:           164
ChipContReg:   0
Readback:      1
ROC:           BPix_BpI_SEC2_LYR2_LDR4F_MOD4_ROC1
Vdd:          6
Vana:          89
Vsh:           30
Vcomp:         12
VwllPr:        150
VwllSh:        150
VHldDel:       250
Vtrim:         106
VcThr:         90
VIbias_bus:     30
PHOffset:      173
Vcomp_ADC:     50
PHScale:       86
VIColOr:       10
Vcal:          200
CalDel:        158
TempRange:     0
WBC:           164
ChipContReg:   0
Readback:      1
ROC:           BPix_BpI_SEC2_LYR2_LDR4F_MOD4_ROC2
Vdd:          6
Vana:          84
Vsh:           30
Vcomp:         12
VwllPr:        150
VwllSh:        150
VHldDel:       250
Vtrim:         124
VcThr:         86
VIbias_bus:     30
PHOffset:      171
Vcomp_ADC:     50
PHScale:       80
VIColOr:       10
Vcal:          200
CalDel:        169
TempRange:     0
WBC:           164
ChipContReg:   0
Readback:      1
ROC:           BPix_BpI_SEC2_LYR2_LDR4F_MOD4_ROC3
Vdd:          6
Vana:          81
Vsh:           30
Vcomp:         12
VwllPr:        150
VwllSh:        150
VHldDel:       250
Vtrim:         110
VcThr:         94
VIbias_bus:     30
PHOffset:      161
Vcomp_ADC:     50
PHScale:       85
VIColOr:       10
Vcal:          200
CalDel:        168
TempRange:     0
WBC:           164
ChipContReg:   0
Readback:      1
ROC:           BPix_BpI_SEC2_LYR2_LDR4F_MOD4_ROC4
Vdd:          6
Vana:          81
Vsh:           30
Vcomp:         12
VwllPr:        150
VwllSh:        150
VHldDel:       250
Vtrim:         131
VcThr:         99
VIbias_bus:     30
PHOffset:      157
Vcomp_ADC:     50
PHScale:       80
VIColOr:       10
Vcal:          200
CalDel:        156
TempRange:     0
WBC:           164
ChipContReg:   0
Readback:      1
ROC:           BPix_BpI_SEC2_LYR2_LDR4F_MOD4_ROC5
Vdd:          6
Vana:          86
Vsh:           30
Vcomp:         12
VwllPr:        150
VwllSh:        150
VHldDel:       250
Vtrim:         111
VcThr:         95
VIbias_bus:     30
PHOffset:      171
Vcomp_ADC:     50
PHScale:       79
VIColOr:       10
Vcal:          200
CalDel:        175
TempRange:     0
WBC:           164
ChipContReg:   0
Readback:      1
ROC:           BPix_BpI_SEC2_LYR2_LDR4F_MOD4_ROC6
Vdd:          6
Vana:          84
Vsh:           30
Vcomp:         12
VwllPr:        150
VwllSh:        150
VHldDel:       250
Vtrim:         105
VcThr:         81
VIbias_bus:     30
PHOffset:      163
Vcomp_ADC:     50
PHScale:       75
VIColOr:       10
Vcal:          200
CalDel:        176
TempRange:     0
WBC:           164
ChipContReg:   0
Readback:      1
ROC:           BPix_BpI_SEC2_LYR2_LDR4F_MOD4_ROC7
Vdd:          6
Vana:          81
Vsh:           30
Vcomp:         12
VwllPr:        150
VwllSh:        150
VHldDel:       250
Vtrim:         118
VcThr:         95
VIbias_bus:     30
PHOffset:      166
Vcomp_ADC:     50
PHScale:       84
VIColOr:       10
Vcal:          200
CalDel:        153
TempRange:     0
WBC:           164
ChipContReg:   0
Readback:      1
ROC:           BPix_BpI_SEC2_LYR2_LDR4F_MOD4_ROC8
Vdd:          6
Vana:          74
Vsh:           30
Vcomp:         12
VwllPr:        150
VwllSh:        150
VHldDel:       250
Vtrim:         115
VcThr:         87
VIbias_bus:     30
PHOffset:      171
Vcomp_ADC:     50
PHScale:       80
VIColOr:       10
Vcal:          200
CalDel:        182
TempRange:     0
WBC:           164
ChipContReg:   0
Readback:      1
ROC:           BPix_BpI_SEC2_LYR2_LDR4F_MOD4_ROC9
Vdd:          6
Vana:          89
Vsh:           30
Vcomp:         12
VwllPr:        150
VwllSh:        150
VHldDel:       250
Vtrim:         112
VcThr:         90
VIbias_bus:     30
PHOffset:      178
Vcomp_ADC:     50
PHScale:       74
VIColOr:       10
Vcal:          200
CalDel:        158
TempRange:     0
WBC:           164
ChipContReg:   0
Readback:      1
ROC:           BPix_BpI_SEC2_LYR2_LDR4F_MOD4_ROC10
Vdd:          6
Vana:          94
Vsh:           30
Vcomp:         12
VwllPr:        150
VwllSh:        150
VHldDel:       250
Vtrim:         105
VcThr:         85
VIbias_bus:     30
PHOffset:      155
Vcomp_ADC:     50
PHScale:       90
VIColOr:       10
Vcal:          200
CalDel:        150
TempRange:     0
WBC:           164
ChipContReg:   0
Readback:      1
ROC:           BPix_BpI_SEC2_LYR2_LDR4F_MOD4_ROC11
Vdd:          6
Vana:          85
Vsh:           30
Vcomp:         12
VwllPr:        150
VwllSh:        150
VHldDel:       250
Vtrim:         109
VcThr:         88
VIbias_bus:     30
PHOffset:      154
Vcomp_ADC:     50
PHScale:       75
VIColOr:       10
Vcal:          200
CalDel:        169
TempRange:     0
WBC:           164
ChipContReg:   0
Readback:      1
ROC:           BPix_BpI_SEC2_LYR2_LDR4F_MOD4_ROC12
Vdd:          6
Vana:          84
Vsh:           30
Vcomp:         12
VwllPr:        150
VwllSh:        150
VHldDel:       250
Vtrim:         102
VcThr:         93
VIbias_bus:     30
PHOffset:      159
Vcomp_ADC:     50
PHScale:       78
VIColOr:       10
Vcal:          200
CalDel:        181
TempRange:     0
WBC:           164
ChipContReg:   0
Readback:      1
ROC:           BPix_BpI_SEC2_LYR2_LDR4F_MOD4_ROC13
Vdd:          6
Vana:          77
Vsh:           30
Vcomp:         12
VwllPr:        150
VwllSh:        150
VHldDel:       250
Vtrim:         106
VcThr:         89
VIbias_bus:     30
PHOffset:      139
Vcomp_ADC:     50
PHScale:       89
VIColOr:       10
Vcal:          200
CalDel:        169
TempRange:     0
WBC:           164
ChipContReg:   0
Readback:      1
ROC:           BPix_BpI_SEC2_LYR2_LDR4F_MOD4_ROC14
Vdd:          6
Vana:          94
Vsh:           30
Vcomp:         12
VwllPr:        150
VwllSh:        150
VHldDel:       250
Vtrim:         98
VcThr:         76
VIbias_bus:     30
PHOffset:      162
Vcomp_ADC:     50
PHScale:       82
VIColOr:       10
Vcal:          200
CalDel:        166
TempRange:     0
WBC:           164
ChipContReg:   0
Readback:      1
ROC:           BPix_BpI_SEC2_LYR2_LDR4F_MOD4_ROC15
Vdd:          6
Vana:          82
Vsh:           30
Vcomp:         12
VwllPr:        150
VwllSh:        150
VHldDel:       250
Vtrim:         101
VcThr:         90
VIbias_bus:     30
PHOffset:      150
Vcomp_ADC:     50
PHScale:       84
VIColOr:       10
Vcal:          200
CalDel:        172
TempRange:     0
WBC:           164
ChipContReg:   0
Readback:      1
