ROC:           BPix_BmO_SEC7_LYR3_LDR18F_MOD3_ROC0
Vdd:           6
Vana:          85
Vsh:           30
Vcomp:         12
VwllPr:        150
VwllSh:        150
VHldDel:       250
Vtrim:         99
VcThr:         92
VIbias_bus:    30
PHOffset:      163
Vcomp_ADC:     50
PHScale:       79
VIColOr:       100
Vcal:          255
CalDel:        162
TempRange:     0
WBC:           164
ChipContReg:   0
Readback:      1
ROC:           BPix_BmO_SEC7_LYR3_LDR18F_MOD3_ROC1
Vdd:           6
Vana:          79
Vsh:           30
Vcomp:         12
VwllPr:        150
VwllSh:        150
VHldDel:       250
Vtrim:         95
VcThr:         85
VIbias_bus:    30
PHOffset:      161
Vcomp_ADC:     50
PHScale:       78
VIColOr:       100
Vcal:          255
CalDel:        171
TempRange:     0
WBC:           164
ChipContReg:   0
Readback:      1
ROC:           BPix_BmO_SEC7_LYR3_LDR18F_MOD3_ROC2
Vdd:           6
Vana:          78
Vsh:           30
Vcomp:         12
VwllPr:        150
VwllSh:        150
VHldDel:       250
Vtrim:         108
VcThr:         95
VIbias_bus:    30
PHOffset:      175
Vcomp_ADC:     50
PHScale:       82
VIColOr:       100
Vcal:          255
CalDel:        158
TempRange:     0
WBC:           164
ChipContReg:   0
Readback:      1
ROC:           BPix_BmO_SEC7_LYR3_LDR18F_MOD3_ROC3
Vdd:           6
Vana:          81
Vsh:           30
Vcomp:         12
VwllPr:        150
VwllSh:        150
VHldDel:       250
Vtrim:         110
VcThr:         93
VIbias_bus:    30
PHOffset:      179
Vcomp_ADC:     50
PHScale:       79
VIColOr:       100
Vcal:          255
CalDel:        180
TempRange:     0
WBC:           164
ChipContReg:   0
Readback:      1
ROC:           BPix_BmO_SEC7_LYR3_LDR18F_MOD3_ROC4
Vdd:           6
Vana:          90
Vsh:           30
Vcomp:         12
VwllPr:        150
VwllSh:        150
VHldDel:       250
Vtrim:         111
VcThr:         101
VIbias_bus:    30
PHOffset:      165
Vcomp_ADC:     50
PHScale:       73
VIColOr:       100
Vcal:          255
CalDel:        160
TempRange:     0
WBC:           164
ChipContReg:   0
Readback:      1
ROC:           BPix_BmO_SEC7_LYR3_LDR18F_MOD3_ROC5
Vdd:           6
Vana:          81
Vsh:           30
Vcomp:         12
VwllPr:        150
VwllSh:        150
VHldDel:       250
Vtrim:         110
VcThr:         100
VIbias_bus:    30
PHOffset:      182
Vcomp_ADC:     50
PHScale:       75
VIColOr:       100
Vcal:          255
CalDel:        144
TempRange:     0
WBC:           164
ChipContReg:   0
Readback:      1
ROC:           BPix_BmO_SEC7_LYR3_LDR18F_MOD3_ROC6
Vdd:           6
Vana:          81
Vsh:           30
Vcomp:         12
VwllPr:        150
VwllSh:        150
VHldDel:       250
Vtrim:         89
VcThr:         96
VIbias_bus:    30
PHOffset:      164
Vcomp_ADC:     50
PHScale:       85
VIColOr:       100
Vcal:          255
CalDel:        157
TempRange:     0
WBC:           164
ChipContReg:   0
Readback:      1
ROC:           BPix_BmO_SEC7_LYR3_LDR18F_MOD3_ROC7
Vdd:           6
Vana:          75
Vsh:           30
Vcomp:         12
VwllPr:        150
VwllSh:        150
VHldDel:       250
Vtrim:         121
VcThr:         98
VIbias_bus:    30
PHOffset:      181
Vcomp_ADC:     50
PHScale:       65
VIColOr:       100
Vcal:          255
CalDel:        169
TempRange:     0
WBC:           164
ChipContReg:   0
Readback:      1
ROC:           BPix_BmO_SEC7_LYR3_LDR18F_MOD3_ROC8
Vdd:           6
Vana:          75
Vsh:           30
Vcomp:         12
VwllPr:        150
VwllSh:        150
VHldDel:       250
Vtrim:         112
VcThr:         103
VIbias_bus:    30
PHOffset:      181
Vcomp_ADC:     50
PHScale:       73
VIColOr:       100
Vcal:          255
CalDel:        150
TempRange:     0
WBC:           164
ChipContReg:   0
Readback:      1
ROC:           BPix_BmO_SEC7_LYR3_LDR18F_MOD3_ROC9
Vdd:           6
Vana:          75
Vsh:           30
Vcomp:         12
VwllPr:        150
VwllSh:        150
VHldDel:       250
Vtrim:         111
VcThr:         87
VIbias_bus:    30
PHOffset:      170
Vcomp_ADC:     50
PHScale:       83
VIColOr:       100
Vcal:          255
CalDel:        159
TempRange:     0
WBC:           164
ChipContReg:   0
Readback:      1
ROC:           BPix_BmO_SEC7_LYR3_LDR18F_MOD3_ROC10
Vdd:           6
Vana:          70
Vsh:           30
Vcomp:         12
VwllPr:        150
VwllSh:        150
VHldDel:       250
Vtrim:         121
VcThr:         99
VIbias_bus:    30
PHOffset:      180
Vcomp_ADC:     50
PHScale:       73
VIColOr:       100
Vcal:          255
CalDel:        146
TempRange:     0
WBC:           164
ChipContReg:   0
Readback:      1
ROC:           BPix_BmO_SEC7_LYR3_LDR18F_MOD3_ROC11
Vdd:           6
Vana:          82
Vsh:           30
Vcomp:         12
VwllPr:        150
VwllSh:        150
VHldDel:       250
Vtrim:         95
VcThr:         89
VIbias_bus:    30
PHOffset:      154
Vcomp_ADC:     50
PHScale:       82
VIColOr:       100
Vcal:          255
CalDel:        145
TempRange:     0
WBC:           164
ChipContReg:   0
Readback:      1
ROC:           BPix_BmO_SEC7_LYR3_LDR18F_MOD3_ROC12
Vdd:           6
Vana:          87
Vsh:           30
Vcomp:         12
VwllPr:        150
VwllSh:        150
VHldDel:       250
Vtrim:         91
VcThr:         97
VIbias_bus:    30
PHOffset:      180
Vcomp_ADC:     50
PHScale:       80
VIColOr:       100
Vcal:          255
CalDel:        173
TempRange:     0
WBC:           164
ChipContReg:   0
Readback:      1
ROC:           BPix_BmO_SEC7_LYR3_LDR18F_MOD3_ROC13
Vdd:           6
Vana:          67
Vsh:           30
Vcomp:         12
VwllPr:        150
VwllSh:        150
VHldDel:       250
Vtrim:         115
VcThr:         92
VIbias_bus:    30
PHOffset:      185
Vcomp_ADC:     50
PHScale:       70
VIColOr:       100
Vcal:          255
CalDel:        155
TempRange:     0
WBC:           164
ChipContReg:   0
Readback:      1
ROC:           BPix_BmO_SEC7_LYR3_LDR18F_MOD3_ROC14
Vdd:           6
Vana:          78
Vsh:           30
Vcomp:         12
VwllPr:        150
VwllSh:        150
VHldDel:       250
Vtrim:         103
VcThr:         89
VIbias_bus:    30
PHOffset:      158
Vcomp_ADC:     50
PHScale:       82
VIColOr:       100
Vcal:          255
CalDel:        135
TempRange:     0
WBC:           164
ChipContReg:   0
Readback:      1
ROC:           BPix_BmO_SEC7_LYR3_LDR18F_MOD3_ROC15
Vdd:           6
Vana:          78
Vsh:           30
Vcomp:         12
VwllPr:        150
VwllSh:        150
VHldDel:       250
Vtrim:         97
VcThr:         88
VIbias_bus:    30
PHOffset:      154
Vcomp_ADC:     50
PHScale:       79
VIColOr:       100
Vcal:          255
CalDel:        158
TempRange:     0
WBC:           164
ChipContReg:   0
Readback:      1
