ROC:           BPix_BpO_SEC6_LYR1_LDR5F_MOD3_ROC0
Vdd:           6
Vana:          73
Vsh:           8
Vcomp:         12
VwllPr:        150
VwllSh:        150
VHldDel:       250
Vtrim:         96
VcThr:         54
VIbias_bus:    250
PHOffset:      172
Vcomp_ADC:     50
PHScale:       70
VIColOr:       100
Vcal:          200
CalDel:        181
TempRange:     0
WBC:           164
ChipContReg:   16
Readback:      1
ROC:           BPix_BpO_SEC6_LYR1_LDR5F_MOD3_ROC1
Vdd:           6
Vana:          69
Vsh:           8
Vcomp:         12
VwllPr:        150
VwllSh:        150
VHldDel:       250
Vtrim:         92
VcThr:         58
VIbias_bus:    250
PHOffset:      142
Vcomp_ADC:     50
PHScale:       70
VIColOr:       100
Vcal:          200
CalDel:        185
TempRange:     0
WBC:           164
ChipContReg:   16
Readback:      1
ROC:           BPix_BpO_SEC6_LYR1_LDR5F_MOD3_ROC2
Vdd:           6
Vana:          78
Vsh:           8
Vcomp:         12
VwllPr:        150
VwllSh:        150
VHldDel:       250
Vtrim:         94
VcThr:         44
VIbias_bus:    250
PHOffset:      158
Vcomp_ADC:     50
PHScale:       70
VIColOr:       100
Vcal:          200
CalDel:        172
TempRange:     0
WBC:           164
ChipContReg:   16
Readback:      1
ROC:           BPix_BpO_SEC6_LYR1_LDR5F_MOD3_ROC3
Vdd:           6
Vana:          78
Vsh:           8
Vcomp:         12
VwllPr:        150
VwllSh:        150
VHldDel:       250
Vtrim:         94
VcThr:         52
VIbias_bus:    250
PHOffset:      170
Vcomp_ADC:     50
PHScale:       70
VIColOr:       100
Vcal:          200
CalDel:        206
TempRange:     0
WBC:           164
ChipContReg:   16
Readback:      1
ROC:           BPix_BpO_SEC6_LYR1_LDR5F_MOD3_ROC12
Vdd:           6
Vana:          77
Vsh:           8
Vcomp:         12
VwllPr:        150
VwllSh:        150
VHldDel:       250
Vtrim:         107
VcThr:         56
VIbias_bus:    250
PHOffset:      158
Vcomp_ADC:     50
PHScale:       70
VIColOr:       100
Vcal:          200
CalDel:        160
TempRange:     0
WBC:           164
ChipContReg:   16
Readback:      1
ROC:           BPix_BpO_SEC6_LYR1_LDR5F_MOD3_ROC13
Vdd:           6
Vana:          79
Vsh:           8
Vcomp:         12
VwllPr:        150
VwllSh:        150
VHldDel:       250
Vtrim:         92
VcThr:         56
VIbias_bus:    250
PHOffset:      145
Vcomp_ADC:     50
PHScale:       70
VIColOr:       100
Vcal:          200
CalDel:        142
TempRange:     0
WBC:           164
ChipContReg:   16
Readback:      1
ROC:           BPix_BpO_SEC6_LYR1_LDR5F_MOD3_ROC14
Vdd:           6
Vana:          79
Vsh:           8
Vcomp:         12
VwllPr:        150
VwllSh:        150
VHldDel:       250
Vtrim:         90
VcThr:         42
VIbias_bus:    250
PHOffset:      149
Vcomp_ADC:     50
PHScale:       70
VIColOr:       100
Vcal:          200
CalDel:        176
TempRange:     0
WBC:           164
ChipContReg:   16
Readback:      1
ROC:           BPix_BpO_SEC6_LYR1_LDR5F_MOD3_ROC15
Vdd:           6
Vana:          77
Vsh:           8
Vcomp:         12
VwllPr:        150
VwllSh:        150
VHldDel:       250
Vtrim:         93
VcThr:         49
VIbias_bus:    250
PHOffset:      165
Vcomp_ADC:     50
PHScale:       70
VIColOr:       100
Vcal:          200
CalDel:        181
TempRange:     0
WBC:           164
ChipContReg:   16
Readback:      1
