BPix_BmI_SEC6_LYR4_LDR23F_MOD1_ROC0
TBMABase0: 0
TBMBBase0: 0
TBMAAutoReset: 0
TBMBAutoReset: 0
TBMANoTokenPass: 0
TBMBNoTokenPass: 0
TBMADisablePKAMCounter: 0
TBMBDisablePKAMCounter: 0
TBMAPKAMCount: 5
TBMBPKAMCount: 5
TBMPLLDelay: 252
TBMADelay: 219
TBMBDelay: 219
