BPix_BpI_SEC6_LYR2_LDR10F_MOD3_ROC0
TBMABase0: 0
TBMBBase0: 0
TBMAAutoReset: 0
TBMBAutoReset: 0
TBMANoTokenPass: 0
TBMBNoTokenPass: 0
TBMADisablePKAMCounter: 0
TBMBDisablePKAMCounter: 0
TBMAPKAMCount: 5
TBMBPKAMCount: 5
TBMPLLDelay: 60
TBMADelay: 237
TBMBDelay: 237
