%!PS-Adobe-2.0 EPSF-2.0
%%BoundingBox:  0 0 567 384
%%Title: PHOffset.eps: c1
%%Creator: ROOT Version 5.34/14
%%CreationDate: Tue Mar 21 16:22:37 2017
%%EndComments
%%BeginProlog
80 dict begin
/s {stroke} def /l {lineto} def /m {moveto} def /t {translate} def
/r {rotate} def /rl {roll}  def /R {repeat} def
/d {rlineto} def /rm {rmoveto} def /gr {grestore} def /f {eofill} def
/c {setrgbcolor} def /black {0 setgray} def /sd {setdash} def
/cl {closepath} def /sf {scalefont setfont} def /lw {setlinewidth} def
/box {m dup 0 exch d exch 0 d 0 exch neg d cl} def
/NC{systemdict begin initclip end}def/C{NC box clip newpath}def
/bl {box s} def /bf {box f} def /Y { 0 exch d} def /X { 0 d} def 
/K {{pop pop 0 moveto} exch kshow} bind def
/ita {/ang 15 def gsave [1 0 ang dup sin exch cos div 1 0 0] concat} def 
/mp {newpath /y exch def /x exch def} def
/side {[w .77 mul w .23 mul] .385 w mul sd w 0 l currentpoint t -144 r} def
/mr {mp x y w2 0 360 arc} def /m24 {mr s} def /m20 {mr f} def
/mb {mp x y w2 add m w2 neg 0 d 0 w neg d w 0 d 0 w d cl} def
/mt {mp x y w2 add m w2 neg w neg d w 0 d cl} def
/m21 {mb f} def /m25 {mb s} def /m22 {mt f} def /m26{mt s} def
/m23 {mp x y w2 sub m w2 w d w neg 0 d cl f} def
/m27 {mp x y w2 add m w3 neg w2 neg d w3 w2 neg d w3 w2 d cl s} def
/m28 {mp x w2 sub y w2 sub w3 add m w3 0 d  0 w3 neg d w3 0 d 0 w3 d w3 0 d  0 w3 d w3 neg 0 d 0 w3 d w3 neg 0 d 0 w3 neg d w3 neg 0 d cl s } def
/m29 {mp gsave x w2 sub y w2 add w3 sub m currentpoint t 4 {side} repeat cl fill gr} def
/m30 {mp gsave x w2 sub y w2 add w3 sub m currentpoint t 4 {side} repeat cl s gr} def
/m31 {mp x y w2 sub m 0 w d x w2 sub y m w 0 d x w2 sub y w2 add m w w neg d x w2 sub y w2 sub m w w d s} def
/m32 {mp x y w2 sub m w2 w d w neg 0 d cl s} def
/m33 {mp x y w2 add m w3 neg w2 neg d w3 w2 neg d w3 w2 d cl f} def
/m34 {mp x w2 sub y w2 sub w3 add m w3 0 d  0 w3 neg d w3 0 d 0 w3 d w3 0 d  0 w3 d w3 neg 0 d 0 w3 d w3 neg 0 d 0 w3 neg d w3 neg 0 d cl f } def
/m2 {mp x y w2 sub m 0 w d x w2 sub y m w 0 d s} def
/m5 {mp x w2 sub y w2 sub m w w d x w2 sub y w2 add m w w neg d s} def
/reEncode {exch findfont dup length dict begin {1 index /FID eq  {pop pop} {def} ifelse } forall /Encoding exch def currentdict end dup /FontName get exch definefont pop } def [/Times-Bold /Times-Italic /Times-BoldItalic /Helvetica /Helvetica-Oblique
 /Helvetica-Bold /Helvetica-BoldOblique /Courier /Courier-Oblique /Courier-Bold /Courier-BoldOblique /Times-Roman /AvantGarde-Book /AvantGarde-BookOblique /AvantGarde-Demi /AvantGarde-DemiOblique /Bookman-Demi /Bookman-DemiItalic /Bookman-Light
 /Bookman-LightItalic /Helvetica-Narrow /Helvetica-Narrow-Bold /Helvetica-Narrow-BoldOblique /Helvetica-Narrow-Oblique /NewCenturySchlbk-Roman /NewCenturySchlbk-Bold /NewCenturySchlbk-BoldItalic /NewCenturySchlbk-Italic /Palatino-Bold
 /Palatino-BoldItalic /Palatino-Italic /Palatino-Roman ] {ISOLatin1Encoding reEncode } forall
%%EndProlog
%%BeginSetup
%%EndSetup
newpath  gsave  .25 .25 scale  gsave  0 0 t black[  ] 0 sd 3 lw 1 1 1 c 2268 1538 0 0 bf black 1 1 1 c 1814 1230 227 154 bf black 1814 1230 227 154 bl 0 0 0.6 c 1 1 1 c black 0 0 0.6 c 227 154 m 531 X 1 Y 7 X -1 Y 15 X 1 Y 14 X 3 Y 7 X 6 Y 7 X -7 Y 7
 X 4 Y 7 X 2 Y 14 X 1 Y 7 X 6 Y 7 X -12 Y 7 X 9 Y 15 X 9 Y 7 X -3 Y 7 X 11 Y 7 X -14 Y 7 X 19 Y 7 X -7 Y 7 X 13 Y 14 X 10 Y 7 X -12 Y 8 X 13 Y 14 X -17 Y 7 X -9 Y 7 X 23 Y 14 X 3 Y 14 X 8 Y 7 X -9 Y 7 X 4 Y 7 X 54 Y 8 X -64 Y 7 X 10 Y 7 X -20 Y 7 X
 -5 Y 7 X 9 Y 7 X 5 Y 7 X 3 Y 7 X -41 Y 7 X 52 Y 7 X -7 Y 7 X 16 Y 8 X -3 Y 7 X -9 Y 7 X 6 Y 7 X 7 Y 7 X -24 Y 7 X 22 Y 7 X 11 Y 7 X 13 Y 7 X -8 Y 7 X -5 Y 7 X 34 Y 7 X -13 Y 8 X -78 Y 7 X 66 Y 7 X 50 Y 7 X 43 Y 7 X 18 Y 7 X 39 Y 7 X 14 Y 7 X 35 Y 7
 X 887 Y 7 X -684 Y 7 X 47 Y 8 X 75 Y 7 X -103 Y 7 X 200 Y 7 X 54 Y 7 X -50 Y 7 X -555 Y 7 X 598 Y 7 X 89 Y 7 X 137 Y 7 X -145 Y 7 X 163 Y 7 X 16 Y 8 X -30 Y 7 X 17 Y 7 X -87 Y 7 X -68 Y 7 X 38 Y 7 X -224 Y 7 X 148 Y 7 X -120 Y 7 X -22 Y 7 X -608 Y 7
 X 523 Y 7 X 3 Y 8 X -60 Y 7 X -98 Y 7 X 56 Y 7 X -31 Y 7 X -73 Y 7 X 433 Y 7 X -626 Y 7 X -43 Y 7 X 18 Y 7 X -77 Y 7 X 4 Y 8 X -21 Y 7 X 1 Y 7 X -60 Y 7 X 50 Y 7 X -15 Y 7 X -14 Y 7 X 5 Y 7 X -7 Y 7 X -13 Y 7 X -6 Y 7 X -3 Y 7 X -3 Y 8 X -1 Y 35 X 1
 Y 7 X -1 Y 397 X s black 227 154 m 1814 X s 227 191 m -37 Y s 298 172 m -18 Y s 369 172 m -18 Y s 439 172 m -18 Y s 510 172 m -18 Y s 581 191 m -37 Y s 652 172 m -18 Y s 723 172 m -18 Y s 794 172 m -18 Y s 865 172 m -18 Y s 935 191 m -37 Y s 1006
 172 m -18 Y s 1077 172 m -18 Y s 1148 172 m -18 Y s 1219 172 m -18 Y s 1290 191 m -37 Y s 1361 172 m -18 Y s 1431 172 m -18 Y s 1502 172 m -18 Y s 1573 172 m -18 Y s 1644 191 m -37 Y s 1715 172 m -18 Y s 1786 172 m -18 Y s 1857 172 m -18 Y s 1928
 172 m -18 Y s 1998 191 m -37 Y s 1998 191 m -37 Y s
 gsave  2268 1538 0 0 C 211.784 104.263 t 0 r /Helvetica findfont 48.8732 sf 0 0 m (0) show NC gr 
 gsave  2268 1538 0 0 C 553.896 104.263 t 0 r /Helvetica findfont 48.8732 sf 0 0 m (50) show NC gr 
 gsave  2268 1538 0 0 C 892.75 104.263 t 0 r /Helvetica findfont 48.8732 sf 0 0 m (100) show NC gr 
 gsave  2268 1538 0 0 C 1244.64 104.263 t 0 r /Helvetica findfont 48.8732 sf 0 0 m (150) show NC gr 
 gsave  2268 1538 0 0 C 1599.78 104.263 t 0 r /Helvetica findfont 48.8732 sf 0 0 m (200) show NC gr 
 gsave  2268 1538 0 0 C 1954.93 104.263 t 0 r /Helvetica findfont 48.8732 sf 0 0 m (250) show NC gr  227 154 m 1230 Y s 281 154 m -54 X s 254 183 m -27 X s 254 212 m -27 X s 254 241 m -27 X s 254 271 m -27 X s 281 300 m -54 X s 254 329 m -27 X s 254
 358 m -27 X s 254 388 m -27 X s 254 417 m -27 X s 281 446 m -54 X s 254 475 m -27 X s 254 504 m -27 X s 254 534 m -27 X s 254 563 m -27 X s 281 592 m -54 X s 254 621 m -27 X s 254 651 m -27 X s 254 680 m -27 X s 254 709 m -27 X s 281 738 m -54 X s
 254 767 m -27 X s 254 797 m -27 X s 254 826 m -27 X s 254 855 m -27 X s 281 884 m -54 X s 254 914 m -27 X s 254 943 m -27 X s 254 972 m -27 X s 254 1001 m -27 X s 281 1030 m -54 X s 254 1060 m -27 X s 254 1089 m -27 X s 254 1118 m -27 X s 254 1147 m
 -27 X s 281 1176 m -54 X s 254 1206 m -27 X s 254 1235 m -27 X s 254 1264 m -27 X s 254 1293 m -27 X s 281 1323 m -54 X s 281 1323 m -54 X s 254 1352 m -27 X s 254 1381 m -27 X s
 gsave  2268 1538 0 0 C 188.976 136.845 t 0 r /Helvetica findfont 48.8732 sf 0 0 m (0) show NC gr 
 gsave  2268 1538 0 0 C 133.587 283.465 t 0 r /Helvetica findfont 48.8732 sf 0 0 m (100) show NC gr 
 gsave  2268 1538 0 0 C 133.587 426.826 t 0 r /Helvetica findfont 48.8732 sf 0 0 m (200) show NC gr 
 gsave  2268 1538 0 0 C 133.587 573.446 t 0 r /Helvetica findfont 48.8732 sf 0 0 m (300) show NC gr 
 gsave  2268 1538 0 0 C 133.587 720.065 t 0 r /Helvetica findfont 48.8732 sf 0 0 m (400) show NC gr 
 gsave  2268 1538 0 0 C 133.587 866.685 t 0 r /Helvetica findfont 48.8732 sf 0 0 m (500) show NC gr 
 gsave  2268 1538 0 0 C 133.587 1013.3 t 0 r /Helvetica findfont 48.8732 sf 0 0 m (600) show NC gr 
 gsave  2268 1538 0 0 C 133.587 1159.92 t 0 r /Helvetica findfont 48.8732 sf 0 0 m (700) show NC gr 
 gsave  2268 1538 0 0 C 133.587 1303.29 t 0 r /Helvetica findfont 48.8732 sf 0 0 m (800) show NC gr  1 1 1 c black
 gsave  2268 1538 0 0 C 993.755 1462.94 t 0 r /Helvetica findfont 68.4225 sf 0 0 m (PHOffset) show NC gr  1 1 1 c 453 246 1769 1192 bf black 1769 1192 m 453 X s 2222 1192 m 246 Y s 2222 1438 m -453 X s 1769 1438 m -246 Y s 1 1 1 c black
 gsave  2268 1538 0 0 C 1886.51 1388 t 0 r /Helvetica findfont 52.1314 sf 0 0 m (PHOffset) show NC gr  1769 1376 m 453 X s
 gsave  2268 1538 0 0 C 1788.76 1326.09 t 0 r /Helvetica findfont 52.1314 sf 0 0 m (Entries ) show NC gr 
 gsave  2268 1538 0 0 C 2039.64 1326.09 t 0 r /Helvetica findfont 52.1314 sf 0 0 m ( 18944) show NC gr 
 gsave  2268 1538 0 0 C 1788.76 1267.44 t 0 r /Helvetica findfont 52.1314 sf 0 0 m (Mean  ) show NC gr 
 gsave  2268 1538 0 0 C 2049.42 1267.44 t 0 r /Helvetica findfont 52.1314 sf 0 0 m (  155.1) show NC gr 
 gsave  2268 1538 0 0 C 1788.76 1205.54 t 0 r /Helvetica findfont 52.1314 sf 0 0 m (RMS   ) show NC gr 
 gsave  2268 1538 0 0 C 2039.64 1205.54 t 0 r /Helvetica findfont 52.1314 sf 0 0 m (  16.48) show NC gr  1 1 1 c black
 gsave  2268 1538 0 0 C 993.755 1462.94 t 0 r /Helvetica findfont 68.4225 sf 0 0 m (PHOffset) show NC gr 
 gr  gr showpage
end
%%EOF
