ROC:           BPix_BpO_SEC6_LYR1_LDR5H_MOD3_ROC4
Vdd:           6
Vana:          77
Vsh:           30
Vcomp:         12
VwllPr:        150
VwllSh:        150
VHldDel:       250
Vtrim:         120
VcThr:         110
VIbias_bus:    30
PHOffset:      100
Vcomp_ADC:     50
PHScale:       43
VIColOr:       100
Vcal:          200
CalDel:        91
TempRange:     0
WBC:           98
ChipContReg:   0
Readback:      1
ROC:           BPix_BpO_SEC6_LYR1_LDR5H_MOD3_ROC5
Vdd:           6
Vana:          80
Vsh:           30
Vcomp:         12
VwllPr:        150
VwllSh:        150
VHldDel:       250
Vtrim:         137
VcThr:         116
VIbias_bus:    30
PHOffset:      113
Vcomp_ADC:     50
PHScale:       46
VIColOr:       100
Vcal:          200
CalDel:        103
TempRange:     0
WBC:           98
ChipContReg:   0
Readback:      1
ROC:           BPix_BpO_SEC6_LYR1_LDR5H_MOD3_ROC6
Vdd:           6
Vana:          73
Vsh:           30
Vcomp:         12
VwllPr:        150
VwllSh:        150
VHldDel:       250
Vtrim:         130
VcThr:         115
VIbias_bus:    30
PHOffset:      100
Vcomp_ADC:     50
PHScale:       48
VIColOr:       100
Vcal:          200
CalDel:        107
TempRange:     0
WBC:           98
ChipContReg:   0
Readback:      1
ROC:           BPix_BpO_SEC6_LYR1_LDR5H_MOD3_ROC7
Vdd:           6
Vana:          73
Vsh:           30
Vcomp:         12
VwllPr:        150
VwllSh:        150
VHldDel:       250
Vtrim:         114
VcThr:         118
VIbias_bus:    30
PHOffset:      118
Vcomp_ADC:     50
PHScale:       55
VIColOr:       100
Vcal:          200
CalDel:        95
TempRange:     0
WBC:           98
ChipContReg:   0
Readback:      1
ROC:           BPix_BpO_SEC6_LYR1_LDR5H_MOD3_ROC8
Vdd:           6
Vana:          79
Vsh:           30
Vcomp:         12
VwllPr:        150
VwllSh:        150
VHldDel:       250
Vtrim:         150
VcThr:         117
VIbias_bus:    30
PHOffset:      123
Vcomp_ADC:     50
PHScale:       59
VIColOr:       100
Vcal:          200
CalDel:        104
TempRange:     0
WBC:           98
ChipContReg:   0
Readback:      1
ROC:           BPix_BpO_SEC6_LYR1_LDR5H_MOD3_ROC9
Vdd:           6
Vana:          69
Vsh:           30
Vcomp:         12
VwllPr:        150
VwllSh:        150
VHldDel:       250
Vtrim:         134
VcThr:         111
VIbias_bus:    30
PHOffset:      131
Vcomp_ADC:     50
PHScale:       69
VIColOr:       100
Vcal:          200
CalDel:        130
TempRange:     0
WBC:           98
ChipContReg:   0
Readback:      1
ROC:           BPix_BpO_SEC6_LYR1_LDR5H_MOD3_ROC10
Vdd:           6
Vana:          73
Vsh:           30
Vcomp:         12
VwllPr:        150
VwllSh:        150
VHldDel:       250
Vtrim:         133
VcThr:         120
VIbias_bus:    30
PHOffset:      124
Vcomp_ADC:     50
PHScale:       60
VIColOr:       100
Vcal:          200
CalDel:        87
TempRange:     0
WBC:           98
ChipContReg:   0
Readback:      1
ROC:           BPix_BpO_SEC6_LYR1_LDR5H_MOD3_ROC11
Vdd:           6
Vana:          73
Vsh:           30
Vcomp:         12
VwllPr:        150
VwllSh:        150
VHldDel:       250
Vtrim:         133
VcThr:         123
VIbias_bus:    30
PHOffset:      108
Vcomp_ADC:     50
PHScale:       62
VIColOr:       100
Vcal:          200
CalDel:        94
TempRange:     0
WBC:           98
ChipContReg:   0
Readback:      1
