ROC:           BPix_BmO_SEC2_LYR1_LDR1H_MOD1_ROC4
Vdd:           6
Vana:          67
Vsh:           30
Vcomp:         12
VwllPr:        150
VwllSh:        150
VHldDel:       250
Vtrim:         98
VcThr:         71
VIbias_bus:    30
PHOffset:      150
Vcomp_ADC:     50
PHScale:       90
VIColOr:       100
Vcal:          200
CalDel:        182
TempRange:     0
WBC:           98
ChipContReg:   16
Readback:      1
ROC:           BPix_BmO_SEC2_LYR1_LDR1H_MOD1_ROC5
Vdd:           6
Vana:          81
Vsh:           30
Vcomp:         12
VwllPr:        150
VwllSh:        150
VHldDel:       250
Vtrim:         108
VcThr:         67
VIbias_bus:    30
PHOffset:      150
Vcomp_ADC:     50
PHScale:       90
VIColOr:       100
Vcal:          200
CalDel:        202
TempRange:     0
WBC:           98
ChipContReg:   16
Readback:      1
ROC:           BPix_BmO_SEC2_LYR1_LDR1H_MOD1_ROC6
Vdd:           6
Vana:          85
Vsh:           30
Vcomp:         12
VwllPr:        150
VwllSh:        150
VHldDel:       250
Vtrim:         95
VcThr:         69
VIbias_bus:    30
PHOffset:      150
Vcomp_ADC:     50
PHScale:       90
VIColOr:       100
Vcal:          200
CalDel:        171
TempRange:     0
WBC:           98
ChipContReg:   16
Readback:      1
ROC:           BPix_BmO_SEC2_LYR1_LDR1H_MOD1_ROC7
Vdd:           6
Vana:          85
Vsh:           30
Vcomp:         12
VwllPr:        150
VwllSh:        150
VHldDel:       250
Vtrim:         105
VcThr:         74
VIbias_bus:    30
PHOffset:      150
Vcomp_ADC:     50
PHScale:       90
VIColOr:       100
Vcal:          200
CalDel:        164
TempRange:     0
WBC:           98
ChipContReg:   16
Readback:      1
ROC:           BPix_BmO_SEC2_LYR1_LDR1H_MOD1_ROC8
Vdd:           6
Vana:          72
Vsh:           30
Vcomp:         12
VwllPr:        150
VwllSh:        150
VHldDel:       250
Vtrim:         95
VcThr:         67
VIbias_bus:    30
PHOffset:      150
Vcomp_ADC:     50
PHScale:       90
VIColOr:       100
Vcal:          200
CalDel:        178
TempRange:     0
WBC:           98
ChipContReg:   16
Readback:      1
ROC:           BPix_BmO_SEC2_LYR1_LDR1H_MOD1_ROC9
Vdd:           6
Vana:          81
Vsh:           30
Vcomp:         12
VwllPr:        150
VwllSh:        150
VHldDel:       250
Vtrim:         107
VcThr:         74
VIbias_bus:    30
PHOffset:      150
Vcomp_ADC:     50
PHScale:       90
VIColOr:       100
Vcal:          200
CalDel:        165
TempRange:     0
WBC:           98
ChipContReg:   16
Readback:      1
ROC:           BPix_BmO_SEC2_LYR1_LDR1H_MOD1_ROC10
Vdd:           6
Vana:          71
Vsh:           30
Vcomp:         12
VwllPr:        150
VwllSh:        150
VHldDel:       250
Vtrim:         97
VcThr:         76
VIbias_bus:    30
PHOffset:      150
Vcomp_ADC:     50
PHScale:       90
VIColOr:       100
Vcal:          200
CalDel:        178
TempRange:     0
WBC:           98
ChipContReg:   16
Readback:      1
ROC:           BPix_BmO_SEC2_LYR1_LDR1H_MOD1_ROC11
Vdd:           6
Vana:          81
Vsh:           30
Vcomp:         12
VwllPr:        150
VwllSh:        150
VHldDel:       250
Vtrim:         98
VcThr:         71
VIbias_bus:    30
PHOffset:      150
Vcomp_ADC:     50
PHScale:       90
VIColOr:       100
Vcal:          200
CalDel:        190
TempRange:     0
WBC:           98
ChipContReg:   16
Readback:      1
