ROC:           BPix_BpI_SEC2_LYR1_LDR2F_MOD3_ROC0
Vdd:           6
Vana:          71
Vsh:           30
Vcomp:         12
VwllPr:        150
VwllSh:        150
VHldDel:       250
Vtrim:         144
VcThr:         125
VIbias_bus:    30
PHOffset:      112
Vcomp_ADC:     50
PHScale:       48
VIColOr:       100
Vcal:          200
CalDel:        97
TempRange:     0
WBC:           98
ChipContReg:   0
Readback:      1
ROC:           BPix_BpI_SEC2_LYR1_LDR2F_MOD3_ROC1
Vdd:           6
Vana:          67
Vsh:           30
Vcomp:         12
VwllPr:        150
VwllSh:        150
VHldDel:       250
Vtrim:         149
VcThr:         132
VIbias_bus:    30
PHOffset:      134
Vcomp_ADC:     50
PHScale:       59
VIColOr:       100
Vcal:          200
CalDel:        98
TempRange:     0
WBC:           98
ChipContReg:   0
Readback:      1
ROC:           BPix_BpI_SEC2_LYR1_LDR2F_MOD3_ROC2
Vdd:           6
Vana:          85
Vsh:           30
Vcomp:         12
VwllPr:        150
VwllSh:        150
VHldDel:       250
Vtrim:         155
VcThr:         129
VIbias_bus:    30
PHOffset:      129
Vcomp_ADC:     50
PHScale:       54
VIColOr:       100
Vcal:          200
CalDel:        97
TempRange:     0
WBC:           98
ChipContReg:   0
Readback:      1
ROC:           BPix_BpI_SEC2_LYR1_LDR2F_MOD3_ROC3
Vdd:           6
Vana:          84
Vsh:           30
Vcomp:         12
VwllPr:        150
VwllSh:        150
VHldDel:       250
Vtrim:         137
VcThr:         122
VIbias_bus:    30
PHOffset:      105
Vcomp_ADC:     50
PHScale:       44
VIColOr:       100
Vcal:          200
CalDel:        114
TempRange:     0
WBC:           98
ChipContReg:   0
Readback:      1
ROC:           BPix_BpI_SEC2_LYR1_LDR2F_MOD3_ROC12
Vdd:           6
Vana:          85
Vsh:           30
Vcomp:         12
VwllPr:        150
VwllSh:        150
VHldDel:       250
Vtrim:         131
VcThr:         115
VIbias_bus:    30
PHOffset:      122
Vcomp_ADC:     50
PHScale:       64
VIColOr:       100
Vcal:          200
CalDel:        103
TempRange:     0
WBC:           98
ChipContReg:   0
Readback:      1
ROC:           BPix_BpI_SEC2_LYR1_LDR2F_MOD3_ROC13
Vdd:           6
Vana:          81
Vsh:           30
Vcomp:         12
VwllPr:        150
VwllSh:        150
VHldDel:       250
Vtrim:         133
VcThr:         126
VIbias_bus:    30
PHOffset:      128
Vcomp_ADC:     50
PHScale:       55
VIColOr:       100
Vcal:          200
CalDel:        99
TempRange:     0
WBC:           98
ChipContReg:   0
Readback:      1
ROC:           BPix_BpI_SEC2_LYR1_LDR2F_MOD3_ROC14
Vdd:           6
Vana:          85
Vsh:           30
Vcomp:         12
VwllPr:        150
VwllSh:        150
VHldDel:       250
Vtrim:         134
VcThr:         120
VIbias_bus:    30
PHOffset:      115
Vcomp_ADC:     50
PHScale:       39
VIColOr:       100
Vcal:          200
CalDel:        113
TempRange:     0
WBC:           98
ChipContReg:   0
Readback:      1
ROC:           BPix_BpI_SEC2_LYR1_LDR2F_MOD3_ROC15
Vdd:           6
Vana:          81
Vsh:           30
Vcomp:         12
VwllPr:        150
VwllSh:        150
VHldDel:       250
Vtrim:         119
VcThr:         102
VIbias_bus:    30
PHOffset:      92
Vcomp_ADC:     50
PHScale:       41
VIColOr:       100
Vcal:          200
CalDel:        114
TempRange:     0
WBC:           98
ChipContReg:   0
Readback:      1
