ROC:           BPix_BmI_SEC6_LYR1_LDR4F_MOD1_ROC0
Vdd:           6
Vana:          74
Vsh:           30
Vcomp:         12
VwllPr:        150
VwllSh:        150
VHldDel:       250
Vtrim:         82
VcThr:         71
VIbias_bus:    30
PHOffset:      160
Vcomp_ADC:     50
PHScale:       90
VIColOr:       100
Vcal:          200
CalDel:        156
TempRange:     0
WBC:           98
ChipContReg:   16
Readback:      1
ROC:           BPix_BmI_SEC6_LYR1_LDR4F_MOD1_ROC1
Vdd:           6
Vana:          74
Vsh:           30
Vcomp:         12
VwllPr:        150
VwllSh:        150
VHldDel:       250
Vtrim:         92
VcThr:         71
VIbias_bus:    30
PHOffset:      160
Vcomp_ADC:     50
PHScale:       90
VIColOr:       100
Vcal:          200
CalDel:        165
TempRange:     0
WBC:           98
ChipContReg:   16
Readback:      1
ROC:           BPix_BmI_SEC6_LYR1_LDR4F_MOD1_ROC2
Vdd:           6
Vana:          63
Vsh:           30
Vcomp:         12
VwllPr:        150
VwllSh:        150
VHldDel:       250
Vtrim:         96
VcThr:         73
VIbias_bus:    30
PHOffset:      160
Vcomp_ADC:     50
PHScale:       90
VIColOr:       100
Vcal:          200
CalDel:        180
TempRange:     0
WBC:           98
ChipContReg:   16
Readback:      1
ROC:           BPix_BmI_SEC6_LYR1_LDR4F_MOD1_ROC3
Vdd:           6
Vana:          74
Vsh:           30
Vcomp:         12
VwllPr:        150
VwllSh:        150
VHldDel:       250
Vtrim:         91
VcThr:         72
VIbias_bus:    30
PHOffset:      160
Vcomp_ADC:     50
PHScale:       90
VIColOr:       100
Vcal:          200
CalDel:        181
TempRange:     0
WBC:           98
ChipContReg:   16
Readback:      1
ROC:           BPix_BmI_SEC6_LYR1_LDR4F_MOD1_ROC12
Vdd:           6
Vana:          70
Vsh:           30
Vcomp:         12
VwllPr:        150
VwllSh:        150
VHldDel:       250
Vtrim:         99
VcThr:         76
VIbias_bus:    30
PHOffset:      160
Vcomp_ADC:     50
PHScale:       90
VIColOr:       100
Vcal:          200
CalDel:        178
TempRange:     0
WBC:           98
ChipContReg:   16
Readback:      1
ROC:           BPix_BmI_SEC6_LYR1_LDR4F_MOD1_ROC13
Vdd:           6
Vana:          74
Vsh:           30
Vcomp:         12
VwllPr:        150
VwllSh:        150
VHldDel:       250
Vtrim:         91
VcThr:         76
VIbias_bus:    30
PHOffset:      160
Vcomp_ADC:     50
PHScale:       90
VIColOr:       100
Vcal:          200
CalDel:        179
TempRange:     0
WBC:           98
ChipContReg:   16
Readback:      1
ROC:           BPix_BmI_SEC6_LYR1_LDR4F_MOD1_ROC14
Vdd:           6
Vana:          70
Vsh:           30
Vcomp:         12
VwllPr:        150
VwllSh:        150
VHldDel:       250
Vtrim:         97
VcThr:         71
VIbias_bus:    30
PHOffset:      160
Vcomp_ADC:     50
PHScale:       90
VIColOr:       100
Vcal:          200
CalDel:        173
TempRange:     0
WBC:           98
ChipContReg:   16
Readback:      1
ROC:           BPix_BmI_SEC6_LYR1_LDR4F_MOD1_ROC15
Vdd:           6
Vana:          70
Vsh:           30
Vcomp:         12
VwllPr:        150
VwllSh:        150
VHldDel:       250
Vtrim:         109
VcThr:         73
VIbias_bus:    30
PHOffset:      160
Vcomp_ADC:     50
PHScale:       90
VIColOr:       100
Vcal:          200
CalDel:        183
TempRange:     0
WBC:           98
ChipContReg:   16
Readback:      1
