ROC:           BPix_BpO_SEC6_LYR1_LDR5F_MOD4_ROC0
Vdd:           6
Vana:          85
Vsh:           30
Vcomp:         12
VwllPr:        150
VwllSh:        150
VHldDel:       250
Vtrim:         129
VcThr:         128
VIbias_bus:    30
PHOffset:      121
Vcomp_ADC:     50
PHScale:       61
VIColOr:       100
Vcal:          200
CalDel:        75
TempRange:     0
WBC:           98
ChipContReg:   0
Readback:      1
ROC:           BPix_BpO_SEC6_LYR1_LDR5F_MOD4_ROC1
Vdd:           6
Vana:          85
Vsh:           30
Vcomp:         12
VwllPr:        150
VwllSh:        150
VHldDel:       250
Vtrim:         140
VcThr:         111
VIbias_bus:    30
PHOffset:      126
Vcomp_ADC:     50
PHScale:       61
VIColOr:       100
Vcal:          200
CalDel:        99
TempRange:     0
WBC:           98
ChipContReg:   0
Readback:      1
ROC:           BPix_BpO_SEC6_LYR1_LDR5F_MOD4_ROC2
Vdd:           6
Vana:          78
Vsh:           30
Vcomp:         12
VwllPr:        150
VwllSh:        150
VHldDel:       250
Vtrim:         148
VcThr:         130
VIbias_bus:    30
PHOffset:      99
Vcomp_ADC:     50
PHScale:       51
VIColOr:       100
Vcal:          200
CalDel:        105
TempRange:     0
WBC:           98
ChipContReg:   0
Readback:      1
ROC:           BPix_BpO_SEC6_LYR1_LDR5F_MOD4_ROC3
Vdd:           6
Vana:          78
Vsh:           30
Vcomp:         12
VwllPr:        150
VwllSh:        150
VHldDel:       250
Vtrim:         136
VcThr:         113
VIbias_bus:    30
PHOffset:      126
Vcomp_ADC:     50
PHScale:       58
VIColOr:       100
Vcal:          200
CalDel:        108
TempRange:     0
WBC:           98
ChipContReg:   0
Readback:      1
ROC:           BPix_BpO_SEC6_LYR1_LDR5F_MOD4_ROC12
Vdd:           6
Vana:          80
Vsh:           30
Vcomp:         12
VwllPr:        150
VwllSh:        150
VHldDel:       250
Vtrim:         140
VcThr:         115
VIbias_bus:    30
PHOffset:      139
Vcomp_ADC:     50
PHScale:       54
VIColOr:       100
Vcal:          200
CalDel:        94
TempRange:     0
WBC:           98
ChipContReg:   0
Readback:      1
ROC:           BPix_BpO_SEC6_LYR1_LDR5F_MOD4_ROC13
Vdd:           6
Vana:          78
Vsh:           30
Vcomp:         12
VwllPr:        150
VwllSh:        150
VHldDel:       250
Vtrim:         127
VcThr:         125
VIbias_bus:    30
PHOffset:      117
Vcomp_ADC:     50
PHScale:       75
VIColOr:       100
Vcal:          200
CalDel:        103
TempRange:     0
WBC:           98
ChipContReg:   0
Readback:      1
ROC:           BPix_BpO_SEC6_LYR1_LDR5F_MOD4_ROC14
Vdd:           6
Vana:          78
Vsh:           30
Vcomp:         12
VwllPr:        150
VwllSh:        150
VHldDel:       250
Vtrim:         129
VcThr:         113
VIbias_bus:    30
PHOffset:      102
Vcomp_ADC:     50
PHScale:       47
VIColOr:       100
Vcal:          200
CalDel:        110
TempRange:     0
WBC:           98
ChipContReg:   0
Readback:      1
ROC:           BPix_BpO_SEC6_LYR1_LDR5F_MOD4_ROC15
Vdd:           6
Vana:          88
Vsh:           30
Vcomp:         12
VwllPr:        150
VwllSh:        150
VHldDel:       250
Vtrim:         115
VcThr:         124
VIbias_bus:    30
PHOffset:      98
Vcomp_ADC:     50
PHScale:       46
VIColOr:       100
Vcal:          200
CalDel:        92
TempRange:     0
WBC:           98
ChipContReg:   0
Readback:      1
