ROC:           BPix_BpI_SEC7_LYR3_LDR19F_MOD1_ROC0
Vdd:           6
Vana:          82
Vsh:           30
Vcomp:         12
VwllPr:        150
VwllSh:        150
VHldDel:       250
Vtrim:         99
VcThr:         103
VIbias_bus:    30
PHOffset:      159
Vcomp_ADC:     50
PHScale:       87
VIColOr:       100
Vcal:          255
CalDel:        124
TempRange:     0
WBC:           98
ChipContReg:   0
Readback:      1
ROC:           BPix_BpI_SEC7_LYR3_LDR19F_MOD1_ROC1
Vdd:           6
Vana:          84
Vsh:           30
Vcomp:         12
VwllPr:        150
VwllSh:        150
VHldDel:       250
Vtrim:         129
VcThr:         106
VIbias_bus:    30
PHOffset:      154
Vcomp_ADC:     50
PHScale:       71
VIColOr:       100
Vcal:          255
CalDel:        116
TempRange:     0
WBC:           98
ChipContReg:   0
Readback:      1
ROC:           BPix_BpI_SEC7_LYR3_LDR19F_MOD1_ROC2
Vdd:           6
Vana:          77
Vsh:           30
Vcomp:         12
VwllPr:        150
VwllSh:        150
VHldDel:       250
Vtrim:         106
VcThr:         101
VIbias_bus:    30
PHOffset:      176
Vcomp_ADC:     50
PHScale:       76
VIColOr:       100
Vcal:          255
CalDel:        115
TempRange:     0
WBC:           98
ChipContReg:   0
Readback:      1
ROC:           BPix_BpI_SEC7_LYR3_LDR19F_MOD1_ROC3
Vdd:           6
Vana:          87
Vsh:           30
Vcomp:         12
VwllPr:        150
VwllSh:        150
VHldDel:       250
Vtrim:         113
VcThr:         94
VIbias_bus:    30
PHOffset:      147
Vcomp_ADC:     50
PHScale:       77
VIColOr:       100
Vcal:          255
CalDel:        138
TempRange:     0
WBC:           98
ChipContReg:   0
Readback:      1
ROC:           BPix_BpI_SEC7_LYR3_LDR19F_MOD1_ROC4
Vdd:           6
Vana:          79
Vsh:           30
Vcomp:         12
VwllPr:        150
VwllSh:        150
VHldDel:       250
Vtrim:         95
VcThr:         87
VIbias_bus:    30
PHOffset:      144
Vcomp_ADC:     50
PHScale:       82
VIColOr:       100
Vcal:          255
CalDel:        157
TempRange:     0
WBC:           98
ChipContReg:   0
Readback:      1
ROC:           BPix_BpI_SEC7_LYR3_LDR19F_MOD1_ROC5
Vdd:           6
Vana:          79
Vsh:           30
Vcomp:         12
VwllPr:        150
VwllSh:        150
VHldDel:       250
Vtrim:         102
VcThr:         91
VIbias_bus:    30
PHOffset:      140
Vcomp_ADC:     50
PHScale:       84
VIColOr:       100
Vcal:          255
CalDel:        147
TempRange:     0
WBC:           98
ChipContReg:   0
Readback:      1
ROC:           BPix_BpI_SEC7_LYR3_LDR19F_MOD1_ROC6
Vdd:           6
Vana:          77
Vsh:           30
Vcomp:         12
VwllPr:        150
VwllSh:        150
VHldDel:       250
Vtrim:         86
VcThr:         96
VIbias_bus:    30
PHOffset:      166
Vcomp_ADC:     50
PHScale:       80
VIColOr:       100
Vcal:          255
CalDel:        172
TempRange:     0
WBC:           98
ChipContReg:   0
Readback:      1
ROC:           BPix_BpI_SEC7_LYR3_LDR19F_MOD1_ROC7
Vdd:           6
Vana:          80
Vsh:           30
Vcomp:         12
VwllPr:        150
VwllSh:        150
VHldDel:       250
Vtrim:         115
VcThr:         105
VIbias_bus:    30
PHOffset:      167
Vcomp_ADC:     50
PHScale:       78
VIColOr:       100
Vcal:          255
CalDel:        128
TempRange:     0
WBC:           98
ChipContReg:   0
Readback:      1
ROC:           BPix_BpI_SEC7_LYR3_LDR19F_MOD1_ROC8
Vdd:           6
Vana:          82
Vsh:           30
Vcomp:         12
VwllPr:        150
VwllSh:        150
VHldDel:       250
Vtrim:         93
VcThr:         87
VIbias_bus:    30
PHOffset:      160
Vcomp_ADC:     50
PHScale:       85
VIColOr:       100
Vcal:          255
CalDel:        135
TempRange:     0
WBC:           98
ChipContReg:   0
Readback:      1
ROC:           BPix_BpI_SEC7_LYR3_LDR19F_MOD1_ROC9
Vdd:           6
Vana:          92
Vsh:           30
Vcomp:         12
VwllPr:        150
VwllSh:        150
VHldDel:       250
Vtrim:         114
VcThr:         104
VIbias_bus:    30
PHOffset:      163
Vcomp_ADC:     50
PHScale:       83
VIColOr:       100
Vcal:          255
CalDel:        128
TempRange:     0
WBC:           98
ChipContReg:   0
Readback:      1
ROC:           BPix_BpI_SEC7_LYR3_LDR19F_MOD1_ROC10
Vdd:           6
Vana:          92
Vsh:           30
Vcomp:         12
VwllPr:        150
VwllSh:        150
VHldDel:       250
Vtrim:         130
VcThr:         102
VIbias_bus:    30
PHOffset:      181
Vcomp_ADC:     50
PHScale:       77
VIColOr:       100
Vcal:          255
CalDel:        104
TempRange:     0
WBC:           98
ChipContReg:   0
Readback:      1
ROC:           BPix_BpI_SEC7_LYR3_LDR19F_MOD1_ROC11
Vdd:           6
Vana:          92
Vsh:           30
Vcomp:         12
VwllPr:        150
VwllSh:        150
VHldDel:       250
Vtrim:         108
VcThr:         99
VIbias_bus:    30
PHOffset:      151
Vcomp_ADC:     50
PHScale:       86
VIColOr:       100
Vcal:          255
CalDel:        114
TempRange:     0
WBC:           98
ChipContReg:   0
Readback:      1
ROC:           BPix_BpI_SEC7_LYR3_LDR19F_MOD1_ROC12
Vdd:           6
Vana:          77
Vsh:           30
Vcomp:         12
VwllPr:        150
VwllSh:        150
VHldDel:       250
Vtrim:         126
VcThr:         110
VIbias_bus:    30
PHOffset:      172
Vcomp_ADC:     50
PHScale:       77
VIColOr:       100
Vcal:          255
CalDel:        113
TempRange:     0
WBC:           98
ChipContReg:   0
Readback:      1
ROC:           BPix_BpI_SEC7_LYR3_LDR19F_MOD1_ROC13
Vdd:           6
Vana:          82
Vsh:           30
Vcomp:         12
VwllPr:        150
VwllSh:        150
VHldDel:       250
Vtrim:         145
VcThr:         108
VIbias_bus:    30
PHOffset:      154
Vcomp_ADC:     50
PHScale:       83
VIColOr:       100
Vcal:          255
CalDel:        156
TempRange:     0
WBC:           98
ChipContReg:   0
Readback:      1
ROC:           BPix_BpI_SEC7_LYR3_LDR19F_MOD1_ROC14
Vdd:           6
Vana:          89
Vsh:           30
Vcomp:         12
VwllPr:        150
VwllSh:        150
VHldDel:       250
Vtrim:         88
VcThr:         95
VIbias_bus:    30
PHOffset:      153
Vcomp_ADC:     50
PHScale:       95
VIColOr:       100
Vcal:          255
CalDel:        107
TempRange:     0
WBC:           98
ChipContReg:   0
Readback:      1
ROC:           BPix_BpI_SEC7_LYR3_LDR19F_MOD1_ROC15
Vdd:           6
Vana:          84
Vsh:           30
Vcomp:         12
VwllPr:        150
VwllSh:        150
VHldDel:       250
Vtrim:         81
VcThr:         80
VIbias_bus:    30
PHOffset:      153
Vcomp_ADC:     50
PHScale:       83
VIColOr:       100
Vcal:          255
CalDel:        150
TempRange:     0
WBC:           98
ChipContReg:   0
Readback:      1
