ROC:           BPix_BpO_SEC1_LYR3_LDR2F_MOD1_ROC0
Vdd:           6
Vana:          78
Vsh:           30
Vcomp:         12
VwllPr:        150
VwllSh:        150
VHldDel:       250
Vtrim:         96
VcThr:         93
VIbias_bus:    30
PHOffset:      136
Vcomp_ADC:     50
PHScale:       89
VIColOr:       100
Vcal:          255
CalDel:        151
TempRange:     0
WBC:           164
ChipContReg:   0
Readback:      1
ROC:           BPix_BpO_SEC1_LYR3_LDR2F_MOD1_ROC1
Vdd:           6
Vana:          78
Vsh:           30
Vcomp:         12
VwllPr:        150
VwllSh:        150
VHldDel:       250
Vtrim:         118
VcThr:         103
VIbias_bus:    30
PHOffset:      167
Vcomp_ADC:     50
PHScale:       75
VIColOr:       100
Vcal:          255
CalDel:        167
TempRange:     0
WBC:           164
ChipContReg:   0
Readback:      1
ROC:           BPix_BpO_SEC1_LYR3_LDR2F_MOD1_ROC2
Vdd:           6
Vana:          74
Vsh:           30
Vcomp:         12
VwllPr:        150
VwllSh:        150
VHldDel:       250
Vtrim:         115
VcThr:         92
VIbias_bus:    30
PHOffset:      161
Vcomp_ADC:     50
PHScale:       82
VIColOr:       100
Vcal:          255
CalDel:        157
TempRange:     0
WBC:           164
ChipContReg:   0
Readback:      1
ROC:           BPix_BpO_SEC1_LYR3_LDR2F_MOD1_ROC3
Vdd:           6
Vana:          92
Vsh:           30
Vcomp:         12
VwllPr:        150
VwllSh:        150
VHldDel:       250
Vtrim:         118
VcThr:         98
VIbias_bus:    30
PHOffset:      154
Vcomp_ADC:     50
PHScale:       79
VIColOr:       100
Vcal:          255
CalDel:        146
TempRange:     0
WBC:           164
ChipContReg:   0
Readback:      1
ROC:           BPix_BpO_SEC1_LYR3_LDR2F_MOD1_ROC4
Vdd:           6
Vana:          82
Vsh:           30
Vcomp:         12
VwllPr:        150
VwllSh:        150
VHldDel:       250
Vtrim:         106
VcThr:         100
VIbias_bus:    30
PHOffset:      170
Vcomp_ADC:     50
PHScale:       70
VIColOr:       100
Vcal:          255
CalDel:        178
TempRange:     0
WBC:           164
ChipContReg:   0
Readback:      1
ROC:           BPix_BpO_SEC1_LYR3_LDR2F_MOD1_ROC5
Vdd:           6
Vana:          83
Vsh:           30
Vcomp:         12
VwllPr:        150
VwllSh:        150
VHldDel:       250
Vtrim:         110
VcThr:         103
VIbias_bus:    30
PHOffset:      156
Vcomp_ADC:     50
PHScale:       89
VIColOr:       100
Vcal:          255
CalDel:        120
TempRange:     0
WBC:           164
ChipContReg:   0
Readback:      1
ROC:           BPix_BpO_SEC1_LYR3_LDR2F_MOD1_ROC6
Vdd:           6
Vana:          74
Vsh:           30
Vcomp:         12
VwllPr:        150
VwllSh:        150
VHldDel:       250
Vtrim:         115
VcThr:         82
VIbias_bus:    30
PHOffset:      155
Vcomp_ADC:     50
PHScale:       71
VIColOr:       100
Vcal:          255
CalDel:        186
TempRange:     0
WBC:           164
ChipContReg:   0
Readback:      1
ROC:           BPix_BpO_SEC1_LYR3_LDR2F_MOD1_ROC7
Vdd:           6
Vana:          74
Vsh:           30
Vcomp:         12
VwllPr:        150
VwllSh:        150
VHldDel:       250
Vtrim:         104
VcThr:         94
VIbias_bus:    30
PHOffset:      176
Vcomp_ADC:     50
PHScale:       80
VIColOr:       100
Vcal:          255
CalDel:        151
TempRange:     0
WBC:           164
ChipContReg:   0
Readback:      1
ROC:           BPix_BpO_SEC1_LYR3_LDR2F_MOD1_ROC8
Vdd:           6
Vana:          69
Vsh:           30
Vcomp:         12
VwllPr:        150
VwllSh:        150
VHldDel:       250
Vtrim:         86
VcThr:         94
VIbias_bus:    30
PHOffset:      163
Vcomp_ADC:     50
PHScale:       80
VIColOr:       100
Vcal:          255
CalDel:        162
TempRange:     0
WBC:           164
ChipContReg:   0
Readback:      1
ROC:           BPix_BpO_SEC1_LYR3_LDR2F_MOD1_ROC9
Vdd:           6
Vana:          82
Vsh:           30
Vcomp:         12
VwllPr:        150
VwllSh:        150
VHldDel:       250
Vtrim:         96
VcThr:         94
VIbias_bus:    30
PHOffset:      153
Vcomp_ADC:     50
PHScale:       88
VIColOr:       100
Vcal:          255
CalDel:        151
TempRange:     0
WBC:           164
ChipContReg:   0
Readback:      1
ROC:           BPix_BpO_SEC1_LYR3_LDR2F_MOD1_ROC10
Vdd:           6
Vana:          82
Vsh:           30
Vcomp:         12
VwllPr:        150
VwllSh:        150
VHldDel:       250
Vtrim:         134
VcThr:         99
VIbias_bus:    30
PHOffset:      147
Vcomp_ADC:     50
PHScale:       79
VIColOr:       100
Vcal:          255
CalDel:        135
TempRange:     0
WBC:           164
ChipContReg:   0
Readback:      1
ROC:           BPix_BpO_SEC1_LYR3_LDR2F_MOD1_ROC11
Vdd:           6
Vana:          74
Vsh:           30
Vcomp:         12
VwllPr:        150
VwllSh:        150
VHldDel:       250
Vtrim:         118
VcThr:         106
VIbias_bus:    30
PHOffset:      158
Vcomp_ADC:     50
PHScale:       90
VIColOr:       100
Vcal:          255
CalDel:        117
TempRange:     0
WBC:           164
ChipContReg:   0
Readback:      1
ROC:           BPix_BpO_SEC1_LYR3_LDR2F_MOD1_ROC12
Vdd:           6
Vana:          83
Vsh:           30
Vcomp:         12
VwllPr:        150
VwllSh:        150
VHldDel:       250
Vtrim:         104
VcThr:         99
VIbias_bus:    30
PHOffset:      156
Vcomp_ADC:     50
PHScale:       90
VIColOr:       100
Vcal:          255
CalDel:        142
TempRange:     0
WBC:           164
ChipContReg:   0
Readback:      1
ROC:           BPix_BpO_SEC1_LYR3_LDR2F_MOD1_ROC13
Vdd:           6
Vana:          74
Vsh:           30
Vcomp:         12
VwllPr:        150
VwllSh:        150
VHldDel:       250
Vtrim:         122
VcThr:         107
VIbias_bus:    30
PHOffset:      160
Vcomp_ADC:     50
PHScale:       78
VIColOr:       100
Vcal:          255
CalDel:        150
TempRange:     0
WBC:           164
ChipContReg:   0
Readback:      1
ROC:           BPix_BpO_SEC1_LYR3_LDR2F_MOD1_ROC14
Vdd:           6
Vana:          78
Vsh:           30
Vcomp:         12
VwllPr:        150
VwllSh:        150
VHldDel:       250
Vtrim:         106
VcThr:         90
VIbias_bus:    30
PHOffset:      147
Vcomp_ADC:     50
PHScale:       87
VIColOr:       100
Vcal:          255
CalDel:        139
TempRange:     0
WBC:           164
ChipContReg:   0
Readback:      1
ROC:           BPix_BpO_SEC1_LYR3_LDR2F_MOD1_ROC15
Vdd:           6
Vana:          73
Vsh:           30
Vcomp:         12
VwllPr:        150
VwllSh:        150
VHldDel:       250
Vtrim:         114
VcThr:         100
VIbias_bus:    30
PHOffset:      165
Vcomp_ADC:     50
PHScale:       82
VIColOr:       100
Vcal:          255
CalDel:        142
TempRange:     0
WBC:           164
ChipContReg:   0
Readback:      1
