ROC:           BPix_BpI_SEC5_LYR1_LDR4F_MOD2_ROC0
Vdd:           6
Vana:          77
Vsh:           30
Vcomp:         12
VwllPr:        150
VwllSh:        150
VHldDel:       250
Vtrim:         105
VcThr:         70
VIbias_bus:    30
PHOffset:      160
Vcomp_ADC:     50
PHScale:       90
VIColOr:       100
Vcal:          200
CalDel:        95
TempRange:     0
WBC:           164
ChipContReg:   16
Readback:      1
ROC:           BPix_BpI_SEC5_LYR1_LDR4F_MOD2_ROC1
Vdd:           6
Vana:          78
Vsh:           30
Vcomp:         12
VwllPr:        150
VwllSh:        150
VHldDel:       250
Vtrim:         89
VcThr:         71
VIbias_bus:    30
PHOffset:      160
Vcomp_ADC:     50
PHScale:       90
VIColOr:       100
Vcal:          200
CalDel:        92
TempRange:     0
WBC:           164
ChipContReg:   16
Readback:      1
ROC:           BPix_BpI_SEC5_LYR1_LDR4F_MOD2_ROC2
Vdd:           6
Vana:          73
Vsh:           30
Vcomp:         12
VwllPr:        150
VwllSh:        150
VHldDel:       250
Vtrim:         91
VcThr:         68
VIbias_bus:    30
PHOffset:      160
Vcomp_ADC:     50
PHScale:       90
VIColOr:       100
Vcal:          200
CalDel:        97
TempRange:     0
WBC:           164
ChipContReg:   16
Readback:      1
ROC:           BPix_BpI_SEC5_LYR1_LDR4F_MOD2_ROC3
Vdd:           6
Vana:          79
Vsh:           30
Vcomp:         12
VwllPr:        150
VwllSh:        150
VHldDel:       250
Vtrim:         99
VcThr:         71
VIbias_bus:    30
PHOffset:      160
Vcomp_ADC:     50
PHScale:       90
VIColOr:       100
Vcal:          200
CalDel:        94
TempRange:     0
WBC:           164
ChipContReg:   16
Readback:      1
ROC:           BPix_BpI_SEC5_LYR1_LDR4F_MOD2_ROC12
Vdd:           6
Vana:          77
Vsh:           30
Vcomp:         12
VwllPr:        150
VwllSh:        150
VHldDel:       250
Vtrim:         100
VcThr:         72
VIbias_bus:    30
PHOffset:      160
Vcomp_ADC:     50
PHScale:       90
VIColOr:       100
Vcal:          200
CalDel:        110
TempRange:     0
WBC:           164
ChipContReg:   16
Readback:      1
ROC:           BPix_BpI_SEC5_LYR1_LDR4F_MOD2_ROC13
Vdd:           6
Vana:          73
Vsh:           30
Vcomp:         12
VwllPr:        150
VwllSh:        150
VHldDel:       250
Vtrim:         93
VcThr:         69
VIbias_bus:    30
PHOffset:      160
Vcomp_ADC:     50
PHScale:       90
VIColOr:       100
Vcal:          200
CalDel:        97
TempRange:     0
WBC:           164
ChipContReg:   16
Readback:      1
ROC:           BPix_BpI_SEC5_LYR1_LDR4F_MOD2_ROC14
Vdd:           6
Vana:          69
Vsh:           30
Vcomp:         12
VwllPr:        150
VwllSh:        150
VHldDel:       250
Vtrim:         99
VcThr:         73
VIbias_bus:    30
PHOffset:      160
Vcomp_ADC:     50
PHScale:       90
VIColOr:       100
Vcal:          200
CalDel:        83
TempRange:     0
WBC:           164
ChipContReg:   16
Readback:      1
ROC:           BPix_BpI_SEC5_LYR1_LDR4F_MOD2_ROC15
Vdd:           6
Vana:          73
Vsh:           30
Vcomp:         12
VwllPr:        150
VwllSh:        150
VHldDel:       250
Vtrim:         108
VcThr:         74
VIbias_bus:    30
PHOffset:      160
Vcomp_ADC:     50
PHScale:       90
VIColOr:       100
Vcal:          200
CalDel:        114
TempRange:     0
WBC:           164
ChipContReg:   16
Readback:      1
