BPix_BpO_SEC5_LYR1_LDR4H_MOD3_ROC4
TBMABase0: 0
TBMBBase0: 0
TBMAAutoReset: 0
TBMBAutoReset: 0
TBMANoTokenPass: 1
TBMBNoTokenPass: 1
TBMADisablePKAMCounter: 1
TBMBDisablePKAMCounter: 1
TBMAPKAMCount: 5
TBMBPKAMCount: 5
TBMPLLDelay: 8
TBMADelay: 237
TBMBDelay: 237
