ROC:           BPix_BpO_SEC5_LYR3_LDR13F_MOD1_ROC0
Vdd:           6
Vana:          80
Vsh:           30
Vcomp:         12
VwllPr:        150
VwllSh:        150
VHldDel:       250
Vtrim:         114
VcThr:         104
VIbias_bus:    30
PHOffset:      158
Vcomp_ADC:     50
PHScale:       78
VIColOr:       100
Vcal:          255
CalDel:        158
TempRange:     0
WBC:           164
ChipContReg:   0
Readback:      1
ROC:           BPix_BpO_SEC5_LYR3_LDR13F_MOD1_ROC1
Vdd:           6
Vana:          81
Vsh:           30
Vcomp:         12
VwllPr:        150
VwllSh:        150
VHldDel:       250
Vtrim:         92
VcThr:         82
VIbias_bus:    30
PHOffset:      160
Vcomp_ADC:     50
PHScale:       77
VIColOr:       100
Vcal:          255
CalDel:        155
TempRange:     0
WBC:           164
ChipContReg:   0
Readback:      1
ROC:           BPix_BpO_SEC5_LYR3_LDR13F_MOD1_ROC2
Vdd:           6
Vana:          78
Vsh:           30
Vcomp:         12
VwllPr:        150
VwllSh:        150
VHldDel:       250
Vtrim:         90
VcThr:         90
VIbias_bus:    30
PHOffset:      155
Vcomp_ADC:     50
PHScale:       83
VIColOr:       100
Vcal:          255
CalDel:        133
TempRange:     0
WBC:           164
ChipContReg:   0
Readback:      1
ROC:           BPix_BpO_SEC5_LYR3_LDR13F_MOD1_ROC3
Vdd:           6
Vana:          78
Vsh:           30
Vcomp:         12
VwllPr:        150
VwllSh:        150
VHldDel:       250
Vtrim:         81
VcThr:         90
VIbias_bus:    30
PHOffset:      160
Vcomp_ADC:     50
PHScale:       80
VIColOr:       100
Vcal:          255
CalDel:        165
TempRange:     0
WBC:           164
ChipContReg:   0
Readback:      1
ROC:           BPix_BpO_SEC5_LYR3_LDR13F_MOD1_ROC4
Vdd:           6
Vana:          80
Vsh:           30
Vcomp:         12
VwllPr:        150
VwllSh:        150
VHldDel:       250
Vtrim:         98
VcThr:         91
VIbias_bus:    30
PHOffset:      164
Vcomp_ADC:     50
PHScale:       80
VIColOr:       100
Vcal:          255
CalDel:        145
TempRange:     0
WBC:           164
ChipContReg:   0
Readback:      1
ROC:           BPix_BpO_SEC5_LYR3_LDR13F_MOD1_ROC5
Vdd:           6
Vana:          88
Vsh:           30
Vcomp:         12
VwllPr:        150
VwllSh:        150
VHldDel:       250
Vtrim:         92
VcThr:         85
VIbias_bus:    30
PHOffset:      172
Vcomp_ADC:     50
PHScale:       82
VIColOr:       100
Vcal:          255
CalDel:        174
TempRange:     0
WBC:           164
ChipContReg:   0
Readback:      1
ROC:           BPix_BpO_SEC5_LYR3_LDR13F_MOD1_ROC6
Vdd:           6
Vana:          85
Vsh:           30
Vcomp:         12
VwllPr:        150
VwllSh:        150
VHldDel:       250
Vtrim:         86
VcThr:         89
VIbias_bus:    30
PHOffset:      155
Vcomp_ADC:     50
PHScale:       78
VIColOr:       100
Vcal:          255
CalDel:        162
TempRange:     0
WBC:           164
ChipContReg:   0
Readback:      1
ROC:           BPix_BpO_SEC5_LYR3_LDR13F_MOD1_ROC7
Vdd:           6
Vana:          78
Vsh:           30
Vcomp:         12
VwllPr:        150
VwllSh:        150
VHldDel:       250
Vtrim:         94
VcThr:         90
VIbias_bus:    30
PHOffset:      159
Vcomp_ADC:     50
PHScale:       76
VIColOr:       100
Vcal:          255
CalDel:        175
TempRange:     0
WBC:           164
ChipContReg:   0
Readback:      1
ROC:           BPix_BpO_SEC5_LYR3_LDR13F_MOD1_ROC8
Vdd:           6
Vana:          78
Vsh:           30
Vcomp:         12
VwllPr:        150
VwllSh:        150
VHldDel:       250
Vtrim:         108
VcThr:         97
VIbias_bus:    30
PHOffset:      164
Vcomp_ADC:     50
PHScale:       80
VIColOr:       100
Vcal:          255
CalDel:        156
TempRange:     0
WBC:           164
ChipContReg:   0
Readback:      1
ROC:           BPix_BpO_SEC5_LYR3_LDR13F_MOD1_ROC9
Vdd:           6
Vana:          75
Vsh:           30
Vcomp:         12
VwllPr:        150
VwllSh:        150
VHldDel:       250
Vtrim:         95
VcThr:         96
VIbias_bus:    30
PHOffset:      147
Vcomp_ADC:     50
PHScale:       78
VIColOr:       100
Vcal:          255
CalDel:        148
TempRange:     0
WBC:           164
ChipContReg:   0
Readback:      1
ROC:           BPix_BpO_SEC5_LYR3_LDR13F_MOD1_ROC10
Vdd:           6
Vana:          78
Vsh:           30
Vcomp:         12
VwllPr:        150
VwllSh:        150
VHldDel:       250
Vtrim:         88
VcThr:         94
VIbias_bus:    30
PHOffset:      163
Vcomp_ADC:     50
PHScale:       80
VIColOr:       100
Vcal:          255
CalDel:        153
TempRange:     0
WBC:           164
ChipContReg:   0
Readback:      1
ROC:           BPix_BpO_SEC5_LYR3_LDR13F_MOD1_ROC11
Vdd:           6
Vana:          80
Vsh:           30
Vcomp:         12
VwllPr:        150
VwllSh:        150
VHldDel:       250
Vtrim:         89
VcThr:         96
VIbias_bus:    30
PHOffset:      153
Vcomp_ADC:     50
PHScale:       74
VIColOr:       100
Vcal:          255
CalDel:        164
TempRange:     0
WBC:           164
ChipContReg:   0
Readback:      1
ROC:           BPix_BpO_SEC5_LYR3_LDR13F_MOD1_ROC12
Vdd:           6
Vana:          93
Vsh:           30
Vcomp:         12
VwllPr:        150
VwllSh:        150
VHldDel:       250
Vtrim:         106
VcThr:         92
VIbias_bus:    30
PHOffset:      164
Vcomp_ADC:     50
PHScale:       74
VIColOr:       100
Vcal:          255
CalDel:        163
TempRange:     0
WBC:           164
ChipContReg:   0
Readback:      1
ROC:           BPix_BpO_SEC5_LYR3_LDR13F_MOD1_ROC13
Vdd:           6
Vana:          80
Vsh:           30
Vcomp:         12
VwllPr:        150
VwllSh:        150
VHldDel:       250
Vtrim:         110
VcThr:         110
VIbias_bus:    30
PHOffset:      174
Vcomp_ADC:     50
PHScale:       73
VIColOr:       100
Vcal:          255
CalDel:        131
TempRange:     0
WBC:           164
ChipContReg:   0
Readback:      1
ROC:           BPix_BpO_SEC5_LYR3_LDR13F_MOD1_ROC14
Vdd:           6
Vana:          81
Vsh:           30
Vcomp:         12
VwllPr:        150
VwllSh:        150
VHldDel:       250
Vtrim:         98
VcThr:         99
VIbias_bus:    30
PHOffset:      160
Vcomp_ADC:     50
PHScale:       78
VIColOr:       100
Vcal:          255
CalDel:        156
TempRange:     0
WBC:           164
ChipContReg:   0
Readback:      1
ROC:           BPix_BpO_SEC5_LYR3_LDR13F_MOD1_ROC15
Vdd:           6
Vana:          85
Vsh:           30
Vcomp:         12
VwllPr:        150
VwllSh:        150
VHldDel:       250
Vtrim:         119
VcThr:         100
VIbias_bus:    30
PHOffset:      164
Vcomp_ADC:     50
PHScale:       80
VIColOr:       100
Vcal:          255
CalDel:        153
TempRange:     0
WBC:           164
ChipContReg:   0
Readback:      1
