ROC:           BPix_BpI_SEC6_LYR4_LDR22F_MOD4_ROC0
Vdd:           6
Vana:          97
Vsh:           30
Vcomp:         12
VwllPr:        150
VwllSh:        150
VHldDel:       250
Vtrim:         116
VcThr:         103
VIbias_bus:    30
PHOffset:      170
Vcomp_ADC:     50
PHScale:       76
VIColOr:       100
Vcal:          200
CalDel:        151
TempRange:     0
WBC:           164
ChipContReg:   0
Readback:      1
ROC:           BPix_BpI_SEC6_LYR4_LDR22F_MOD4_ROC1
Vdd:           6
Vana:          84
Vsh:           30
Vcomp:         12
VwllPr:        150
VwllSh:        150
VHldDel:       250
Vtrim:         95
VcThr:         95
VIbias_bus:    30
PHOffset:      145
Vcomp_ADC:     50
PHScale:       80
VIColOr:       100
Vcal:          200
CalDel:        148
TempRange:     0
WBC:           164
ChipContReg:   0
Readback:      1
ROC:           BPix_BpI_SEC6_LYR4_LDR22F_MOD4_ROC2
Vdd:           6
Vana:          83
Vsh:           30
Vcomp:         12
VwllPr:        150
VwllSh:        150
VHldDel:       250
Vtrim:         118
VcThr:         112
VIbias_bus:    30
PHOffset:      150
Vcomp_ADC:     50
PHScale:       76
VIColOr:       100
Vcal:          200
CalDel:        163
TempRange:     0
WBC:           164
ChipContReg:   0
Readback:      1
ROC:           BPix_BpI_SEC6_LYR4_LDR22F_MOD4_ROC3
Vdd:           6
Vana:          88
Vsh:           30
Vcomp:         12
VwllPr:        150
VwllSh:        150
VHldDel:       250
Vtrim:         99
VcThr:         105
VIbias_bus:    30
PHOffset:      153
Vcomp_ADC:     50
PHScale:       77
VIColOr:       100
Vcal:          200
CalDel:        151
TempRange:     0
WBC:           164
ChipContReg:   0
Readback:      1
ROC:           BPix_BpI_SEC6_LYR4_LDR22F_MOD4_ROC4
Vdd:           6
Vana:          90
Vsh:           30
Vcomp:         12
VwllPr:        150
VwllSh:        150
VHldDel:       250
Vtrim:         98
VcThr:         98
VIbias_bus:    30
PHOffset:      149
Vcomp_ADC:     50
PHScale:       79
VIColOr:       100
Vcal:          200
CalDel:        137
TempRange:     0
WBC:           164
ChipContReg:   0
Readback:      1
ROC:           BPix_BpI_SEC6_LYR4_LDR22F_MOD4_ROC5
Vdd:           6
Vana:          83
Vsh:           30
Vcomp:         12
VwllPr:        150
VwllSh:        150
VHldDel:       250
Vtrim:         124
VcThr:         99
VIbias_bus:    30
PHOffset:      164
Vcomp_ADC:     50
PHScale:       80
VIColOr:       100
Vcal:          200
CalDel:        134
TempRange:     0
WBC:           164
ChipContReg:   0
Readback:      1
ROC:           BPix_BpI_SEC6_LYR4_LDR22F_MOD4_ROC6
Vdd:           6
Vana:          99
Vsh:           30
Vcomp:         12
VwllPr:        150
VwllSh:        150
VHldDel:       250
Vtrim:         107
VcThr:         104
VIbias_bus:    30
PHOffset:      169
Vcomp_ADC:     50
PHScale:       81
VIColOr:       100
Vcal:          200
CalDel:        150
TempRange:     0
WBC:           164
ChipContReg:   0
Readback:      1
ROC:           BPix_BpI_SEC6_LYR4_LDR22F_MOD4_ROC7
Vdd:           6
Vana:          91
Vsh:           30
Vcomp:         12
VwllPr:        150
VwllSh:        150
VHldDel:       250
Vtrim:         119
VcThr:         111
VIbias_bus:    30
PHOffset:      157
Vcomp_ADC:     50
PHScale:       89
VIColOr:       100
Vcal:          200
CalDel:        131
TempRange:     0
WBC:           164
ChipContReg:   0
Readback:      1
ROC:           BPix_BpI_SEC6_LYR4_LDR22F_MOD4_ROC8
Vdd:           6
Vana:          85
Vsh:           30
Vcomp:         12
VwllPr:        150
VwllSh:        150
VHldDel:       250
Vtrim:         118
VcThr:         109
VIbias_bus:    30
PHOffset:      169
Vcomp_ADC:     50
PHScale:       67
VIColOr:       100
Vcal:          200
CalDel:        148
TempRange:     0
WBC:           164
ChipContReg:   0
Readback:      1
ROC:           BPix_BpI_SEC6_LYR4_LDR22F_MOD4_ROC9
Vdd:           6
Vana:          94
Vsh:           30
Vcomp:         12
VwllPr:        150
VwllSh:        150
VHldDel:       250
Vtrim:         126
VcThr:         105
VIbias_bus:    30
PHOffset:      170
Vcomp_ADC:     50
PHScale:       81
VIColOr:       100
Vcal:          200
CalDel:        147
TempRange:     0
WBC:           164
ChipContReg:   0
Readback:      1
ROC:           BPix_BpI_SEC6_LYR4_LDR22F_MOD4_ROC10
Vdd:           6
Vana:          79
Vsh:           30
Vcomp:         12
VwllPr:        150
VwllSh:        150
VHldDel:       250
Vtrim:         122
VcThr:         105
VIbias_bus:    30
PHOffset:      177
Vcomp_ADC:     50
PHScale:       76
VIColOr:       100
Vcal:          200
CalDel:        163
TempRange:     0
WBC:           164
ChipContReg:   0
Readback:      1
ROC:           BPix_BpI_SEC6_LYR4_LDR22F_MOD4_ROC11
Vdd:           6
Vana:          84
Vsh:           30
Vcomp:         12
VwllPr:        150
VwllSh:        150
VHldDel:       250
Vtrim:         106
VcThr:         97
VIbias_bus:    30
PHOffset:      154
Vcomp_ADC:     50
PHScale:       80
VIColOr:       100
Vcal:          200
CalDel:        155
TempRange:     0
WBC:           164
ChipContReg:   0
Readback:      1
ROC:           BPix_BpI_SEC6_LYR4_LDR22F_MOD4_ROC12
Vdd:           6
Vana:          86
Vsh:           30
Vcomp:         12
VwllPr:        150
VwllSh:        150
VHldDel:       250
Vtrim:         109
VcThr:         104
VIbias_bus:    30
PHOffset:      158
Vcomp_ADC:     50
PHScale:       80
VIColOr:       100
Vcal:          200
CalDel:        143
TempRange:     0
WBC:           164
ChipContReg:   0
Readback:      1
ROC:           BPix_BpI_SEC6_LYR4_LDR22F_MOD4_ROC13
Vdd:           6
Vana:          90
Vsh:           30
Vcomp:         12
VwllPr:        150
VwllSh:        150
VHldDel:       250
Vtrim:         114
VcThr:         91
VIbias_bus:    30
PHOffset:      165
Vcomp_ADC:     50
PHScale:       81
VIColOr:       100
Vcal:          200
CalDel:        154
TempRange:     0
WBC:           164
ChipContReg:   0
Readback:      1
ROC:           BPix_BpI_SEC6_LYR4_LDR22F_MOD4_ROC14
Vdd:           6
Vana:          99
Vsh:           30
Vcomp:         12
VwllPr:        150
VwllSh:        150
VHldDel:       250
Vtrim:         98
VcThr:         102
VIbias_bus:    30
PHOffset:      176
Vcomp_ADC:     50
PHScale:       74
VIColOr:       100
Vcal:          200
CalDel:        145
TempRange:     0
WBC:           164
ChipContReg:   0
Readback:      1
ROC:           BPix_BpI_SEC6_LYR4_LDR22F_MOD4_ROC15
Vdd:           6
Vana:          86
Vsh:           30
Vcomp:         12
VwllPr:        150
VwllSh:        150
VHldDel:       250
Vtrim:         109
VcThr:         105
VIbias_bus:    30
PHOffset:      164
Vcomp_ADC:     50
PHScale:       78
VIColOr:       100
Vcal:          200
CalDel:        169
TempRange:     0
WBC:           164
ChipContReg:   0
Readback:      1
