ROC:           BPix_BpI_SEC6_LYR3_LDR17F_MOD2_ROC0
Vdd:           6
Vana:          96
Vsh:           30
Vcomp:         12
VwllPr:        150
VwllSh:        150
VHldDel:       250
Vtrim:         103
VcThr:         89
VIbias_bus:    30
PHOffset:      144
Vcomp_ADC:     50
PHScale:       74
VIColOr:       100
Vcal:          200
CalDel:        123
TempRange:     0
WBC:           164
ChipContReg:   0
Readback:      1
ROC:           BPix_BpI_SEC6_LYR3_LDR17F_MOD2_ROC1
Vdd:           6
Vana:          92
Vsh:           30
Vcomp:         12
VwllPr:        150
VwllSh:        150
VHldDel:       250
Vtrim:         145
VcThr:         102
VIbias_bus:    30
PHOffset:      173
Vcomp_ADC:     50
PHScale:       80
VIColOr:       100
Vcal:          200
CalDel:        134
TempRange:     0
WBC:           164
ChipContReg:   0
Readback:      1
ROC:           BPix_BpI_SEC6_LYR3_LDR17F_MOD2_ROC2
Vdd:           6
Vana:          80
Vsh:           30
Vcomp:         12
VwllPr:        150
VwllSh:        150
VHldDel:       250
Vtrim:         94
VcThr:         98
VIbias_bus:    30
PHOffset:      162
Vcomp_ADC:     50
PHScale:       78
VIColOr:       100
Vcal:          200
CalDel:        143
TempRange:     0
WBC:           164
ChipContReg:   0
Readback:      1
ROC:           BPix_BpI_SEC6_LYR3_LDR17F_MOD2_ROC3
Vdd:           6
Vana:          83
Vsh:           30
Vcomp:         12
VwllPr:        150
VwllSh:        150
VHldDel:       250
Vtrim:         116
VcThr:         101
VIbias_bus:    30
PHOffset:      175
Vcomp_ADC:     50
PHScale:       82
VIColOr:       100
Vcal:          200
CalDel:        139
TempRange:     0
WBC:           164
ChipContReg:   0
Readback:      1
ROC:           BPix_BpI_SEC6_LYR3_LDR17F_MOD2_ROC4
Vdd:           6
Vana:          87
Vsh:           30
Vcomp:         12
VwllPr:        150
VwllSh:        150
VHldDel:       250
Vtrim:         90
VcThr:         83
VIbias_bus:    30
PHOffset:      144
Vcomp_ADC:     50
PHScale:       79
VIColOr:       100
Vcal:          200
CalDel:        153
TempRange:     0
WBC:           164
ChipContReg:   0
Readback:      1
ROC:           BPix_BpI_SEC6_LYR3_LDR17F_MOD2_ROC5
Vdd:           6
Vana:          80
Vsh:           30
Vcomp:         12
VwllPr:        150
VwllSh:        150
VHldDel:       250
Vtrim:         116
VcThr:         101
VIbias_bus:    30
PHOffset:      177
Vcomp_ADC:     50
PHScale:       73
VIColOr:       100
Vcal:          200
CalDel:        143
TempRange:     0
WBC:           164
ChipContReg:   0
Readback:      1
ROC:           BPix_BpI_SEC6_LYR3_LDR17F_MOD2_ROC6
Vdd:           6
Vana:          77
Vsh:           30
Vcomp:         12
VwllPr:        150
VwllSh:        150
VHldDel:       250
Vtrim:         102
VcThr:         99
VIbias_bus:    30
PHOffset:      157
Vcomp_ADC:     50
PHScale:       80
VIColOr:       100
Vcal:          200
CalDel:        150
TempRange:     0
WBC:           164
ChipContReg:   0
Readback:      1
ROC:           BPix_BpI_SEC6_LYR3_LDR17F_MOD2_ROC7
Vdd:           6
Vana:          76
Vsh:           30
Vcomp:         12
VwllPr:        150
VwllSh:        150
VHldDel:       250
Vtrim:         87
VcThr:         85
VIbias_bus:    30
PHOffset:      151
Vcomp_ADC:     50
PHScale:       79
VIColOr:       100
Vcal:          200
CalDel:        157
TempRange:     0
WBC:           164
ChipContReg:   0
Readback:      1
ROC:           BPix_BpI_SEC6_LYR3_LDR17F_MOD2_ROC8
Vdd:           6
Vana:          83
Vsh:           30
Vcomp:         12
VwllPr:        150
VwllSh:        150
VHldDel:       250
Vtrim:         119
VcThr:         96
VIbias_bus:    30
PHOffset:      162
Vcomp_ADC:     50
PHScale:       85
VIColOr:       100
Vcal:          200
CalDel:        142
TempRange:     0
WBC:           164
ChipContReg:   0
Readback:      1
ROC:           BPix_BpI_SEC6_LYR3_LDR17F_MOD2_ROC9
Vdd:           6
Vana:          96
Vsh:           30
Vcomp:         12
VwllPr:        150
VwllSh:        150
VHldDel:       250
Vtrim:         129
VcThr:         92
VIbias_bus:    30
PHOffset:      176
Vcomp_ADC:     50
PHScale:       75
VIColOr:       100
Vcal:          200
CalDel:        132
TempRange:     0
WBC:           164
ChipContReg:   0
Readback:      1
ROC:           BPix_BpI_SEC6_LYR3_LDR17F_MOD2_ROC10
Vdd:           6
Vana:          88
Vsh:           30
Vcomp:         12
VwllPr:        150
VwllSh:        150
VHldDel:       250
Vtrim:         122
VcThr:         93
VIbias_bus:    30
PHOffset:      164
Vcomp_ADC:     50
PHScale:       77
VIColOr:       100
Vcal:          200
CalDel:        143
TempRange:     0
WBC:           164
ChipContReg:   0
Readback:      1
ROC:           BPix_BpI_SEC6_LYR3_LDR17F_MOD2_ROC11
Vdd:           6
Vana:          77
Vsh:           30
Vcomp:         12
VwllPr:        150
VwllSh:        150
VHldDel:       250
Vtrim:         104
VcThr:         101
VIbias_bus:    30
PHOffset:      153
Vcomp_ADC:     50
PHScale:       80
VIColOr:       100
Vcal:          200
CalDel:        163
TempRange:     0
WBC:           164
ChipContReg:   0
Readback:      1
ROC:           BPix_BpI_SEC6_LYR3_LDR17F_MOD2_ROC12
Vdd:           6
Vana:          77
Vsh:           30
Vcomp:         12
VwllPr:        150
VwllSh:        150
VHldDel:       250
Vtrim:         143
VcThr:         96
VIbias_bus:    30
PHOffset:      158
Vcomp_ADC:     50
PHScale:       67
VIColOr:       100
Vcal:          200
CalDel:        166
TempRange:     0
WBC:           164
ChipContReg:   0
Readback:      1
ROC:           BPix_BpI_SEC6_LYR3_LDR17F_MOD2_ROC13
Vdd:           6
Vana:          87
Vsh:           30
Vcomp:         12
VwllPr:        150
VwllSh:        150
VHldDel:       250
Vtrim:         117
VcThr:         103
VIbias_bus:    30
PHOffset:      169
Vcomp_ADC:     50
PHScale:       69
VIColOr:       100
Vcal:          200
CalDel:        114
TempRange:     0
WBC:           164
ChipContReg:   0
Readback:      1
ROC:           BPix_BpI_SEC6_LYR3_LDR17F_MOD2_ROC14
Vdd:           6
Vana:          92
Vsh:           30
Vcomp:         12
VwllPr:        150
VwllSh:        150
VHldDel:       250
Vtrim:         124
VcThr:         103
VIbias_bus:    30
PHOffset:      161
Vcomp_ADC:     50
PHScale:       77
VIColOr:       100
Vcal:          200
CalDel:        139
TempRange:     0
WBC:           164
ChipContReg:   0
Readback:      1
ROC:           BPix_BpI_SEC6_LYR3_LDR17F_MOD2_ROC15
Vdd:           6
Vana:          82
Vsh:           30
Vcomp:         12
VwllPr:        150
VwllSh:        150
VHldDel:       250
Vtrim:         92
VcThr:         86
VIbias_bus:    30
PHOffset:      156
Vcomp_ADC:     50
PHScale:       87
VIColOr:       100
Vcal:          200
CalDel:        149
TempRange:     0
WBC:           164
ChipContReg:   0
Readback:      1
