ROC:           BPix_BpI_SEC3_LYR3_LDR8F_MOD2_ROC0
Vdd:           6
Vana:          82
Vsh:           30
Vcomp:         12
VwllPr:        150
VwllSh:        150
VHldDel:       250
Vtrim:         108
VcThr:         93
VIbias_bus:    30
PHOffset:      169
Vcomp_ADC:     50
PHScale:       79
VIColOr:       100
Vcal:          200
CalDel:        128
TempRange:     0
WBC:           164
ChipContReg:   0
Readback:      1
ROC:           BPix_BpI_SEC3_LYR3_LDR8F_MOD2_ROC1
Vdd:           6
Vana:          97
Vsh:           30
Vcomp:         12
VwllPr:        150
VwllSh:        150
VHldDel:       250
Vtrim:         96
VcThr:         82
VIbias_bus:    30
PHOffset:      157
Vcomp_ADC:     50
PHScale:       80
VIColOr:       100
Vcal:          200
CalDel:        126
TempRange:     0
WBC:           164
ChipContReg:   0
Readback:      1
ROC:           BPix_BpI_SEC3_LYR3_LDR8F_MOD2_ROC2
Vdd:           6
Vana:          84
Vsh:           30
Vcomp:         12
VwllPr:        150
VwllSh:        150
VHldDel:       250
Vtrim:         100
VcThr:         84
VIbias_bus:    30
PHOffset:      144
Vcomp_ADC:     50
PHScale:       92
VIColOr:       100
Vcal:          200
CalDel:        114
TempRange:     0
WBC:           164
ChipContReg:   0
Readback:      1
ROC:           BPix_BpI_SEC3_LYR3_LDR8F_MOD2_ROC3
Vdd:           6
Vana:          77
Vsh:           30
Vcomp:         12
VwllPr:        150
VwllSh:        150
VHldDel:       250
Vtrim:         116
VcThr:         93
VIbias_bus:    30
PHOffset:      146
Vcomp_ADC:     50
PHScale:       94
VIColOr:       100
Vcal:          200
CalDel:        128
TempRange:     0
WBC:           164
ChipContReg:   0
Readback:      1
ROC:           BPix_BpI_SEC3_LYR3_LDR8F_MOD2_ROC4
Vdd:           6
Vana:          74
Vsh:           30
Vcomp:         12
VwllPr:        150
VwllSh:        150
VHldDel:       250
Vtrim:         98
VcThr:         91
VIbias_bus:    30
PHOffset:      162
Vcomp_ADC:     50
PHScale:       75
VIColOr:       100
Vcal:          200
CalDel:        143
TempRange:     0
WBC:           164
ChipContReg:   0
Readback:      1
ROC:           BPix_BpI_SEC3_LYR3_LDR8F_MOD2_ROC5
Vdd:           6
Vana:          78
Vsh:           30
Vcomp:         12
VwllPr:        150
VwllSh:        150
VHldDel:       250
Vtrim:         108
VcThr:         101
VIbias_bus:    30
PHOffset:      176
Vcomp_ADC:     50
PHScale:       78
VIColOr:       100
Vcal:          200
CalDel:        130
TempRange:     0
WBC:           164
ChipContReg:   0
Readback:      1
ROC:           BPix_BpI_SEC3_LYR3_LDR8F_MOD2_ROC6
Vdd:           6
Vana:          79
Vsh:           30
Vcomp:         12
VwllPr:        150
VwllSh:        150
VHldDel:       250
Vtrim:         96
VcThr:         80
VIbias_bus:    30
PHOffset:      152
Vcomp_ADC:     50
PHScale:       82
VIColOr:       100
Vcal:          200
CalDel:        131
TempRange:     0
WBC:           164
ChipContReg:   0
Readback:      1
ROC:           BPix_BpI_SEC3_LYR3_LDR8F_MOD2_ROC7
Vdd:           6
Vana:          79
Vsh:           30
Vcomp:         12
VwllPr:        150
VwllSh:        150
VHldDel:       250
Vtrim:         114
VcThr:         91
VIbias_bus:    30
PHOffset:      163
Vcomp_ADC:     50
PHScale:       80
VIColOr:       100
Vcal:          200
CalDel:        129
TempRange:     0
WBC:           164
ChipContReg:   0
Readback:      1
ROC:           BPix_BpI_SEC3_LYR3_LDR8F_MOD2_ROC8
Vdd:           6
Vana:          98
Vsh:           30
Vcomp:         12
VwllPr:        150
VwllSh:        150
VHldDel:       250
Vtrim:         113
VcThr:         86
VIbias_bus:    30
PHOffset:      144
Vcomp_ADC:     50
PHScale:       79
VIColOr:       100
Vcal:          200
CalDel:        132
TempRange:     0
WBC:           164
ChipContReg:   0
Readback:      1
ROC:           BPix_BpI_SEC3_LYR3_LDR8F_MOD2_ROC9
Vdd:           6
Vana:          81
Vsh:           30
Vcomp:         12
VwllPr:        150
VwllSh:        150
VHldDel:       250
Vtrim:         110
VcThr:         97
VIbias_bus:    30
PHOffset:      153
Vcomp_ADC:     50
PHScale:       79
VIColOr:       100
Vcal:          200
CalDel:        130
TempRange:     0
WBC:           164
ChipContReg:   0
Readback:      1
ROC:           BPix_BpI_SEC3_LYR3_LDR8F_MOD2_ROC10
Vdd:           6
Vana:          81
Vsh:           30
Vcomp:         12
VwllPr:        150
VwllSh:        150
VHldDel:       250
Vtrim:         107
VcThr:         95
VIbias_bus:    30
PHOffset:      157
Vcomp_ADC:     50
PHScale:       80
VIColOr:       100
Vcal:          200
CalDel:        119
TempRange:     0
WBC:           164
ChipContReg:   0
Readback:      1
ROC:           BPix_BpI_SEC3_LYR3_LDR8F_MOD2_ROC11
Vdd:           6
Vana:          80
Vsh:           30
Vcomp:         12
VwllPr:        150
VwllSh:        150
VHldDel:       250
Vtrim:         110
VcThr:         96
VIbias_bus:    30
PHOffset:      154
Vcomp_ADC:     50
PHScale:       82
VIColOr:       100
Vcal:          200
CalDel:        127
TempRange:     0
WBC:           164
ChipContReg:   0
Readback:      1
ROC:           BPix_BpI_SEC3_LYR3_LDR8F_MOD2_ROC12
Vdd:           6
Vana:          72
Vsh:           30
Vcomp:         12
VwllPr:        150
VwllSh:        150
VHldDel:       250
Vtrim:         109
VcThr:         89
VIbias_bus:    30
PHOffset:      146
Vcomp_ADC:     50
PHScale:       82
VIColOr:       100
Vcal:          200
CalDel:        139
TempRange:     0
WBC:           164
ChipContReg:   0
Readback:      1
ROC:           BPix_BpI_SEC3_LYR3_LDR8F_MOD2_ROC13
Vdd:           6
Vana:          81
Vsh:           30
Vcomp:         12
VwllPr:        150
VwllSh:        150
VHldDel:       250
Vtrim:         109
VcThr:         84
VIbias_bus:    30
PHOffset:      132
Vcomp_ADC:     50
PHScale:       80
VIColOr:       100
Vcal:          200
CalDel:        123
TempRange:     0
WBC:           164
ChipContReg:   0
Readback:      1
ROC:           BPix_BpI_SEC3_LYR3_LDR8F_MOD2_ROC14
Vdd:           6
Vana:          79
Vsh:           30
Vcomp:         12
VwllPr:        150
VwllSh:        150
VHldDel:       250
Vtrim:         113
VcThr:         89
VIbias_bus:    30
PHOffset:      160
Vcomp_ADC:     50
PHScale:       79
VIColOr:       100
Vcal:          200
CalDel:        123
TempRange:     0
WBC:           164
ChipContReg:   0
Readback:      1
ROC:           BPix_BpI_SEC3_LYR3_LDR8F_MOD2_ROC15
Vdd:           6
Vana:          77
Vsh:           30
Vcomp:         12
VwllPr:        150
VwllSh:        150
VHldDel:       250
Vtrim:         114
VcThr:         97
VIbias_bus:    30
PHOffset:      160
Vcomp_ADC:     50
PHScale:       70
VIColOr:       100
Vcal:          200
CalDel:        135
TempRange:     0
WBC:           164
ChipContReg:   0
Readback:      1
